…
### Address

``` r
ma <- ma %>% 
  mutate(
    address_norm = normal_address(
      address = address,
      add_abbs = usps,
      na_rep = TRUE
    )
  )
```

    #> # A tibble: 890,070 x 2
    #>    address                               address_norm                        
    #>    <chr>                                 <chr>                               
    #>  1 217 EAST MAIN ST.                     217 EAST MAIN STREET                
    #>  2 ONE ASHBURTON PLACE                   ONE ASHBURTON PLACE                 
    #>  3 1874 MASSACHUSETTS AVE                1874 MASSACHUSETTS AVENUE           
    #>  4 126 HIGH ST                           126 HIGH STREET                     
    #>  5 PO BOX 170305                         PO BOX 170305                       
    #>  6 30 GERMANIA ST                        30 GERMANIA STREET                  
    #>  7 1557 MASSACHUSETTS AVE                1557 MASSACHUSETTS AVENUE           
    #>  8 11 ALCOTT RD                          11 ALCOTT ROAD                      
    #>  9 PERMIT FEE WINDON, FORT POINT STATION PERMIT FEE WINDON FORT POINT STATION
    #> 10 304 SILVER HILL ROAD                  304 SILVER HILL ROAD                
    #> # … with 890,060 more rows
…
