…
``` r
hi %>% 
  select(
    address_1,
    address_2,
    address_norm
  )
```

    #> # A tibble: 180,451 x 3
    #>    address_1                    address_2 address_norm                      
    #>    <chr>                        <chr>     <chr>                             
    #>  1 197 SAND ISLAND ACCESS ROAD  UNIT A    197 SAND ISLAND ACCESS ROAD UNIT A
    #>  2 25 MALUNIU AVE.              <NA>      25 MALUNIU AVENUE                 
    #>  3 725 KAPIOLANI BLVD, #C-105   <NA>      725 KAPIOLANI BOULEVARD C 105     
    #>  4 111 S KING ST                <NA>      111 SOUTH KING STREET             
    #>  5 28 KAINEHE ST., SUITE A-1    <NA>      28 KAINEHE STREET SUITE A 1       
    #>  6 87-2028 FARRINGTON HWY.      <NA>      87 2028 FARRINGTON HIGHWAY        
    #>  7 WAIPAHU POST OFFICE          <NA>      WAIPAHU POST OFFICE               
    #>  8 2140 ARMSTRONG STREET        <NA>      2140 ARMSTRONG STREET             
    #>  9 2955 E. MANOA ROAD           <NA>      2955 EAST MANOA ROAD              
    #> 10 99-185 MOANALUA RD SUITE 107 <NA>      99 185 MOANALUA ROAD SUITE 107    
    #> # … with 180,441 more rows
…
``` r
hi %>% 
  count(city, sort = TRUE) %>% 
  filter(city %out% valid_city)
```

    #> # A tibble: 848 x 2
    #>    city               n
    #>    <chr>          <int>
    #>  1 KAILUA-KONA     2296
    #>  2 95131            226
    #>  3 HON              189
    #>  4 IWILEI           184
    #>  5 ONLINE           156
    #>  6 ???              143
    #>  7 KANE'OHE         132
    #>  8 -                127
    #>  9 HONOLULU, OAHU   126
    #> 10 SOMMERVILLE      125
    #> # … with 838 more rows
…
``` r
hi %>% 
  count(state, city_swap, sort = TRUE) %>% 
  filter(city_swap %out% valid_city) %>% 
  drop_na()
```

    #> # A tibble: 296 x 3
    #>    state city_swap         n
    #>    <chr> <chr>         <int>
    #>  1 CA    ""              228
    #>  2 HI    HON             211
    #>  3 HI    IWILEI          184
    #>  4 HI    HONOLULU OAHU   125
    #>  5 HI    KONA             81
    #>  6 HI    ""               77
    #>  7 HI    WAILEA           75
    #>  8 PA    CHESTERBROOK     73
    #>  9 CA    MOUNT VIEW       42
    #> 10 HI    KAHULUI MAUI     41
    #> # … with 286 more rows
…
