…
We can also flag any record completely duplicated across every column.

``` r
kse <- flag_dupes(kse, -id)
sum(kse$dupe_flag)
#> [1] 827
```

``` r
kse %>% 
  filter(dupe_flag) %>% 
  select(all_of(key_vars)) %>% 
  arrange(date)
#> # A tibble: 827 × 4
#>    date       recipient              amount cand_name     
#>    <date>     <chr>                   <dbl> <chr>         
#>  1 2009-03-27 Southwest Airlines       535. Steve Six     
#>  2 2009-03-27 Southwest Airlines       535. Steve Six     
#>  3 2009-08-31 Federal Express Kinkos     0  Sam Brownback 
#>  4 2009-08-31 Federal Express Kinkos     0  Sam Brownback 
#>  5 2009-09-29 Federal Express Kinkos     0  Sam Brownback 
#>  6 2009-09-29 Federal Express Kinkos     0  Sam Brownback 
#>  7 2009-10-01 Amtrak Corp.               0  Sam Brownback 
#>  8 2009-10-01 Amtrak Corp.               0  Sam Brownback 
#>  9 2009-10-28 Nathan Ham Photography   250  Ron Thornburgh
#> 10 2009-10-28 Nathan Ham Photography   250  Ron Thornburgh
#> # … with 817 more rows
```
…
``` r
addr_norm
#> # A tibble: 5,951 × 3
#>    address                      address2        address_norm                
#>    <chr>                        <chr>           <chr>                       
#>  1 311 Cottonwood St            <NA>            311 COTTONWOOD ST           
#>  2 1101 Saint Paul St APT 312   <NA>            1101 SAINT PAUL ST APT 312  
#>  3 2030 SW Fairlawn Rd          <NA>            2030 SW FAIRLAWN RD         
#>  4 220 S Main                   <NA>            220 S MAIN                  
#>  5 6425 SW 6th Ave              <NA>            6425 SW 6TH AVE             
#>  6 <NA>                         6829 SW 29th St 6829 SW 29TH ST             
#>  7 846 Indiana ST               <NA>            846 INDIANA ST              
#>  8 <NA>                         PO Box 790408   PO BOX 790408               
#>  9 11444 W Olympic BLVD FLOOR 4 <NA>            11444 W OLYMPIC BLVD FLOOR 4
#> 10 1 Old Country UNIT           <NA>            1 OLD COUNTRY UNIT          
#> # … with 5,941 more rows
```
…
