…
``` r
key_vars <- c("exp_date", "filer_name", 
              "exp_amount", "payee_name")
nee <- flag_na(nee, all_of(key_vars))
mean(nee$na_flag)
#> [1] 0.009939699
sum(nee$na_flag)
#> [1] 300
```

``` r
nee %>% 
  filter(na_flag) %>% 
  select(all_of(key_vars))
#> # A tibble: 300 × 4
#>    exp_date   filer_name                                  exp_amount payee_name
#>    <date>     <chr>                                       <chr>      <chr>     
#>  1 2021-01-01 ROB SCHAFER FOR BOARD OF REGENTS            10500      <NA>      
#>  2 2021-01-01 RAY AGUILAR FOR LEGISLATURE                 25000      <NA>      
#>  3 2021-01-01 PEOPLE FOR PAUL SCHUMACHER                  5000       <NA>      
#>  4 2021-01-01 WALT PEFFER FOR DOUGLAS COUNTY ASSESSOR     2000       <NA>      
#>  5 2021-01-01 TANYA STORER FOR CHERRY COUNTY COMMISSIONER 11500      <NA>      
#>  6 2021-01-01 COMMITTEE TO ELECT KRIS PIERCE              2500       <NA>      
#>  7 2022-01-03 STEAMFITTERS AND PLUMBERS LU 464 PAC FUND   8319.43    <NA>      
#>  8 2021-01-04 NEBRASKA FARM BUREAU FEDERATION PAC         669.69     <NA>      
#>  9 2021-01-09 MIKE JAMES FOR CITY COUNCIL                 110        <NA>      
#> 10 2022-01-18 NEBRASKA OPTOMETRIC ASSOCIATION PAC         1741.35    <NA>      
#> # … with 290 more rows
```
…
