…
print(nv_candidates)
```

```
#> # A tibble: 6,665 x 6
#>    candidate_id first_name last_name  party         office                          jurisdiction   
#>    <chr>        <chr>      <chr>      <chr>         <chr>                           <chr>          
#>  1 28           Michael    Douglas    Nonpartisan   Supreme Court Justice, Seat F   NV SOS         
#>  2 30           Richard    Ziser      Republican P… U.S. Senate                     NV SOS         
#>  3 31           Carlo      Poliak     Unspecified   City Council, Las Vegas         CITY OF LAS VE…
#>  4 32           Lynn       Hettrick   Republican P… State Assembly, District 39     NV SOS         
#>  5 33           James      Gibbons    Republican P… Governor                        NV SOS         
#>  6 34           Bonnie     Parnell    Democratic P… State Assembly, District 40     NV SOS         
#>  7 35           Marcia     Washington Nonpartisan   State Senate, District 4        CLARK COUNTY   
#>  8 36           Harry      Reid       Democratic P… U.S. Senate                     NV SOS         
#>  9 37           Kenneth    Wegner     Republican P… U.S. Senate                     NV SOS         
#> 10 38           Cynthia    Steel      Nonpartisan   District Court Judge, District… CLARK COUNTY   
#> # … with 6,655 more rows
```
…
print(nv_groups)
```

```
#> # A tibble: 1,196 x 6
#>    group_id group_name                               group_type       contact_name  active city    
#>    <chr>    <chr>                                    <chr>            <chr>         <lgl>  <chr>   
#>  1 598      Allstate Insurance Company Political Ac… Political Actio… Shirlanda Wa… TRUE   Northbr…
#>  2 600      American Insurance Association PAC - Ne… Political Actio… James L. Wad… FALSE  Sacrame…
#>  3 601      Board of Realtors Political Action Comm… Political Actio… Wendy DiVecc… TRUE   Las Veg…
#>  4 603      Churchill County Education Association   Political Actio… Sue S Matuska TRUE   Fallon  
#>  5 607      Carriers Allied for Responsible Governm… Political Actio… Daryl E. Cap… FALSE  SPARKS  
#>  6 610      P.A.C. 357   (fka IBEW LOCAL 357 PAC)    Political Actio… James Halsey  TRUE   Las Veg…
#>  7 615      Southwest Regional Council of Carpenter… Political Actio… Frank Hawk    TRUE   Sacrame…
#>  8 616      Construction Industry Committee          Political Actio… Craig Madole  TRUE   Reno    
#>  9 617      Douglas County Professional Education A… Political Actio… Sue S Matuska TRUE   South L…
#> 10 621      International Union of Painters and All… Political Actio… Jason Lamber… TRUE   Hanover 
#> # … with 1,186 more rows
```
…
print(nv_reports)
```

```
#> # A tibble: 37,625 x 9
#>    report_id candidate_id group_id report_name election_cycle filing_due_date filed_date amended
#>    <chr>     <chr>        <chr>    <chr>                <dbl> <date>          <date>     <lgl>  
#>  1 6980      <NA>         1220     CE Report 1           2006 NA              2006-08-08 FALSE  
#>  2 6981      1988         <NA>     CE Report 1           2006 NA              2006-10-30 FALSE  
#>  3 6982      1988         <NA>     CE Report 1           2006 NA              2006-08-07 FALSE  
#>  4 6983      <NA>         1332     CE Report 1           2006 NA              2006-08-07 FALSE  
#>  5 6984      1992         <NA>     CE Report 1           2006 NA              2006-08-07 FALSE  
#>  6 6985      1165         <NA>     CE Report 1           2006 NA              2006-08-07 FALSE  
#>  7 6986      155          <NA>     CE Report 1           2006 NA              2006-08-07 FALSE  
#>  8 6987      <NA>         1364     CE Report 1           2006 NA              2006-08-08 FALSE  
#>  9 6990      2368         <NA>     CE Report 1           2006 NA              2006-08-08 FALSE  
#> 10 6991      2360         <NA>     CE Report 1           2006 NA              2006-08-08 FALSE  
#> # … with 37,615 more rows, and 1 more variable: superseded <lgl>
```
…
print(nv_payees)
```

```
#> # A tibble: 189,055 x 4
#>    contact_id first_name middle_name last_name               
#>    <chr>      <chr>      <chr>       <chr>                   
#>  1 3          <NA>       <NA>        UNITE HERE TIP          
#>  2 4          <NA>       <NA>        The Calvert Company     
#>  3 5          <NA>       <NA>        Paid Staff              
#>  4 6          <NA>       <NA>        Passkey Systems         
#>  5 7          <NA>       <NA>        Time Printing           
#>  6 8          Bonnie     B           Jacobs                  
#>  7 9          <NA>       <NA>        NONE                    
#>  8 10         <NA>       <NA>        Oriental Trading        
#>  9 11         <NA>       <NA>        V&S variety & True Value
#> 10 12         <NA>       <NA>        BuildASign.com          
#> # … with 189,045 more rows
```
…
```r
nv %>% 
  filter(report_id == "6991") %>% 
  select(
    report_id, 
    filed_date, 
    payee_last, 
    candidate_last
  )
```

```
#> # A tibble: 22 x 4
#>    report_id filed_date payee_last                                   candidate_last
#>    <chr>     <date>     <chr>                                        <chr>         
#>  1 6991      2006-08-08 Bonanza                                      Tiras         
#>  2 6991      2006-08-08 Tiras                                        Tiras         
#>  3 6991      2006-08-08 Adventures in Advertising                    Tiras         
#>  4 6991      2006-08-08 Creative Marketing and Design                Tiras         
#>  5 6991      2006-08-08 Adventures in Advertising Corp               Tiras         
#>  6 6991      2006-08-08 Adventures in Advertising                    Tiras         
#>  7 6991      2006-08-08 Bonanza                                      Tiras         
#>  8 6991      2006-08-08 Sierra Nevada Media Group                    Tiras         
#>  9 6991      2006-08-08 Incline Village General Improvement District Tiras         
#> 10 6991      2006-08-08 Bonanza                                      Tiras         
#> # … with 12 more rows
```
…
```r
print_tabyl(nv, seeking_office)
```

```
#> # A tibble: 638 x 4
#>    seeking_office                  n percent valid_percent
#>    <chr>                       <dbl>   <dbl>         <dbl>
#>  1 <NA>                        68035  0.268        NA     
#>  2 Governor                    13136  0.0518        0.0708
#>  3 City Council, Las Vegas      5962  0.0235        0.0321
#>  4 Lieutenant Governor          5411  0.0213        0.0292
#>  5 Attorney General             4336  0.0171        0.0234
#>  6 State Assembly, District 1   3511  0.0138        0.0189
#>  7 State Assembly, District 36  3273  0.0129        0.0176
#>  8 State Assembly, District 21  2747  0.0108        0.0148
#>  9 Secretary Of State           2730  0.0108        0.0147
#> 10 State Senate, District 13    2563  0.0101        0.0138
#> # … with 628 more rows
```

```r
print_tabyl(nv, jurisdiction)
```

```
#> # A tibble: 38 x 4
#>    jurisdiction                n percent valid_percent
#>    <chr>                   <dbl>   <dbl>         <dbl>
#>  1 CLARK COUNTY            78478  0.309         0.423 
#>  2 <NA>                    68035  0.268        NA     
#>  3 NV SOS                  47766  0.188         0.257 
#>  4 WASHOE COUNTY           19093  0.0753        0.103 
#>  5 CITY OF LAS VEGAS       10132  0.0399        0.0546
#>  6 CITY OF RENO             4520  0.0178        0.0244
#>  7 NYE COUNTY               3330  0.0131        0.0179
#>  8 CITY OF NORTH LAS VEGAS  3293  0.0130        0.0177
#>  9 CARSON CITY              2908  0.0115        0.0157
#> 10 CITY OF HENDERSON        2893  0.0114        0.0156
#> # … with 28 more rows
```
…
```
#> # A tibble: 3 x 4
#>   group_active      n percent valid_percent
#>   <lgl>         <dbl>   <dbl>         <dbl>
#> 1 NA           185609  0.732         NA    
#> 2 TRUE          53440  0.211          0.785
#> 3 FALSE         14595  0.0575         0.215
```

```r
print_tabyl(nv, group_city)
```

```
#> # A tibble: 132 x 4
#>    group_city       n percent valid_percent
#>    <chr>        <dbl>   <dbl>         <dbl>
#>  1 <NA>        185609 0.732        NA      
#>  2 Las Vegas    24606 0.0970        0.362  
#>  3 Reno         21845 0.0861        0.321  
#>  4 Washington    6759 0.0266        0.0993 
#>  5 Carson City   3213 0.0127        0.0472 
#>  6 Henderson     2892 0.0114        0.0425 
#>  7 Sacramento    1786 0.00704       0.0263 
#>  8 San Rafael     747 0.00295       0.0110 
#>  9 Minden         590 0.00233       0.00867
#> 10 New York       531 0.00209       0.00780
#> # … with 122 more rows
```
…
```r
# number of each fix
payee_fix %>% 
  filter(fixed) %>% 
  count(payee_last, payee_fix) %>% 
  arrange(desc(n))
```

```
#> # A tibble: 2,497 x 3
#>    payee_last        payee_fix              n
#>    <chr>             <chr>              <int>
#>  1 ANEDOT LLC        ANEDOT               715
#>  2 PAY PAL           PAYPAL               517
#>  3 IN COMPLIANCE INC IN COMPLIANCE INC.   460
#>  4 A & B PRINTING    A&B PRINTING         386
#>  5 VISTAPRINT        VISTA PRINT          365
#>  6 WAL MART          WALMART              251
#>  7 ACT BLUE          ACTBLUE              242
#>  8 SMITHS            SMITH'S              240
#>  9 AB PRINTING       A&B PRINTING         228
#> 10 OCTOBER INC.      OCTOBER INC          226
#> # … with 2,487 more rows
```
…
