…
``` r
key_vars <- c("transaction_date", "last_name", 
              "transaction_amount", "committee_name")
nmc <- flag_na(nmc, all_of(key_vars))
percent(mean(nmc$na_flag), 0.01)
#> [1] "0.98%"
```

``` r
nmc %>% 
  filter(na_flag) %>% 
  select(age, all_of(key_vars))
#> # A tibble: 15,048 × 5
#>    age   transaction_date    last_name transaction_amount committee_name                       
#>    <chr> <dttm>              <chr>                  <dbl> <chr>                                
#>  1 new   2020-11-01 00:00:00 <NA>                      20 Republican Party of Bernalillo County
#>  2 new   2020-12-11 00:00:00 <NA>                      41 Republican Party of Bernalillo County
#>  3 new   2020-12-04 00:00:00 <NA>                      50 Republican Party of Bernalillo County
#>  4 new   2020-10-30 00:00:00 <NA>                      88 Republican Party of Bernalillo County
#>  5 new   2021-03-18 00:00:00 <NA>                      62 Republican Women's Club of Carlsbad  
#>  6 new   2020-10-28 00:00:00 <NA>                      30 Democratic Party of Socorro County   
#>  7 new   2020-10-28 00:00:00 <NA>                      40 Democratic Party of Socorro County   
#>  8 new   2020-10-28 00:00:00 <NA>                      60 Democratic Party of Socorro County   
#>  9 new   2020-12-03 00:00:00 <NA>                      87 Democratic Party of Sandoval County  
#> 10 new   2021-02-12 00:00:00 <NA>                      15 Luna County Democratic Party         
#> # … with 15,038 more rows
```
…
``` r
percent(mean(nmc$dupe_flag[nmc$na_flag]))
#> [1] "14%"
```

``` r
nmc %>% 
  filter(dupe_flag) %>% 
  select(age, all_of(key_vars)) %>% 
  arrange(committee_name)
#> # A tibble: 59,863 × 5
#>    age   transaction_date    last_name                             transaction_amount committee_name     
#>    <chr> <dttm>              <chr>                                              <dbl> <chr>              
#>  1 old   2017-10-27 00:00:00 Bargas                                           5500    579 PAC            
#>  2 old   2017-10-27 00:00:00 Bargas                                           5500    579 PAC            
#>  3 old   2017-12-05 00:00:00 Perry                                            5500    579 PAC            
#>  4 old   2017-12-05 00:00:00 Perry                                            5500    579 PAC            
#>  5 old   2017-05-13 00:00:00 Brenner                                           250    A Better Way For LA
#>  6 old   2017-05-13 00:00:00 Brenner                                           250    A Better Way For LA
#>  7 new   2020-11-30 00:00:00 US Eagle Federal Credit Union                       3.32 A New Day For NM   
#>  8 new   2020-12-31 00:00:00 US Eagle Federal Credit Union                       3.33 A New Day For NM   
#>  9 new   2020-10-31 00:00:00 US Eagle Federal Credit Union                       3.82 A New Day For NM   
#> 10 new   2020-10-29 00:00:00 Rio Grande Chapter of Sierra Club PAC               8.03 A New Day For NM   
#> # … with 59,853 more rows
```
…
``` r
nm_addr
#> # A tibble: 410,472 × 3
#>    contributor_address_line_1 contributor_address_line_2 address_norm         
#>    <chr>                      <chr>                      <chr>                
#>  1 <NA>                       <NA>                       <NA>                 
#>  2 chase.com                  <NA>                       CHASE COM            
#>  3 6007 PALM AVE SW           <NA>                       6007 PALM AVE SW     
#>  4 PO BOX 169                 <NA>                       PO BOX 169           
#>  5 13612 OLD MISSION CT       <NA>                       13612 OLD MISSION CT 
#>  6 481 MARIGOLD DR            <NA>                       481 MARIGOLD DR      
#>  7 2533 Villanova Dr          <NA>                       2533 VILLANOVA DR    
#>  8 3077 Evelyn St             <NA>                       3077 EVELYN ST       
#>  9 1251 Turk St               Apt 1118                   1251 TURK ST APT 1118
#> 10 7809 SHERWOOD DR NW        <NA>                       7809 SHERWOOD DR NW  
#> # … with 410,462 more rows
```
…
``` r
nmc %>% 
  filter(contributor_state != state_norm) %>% 
  count(contributor_state, state_norm, sort = TRUE)
#> # A tibble: 213 × 3
#>    contributor_state    state_norm     n
#>    <chr>                <chr>      <int>
#>  1 New Mexico           NM         14162
#>  2 California           CA          1787
#>  3 Texas                TX           991
#>  4 New York             NY           737
#>  5 nm                   NM           648
#>  6 Florida              FL           528
#>  7 Colorado             CO           477
#>  8 Arizona              AZ           374
#>  9 Illinois             IL           322
#> 10 District of Columbia DC           321
#> # … with 203 more rows
```
…
      key_collision_merge() %>% 
      n_gram_merge(numgram = 1)
  ) %>% 
  filter(city_refine != city_swap) %>% 
  inner_join(
    y = zipcodes,
    by = c(
      "city_refine" = "city",
      "state_norm" = "state",
      "zip_norm" = "zip"
    )
  )
```

    #> # A tibble: 271 × 5
    #>    state_norm zip_norm city_swap      city_refine       n
    #>    <chr>      <chr>    <chr>          <chr>         <int>
    #>  1 NC         28270    CHAROLETTE     CHARLOTTE       115
    #>  2 NM         87801    SOCCORO        SOCORRO          48
    #>  3 NM         87010    LOS CERRILLOS  CERRILLOS        46
    #>  4 CA         94105    SAN FRANSICO   SAN FRANCISCO    34
    #>  5 NM         88310    ALMGORODO      ALAMOGORDO       27
    #>  6 NM         88081    CHAPPARAL      CHAPARRAL        24
    #>  7 IL         60094    PALLANTINE     PALATINE         21
    #>  8 NM         87375    YAH TA HEY     YATAHEY          20
    #>  9 NM         87375    YA TA HEY      YATAHEY          19
    #> 10 NM         87106    ALBUQUERQERQUE ALBUQUERQUE      15
    #> # … with 261 more rows
…
