…
``` r
key_vars <- c("action_date", "awardee_name", "award_office", "amount")
eidl <- flag_na(eidl, all_of(key_vars))
```

``` r
sum(eidl$na_flag)
#> [1] 122
sum(is.na(eidl$awardee_name))
#> [1] 122
eidl %>% 
  filter(na_flag) %>% 
  select(all_of(key_vars))
#> # A tibble: 122 x 4
#>    action_date awardee_name award_office amount
#>    <date>      <chr>        <chr>         <dbl>
#>  1 2020-05-26  <NA>         732990         4300
#>  2 2020-06-04  <NA>         732990        20400
#>  3 2020-05-25  <NA>         732990         1500
#>  4 2020-06-03  <NA>         732990         4300
#>  5 2020-05-09  <NA>         732990        12000
#>  6 2020-05-09  <NA>         732990        11900
#>  7 2020-06-09  <NA>         732990       150000
#>  8 2020-06-05  <NA>         732990        14500
#>  9 2020-05-26  <NA>         732990         5100
#> 10 2020-06-05  <NA>         732990        22000
#> # … with 112 more rows
```
…
We can see that, despite a supposedly unique `fain`, there are duplicate
rows.

``` r
eidl %>% 
  filter(dupe_flag) %>% 
  select(fain, award_amend, all_of(key_vars), city) %>% 
  arrange(action_date, awardee_name)
#> # A tibble: 398 x 7
#>    fain          award_amend action_date awardee_name                  award_office amount city    
#>    <chr>               <int> <date>      <chr>                         <chr>         <dbl> <chr>   
#>  1 EIDLGT:33002…           1 2020-04-16  Salt River Salon DBA Salt Ri… 737610         1000 THAYNE  
#>  2 EIDLGT:33002…           1 2020-04-16  Salt River Salon DBA Salt Ri… 737610         1000 THAYNE  
#>  3 3142857208              1 2020-04-17  Abbiamo LLC                   732990        15000 Toluca …
#>  4 3142847205              1 2020-04-17  Abbiamo LLC                   732990        15000 Toluca …
#>  5 3142907210              1 2020-04-17  Azucena Valencia Law Corpora… 732990        23500 Pomona  
#>  6 3142917202              1 2020-04-17  Azucena Valencia Law Corpora… 732990        23500 Pomona  
#>  7 3143407204              1 2020-04-17  BC Restaurant LV LLC          732990       500000 LAS VEG…
#>  8 3143397203              1 2020-04-17  BC Restaurant LV LLC          732990       500000 LAS VEG…
#>  9 3143367205              1 2020-04-17  Beverly Hills Luxury Interio… 732990       189200 Los Ang…
#> 10 3143357202              1 2020-04-17  Beverly Hills Luxury Interio… 732990       189200 Los Ang…
#> # … with 388 more rows
```
…
Most loan `amounts` are one of a few round integer values.

``` r
eidl %>% 
  count(fed_obligation, face_value, sort = TRUE) %>% 
  add_prop() %>% 
  mutate(cp = cumsum(p))
#> # A tibble: 7,268 x 5
#>    fed_obligation face_value       n      p    cp
#>             <dbl>      <dbl>   <int>  <dbl> <dbl>
#>  1           1000         NA 2921541 0.306  0.306
#>  2          10000         NA  931206 0.0975 0.403
#>  3           2000         NA  644316 0.0674 0.471
#>  4             NA     150000  567397 0.0594 0.530
#>  5           3000         NA  363208 0.0380 0.568
#>  6           4000         NA  254897 0.0267 0.595
#>  7           5000         NA  216500 0.0227 0.617
#>  8           6000         NA  145542 0.0152 0.633
#>  9             NA       1000  123857 0.0130 0.646
#> 10           7000         NA  108681 0.0114 0.657
#> # … with 7,258 more rows
```
…
``` r
eidl <- mutate(
  .data = eidl,
  city_swap = city_swap %>% 
    str_replace("^NEW YORK CITY$", "NEW YORK")
)
```

``` r
many_city <- c(valid_city, extra_city)
eidl %>% 
  filter(city_swap %out% many_city) %>% 
  count(city_swap, state, sort = TRUE) %>% 
  add_prop(sum = TRUE)
#> # A tibble: 18,793 x 4
#>    city_swap         state     n      p
#>    <chr>             <chr> <int>  <dbl>
#>  1 FARMINGTON HILLS  MI     2791 0.0268
#>  2 HALLANDALE BEACH  FL     2660 0.0523
#>  3 HIALEAH GARDENS   FL     2256 0.0739
#>  4 SHELBY TOWNSHIP   MI     2204 0.0950
#>  5 PEMBROKE PNES     FL     1781 0.112 
#>  6 MANALAPAN         NJ     1639 0.128 
#>  7 SUNNY ISLES BEACH FL     1613 0.143 
#>  8 PORTER RANCH      CA     1552 0.158 
#>  9 DANIA BEACH       FL     1403 0.172 
#> 10 SEATAC            WA     1132 0.182 
#> # … with 18,783 more rows
```
…
