…
``` r
d1 <- duplicated(akc[, -1], fromLast = TRUE)
d2 <- duplicated(akc[, -1], fromLast = FALSE)
akc <- mutate(akc, dupe_flag = (d1 | d2))
percent(mean(akc$dupe_flag), 0.1)
#> [1] "6.6%"
rm(d1, d2); flush_memory()
```

``` r
akc %>% 
  filter(dupe_flag) %>% 
  select(id, all_of(key_vars))
#> # A tibble: 7,508 × 5
#>    id    date       last        amount filer               
#>    <chr> <date>     <chr>        <dbl> <chr>               
#>  1 108   2021-11-07 Reed          1500 James D. Kaufman    
#>  2 109   2021-11-07 Reed          1500 James D. Kaufman    
#>  3 1533  2021-10-01 Easterbrook    100 Forrest Dunbar      
#>  4 1534  2021-10-01 Easterbrook    100 Forrest Dunbar      
#>  5 2286  2021-12-30 Woodward       100 Forrest Dunbar      
#>  6 2287  2021-12-30 Woodward       100 Forrest Dunbar      
#>  7 3370  2022-01-14 Merrell         50 Andy Josephson      
#>  8 3371  2022-01-14 Merrell         50 Andy Josephson      
#>  9 3489  2021-09-19 Harwood        100 Kameron Perez-Verdia
#> 10 3491  2021-09-19 Harwood        100 Kameron Perez-Verdia
#> # … with 7,498 more rows
```
…
There are only 3,500 values, which is an order of magnitude less than we
might expect from a distribution of values from a dataset of this size.

In fact, more than half of all `amount` values are \$2, \$5, \$50,
\$100, or \$500 dollars even.

``` r
akc %>% 
  count(amount, sort = TRUE) %>% 
  add_prop(sum = TRUE)
#> # A tibble: 3,500 × 3
#>    amount     n     p
#>     <dbl> <int> <dbl>
#>  1      5 15989 0.141
#>  2    100 15916 0.281
#>  3      2  9098 0.361
#>  4     50  8633 0.437
#>  5    500  5729 0.488
#>  6    250  5433 0.536
#>  7     25  4838 0.578
#>  8     10  4708 0.620
#>  9    200  2441 0.641
#> 10   1000  2167 0.660
#> # … with 3,490 more rows
```
…
``` r
akc %>% 
  filter(state != state_norm) %>% 
  count(state, state_norm, sort = TRUE)
#> # A tibble: 55 × 3
#>    state                state_norm      n
#>    <chr>                <chr>       <int>
#>  1 Alaska               AK         108460
#>  2 Washington           WA            880
#>  3 California           CA            606
#>  4 Texas                TX            443
#>  5 Arizona              AZ            337
#>  6 Oregon               OR            222
#>  7 New York             NY            203
#>  8 Florida              FL            186
#>  9 District of Columbia DC            135
#> 10 Virginia             VA            131
#> # … with 45 more rows
```
…
