…
```
##         Min.      1st Qu.       Median         Mean      3rd Qu.         Max.         NA's 
## "2008-01-14" "2010-12-31" "2013-03-31" "2013-04-23" "2015-12-31" "2018-06-30"        "312"
```

```r
il %>% 
  tabyl(CmteName) %>% 
  as_tibble() %>% 
  arrange(desc(n))
```

```
## # A tibble: 7,083 x 3
##    CmteName                                                  n percent
##    <chr>                                                 <dbl>   <dbl>
##  1 REALTORS® Political Action Committee                  15430 0.0111 
##  2 Health Care Council of IL PAC                         14360 0.0104 
##  3 IUOE Local 399 Political Education Fund               14279 0.0103 
##  4 Commonwealth Edison Co- Affiliate of Exelon Corp, PAC 14246 0.0103 
##  5 Citizens for Rauner, Inc                              13125 0.00946
##  6 Illinois Federation of Teachers COPE                  12510 0.00902
##  7 Taxpayers for Quinn                                   10458 0.00754
##  8 Personal PAC Inc                                      10155 0.00732
##  9 Illinois Health Care Assn PAC                          9990 0.00720
## 10 Citizens for Lisa Madigan                              9920 0.00715
## # … with 7,073 more rows
```
…
First, we will check `State_clean` against the `city`, `zip`, and `state` values in the `zipcodes`
table. From this info, we can fix most bad `State_clean` values.


```r
il %>% 
  filter(State_clean == "ZZ") %>% 
  count(City) %>% 
  arrange(desc(n))
```

```
## # A tibble: 67 x 2
##    City                    n
##    <chr>               <int>
##  1 Brampton                7
##  2 San Juan                6
##  3 <NA>                    5
##  4 Brampton, Ontario       5
##  5 Brampton Ontario        4
##  6 Mississauga Ontario     4
##  7 Concord Ontario         3
##  8 London                  3
##  9 Mississauga             3
## 10 Montreal                3
## # … with 57 more rows
```
…
# reduced by half
n_distinct(il$City_clean)
## [1] 5500

# confirm changes
il %>%
  arrange(City) %>% 
  select(
    RctNum, 
    State_clean, 
    Zip5_clean, 
    City, 
    City_clean
  )
## # A tibble: 1,387,108 x 5
##    RctNum  State_clean Zip5_clean City          City_clean 
##    <chr>   <chr>       <chr>      <chr>         <chr>      
##  1 3507110 IL          60662      , Orland Park ORLAND PARK
##  2 4381796 IL          60085      , Waukegan    WAUKEGAN   
##  3 4642016 IL          60441      ;ockport      ROCKPORT   
##  4 3323272 IL          61615      :Peoria       PEORIA     
##  5 3487322 AZ          85054      :Phoenix      PHOENIX    
##  6 3739493 AZ          85054      :Phoenix      PHOENIX    
##  7 3248564 IL          60473      ?             <NA>       
##  8 4930411 IL          60473      ?             <NA>       
##  9 4930312 IL          60473      ?             <NA>       
## 10 3427171 IL          60423      ?Frankfort    FRANKFORT  
## # … with 1,387,098 more rows
```
…
```r
il$Address1_clean <- str_to_upper(il$Address1)

il$Address1_clean[il$RedactionRequested] <- NA

il %>%
  filter(is.na(Zip)) %>%
  select(Address1_clean) %>%
  count(Address1_clean) %>%
  arrange(desc(n))
```

```
## # A tibble: 1,048 x 2
##    Address1_clean             n
##    <chr>                  <int>
##  1 <NA>                    5992
##  2 BEST FAITH EFFORT         39
##  3 BEST EFFORT               28
##  4 INFORMATION REQUESTED     28
##  5 GOOD FAITH EFFORT         25
##  6 GOOD FAITH EFFORT MADE    20
##  7 UNKNOWN                   14
##  8 EFFORT MADE               11
##  9 312 BLUE RIDGE DR         10
## 10 3100 E JACKSON ST          9
## # … with 1,038 more rows
```
…
