…
### Duplicates

We can also flag any record completely duplicated across every column.

``` r
okc <- flag_dupes(okc, -receipt_id)
mean(okc$dupe_flag)
#> [1] 0.4696736
```

``` r
okc %>% 
  filter(dupe_flag) %>% 
  select(receipt_id, all_of(key_vars))
#> # A tibble: 585,194 × 6
#>    receipt_id receipt_date last_name                receipt_amount candidate_name committee_name                   
#>         <int> <date>       <chr>                             <dbl> <chr>          <chr>                            
#>  1      10229 2014-12-01   NON-ITEMIZED CONTRIBUTOR              3 <NA>           OK AG FUND                       
#>  2      10231 2014-12-01   NON-ITEMIZED CONTRIBUTOR              3 <NA>           OK AG FUND                       
#>  3      10233 2014-12-01   NON-ITEMIZED CONTRIBUTOR              3 <NA>           OK AG FUND                       
#>  4        378 2015-01-02   NON-ITEMIZED CONTRIBUTOR             10 <NA>           FRATERNAL ORDER OF POLICE 123 PAC
#>  5        379 2015-01-02   NON-ITEMIZED CONTRIBUTOR             10 <NA>           FRATERNAL ORDER OF POLICE 123 PAC
#>  6        380 2015-01-02   NON-ITEMIZED CONTRIBUTOR             10 <NA>           FRATERNAL ORDER OF POLICE 123 PAC
#>  7        381 2015-01-02   NON-ITEMIZED CONTRIBUTOR             10 <NA>           FRATERNAL ORDER OF POLICE 123 PAC
#>  8        383 2015-01-02   NON-ITEMIZED CONTRIBUTOR              4 <NA>           FRATERNAL ORDER OF POLICE 123 PAC
#>  9        385 2015-01-02   NON-ITEMIZED CONTRIBUTOR              2 <NA>           FRATERNAL ORDER OF POLICE 123 PAC
#> 10        391 2015-01-02   NON-ITEMIZED CONTRIBUTOR              4 <NA>           FRATERNAL ORDER OF POLICE 123 PAC
#> # … with 585,184 more rows
```

A huge proportion of contributions are duplicates because more than half
of all contributions have the `last_name` value of “NON-ITEMIZED
CONTRIBUTOR”.

``` r
count(okc, last_name, sort = TRUE)
#> # A tibble: 25,159 × 2
#>    last_name                     n
#>    <chr>                     <int>
#>  1 NON-ITEMIZED CONTRIBUTOR 637108
#>  2 SMITH                      6189
#>  3 BROWN                      4061
#>  4 WILLIAMS                   3767
#>  5 JOHNSON                    3155
#>  6 JONES                      3079
#>  7 DAVIS                      2757
#>  8 WILSON                     2646
#>  9 TAYLOR                     2522
#> 10 MILLER                     2512
#> # … with 25,149 more rows
```
…
For the sake of flagging duplicates, we will ignore these values.

``` r
okc$dupe_flag[is.na(okc$receipt_source_type)] <- FALSE
```

``` r
mean(okc$dupe_flag)
#> [1] 0.0133327
okc %>% 
  filter(dupe_flag) %>% 
  select(receipt_id, all_of(key_vars)) %>% 
  arrange(receipt_date, last_name)
#> # A tibble: 16,612 × 6
#>    receipt_id receipt_date last_name receipt_amount candidate_name committee_name  
#>         <int> <date>       <chr>              <dbl> <chr>          <chr>           
#>  1       3533 2015-01-02   AMACHER             12.5 <NA>           SOONER STATE PAC
#>  2       3708 2015-01-02   AMACHER             12.5 <NA>           SOONER STATE PAC
#>  3       3484 2015-01-02   BANDY               12.5 <NA>           SOONER STATE PAC
#>  4       3652 2015-01-02   BANDY               12.5 <NA>           SOONER STATE PAC
#>  5       3508 2015-01-02   BIAS                25   <NA>           SOONER STATE PAC
#>  6       3693 2015-01-02   BIAS                25   <NA>           SOONER STATE PAC
#>  7       3337 2015-01-02   BOURLAND            12.5 <NA>           SOONER STATE PAC
#>  8       3617 2015-01-02   BOURLAND            12.5 <NA>           SOONER STATE PAC
#>  9       3375 2015-01-02   BROBSTON            12.5 <NA>           SOONER STATE PAC
#> 10       3642 2015-01-02   BROBSTON            12.5 <NA>           SOONER STATE PAC
#> # … with 16,602 more rows
```
…
Negative `receipt_amount` values are for refunds and offsets.

``` r
okc %>% 
  filter(receipt_amount < 0) %>% 
  count(description, sort = TRUE)
#> # A tibble: 249 × 2
#>    description                                            n
#>    <chr>                                              <int>
#>  1 Offset due to update of filed item                  5943
#>  2 <NA>                                                4707
#>  3 Offset due to deletion of filed item                 699
#>  4 REFUND                                               228
#>  5 CONTRIBUTION REFUND                                  112
#>  6 REFUND 73% CONTRIBUTION                               98
#>  7 CAMPAIGN SUSPENDED UNTIL FUTURE NOTICE                26
#>  8 REFUND FOR FOR OVERPAYMENT FROM PAYROLL DEDUCTIONS    13
#>  9 CADIDATE UNOPPOSED                                    12
#> 10 REFUND OF CONTRIBUTION                                 9
#> # … with 239 more rows
```
…
