…
``` r
ide <- flag_dupes(ide, everything(), .check = TRUE)
sum(ide$dupe_flag)
#> [1] 4402
mean(ide$dupe_flag)
#> [1] 0.0163788
ide %>% 
  filter(dupe_flag) %>% 
  count(committee, last, date, amount, sort = TRUE)
#> # A tibble: 1,703 × 5
#>    committee                                       last                     date       amount     n
#>    <chr>                                           <chr>                    <date>      <dbl> <int>
#>  1 IDAHO REPUBLICAN PARTY                          ARENA                    2020-11-23 294.      33
#>  2 <NA>                                            <NA>                     NA          NA       33
#>  3 IDAHO REPUBLICAN PARTY                          ARENA                    2020-11-23 294.      26
#>  4 IDAHO REPUBLICAN PARTY                          ARENA COMMUNICATIONS     2016-11-03 673.      22
#>  5 COMMITTEE TO REPEAL THE REPEAL                  ADDAX                    NA         600       20
#>  6 PACE (POLITICAL ACTION COMMITTEE FOR EDUCATION) IDAHO EDUCATION ASSOCIA… 2018-07-27  10       17
#>  7 ADA COUNTY REPUBLICAN CENTRAL COMMITTEE         ADA COUNTY REPUBLICAN P… 2021-05-08  50       15
#>  8 GUN PAC                                         THORNE PRINTING          2012-05-08 363.      15
#>  9 KOOTENAI COUNTY REPUBLICAN CENTRAL COMMITTEE    SQUARE                   2021-12-03   9.44    14
#> 10 <NA>                                            <NA>                     NA           0       13
#> # … with 1,693 more rows
```
…
``` r
addr_norm
#> # A tibble: 53,853 × 3
#>    address_1             address_2 address_norm     
#>    <chr>                 <chr>     <chr>            
#>  1 1509 CEDAR STREET     <NA>      1509 CEDAR ST    
#>  2 5000 N. EZY STREET    <NA>      5000 N EZY ST    
#>  3 3959 JONQUIL CT       <NA>      3959 JONQUIL CT  
#>  4 BOX 1629              <NA>      BOX 1629         
#>  5 P.O. BOX 1479         <NA>      PO BOX 1479      
#>  6 9802 SCHMIDT AVE      <NA>      9802 SCHMIDT AVE 
#>  7 315 CLAYTON STREET    <NA>      315 CLAYTON ST   
#>  8 535 SUNSET DRIVE      <NA>      535 SUNSET DR    
#>  9 <NA>                  <NA>      <NA>             
#> 10 708 W FRANKLIN STREET <NA>      708 W FRANKLIN ST
#> # … with 53,843 more rows
```
…
