…
### Duplicates

``` r
inc <- flag_dupes(inc, everything())
mean(inc$dupe_flag)
#> [1] 0.01585317
```

``` r
inc %>% 
  filter(dupe_flag) %>% 
  select(all_of(key_vars)) %>% 
  arrange(date, name)
#> # A tibble: 26,031 x 4
#>    committee                                   name                      amount date               
#>    <chr>                                       <chr>                      <dbl> <dttm>             
#>  1 Hoosiers for Indiana                        Timothy or Dobbie Smith      200 2000-01-18 00:00:00
#>  2 Hoosiers for Indiana                        Timothy or Dobbie Smith      200 2000-01-18 00:00:00
#>  3 Hoosiers for Indiana                        William G. Mays              200 2000-01-18 00:00:00
#>  4 Hoosiers for Indiana                        William G. Mays              200 2000-01-18 00:00:00
#>  5 Indiana State Nurses Association Nurse PAC  Diana Sullivan                 0 2000-01-24 00:00:00
#>  6 Indiana State Nurses Association Nurse PAC  Diana Sullivan                 0 2000-01-24 00:00:00
#>  7 Windler for State Representative District … Wilford and Esther Senes…     50 2000-03-21 00:00:00
#>  8 Windler for State Representative District … Wilford and Esther Senes…     50 2000-03-21 00:00:00
#>  9 Windler for State Representative District … Kenny and Judy Goodman        25 2000-03-26 00:00:00
#> 10 Windler for State Representative District … Kenny and Judy Goodman        25 2000-03-26 00:00:00
#> # … with 26,021 more rows
```
…
``` r
inc %>% 
  filter(state != state_norm) %>% 
  count(state, state_norm, sort = TRUE)
#> # A tibble: 124 x 3
#>    state state_norm     n
#>    <chr> <chr>      <int>
#>  1 In    IN          3875
#>  2 Un    UN           934
#>  3 in    IN           522
#>  4 D.    D            128
#>  5 Va    VA           102
#>  6 Oh    OH            96
#>  7 Il    IL            91
#>  8 Ky    KY            50
#>  9 Fl    FL            44
#> 10 iN    IN            32
#> # … with 114 more rows
```
…
inc %>% 
  filter(match_dist == 1) %>% 
  count(state, state_norm, sort = TRUE)
#> # A tibble: 216 x 3
#>    state state_norm     n
#>    <chr> <chr>      <int>
#>  1 In    IN          3783
#>  2 IN    IL          1152
#>  3 IL    IN           179
#>  4 IN    TN           131
#>  5 D.    DC           124
#>  6 Oh    OH            94
#>  7 Il    IL            89
#>  8 NY    NJ            56
#>  9 Ky    KY            49
#> 10 Fl    FL            43
#> # … with 206 more rows
```
…
``` r
many_city <- c(valid_city, extra_city)
inc %>% 
  count(city_swap, state_norm, sort = TRUE) %>% 
  filter(!is.na(city_swap), city_swap %out% many_city)
#> # A tibble: 956 x 3
#>    city_swap        state_norm     n
#>    <chr>            <chr>      <int>
#>  1 INDY             IN          1184
#>  2 ABBOTT PARK      IL           636
#>  3 FARMINGTON HILLS MI           118
#>  4 LEE SOUTH SUMMIT MO            74
#>  5 INDIANAPOLIS IN  IN            69
#>  6 INDPLS           IN            69
#>  7 SHELBY TOWNSHIP  MI            60
#>  8 WAUSATOSA        WI            57
#>  9 PONTE VEDRA      FL            56
#> 10 TOBINSPORT       IN            51
#> # … with 946 more rows
```
…
