…
``` r
key_vars <- c("name_last", "birth_date", "reg_date")
flv <- flag_na(flv, all_of(key_vars))
percent(mean(flv$na_flag), 0.1)
#> [1] "0.5%"
```

All of these missing rows have no `last_name` or `birth_date`.

``` r
flv %>% 
  filter(na_flag) %>% 
  select(all_of(key_vars))
#> # A tibble: 72,639 x 3
#>    name_last birth_date reg_date  
#>    <chr>     <date>     <date>    
#>  1 <NA>      NA         1998-04-20
#>  2 <NA>      NA         1998-03-23
#>  3 <NA>      NA         1993-09-17
#>  4 <NA>      NA         1989-06-01
#>  5 <NA>      NA         2001-01-19
#>  6 <NA>      NA         2005-07-18
#>  7 <NA>      NA         2010-04-23
#>  8 <NA>      NA         1999-02-04
#>  9 <NA>      NA         2000-08-07
#> 10 <NA>      NA         1987-10-19
#> # … with 72,629 more rows
```
…
We can see that, despite unique IDs, there are duplicate voters. All of
these apparent duplicates are missing many of the key values needed to
identify a record.

``` r
flv %>% 
  filter(dupe_flag) %>% 
  select(voter_id, all_of(key_vars), gender, party) %>% 
  arrange(reg_date)
#> # A tibble: 5,871 x 6
#>    voter_id  name_last birth_date reg_date   gender party
#>    <chr>     <chr>     <date>     <date>     <chr>  <chr>
#>  1 103337814 <NA>      NA         1960-04-02 M      REP  
#>  2 103321062 <NA>      NA         1960-04-02 M      REP  
#>  3 113430946 <NA>      NA         1964-03-30 M      DEM  
#>  4 113438130 <NA>      NA         1964-03-30 M      DEM  
#>  5 113084368 <NA>      NA         1964-10-02 M      REP  
#>  6 104856454 <NA>      NA         1964-10-02 M      REP  
#>  7 107960150 <NA>      NA         1968-04-04 F      REP  
#>  8 107960146 <NA>      NA         1968-04-04 F      REP  
#>  9 103672984 <NA>      NA         1968-09-23 M      REP  
#> 10 103717091 <NA>      NA         1968-09-23 M      REP  
#> # … with 5,861 more rows
```
…
``` r
flv <- left_join(flv, norm_city)
many_city <- c(valid_city, extra_city)
prop_in(flv$city_swap, many_city)
#> [1] 0.9860737
```

#### Progress

``` r
flv %>% 
  filter(city_swap %out% many_city) %>% 
  count(city, city_swap, state_norm, sort = TRUE) %>% 
  add_prop()
#> # A tibble: 144 x 5
#>    city              city_swap         state_norm     n      p
#>    <chr>             <chr>             <chr>      <int>  <dbl>
#>  1 <NA>              <NA>              <NA>       72643 0.245 
#>  2 Hallandale Beach  HALLANDALE BEACH  FL         26390 0.0890
#>  3 Dania Beach       DANIA BEACH       FL         21612 0.0729
#>  4 Lake Worth Beach  LAKE WORTH BEACH  FL         20598 0.0695
#>  5 Ponte Vedra       PONTE VEDRA       FL         18998 0.0641
#>  6 Sunny Isles Beach SUNNY ISLES BEACH FL         13255 0.0447
#>  7 Hialeah Gardens   HIALEAH GARDENS   FL         12996 0.0438
#>  8 ST PETE BEACH     SAINT PETE BEACH  FL          8891 0.0300
#>  9 Miami Shores      MIAMI SHORES      FL          8498 0.0287
#> 10 Laud By The Sea   LAUD BY THE SEA   FL          6357 0.0214
#> # … with 134 more rows
```
…
