…
``` r
key_vars <- c("date", "contributor_name", "amount", "recipient_name")
wyc <- flag_na(wyc, all_of(key_vars))
mean(wyc$na_flag)
#> [1] 0.01683048
sum(wyc$na_flag)
#> [1] 1000
```

``` r
wyc %>% 
  filter(na_flag) %>% 
  select(all_of(key_vars))
#> # A tibble: 1,000 × 4
#>    date       contributor_name amount recipient_name                     
#>    <date>     <chr>             <dbl> <chr>                              
#>  1 2022-12-01 <NA>               5.05 CONNOLLY FOR HOUSE COMMITTEE       
#>  2 2022-11-06 <NA>             200    COMMITTEE TO ELECT JEN SOLIS       
#>  3 2022-10-28 <NA>              50    CONNOLLY FOR HOUSE COMMITTEE       
#>  4 2022-10-27 <NA>              90    TODD PETERSON                      
#>  5 2022-10-26 <NA>             255    COMMITTEE TO ELECT LEESA KUHLMANN  
#>  6 2022-10-26 <NA>             100    TED HANLON COMMITTEE TO ELECT      
#>  7 2022-10-25 <NA>              95.3  MARSHALL ALAN BURT                 
#>  8 2022-10-21 <NA>              60    THE COMMITTEE TO ELECT JORDAN EVANS
#>  9 2022-10-18 <NA>             292.   BEN HORNOK FOR WYOMING             
#> 10 2022-10-18 <NA>              40    JEFF D MARTIN                      
#> # … with 990 more rows
```
…
``` r
wyc <- flag_dupes(wyc, everything())
mean(wyc$dupe_flag)
#> [1] 0.008920156
sum(wyc$dupe_flag)
#> [1] 530
```

``` r
wyc %>% 
  filter(dupe_flag) %>% 
  select(all_of(key_vars)) %>% 
  arrange(date)
#> # A tibble: 530 × 4
#>    date       contributor_name  amount recipient_name      
#>    <date>     <chr>              <dbl> <chr>               
#>  1 2009-11-15 THOMPSON, CODY       100 MICHELI FOR GOVERNOR
#>  2 2009-11-15 THOMPSON, CODY       100 MICHELI FOR GOVERNOR
#>  3 2009-11-21 BLUEMEL, IVAN         60 MICHELI FOR GOVERNOR
#>  4 2009-11-21 BLUEMEL, IVAN         60 MICHELI FOR GOVERNOR
#>  5 2009-11-21 BUGAS, LARRY          60 MICHELI FOR GOVERNOR
#>  6 2009-11-21 BUGAS, LARRY          60 MICHELI FOR GOVERNOR
#>  7 2009-11-21 CARPENTER, DONALD     30 MICHELI FOR GOVERNOR
#>  8 2009-11-21 CARPENTER, DONALD     30 MICHELI FOR GOVERNOR
#>  9 2009-11-21 COVOLO, CARI          25 MICHELI FOR GOVERNOR
#> 10 2009-11-21 COVOLO, CARI          25 MICHELI FOR GOVERNOR
#> # … with 520 more rows
```
…
