…
```r
if (here("ok_contribs", "data", "raw") %>% any_old_files("*.zip")) {
  download.file(
    url = "https://www.ok.gov/ethics/public/dfile.php?action=csv",
    destfile = here("ok_contribs", "data", "raw", "ethicscsvfile.zip")
  )
}
```

There are 48 individual CSV files contained within the ZIP archive. Many of these files are not
relevant to this project, but all will be unzipped into the `data/raw` directory.


```
#> # A tibble: 48 x 3
#>    Name                         Length Date               
#>    <chr>                         <dbl> <dttm>             
#>  1 affiliation.csv              441445 2019-06-11 01:23:00
#>  2 ballot_measure.csv             1220 2019-06-11 01:23:00
#>  3 business_cont.csv            742467 2019-06-11 01:23:00
#>  4 c1r.csv                     8293148 2019-06-11 01:15:00
#>  5 c3r.csv                       88981 2019-06-11 01:23:00
#>  6 c4r.csv                       91436 2019-06-11 01:15:00
#>  7 c5r.csv                        1311 2019-06-11 01:15:00
#>  8 c6r_basic_info.csv            39081 2019-06-11 01:24:00
#>  9 c6r_electioneering_comm.csv    6752 2019-06-11 01:24:00
#> 10 c6r_receipts.csv             119477 2019-06-11 01:24:00
#> # … with 38 more rows
```
…
transactions <- transactions %>% 
  select(-X6) %>% 
  clean_names() %>% 
  rename(
    cont_id = contributor_id,
    trans_date = transaction_date
    )

print(transactions)
```

```
#> # A tibble: 1,729,262 x 5
#>    trans_index trans_date cont_id trans_amount rep_num
#>    <chr>       <date>     <chr>          <dbl> <chr>  
#>  1 13894       2003-05-30 3228             5   1063   
#>  2 13895       2003-05-30 3939            25   1063   
#>  3 13898       2003-05-16 3235            57.0 1063   
#>  4 13899       2003-05-30 3235            57.0 1063   
#>  5 13900       2003-05-30 3675             7   1063   
#>  6 13901       2003-05-16 3246            10   1063   
#>  7 13902       2003-05-30 3246            10   1063   
#>  8 13903       2003-05-30 3249             1   1063   
#>  9 13904       2003-05-16 3251            25   1063   
#> 10 13905       2003-05-30 3251            25   1063   
#> # … with 1,729,252 more rows
```
…
print(contributors)
```

```
#> # A tibble: 402,235 x 6
#>    cont_id cont_type cont_street           cont_city  cont_state cont_zip  
#>    <chr>   <chr>     <chr>                 <chr>      <chr>      <chr>     
#>  1 9892    1         651 Angus Rd          Wilson     OK         73463-9525
#>  2 30273   1         3931 Rolling Hills Dr Ardmore    OK         73401     
#>  3 30274   1         196 High Chaparal Dr  Ardmore    OK         73401     
#>  4 30277   1         2209 Oakglen          Ardmore    OK         73401     
#>  5 30282   1         1614 Southern Hills   Ardmore    OK         73401     
#>  6 30283   1         PO Box 271            Mannsville OK         73447-0271
#>  7 30285   1         504 Portico Ave       Ardmore    OK         73401     
#>  8 10112   1         RR 3 Box 177          Ardmore    OK         73401-9682
#>  9 10113   1         828 Pershing Dr W     Ardmore    OK         73401-3411
#> 10 10132   1         716 Campbell St       Ardmore    OK         73401-1508
#> # … with 402,225 more rows
```
…
By joining each transaction with ther filer of the respective report, we can identify the filer.


```r
ok <- transactions %>% 
  left_join(reports %>% select(rep_num, ethics_id))

print(ok)
```

```
#> # A tibble: 1,729,262 x 6
#>    trans_index trans_date cont_id trans_amount rep_num ethics_id
#>    <chr>       <date>     <chr>          <dbl> <chr>   <chr>    
#>  1 13894       2003-05-30 3228             5   1063    203041   
#>  2 13895       2003-05-30 3939            25   1063    203041   
#>  3 13898       2003-05-16 3235            57.0 1063    203041   
#>  4 13899       2003-05-30 3235            57.0 1063    203041   
#>  5 13900       2003-05-30 3675             7   1063    203041   
#>  6 13901       2003-05-16 3246            10   1063    203041   
#>  7 13902       2003-05-30 3246            10   1063    203041   
#>  8 13903       2003-05-30 3249             1   1063    203041   
#>  9 13904       2003-05-16 3251            25   1063    203041   
#> 10 13905       2003-05-30 3251            25   1063    203041   
#> # … with 1,729,252 more rows
```
…
print(candidate_rec)
```

```
#> # A tibble: 2,949 x 8
#>    ethics_id rec_street        rec_city   rec_state rec_zip rec_cname          rec_party rec_office
#>    <chr>     <chr>             <chr>      <chr>     <chr>   <chr>              <chr>     <chr>     
#>  1 100000    TEST              TEST       OK        99999   TEST ACCOUNT       REPUBLIC… SENATE    
#>  2 100001    520 W 8TH ST      EDMOND     OK        73003   SNYDER FOR SENATE… REPUBLIC… SENATE    
#>  3 100002    1010 W QUEEN PL   TULSA      OK        74127   HORNER-RE-ELECTIO… DEMOCRAT  SENATE    
#>  4 100003    2809 N.E. BEL AI… LAWTON     OK        73507   HELTON FOR SENATE… DEMOCRAT  SENATE    
#>  5 100006    2010 W 136TH ST   GLENPOOL   OK        74033   FRIENDS OF L. LON… DEMOCRAT  SENATE    
#>  6 100007    615 TYRONE        WAUKOMIS   OK        73773   ROBERT MILACEK FO… REPUBLIC… SENATE    
#>  7 100008    1700 CHEROKEE PL  BARTLESVI… OK        74003   JIM DUNLAP CAMPAI… REPUBLIC… SENATE    
#>  8 100021    1416 W OKMULGEE   MUSKOGEE   OK        74401   ROBINSON FOR SENA… DEMOCRAT  SENATE    
#>  9 100058    3421 E. 63RD      TULSA      OK        74135   FORD FOR SENATE 2… REPUBLIC… SENATE    
#> 10 100083    3717 NW 125TH ST  OKLAHOMA … OK        73120   MIKE FAIR CAMPAIG… REPUBLIC… SENATE    
#> # … with 2,939 more rows
```
…
print(committee_rec)
```

```
#> # A tibble: 952 x 6
#>    ethics_id rec_cname                          rec_street           rec_city    rec_state rec_zip 
#>    <chr>     <chr>                              <chr>                <chr>       <chr>     <chr>   
#>  1 200003    LEFLORE COUNTY DEMOCRAT WOMEN      22638 BLUEBIRD LN    POTEAU      OK        74953   
#>  2 200009    PHILLIPS MCFALL POLITICAL ACTION … ONE LEADERSHIP SQ 1… OKLAHOMA C… OK        73102   
#>  3 200018    OKLAHOMA THOROUGHBRED ASSOCIATION… 2000 SE 15TH BLDG 4… EDMOND      OK        73013   
#>  4 200026    REPUBLICAN SENATE VICTORY PAC - R… 7308 N NORMAN RD     OKLAHOMA C… OK        73132   
#>  5 200028    SMALL LOAN COUNCIL OF OKLAHOMA PAC 3806 S VICTOR        TULSA       OK        74105   
#>  6 200031    OKLAHOMA CITY RETIRED FIREFIGHTER… 1427 SW 137TH TER    OKLAHOMA C… OK        73170   
#>  7 201011    PRO OK PAC                         PO BOX 85            BURBANK     OK        74633   
#>  8 201012    THE REPUBLICAN BUSINESS COUNCIL    120 N ROBINSON STE … OKLAHOMA C… OK        73102   
#>  9 201013    UICI PAC                           PO BOX 12267         OKLAHOMA C… OK        73157-2…
#> 10 201014    CENTER FOR LEGISLATIVE EXCELLENCE  PO BOX 35743         TULSA       OK        74153-0…
#> # … with 942 more rows
```
…
```
#>  [1] "trans_index"     "trans_date"      "cont_id"         "trans_amount"    "rep_num"        
#>  [6] "ethics_id"       "cont_type"       "cont_street"     "cont_city"       "cont_state"     
#> [11] "cont_zip"        "cont_fname"      "cont_mname"      "cont_lname"      "cont_employer"  
#> [16] "cont_occupation" "cont_bname"      "cont_activity"   "cont_interest"   "cont_cname"     
#> [21] "cont_fec"        "cont_vname"      "cont_desc"       "rec_street"      "rec_city"       
#> [26] "rec_state"       "rec_zip"         "rec_cname"       "rec_party"       "rec_office"
```

```r
sample_frac(ok)
```

```
#> # A tibble: 1,729,262 x 30
#>    trans_index trans_date cont_id trans_amount rep_num ethics_id cont_type cont_street cont_city
#>    <chr>       <date>     <chr>          <dbl> <chr>   <chr>     <chr>     <chr>       <chr>    
#>  1 1257088     2010-12-31 212175         10    67773   597256    1         12130 JAYC… MIDWEST …
#>  2 1351749     2011-09-29 346082          1    70670   504008    1         31300 S 67… Grove    
#>  3 1253466     2010-05-13 471162        100    67694   110084    1         609 SW 103… Oklahoma…
#>  4 2191582     2015-02-18 658804       5187.   91674   114224    4         4020 N. Li… Oklahoma…
#>  5 1591586     2012-09-28 580664         30    77446   512001    1         2708 Elmhu… Oklahoma…
#>  6 1924578     2014-05-08 674816         50    85653   714032    1         914 Hoover  Norman   
#>  7 1110588     2010-06-18 478918       2500    62932   110465    1         P. O. Box … Okmulgee 
#>  8 2181664     2014-12-08 718972       1000    91299   114114    1         14901 LAUR… Oklahoma…
#>  9 338545      2006-07-07 100615         12    41847   297247    4         NONE        NONE     
#> 10 1228783     2010-11-29 77841           4.62 66749   297314    1         PO BOX 577  VINITA   
#> # … with 1,729,252 more rows, and 21 more variables: cont_state <chr>, cont_zip <chr>,
#> #   cont_fname <chr>, cont_mname <chr>, cont_lname <chr>, cont_employer <chr>,
#> #   cont_occupation <chr>, cont_bname <chr>, cont_activity <chr>, cont_interest <chr>,
#> #   cont_cname <chr>, cont_fec <chr>, cont_vname <chr>, cont_desc <chr>, rec_street <chr>,
#> #   rec_city <chr>, rec_state <chr>, rec_zip <chr>, rec_cname <chr>, rec_party <chr>,
#> #   rec_office <chr>
```
…
