…
``` r
raw_info <- dir_info(raw_dir)
sum(raw_info$size)
#> 261M
(raw_files <- raw_info %>%
  select(file_path = path, size, modification_time) %>% 
  mutate(file_id = as.character(row_number()), .before = 1) %>% 
  mutate(across(file_path, basename)))
#> # A tibble: 84 x 4
#>    file_id file_path                   size modification_time  
#>    <chr>   <chr>                <fs::bytes> <dttm>             
#>  1 1       ALL_CAN_EXP_1994.CSV       1.44M 2020-09-10 10:19:18
#>  2 2       ALL_CAN_EXP_1995.CSV       2.01M 2020-09-10 10:19:18
#>  3 3       ALL_CAN_EXP_1996.CSV       4.67M 2020-09-10 10:19:17
#>  4 4       ALL_CAN_EXP_1997.CSV       3.24M 2020-09-10 10:19:17
#>  5 5       ALL_CAN_EXP_1998.CSV       7.41M 2020-09-10 10:19:16
#>  6 6       ALL_CAN_EXP_1999.CSV       3.52M 2020-09-10 10:19:15
#>  7 7       ALL_CAN_EXP_2000.CSV        6.1M 2020-09-10 10:19:15
#>  8 8       ALL_CAN_EXP_2001.CSV       3.03M 2020-09-10 10:19:14
#>  9 9       ALL_CAN_EXP_2002.CSV       6.67M 2020-09-10 10:19:13
#> 10 10      ALL_CAN_EXP_2003.CSV       3.55M 2020-09-10 10:19:13
#> # … with 74 more rows
```
…
0.30% of rows are missing a key variable.

``` r
sum(ohe$na_flag)
#> [1] 3910
ohe %>% 
  filter(na_flag) %>% 
  select(date, con_name, amount, com_name)
#> # A tibble: 3,910 x 4
#>    date       con_name   amount com_name                      
#>    <date>     <chr>       <dbl> <chr>                         
#>  1 1994-03-31 <NA>         0.6  KEST CAMPAIGN COMMITTEE       
#>  2 1994-11-02 <NA>        12.0  BYRNE FOR STATE SCHOOL BOARD  
#>  3 NA         PETTY CASH  57.2  LEIGH HERINGTON COMMITTEE     
#>  4 1995-02-17 <NA>         3    BERNS FOR STATE REPRESENTATIVE
#>  5 1995-03-17 <NA>         3    BERNS FOR STATE REPRESENTATIVE
#>  6 1995-06-17 <NA>        15    BERNS FOR STATE REPRESENTATIVE
#>  7 1995-06-17 <NA>         1.85 BERNS FOR STATE REPRESENTATIVE
#>  8 1995-09-30 <NA>        25    BURKE FOR SENATE              
#>  9 1995-03-09 <NA>         3.5  FRIENDS OF BOB HAGAN          
#> 10 1995-05-11 <NA>        40    BOB BOGGS LEGISLATIVE FUND    
#> # … with 3,900 more rows
```
…
``` r
d1 <- duplicated(ohe, fromLast = FALSE)
d2 <- duplicated(ohe, fromLast = TRUE)
ohe <- mutate(ohe, dupe_flag = d1 | d2)
rm(d1, d2); flush_memory()
```

2.2% of rows are duplicated at least once.

``` r
ohe %>% 
  filter(dupe_flag) %>% 
  arrange(date, con_name) %>% 
  select(date, con_name, amount, com_name)
#> # A tibble: 28,577 x 4
#>    date       con_name                amount com_name                         
#>    <date>     <chr>                    <dbl> <chr>                            
#>  1 1990-01-02 DOLPHIN COMPUTER SYSTEM   64.2 VOINOVICH COMMITTEE  THE         
#>  2 1990-01-02 DOLPHIN COMPUTER SYSTEM   64.2 VOINOVICH COMMITTEE  THE         
#>  3 1990-02-06 GARICK & ASSOCITES        70   VOINOVICH COMMITTEE  THE         
#>  4 1990-02-06 GARICK & ASSOCITES        70   VOINOVICH COMMITTEE  THE         
#>  5 1990-02-06 GARICK & ASSOCITES        70   VOINOVICH COMMITTEE  THE         
#>  6 1990-02-22 ACE                      246.  VOINOVICH COMMITTEE  THE         
#>  7 1990-02-22 ACE                      246.  VOINOVICH COMMITTEE  THE         
#>  8 1990-03-01 MARGO ROTH              1000   FRIENDS OF FISHER COMMITTEE (LEE)
#>  9 1990-03-01 MARGO ROTH              1000   FRIENDS OF FISHER COMMITTEE (LEE)
#> 10 1990-03-19 FIFTH THIRD BANK          12.2 FRIENDS OF GOVERNOR TAFT         
#> # … with 28,567 more rows
```
…
``` r
ohe <- left_join(ohe, oh_addr_norm, by = "address")
```

    #> # A tibble: 243,177 x 2
    #>    address                address_norm        
    #>    <chr>                  <chr>               
    #>  1 1127 EUCLID AVE. #1100 1127 EUCLID AVE 1100
    #>  2 4921 DIERKER RD.       4921 DIERKER RD     
    #>  3 9888 READING RD.       9888 READING RD     
    #>  4 762 S. FRONT ST.       762 S FRNT ST       
    #>  5 PO BOX 610             PO BOX 610          
    #>  6 106 STURGES AVE.       106 STURGES AVE     
    #>  7 PO BOX 182375          PO BOX 182375       
    #>  8 P.O. BOX 182375        PO BOX 182375       
    #>  9 457 MORGAN ST.         457 MORGAN ST       
    #> 10 1638 TANGLEWOOD DR.    1638 TANGLEWOOD DR  
    #> # … with 243,167 more rows
…
      key_collision_merge() %>% 
      n_gram_merge(numgram = 1)
  ) %>% 
  filter(city_refine != city_swap) %>% 
  inner_join(
    y = zipcodes,
    by = c(
      "city_refine" = "city",
      "state_norm" = "state",
      "zip_norm" = "zip"
    )
  )
```

    #> # A tibble: 137 x 5
    #>    state_norm zip_norm city_swap    city_refine       n
    #>    <chr>      <chr>    <chr>        <chr>         <int>
    #>  1 OH         45263    CINCINATTI   CINCINNATI       40
    #>  2 OH         45208    CINCINATTI   CINCINNATI       24
    #>  3 OH         45249    CINCINATTI   CINCINNATI       15
    #>  4 OH         45202    CINCINATTI   CINCINNATI       13
    #>  5 CA         94110    SAN FRANSICO SAN FRANCISCO    11
    #>  6 OH         45214    CINCINATTI   CINCINNATI       11
    #>  7 OH         45274    CINCINATTI   CINCINNATI       11
    #>  8 AZ         85072    PHONIEX      PHOENIX          10
    #>  9 GA         30101    ARCHWORTH    ACWORTH          10
    #> 10 OH         44320    AKRONAKRON   AKRON             9
    #> # … with 127 more rows
…
