…
``` r
n_distinct(al$city)
#> [1] 3043
mean(al$city %in% valid_cities)
#> [1] 0.8315116
```

``` r
al %>% 
  filter(city %out% valid_cities) %>% 
  count(city) %>% 
  arrange(desc(n))
```

    #> # A tibble: 1,427 x 2
    #>    city                  n
    #>    <chr>             <int>
    #>  1 <NA>              32518
    #>  2 VESTAVIA            332
    #>  3 SYMMES TOWNSHIP     159
    #>  4 MTG                  89
    #>  5 PONTE VERDA BEACH    80
    #>  6 MONTOGMERY           76
    #>  7 BHAM                 74
    #>  8 ALEX CITY            72
    #>  9 FT LAUDERDALE        69
    #> 10 LUVURNE              66
    #> 11 SOMMERVILLE          59
    #> 12 MONTGOMERY,          58
    #> 13 PRATVILLE            56
    #> 14 RED WOOD CITY        49
    #> 15 MENIO PARK           46
    #> 16 MONTOMGERY           46
    #> 17 BIRMINGHAM,          45
    #> 18 MT. HOPE             42
    #> 19 TUSKEGEE INST        38
    #> 20 BATON ROUGE,         34
    #> 21 UNKNOWN              33
    #> 22 ST. LOUIS            32
    #> 23 OWENS CROSSROADS     31
    #> 24 BRIMINGHAM           30
    #> 25 PALTO ALTO           30
    #> 26 MT BROOK             29
    #> 27 HAMPTON COVE         28
    #> 28 FT. LAUDERDALE       27
    #> 29 BIRMNGHAM            25
    #> 30 AUBURNB              24
    #> 31 BIRMIGHAM            24
    #> 32 ENSLEY               24
    #> # … with 1,395 more rows
…
n_distinct(al$city_swap)
#> [1] 1949
mean(al$city_swap %in% valid_cities)
#> [1] 0.8378029
```

``` r
al %>% 
  filter(city_swap %out% valid_cities) %>% 
  count(state_clean, city_swap) %>% 
  arrange(desc(n)) %>% 
  drop_na()
```

    #> # A tibble: 318 x 3
    #>    state_clean city_swap                          n
    #>    <chr>       <chr>                          <int>
    #>  1 AL          VESTAVIA                         331
    #>  2 OH          SYMMES TOWNSHIP                  168
    #>  3 AL          MTG                               87
    #>  4 AL          ALEX CITY                         72
    #>  5 AL          BHAM                              71
    #>  6 AL          TUSKEGEE INST                     42
    #>  7 AL          MOUNT BROOK                       33
    #>  8 AL          HAMPTON COVE                      27
    #>  9 NY          NY                                24
    #> 10 NJ          DELRAN                            23
    #> 11 NY          NEW YORK CITY                     22
    #> 12 FL          MIAMI SHORES                      21
    #> 13 OH          GAHANNA                           18
    #> 14 AL          PRITCHARD                         15
    #> 15 FL          PONTE VERDA                       14
    #> 16 AL          WHISTLER                          13
    #> 17 MA          SOMERVILLE MA                     13
    #> 18 OH          SYMMES                            13
    #> 19 VA          TYSONS                            13
    #> 20 AL          MTGY                              11
    #> 21 MN          SHOREVIEW                         11
    #> 22 AL          ENSLEY                             9
    #> 23 AL          MOUNTAIN BRK                       9
    #> 24 AL          TUSKEGEE INSTITUTE POST OFFICE     9
    #> 25 GA          NORTH METRO                        9
    #> 26 OH          MAYFIELD VILLAGE                   9
    #> 27 AL          ASHAND                             8
    #> 28 AL          MONTG                              8
    #> 29 AL          REDSTONE ARSENAL                   8
    #> 30 TX          LAGO VISTA                         8
    #> 31 AL          SMITH STATION                      7
    #> 32 FL          MIRAMAR                            7
    #> # … with 286 more rows
…
