…
We can then flag any records missing a key variable like a name or
number.

``` r
key_vars <- c("date", "contributor", "amount", "committee")
dcc <- flag_na(dcc, all_of(key_vars))
sum(dcc$na_flag)
#> [1] 1925
```

``` r
dcc %>% 
  filter(na_flag) %>% 
  select(all_of(key_vars))
#> # A tibble: 1,925 × 4
#>    date                   contributor amount committee                    
#>    <chr>                  <chr>        <dbl> <chr>                        
#>  1 2020/11/02 05:00:00+00 <NA>            65 Hannah Untereiner            
#>  2 2018/11/05 05:00:00+00 <NA>             0 Kent C. Boese                
#>  3 2018/11/05 05:00:00+00 <NA>            NA Dan Orlaskey                 
#>  4 2022/11/07 05:00:00+00 <NA>             0 Veronica Adams               
#>  5 2017/01/16 05:00:00+00 <NA>           212 Amanda Frost                 
#>  6 2018/11/05 05:00:00+00 <NA>             0 Jamie Barden                 
#>  7 2008/03/10 04:00:00+00 <NA>           500 Muriel Bowser for Ward 4 2008
#>  8 2008/03/10 04:00:00+00 <NA>           500 Muriel Bowser for Ward 4 2008
#>  9 2016/08/09 04:00:00+00 <NA>           116 Barbara Rogers               
#> 10 2008/03/05 05:00:00+00 <NA>           500 Muriel Bowser for Ward 4 2008
#> # ℹ 1,915 more rows
```
…
