…
### Categorical

#### Year

We can see that the data is pretty up to date. However, there’re some
fileds indicating the annual registration was recorded in `2055`, which
is presumably a human error.

``` r
colr <- colr %>% 
  mutate(year = as.numeric(year))
tabyl(colr$year)
#> # A tibble: 28 x 4
#>    `colr$year`     n percent valid_percent
#>          <dbl> <dbl>   <dbl>         <dbl>
#>  1        1995  1173  0.0176        0.0176
#>  2        1996  1328  0.0199        0.0199
#>  3        1997  1087  0.0163        0.0163
#>  4        1998  1287  0.0193        0.0193
#>  5        1999  1905  0.0285        0.0285
#>  6        2000  1792  0.0268        0.0268
#>  7        2001  3383  0.0506        0.0506
#>  8        2002  1779  0.0266        0.0266
#>  9        2003  1986  0.0297        0.0297
#> 10        2004  2195  0.0328        0.0329
#> # … with 18 more rows
```
…
