…
We can set up the raw directory.

``` r
raw_dir <- dir_create(here("ga", "lobby", "data", "raw","exp"))
```

We can download the data files by year from 2006 to 2020. The 2020 data
file is downloaded on September 29.

Then We can view the file details here.

``` r
dir_info(raw_dir)
#> # A tibble: 30 x 18
#>    path       type   size permissions modification_time   user  group device_id hard_links
#>    <fs::path> <fct> <fs:> <fs::perms> <dttm>              <chr> <chr>     <dbl>      <dbl>
#>  1 /Users/ya… file  3.56M rw-r--r--   2020-09-29 12:27:16 yanq… staff  16777221          1
#>  2 /Users/ya… file   4.1M rw-r--r--   2020-09-29 12:25:57 yanq… staff  16777221          1
#>  3 /Users/ya… file   4.3M rw-r--r--   2020-09-23 21:06:20 yanq… staff  16777221          1
#>  4 /Users/ya… file  4.01M rw-r--r--   2020-09-23 21:03:19 yanq… staff  16777221          1
#>  5 /Users/ya… file  4.43M rw-r--r--   2020-09-23 21:05:00 yanq… staff  16777221          1
#>  6 /Users/ya… file  5.94M rw-r--r--   2020-09-23 20:36:19 yanq… staff  16777221          1
#>  7 /Users/ya… file  4.53M rw-r--r--   2020-09-23 20:35:51 yanq… staff  16777221          1
#>  8 /Users/ya… file  3.35M rw-r--r--   2020-09-23 19:08:40 yanq… staff  16777221          1
#>  9 /Users/ya… file  3.01M rw-r--r--   2020-09-23 17:45:33 yanq… staff  16777221          1
#> 10 /Users/ya… file  3.68M rw-r--r--   2020-09-23 17:40:24 yanq… staff  16777221          1
#> # … with 20 more rows, and 9 more variables: special_device_id <dbl>, inode <dbl>,
#> #   block_size <dbl>, blocks <dbl>, flags <int>, generation <dbl>, access_time <dttm>,
#> #   change_time <dttm>, birth_time <dttm>
```
…
