…
map2(ga_lob_curls,"lob",ga_lob_download)

### the 2001-2003 xls file can be accessed via a GET request
download.file("https://media.ethics.ga.gov/search/Lobbyist/Exp/Ros_2003_2001.xls", path(raw_dir,"ga_lob_0103.xls"))
```

We can view the file details here.

``` r
dir_info(raw_dir)
#> # A tibble: 68 x 18
#>    path       type   size permissions modification_time   user  group device_id hard_links
#>    <fs::path> <fct> <fs:> <fs::perms> <dttm>              <chr> <chr>     <dbl>      <dbl>
#>  1 /Users/ya… file      0 rw-r--r--   2020-09-04 10:50:34 yanq… staff  16777221          1
#>  2 /Users/ya… file      0 rw-r--r--   2020-09-04 10:50:34 yanq… staff  16777221          1
#>  3 /Users/ya… file  1.05M rw-r--r--   2020-09-09 14:42:14 yanq… staff  16777221          1
#>  4 /Users/ya… file  2.27M rw-r--r--   2020-09-04 10:50:35 yanq… staff  16777221          1
#>  5 /Users/ya… file  3.29M rw-r--r--   2020-09-09 14:46:08 yanq… staff  16777221          1
#>  6 /Users/ya… file  7.18M rw-r--r--   2020-09-04 10:50:37 yanq… staff  16777221          1
#>  7 /Users/ya… file  3.31M rw-r--r--   2020-09-09 14:50:08 yanq… staff  16777221          1
#>  8 /Users/ya… file  7.22M rw-r--r--   2020-09-04 10:50:39 yanq… staff  16777221          1
#>  9 /Users/ya… file  3.33M rw-r--r--   2020-09-09 14:53:37 yanq… staff  16777221          1
#> 10 /Users/ya… file  7.28M rw-r--r--   2020-09-04 10:31:01 yanq… staff  16777221          1
#> # … with 58 more rows, and 9 more variables: special_device_id <dbl>, inode <dbl>,
#> #   block_size <dbl>, blocks <dbl>, flags <int>, generation <dbl>, access_time <dttm>,
#> #   change_time <dttm>, birth_time <dttm>
```
…
``` r
galr %>% 
  filter(na_flag) %>% 
  select(FilerID, FirstName,LastName, DateRegistered,Association)
#> # A tibble: 0 x 5
#> # … with 5 variables: FilerID <chr>, FirstName <chr>, LastName <chr>, DateRegistered <chr>,
#> #   Association <chr>

galr_early %>% 
  filter(na_flag) %>% 
  select(FirstName,LastName, DateRegistered,Association)
#> # A tibble: 42 x 4
#>    FirstName LastName DateRegistered Association                                                   
#>    <chr>     <chr>    <date>         <chr>                                                         
#>  1 Saralyn   <NA>     2002-01-08     Secretary Of State,elections Division                         
#>  2 KAREN     <NA>     2002-07-11     Progressive Insurance                                         
#>  3 RANDY     CRAWFORD NA             BAKERY CONFECTIONARY TOBACCO & GRAIN MILLERS INTERNATIONAL UN…
#>  4 RICKEY    CRAWFORD NA             BAKERY CONFECTIONARY TOBACCO & GRAIN MILLER INTERNATIONAL UNI…
#>  5 J.        ALLEN    NA             GA. FORESTRY COMMISSION                                       
#>  6 ROBERT    FARRIS   NA             GA. FORESTRY COMMISSION                                       
#>  7 WILLIAM   LAZENBY  NA             GA. FORESTRY COMMISSION                                       
#>  8 MIKE      VAQUER   NA             INTERNATIONAL PAPER                                           
#>  9 CARLOTTA  FRANKLIN NA             METRO ATLANTA CHAMBER OF COMMERCE                             
#> 10 SAMUEL    GARDNER  NA             SPALDING COUNTY                                               
#> # … with 32 more rows
```
…
galr_early <- galr_early %>% 
  mutate(
    Phone_norm = normal_phone(
      number = "Phone",
      na_bad = FALSE,
      rm_ext = FALSE
    )
  )
```

    #> # A tibble: 3,925 x 3
    #>    Phone            PhoneExt Phone_norm
    #>    <chr>            <chr>    <chr>     
    #>  1 4046593122       <NA>     Phone_norm
    #>  2 (404) 506 - 6084 <NA>     Phone_norm
    #>  3 (404) 506 - 7915 <NA>     Phone_norm
    #>  4 (404) 290 - 4231 <NA>     Phone_norm
    #>  5 (404) 525 - 2793 <NA>     Phone_norm
    #>  6 (404) 506 - 7740 <NA>     Phone_norm
    #>  7 (770) 912 - 2582 <NA>     Phone_norm
    #>  8 (404) 897 - 7876 <NA>     Phone_norm
    #>  9 (706) 975 - 6145 <NA>     Phone_norm
    #> 10 (678) 595 - 9326 <NA>     Phone_norm
    #> # … with 3,915 more rows
    #> # A tibble: 1,590 x 2
    #>    Phone      Phone_norm
    #>    <chr>      <chr>     
    #>  1 7705592768 Phone     
    #>  2 4043306897 Phone     
    #>  3 4049861738 Phone     
    #>  4 4043785933 Phone     
    #>  5 9127438612 Phone     
    #>  6 4048153500 Phone     
    #>  7 4046575027 Phone     
    #>  8 7704242967 Phone     
    #>  9 9126343817 Phone     
    #> 10 6788371137 Phone     
    #> # … with 1,580 more rows
…
