…
``` r
are <- are %>% flag_na(date, last, amount, committee)
percent(mean(are$na_flag), 0.1)
#> [1] "25.3%"
```

A significant amount of records are missing the `last` name.

``` r
are %>% 
  filter(na_flag) %>% 
  select(date, last, amount, committee)
#> # A tibble: 9,846 x 4
#>    date       last  amount committee                       
#>    <date>     <chr>  <dbl> <chr>                           
#>  1 2017-08-22 <NA>    29.4 CLOUD FOR STATE REP CAMPAIGN    
#>  2 2017-08-22 <NA>    64   CLOUD FOR STATE REP CAMPAIGN    
#>  3 2017-09-20 <NA>   100   CLOUD FOR STATE REP CAMPAIGN    
#>  4 2017-09-25 <NA>    23.1 Ron McNair                      
#>  5 2017-09-07 <NA>    50   Ron McNair                      
#>  6 2017-08-24 <NA>    60   Ron McNair                      
#>  7 2017-07-17 <NA>     9.8 Wade William Andrews            
#>  8 2017-07-17 <NA>    25   Wade William Andrews            
#>  9 2017-07-17 <NA>    71.6 Wade William Andrews            
#> 10 2017-07-13 <NA>    28.6 Committee To Elect Spencer Hawks
#> # … with 9,836 more rows
```
…
If we ignore the supposedly unique `id` variable, there are a number of
duplicate records.

``` r
are <- flag_dupes(are, -id)
percent(mean(are$dupe_flag), 0.1)
#> [1] "1.8%"
```

``` r
are %>% 
  filter(dupe_flag) %>% 
  select(date, last, amount, committee)
#> # A tibble: 710 x 4
#>    date       last                amount committee                       
#>    <date>     <chr>                <dbl> <chr>                           
#>  1 2017-07-20 <NA>                    70 John David Maddox               
#>  2 2017-07-20 <NA>                    70 John David Maddox               
#>  3 2017-08-07 Bank of Little Rock      2 Ross Allen Noland               
#>  4 2017-08-07 Bank of Little Rock      2 Ross Allen Noland               
#>  5 2017-08-10 Big Red                 25 Kim David Hammer                
#>  6 2017-08-10 Big Red                 25 Kim David Hammer                
#>  7 2017-08-22 Boys & Girls Club      100 Kim David Hammer                
#>  8 2017-08-22 Boys & Girls Club      100 Kim David Hammer                
#>  9 2018-10-12 McAlister              100 Committee To Elect Spencer Hawks
#> 10 2018-10-12 McAlister              100 Committee To Elect Spencer Hawks
#> # … with 700 more rows
```
…
