…
### Duplicates

``` r
wyc <- flag_dupes(wyc, everything(), .check = TRUE)
mean(wyc$dupe_flag)
#> [1] 0.009665863
```

``` r
wyc %>% 
  filter(dupe_flag) %>% 
  select(date, contributor_name, amount, recipient_name)
#> # A tibble: 429 x 4
#>    date       contributor_name                                amount recipient_name          
#>    <date>     <chr>                                            <dbl> <chr>                   
#>  1 2018-10-11 FFFWY FIRE PAC (CHEYENNE)                         500  "RYAN FOR WYOMING"      
#>  2 2018-10-11 FFFWY FIRE PAC (CHEYENNE)                         500  "RYAN FOR WYOMING"      
#>  3 2018-10-11 FFFWY FIRE PAC (CHEYENNE)                         500  "RYAN FOR WYOMING"      
#>  4 2018-10-05 SCHNEIDER, DIANE  (DENVER)                         25  "FRIENDS OF MARK GORDON"
#>  5 2018-10-05 SCHNEIDER, DIANE  (DENVER)                         25  "FRIENDS OF MARK GORDON"
#>  6 2018-10-04 CAMPBELL (GILLETTE)                               257. "TIMOTHY HALLINAN "     
#>  7 2018-10-04 CAMPBELL (GILLETTE)                               257. "TIMOTHY HALLINAN "     
#>  8 2018-10-04 CAMPBELL (GILLETTE)                               257. "TIMOTHY HALLINAN "     
#>  9 2018-10-04 WYOMING MINING ASSOCIATION PAC (WMA) (CHEYENNE)   100  "TOM WALTERS "          
#> 10 2018-10-04 WYOMING MINING ASSOCIATION PAC (WMA) (CHEYENNE)   100  "TOM WALTERS "          
#> # … with 419 more rows
```
…
