…
    #Check for the unique values of the payment order prefix to see if there are any inconsistances
    df3 %>%
      select(PaymentOrder_Prefix) %>%
      unique()

    ## # A tibble: 178 x 1
    ##    PaymentOrder_Prefix
    ##    <chr>              
    ##  1 DEP                
    ##  2 HHR                
    ##  3 BPH                
    ##  4 CSE                
    ##  5 BHS                
    ##  6 EHS                
    ##  7 LBS                
    ##  8 BCF                
    ##  9 DMV                
    ## 10 GSD                
    ## # ... with 168 more rows

    #Check for the unique values of the change order entries to see if there are any inconsistances
    df3 %>%
      select(ChangeOrder_Number) %>%
      unique() %>%
      arrange(ChangeOrder_Number)

    ## # A tibble: 77 x 1
    ##    ChangeOrder_Number
    ##                 <dbl>
    ##  1                  0
    ##  2                  1
    ##  3                  2
    ##  4                  3
    ##  5                  4
    ##  6                  5
    ##  7                  6
    ##  8                  7
    ##  9                  8
    ## 10                  9
    ## # ... with 67 more rows
…
