…
``` r
percent(mean(vac$dupe_flag), 0.01)
#> [1] NA
```

``` r
vac %>% 
  filter(dupe_flag) %>% 
  select(all_of(key_vars)) %>% 
  arrange(date, con_name)
#> # A tibble: 14,493 x 4
#>    con_name     date                amount fil_name                
#>    <chr>        <dttm>               <dbl> <chr>                   
#>  1 MICHEL KING  2012-01-09 00:00:00   250  ActBlue Virginia        
#>  2 MICHEL KING  2012-01-09 00:00:00   100  ActBlue Virginia        
#>  3 MICHEL KING  2012-01-09 00:00:00   250  ActBlue Virginia        
#>  4 MICHEL KING  2012-01-09 00:00:00   100  ActBlue Virginia        
#>  5 MICHEL KING  2012-01-09 00:00:00   250  ActBlue Virginia        
#>  6 MICHEL KING  2012-01-09 00:00:00   100  ActBlue Virginia        
#>  7 Anthony Peay 2012-01-10 00:00:00   106. Virginia Bankers BankPAC
#>  8 Anthony Peay 2012-01-10 00:00:00   106. Virginia Bankers BankPAC
#>  9 Cary Ayers   2012-01-10 00:00:00   120  Virginia Bankers BankPAC
#> 10 Cary Ayers   2012-01-10 00:00:00   120  Virginia Bankers BankPAC
#> # … with 14,483 more rows
```
…
These transactions were made in 2009 and weren’t reported until 2014.

``` r
vac %>% 
  filter(year == 2009) %>% 
  count(date, filing_date, sort = TRUE)
#> # A tibble: 184 x 3
#>    date                filing_date             n
#>    <dttm>              <dttm>              <int>
#>  1 2009-11-05 00:00:00 2014-01-09 17:23:20  2210
#>  2 2009-11-05 00:00:00 2014-04-14 15:37:51  2210
#>  3 2009-10-23 00:00:00 2014-01-09 17:23:20  1627
#>  4 2009-10-23 00:00:00 2014-04-14 15:37:51  1627
#>  5 2009-11-07 00:00:00 2014-01-09 17:23:20  1588
#>  6 2009-11-07 00:00:00 2014-04-14 15:37:51  1588
#>  7 2009-11-21 00:00:00 2014-01-09 17:23:20  1141
#>  8 2009-11-21 00:00:00 2014-04-14 15:37:51  1141
#>  9 2009-11-02 00:00:00 2014-01-09 17:23:20  1115
#> 10 2009-11-02 00:00:00 2014-04-14 15:37:51  1115
#> # … with 174 more rows
```
…
    sep = " ",
    remove = FALSE,
    na.rm = TRUE
  ) %>% 
  mutate(
    con_addr_norm = normal_address(
      address = con_addr_full,
      abbs = usps_street,
      na_rep = TRUE
    )
  ) %>% 
  select(-con_addr_full)
```

    #> # A tibble: 471,978 x 3
    #>    con_addr1                              con_addr2  con_addr_norm                     
    #>    <chr>                                  <chr>      <chr>                             
    #>  1 900 N. Michigan Avenue                 Suite 1600 900 N MICHIGAN AVE STE 1600       
    #>  2 Action Now Initiative, LLC             Suite 1800 ACTION NOW INITIATIVE LLC STE 1800
    #>  3 7004 West Franklin Street              <NA>       7004 W FRANKLIN ST                
    #>  4 PO Box 72050                           <NA>       PO BOX 72050                      
    #>  5 65 East State Street                   16th Floor 65 E STATE ST 16 TH FL            
    #>  6 2112 W Laburnum Ave                    2112       2112 W LABURNUM AVE 2112          
    #>  7 One James Center, 901 East Cary Street <NA>       ONE JAMES CTR 901 E CARY ST       
    #>  8 536 Old Howell Rd                      <NA>       536 OLD HOWELL RD                 
    #>  9 4022 Stirrup Circle Drive              <NA>       4022 STIRRUP CIR DR               
    #> 10 901 East Bird Street                   Suite 500  901 E BIRD ST STE 500             
    #> # … with 471,968 more rows
…
    con_city_swap = if_else(
      condition = !is.na(match_dist) & match_abb | match_dist == 1,
      true = city_match,
      false = con_city_norm
    )
  ) %>% 
  select(
    -city_match,
    -match_dist,
    -match_abb,
    -n
  )
```

    #> # A tibble: 3,898 x 4
    #>    con_city_norm con_state con_zip_norm con_city_swap      
    #>    <chr>         <chr>     <chr>        <chr>              
    #>  1 MC LEAN       VA        22101        MCLEAN             
    #>  2 MC LEAN       VA        22102        MCLEAN             
    #>  3 VA BEACH      VA        23451        VIRGINIA BEACH     
    #>  4 VALLEY        NY        11581        VALLEY STREAM      
    #>  5 NEWTON        MA        02459        NEWTON CENTER      
    #>  6 AMELIA        VA        23002        AMELIA COURT HOUSE 
    #>  7 VA BEACH      VA        23454        VIRGINIA BEACH     
    #>  8 MC DOWELL     VA        24458        MCDOWELL           
    #>  9 CHINCOTEAGUE  VA        23336        CHINCOTEAGUE ISLAND
    #> 10 MANSSAS       VA        20111        MANASSAS           
    #> # … with 3,888 more rows
…
    fil_city_swap = if_else(
      condition = !is.na(match_dist) & match_abb | match_dist == 1,
      true = city_match,
      false = fil_city_norm
    )
  ) %>% 
  select(
    -city_match,
    -match_dist,
    -match_abb,
    -n
  )
```

    #> # A tibble: 41 x 4
    #>    fil_city_norm fil_state fil_zip_norm fil_city_swap  
    #>    <chr>         <chr>     <chr>        <chr>          
    #>  1 HMAPTON       VA        23666        HAMPTON        
    #>  2 MC LEAN       VA        22101        MCLEAN         
    #>  3 FAIRFAX       VA        22039        FAIRFAX STATION
    #>  4 DUMFIRES      VA        22026        DUMFRIES       
    #>  5 WASHINGON     DC        20003        WASHINGTON     
    #>  6 VA BEACH      VA        23451        VIRGINIA BEACH 
    #>  7 RICHOMND      VA        23235        RICHMOND       
    #>  8 VIRGINIA      VA        23453        VIRGINIA BEACH 
    #>  9 NEWPPORT NEWS VA        23602        NEWPORT NEWS   
    #> 10 PURCELLIVILLE VA        20134        PURCELLVILLE   
    #> # … with 31 more rows
…
    #> [1] 464
    #> # A tibble: 178 x 5
    #>    con_state con_zip_norm con_city_swap          con_city_refine     n
    #>    <chr>     <chr>        <chr>                  <chr>           <int>
    #>  1 NY        11733        SETAUKET               EAST SETAUKET      28
    #>  2 VA        22180        VIENNA VA              VIENNA             19
    #>  3 VA        22401        FREDERCISKBURG         FREDERICKSBURG     19
    #>  4 OH        45206        CINCINATTI             CINCINNATI         17
    #>  5 MN        55317        CHANHASSENCHANHASSEN   CHANHASSEN         14
    #>  6 NY        11733        SETAUKET EAST SETAUKET EAST SETAUKET      13
    #>  7 VA        20106        AMMISVILLE             AMISSVILLE         13
    #>  8 VA        24112        MARTINSVILLE VA        MARTINSVILLE       12
    #>  9 VA        22901        CHARLOTTESVILLE VA     CHARLOTTESVILLE    10
    #> 10 VA        22980        WAWAYNESBORO           WAYNESBORO         10
    #> # … with 168 more rows
…
