…
Of those pilots missing a first or last name, most appear to be from
cultures where not everybody has a name that matches the Western surname
tradition.

``` r
faa %>% 
  filter(is.na(FIRSTNAME) | is.na(LASTNAME))
#> # A tibble: 75 x 13
#>    UNIQUEID FIRSTNAME  LASTNAME  STREET1    STREET2   CITY   STATE ZIPCODE COUNTRY REGION MEDCLASS MEDDATE    MEDEXPDATE
#>    <chr>    <chr>      <chr>     <chr>      <chr>     <chr>  <chr> <chr>   <chr>   <chr>     <int> <date>     <date>    
#>  1 A0181639 <NA>       BOOTS     1829 ROYA… <NA>      KNOXV… TN    37922-… USA     CE            2 2014-07-01 2015-07-01
#>  2 A1045119 <NA>       KONGPINDA PO BOX 29… CAMEROON… DOUALA <NA>  <NA>    CAMERO… FS            1 2019-08-01 2020-02-01
#>  3 A1364585 HIWON      <NA>      39 HITCHI… <NA>      GLEN … NY    11542-… USA     EA            3 2019-05-01 2021-05-01
#>  4 A4910558 <NA>       GEOFRE    P O BOX N… <NA>      FAHAH… <NA>  64025   KUWAIT  FS            1 2017-03-01 2018-03-01
#>  5 A5021848 BO WEON    <NA>      20900 NEW… <NA>      BROOK… MD    20833-… USA     EA           NA NA         NA        
#>  6 A5047056 ANDREW HY… <NA>      1314 LITT… <NA>      CROFT… MD    21114-… USA     EA           NA NA         NA        
#>  7 A5061999 <NA>       MANJEET … E 4 BLOCK… APPT ZAM… CHENN… <NA>  600043  INDIA   FS           NA NA         NA        
#>  8 A5123054 SHAMI      <NA>      VPO BINEW… <NA>      GHARS… <NA>  144527  INDIA   FS           NA NA         NA        
#>  9 A5129027 DAVID SEU… <NA>      130 DESCA… <NA>      SAN J… CA    95134-… USA     WP            1 2019-12-01 2020-12-01
#> 10 A5136906 <NA>       HANUMANT  1835 WOOD… <NA>      SPRING TX    77380-… USA     SW            1 2019-05-01 2020-05-01
#> # … with 65 more rows
```
…
``` r
faa <- flag_dupes(faa, -UNIQUEID)
sum(faa$dupe_flag)
#> [1] 144872
```

The few existing duplicates do have their own `UNIQUEID` but duplicate
everything else, including the address and medical evaluation dates.

``` r
faa %>% 
  filter(dupe_flag) %>% 
  arrange(FIRSTNAME, LASTNAME)
#> # A tibble: 144,872 x 14
#>    UNIQUEID FIRSTNAME   LASTNAME   STREET1    STREET2 CITY   STATE ZIPCODE COUNTRY REGION MEDCLASS MEDDATE    MEDEXPDATE
#>    <chr>    <chr>       <chr>      <chr>      <chr>   <chr>  <chr> <chr>   <chr>   <chr>     <int> <date>     <date>    
#>  1 A0670872 A ANDREW    GIANGRECO… 16837 ANC… <NA>    WIMAU… FL    33598-… USA     SO            1 2020-12-01 2021-06-01
#>  2 A0670872 A ANDREW    GIANGRECO… 16837 ANC… <NA>    WIMAU… FL    33598-… USA     SO            1 2020-12-01 2021-06-01
#>  3 A3836731 A'KIN MANU  BOYD       1110 NUGE… <NA>    BAY S… NY    11706-… USA     EA            2 2019-06-01 2020-06-01
#>  4 A3836731 A'KIN MANU  BOYD       1110 NUGE… <NA>    BAY S… NY    11706-… USA     EA            2 2019-06-01 2020-06-01
#>  5 A5212453 AAKARSH CH… ALAPARTHI  MIG54 BAL… KUKATP… HYDER… <NA>  500072  INDIA   FS           NA NA         NA        
#>  6 A5212453 AAKARSH CH… ALAPARTHI  MIG54 BAL… KUKATP… HYDER… <NA>  500072  INDIA   FS           NA NA         NA        
#>  7 A5223707 AALEN DJOTE NORTON     PO BOX 54… <NA>    GRAND… TX    75054-… USA     SW            1 2016-07-01 2017-07-01
#>  8 A5223707 AALEN DJOTE NORTON     PO BOX 54… <NA>    GRAND… TX    75054-… USA     SW            1 2016-07-01 2017-07-01
#>  9 A4002468 AAMIR MOHA… KHAN       6880 PALE… <NA>    HUGHE… MD    20637-… USA     EA            1 2020-11-01 2021-05-01
#> 10 A4002468 AAMIR MOHA… KHAN       6880 PALE… <NA>    HUGHE… MD    20637-… USA     EA            1 2020-11-01 2021-05-01
#> # … with 144,862 more rows, and 1 more variable: dupe_flag <lgl>
```
…
