…
We can flag any record missing a key variable needed to identify a
transaction.

``` r
key_vars <- c("transaction_date", "committee_name", "amount", "last_name")
aze <- flag_na(aze, all_of(key_vars))
sum(aze$na_flag)
#> [1] 41
```

``` r
aze %>% 
  filter(na_flag) %>% 
  select(all_of(key_vars))
#> # A tibble: 41 × 4
#>    transaction_date committee_name    amount last_name
#>    <date>           <chr>              <dbl> <chr>    
#>  1 2014-05-16       <NA>                -15  Eames    
#>  2 2014-05-16       <NA>                -20  Eames    
#>  3 2014-05-26       <NA>                -25  Eames    
#>  4 2014-05-20       <NA>               -100  Eames    
#>  5 2014-05-27       <NA>               -150  Eames    
#>  6 2014-02-03       Elect Steve Smith  -135  <NA>     
#>  7 2014-04-14       Elect Steve Smith   -20  <NA>     
#>  8 2014-08-08       <NA>               -996. Eames    
#>  9 2014-08-11       <NA>               -177. Eames    
#> 10 2014-08-11       <NA>              -1000  Karl     
#> # … with 31 more rows
```
…
We can also flag any record completely duplicated across every column.

``` r
aze <- flag_dupes(aze, -transaction_id)
sum(aze$dupe_flag)
#> [1] 23
```

``` r
aze %>% 
  filter(dupe_flag) %>% 
  select(all_of(key_vars)) %>% 
  arrange(transaction_date, committee_name)
#> # A tibble: 23 × 4
#>    transaction_date committee_name                                   amount last_name     
#>    <date>           <chr>                                             <dbl> <chr>         
#>  1 1999-12-30       COMMITTEE TO ELECT LINDA BINDER DIST 1 REP 2000 -124.   MEAHL         
#>  2 1999-12-30       COMMITTEE TO ELECT LINDA BINDER DIST 1 REP 2000 -124.   MEAHL         
#>  3 2000-06-30       CAPALBY 2000                                     -64    FRENCH        
#>  4 2000-06-30       CAPALBY 2000                                     -64    FRENCH        
#>  5 2000-08-16       FRIENDS OF RON GAWLITTA                           -0.01 BENNING, JOYCE
#>  6 2000-08-16       FRIENDS OF RON GAWLITTA                           -0.01 BENNING, JOYCE
#>  7 2000-08-16       FRIENDS OF RON GAWLITTA                           -0.01 BENNING, JOYCE
#>  8 2000-08-16       FRIENDS OF RON GAWLITTA                           -0.01 BENNING, JOYCE
#>  9 2006-05-28       ROBERT D JOHNSON                                 -48    JOHNSON       
#> 10 2006-05-28       ROBERT D JOHNSON                                 -48    JOHNSON       
#> # … with 13 more rows
```
…
