…
``` r
arc %>% 
  select(contains("address")) %>% 
  distinct() %>% 
  sample_frac()
#> # A tibble: 38,121 x 3
#>    address1                  address2 address_norm      
#>    <chr>                     <chr>    <chr>             
#>  1 310 N Washington          <NA>     310 N WASHINGTON  
#>  2 5 Ranch Valley Dr         <NA>     5 RNCH VLY DR     
#>  3 114 Rocky Branch Cove     <NA>     114 ROCKY BR CV   
#>  4 P. O. BOX 21440           <NA>     PO BOX 21440      
#>  5 25 Jacob Pl               <NA>     25 JACOB PL       
#>  6 798 Aurelia Street        <NA>     798 AURELIA ST    
#>  7 12 Tanglewood Ln          <NA>     12 TANGLEWOOD LN  
#>  8 34 Oakmont Dr             <NA>     34 OAKMONT DR     
#>  9 1021 South Janelle Avenue <NA>     1021 S JANELLE AVE
#> 10 904 Cedar St              <NA>     904 CEDAR ST      
#> # … with 38,111 more rows
```
…
