…
### Categorical

#### Year

We can see that the data is pretty up to date. However, there’re some
fileds indicating the annual registration was recorded in `2055`, which
is presumably a human error.

``` r
colr <- colr %>% 
  mutate(year = as.numeric(year))
tabyl(colr$year)
#> # A tibble: 30 × 3
#>    `colr$year`     n percent
#>          <dbl> <int>   <dbl>
#>  1        1995  1173  0.0142
#>  2        1996  1328  0.0161
#>  3        1997  1087  0.0132
#>  4        1998  1287  0.0156
#>  5        1999  1905  0.0231
#>  6        2000  1792  0.0217
#>  7        2001  3382  0.0410
#>  8        2002  1778  0.0216
#>  9        2003  1985  0.0241
#> 10        2004  2194  0.0266
#> # … with 20 more rows
```
…
