…
min(co_exp$expenditure_receipt_date, na.rm = T)
#> [1] "0002-05-03"
max(co_exp$expenditure_receipt_date, na.rm = T)
#> [1] "4014-03-11"
```

#### Year

We can see the distribution of the `year` variable as such.

``` r
tabyl(co_exp$fiscal_year)
#> # A tibble: 30 × 4
#>    `co_exp$fiscal_year`     n percent valid_percent
#>    <chr>                <int>   <dbl>         <dbl>
#>  1 1995                  3743  0.0539        0.0541
#>  2 1996                  6855  0.0987        0.0990
#>  3 1997                  6898  0.0993        0.0996
#>  4 1998                  6784  0.0977        0.0980
#>  5 1999                  6252  0.0900        0.0903
#>  6 2000                  6535  0.0941        0.0944
#>  7 2001                  6475  0.0932        0.0935
#>  8 2002                  4080  0.0587        0.0589
#>  9 2003                  2751  0.0396        0.0397
#> 10 2004                  2797  0.0403        0.0404
#> # … with 20 more rows
```
…
