…
The rows missing `state_code` have a foreign `city` value, which makes
sense.

``` r
sec %>% 
  filter(is.na(state_code)) %>% 
  count(city, sort = TRUE)
#> # A tibble: 21 × 2
#>    city                  n
#>    <chr>             <int>
#>  1 LONDON               16
#>  2 TORONTO, ONTARIO     12
#>  3 TORONTO               3
#>  4 CALGARY               2
#>  5 HAGATNA               2
#>  6 MONTREAL              2
#>  7 TORONTO, ON           2
#>  8 DUBLIN 2              1
#>  9 EDINBURGH             1
#> 10 FRANKFURT AM MAIN     1
#> # … with 11 more rows
```
…
