…
We can flag any record missing a key variable needed to identify a
transaction.

``` r
key_vars <- c("date", "last", "amount", "committee")
ake <- flag_na(ake, all_of(key_vars))
sum(ake$na_flag)
#> [1] 69
```

``` r
ake %>% 
  filter(na_flag) %>% 
  select(all_of(key_vars))
#> # A tibble: 69 x 4
#>    date       last  amount committee                                                                                    
#>    <date>     <chr>  <dbl> <chr>                                                                                        
#>  1 2019-07-19 <NA>   1673. Liz Snyder                                                                                   
#>  2 2017-02-22 <NA>      0  IUOE Local 302 PAC  (International Union of Operating Engineers Local 302 Political Action C…
#>  3 2017-02-22 <NA>      0  IUOE Local 302 PAC  (International Union of Operating Engineers Local 302 Political Action C…
#>  4 2017-02-22 <NA>      0  IUOE Local 302 PAC  (International Union of Operating Engineers Local 302 Political Action C…
#>  5 2017-02-22 <NA>      0  IUOE Local 302 PAC  (International Union of Operating Engineers Local 302 Political Action C…
#>  6 2017-02-22 <NA>      0  IUOE Local 302 PAC  (International Union of Operating Engineers Local 302 Political Action C…
#>  7 2017-02-22 <NA>      0  IUOE Local 302 PAC  (International Union of Operating Engineers Local 302 Political Action C…
#>  8 2017-02-22 <NA>      0  IUOE Local 302 PAC  (International Union of Operating Engineers Local 302 Political Action C…
#>  9 2017-02-22 <NA>      0  IUOE Local 302 PAC  (International Union of Operating Engineers Local 302 Political Action C…
#> 10 2017-02-22 <NA>      0  IUOE Local 302 PAC  (International Union of Operating Engineers Local 302 Political Action C…
#> # … with 59 more rows
```
### Duplicates

We can also flag any record completely duplicated across every column.

``` r
ake <- flag_dupes(ake, -txn)
sum(ake$dupe_flag)
#> [1] 37764
```

``` r
ake %>% 
  filter(dupe_flag) %>% 
  select(txn, all_of(key_vars))
#> # A tibble: 37,764 x 5
#>    txn   date       last     amount committee      
#>    <chr> <date>     <chr>     <dbl> <chr>          
#>  1 38    2020-01-18 Donorbox    3.2 George Martinez
#>  2 39    2020-01-18 Donorbox    3.2 George Martinez
#>  3 42    2020-01-30 Donorbox    3.2 George Martinez
#>  4 44    2020-01-30 Donorbox    3.2 George Martinez
#>  5 45    2020-01-30 Donorbox    3.2 George Martinez
#>  6 46    2020-01-30 Donorbox    3.2 George Martinez
#>  7 47    2020-01-30 Donorbox    3.2 George Martinez
#>  8 49    2020-01-31 Donorbox    3.2 George Martinez
#>  9 50    2020-01-31 Donorbox    3.2 George Martinez
#> 10 51    2020-01-31 Donorbox    3.2 George Martinez
#> # … with 37,754 more rows
```
…
``` r
ake %>% 
  filter(state != state_norm) %>% 
  count(state, state_norm, sort = TRUE)
#> # A tibble: 52 x 3
#>    state                state_norm      n
#>    <chr>                <chr>       <int>
#>  1 Alaska               AK         184667
#>  2 California           CA          30762
#>  3 Washington           WA           4187
#>  4 Massachusetts        MA           3922
#>  5 Louisiana            LA           3252
#>  6 New York             NY           2310
#>  7 Texas                TX           1891
#>  8 District of Columbia DC           1540
#>  9 Virginia             VA            938
#> 10 Nebraska             NE            892
#> # … with 42 more rows
```
…
      key_collision_merge() %>% 
      n_gram_merge(numgram = 1)
  ) %>% 
  filter(city_refine != city_swap) %>% 
  inner_join(
    y = zipcodes,
    by = c(
      "city_refine" = "city",
      "state_norm" = "state",
      "zip_norm" = "zip"
    )
  )
```

    #> # A tibble: 31 x 5
    #>    state_norm zip_norm city_swap    city_refine       n
    #>    <chr>      <chr>    <chr>        <chr>         <int>
    #>  1 CA         94110    SAN FRANSICO SAN FRANCISCO   228
    #>  2 CA         94107    SAN FRANSICO SAN FRANCISCO    94
    #>  3 AK         99518    ANCHROGE     ANCHORAGE        56
    #>  4 MA         02144    SOMMERSVILLE SOMERVILLE       16
    #>  5 IL         60197    CORAL STREAM CAROL STREAM     13
    #>  6 AK         99926    METLATKA     METLAKATLA        8
    #>  7 CA         94120    SAN FRANSICO SAN FRANCISCO     7
    #>  8 AK         99654    WASSILA      WASILLA           6
    #>  9 CA         94103    SAN FRANSICO SAN FRANCISCO     6
    #> 10 CA         94102    SAN FRANSCIO SAN FRANCISCO     5
    #> # … with 21 more rows
…
