…
``` r
njl <- njle %>% flag_na(filer, filing_date, total_expenditures)
sum(njle$na_flag)
#> [1] 0
```

``` r
njl %>% 
  filter(na_flag) %>% 
  select(filer, filing_date, total_expenditures)
#> # A tibble: 254 x 3
#>    filer                                            filing_date total_expenditures
#>    <chr>                                            <chr>       <chr>             
#>  1 NJ EDUCATION ASSN - SEE AMENDMENT DATED 4-4-03   2/6/03      <NA>              
#>  2 ASSN OF JEWISH FEDERATIONS OF NEW JERSEY         <NA>        35975             
#>  3 AETNA US HEALTHCARE                              <NA>        223573.67999999999
#>  4 AFFORDABLE HOUSING NETWORK OF NJ                 <NA>        3716              
#>  5 AIR BAG & SEATBELT SAFETY CAMPAIGN               <NA>        34000             
#>  6 ALBANESE, GEORGE J - ALMAN MANAGEMENT GROUP INC. <NA>        72525             
#>  7 ALLIANCE OF AMERICAN INSURERS                    <NA>        33115             
#>  8 ALLIEDSIGNAL INC                                 <NA>        64010.5           
#>  9 AMERICAN AUTOMOBILE MANUFACTURERS ASSOC          <NA>        8000              
#> 10 AMERICAN COUNCIL OF LIFE INSURANCE               <NA>        15681.799999999999
#> # … with 244 more rows
```
…
