…
``` r
key_vars <- c("first_name", "last_name", "regn_date", "status")
msv <- flag_na(msv, all_of(key_vars))
sum(msv$na_flag)
#> [1] 386
```

386 voters are missing a key variable (mostly a first name).

``` r
msv %>% 
  filter(na_flag) %>% 
  select(all_of(key_vars))
#> # A tibble: 386 x 4
#>    first_name last_name regn_date  status
#>    <chr>      <chr>     <chr>      <chr> 
#>  1 <NA>       ADAMS     08/18/1972 Purged
#>  2 <NA>       AIKEN     05/31/1993 Purged
#>  3 <NA>       ALEXANDER 06/10/1983 Purged
#>  4 <NA>       ALGEE     06/28/1988 Purged
#>  5 <NA>       AMBROSE   10/23/1908 Purged
#>  6 <NA>       ANDERSON  10/02/1985 Purged
#>  7 <NA>       ANDERTON  06/23/1975 Purged
#>  8 <NA>       ANGLIN    06/09/1975 Purged
#>  9 <NA>       ASHFORD   10/06/1993 Purged
#> 10 <NA>       AVANT     06/04/1970 Purged
#> # … with 376 more rows
```
…
We can see that, despite unique IDs, there *are* duplicate voters.

``` r
msv %>% 
  filter(dupe_flag) %>% 
  select(mapping_value, all_of(key_vars), res_zip_code) %>% 
  arrange(last_name)
#> # A tibble: 424 x 6
#>    mapping_value first_name last_name regn_date  status res_zip_code
#>    <chr>         <chr>      <chr>     <chr>      <chr>  <chr>       
#>  1 1567431       EDDIE      ALEXANDER 06/30/1998 Purged 39301-2203  
#>  2 1567488       EDDIE      ALEXANDER 06/30/1998 Purged 39301-2203  
#>  3 1726670553    MICHELLE   ANDERSON  08/23/2019 Active 39204       
#>  4 1726670547    MICHELLE   ANDERSON  08/23/2019 Active 39204       
#>  5 16380687      NANCY      ASHMORE   09/29/1995 Purged 39740       
#>  6 16380684      NANCY      ASHMORE   09/29/1995 Purged 39740       
#>  7 1725536946    LINDA      BARNES    08/09/2010 Active 39530       
#>  8 1725536952    LINDA      BARNES    08/09/2010 Active 39530       
#>  9 1042968       CARYL      BEATY     02/14/2000 Active 38661-9558  
#> 10 1042971       CARYL      BEATY     02/14/2000 Active 38661-9558  
#> # … with 414 more rows
```
…
