…
``` r
key_vars <- c("legalname", "akformeddate", "any_addr1")
akc <- flag_na(akc, all_of(key_vars))
sum(akc$na_flag)
#> [1] 358
```

``` r
akc %>% 
  filter(na_flag) %>% 
  select(all_of(key_vars))
#> # A tibble: 358 × 3
#>    legalname                                           akformeddate any_addr1
#>    <chr>                                               <date>       <chr>    
#>  1 ALASKA RAILROAD CORPORATION                         1997-01-01   <NA>     
#>  2 MADE IN ALASKA                                      1987-07-30   <NA>     
#>  3 CAMPBELL GLEN OWNERS ASSOCIATION, INC.              1974-05-03   <NA>     
#>  4 Alaska Urological Institute, P.C.                   1976-03-03   <NA>     
#>  5 KALEN & ASSOCIATES, INC.                            1970-06-26   <NA>     
#>  6 UNIVERSITY PLACE CONDOMINIUM ASSOCIATION            1982-04-05   <NA>     
#>  7 GEOCHEM, INC.                                       1982-02-01   <NA>     
#>  8 INVESTMENT GROUP, INCORPORATED                      1978-05-08   <NA>     
#>  9 ALASKA INDEPENDENT INSURANCE AGENTS & BROKERS, INC. 1960-01-05   <NA>     
#> 10 TARAL VALLEY ELECTRIC COOPERATIVE, INC.             1981-10-08   <NA>     
#> # … with 348 more rows
```
…
``` r
addr_norm
#> # A tibble: 64,490 × 3
#>    any_addr1                  any_addr2                     address_norm                                      
#>    <chr>                      <chr>                         <chr>                                             
#>  1 4199 CAMPUS DR 9TH FL      <NA>                          4199 CAMPUS DR 9TH FL                             
#>  2 20 QUEEN ST W 5TH FL       <NA>                          20 QUEEN ST W 5TH FL                              
#>  3 1347 E 74TH AVE            <NA>                          1347 E 74TH AVE                                   
#>  4 TAX DEPT                   7259 S BINGHAM JCTN BLVD      TAX DEPT 7259 S BINGHAM JCT BLVD                  
#>  5 1521 W. CAMERON AVENUE     <NA>                          1521 W CAMERON AVE                                
#>  6 5099 E BLUE LUPINE DR #201 <NA>                          5099 E BLUE LUPINE DR #201                        
#>  7 1114 GLACIER AVE           <NA>                          1114 GLACIER AVE                                  
#>  8 3190 INDIAN COVE DRIVE     <NA>                          3190 INDIAN COVE DR                               
#>  9 333 DUNSMUIR ST 17TH FL    OFFICE OF CORPORATE SECRETARY 333 DUNSMUIR ST 17TH FL OFC OF CORPORATE SECRETARY
#> 10 222 S RIVERSIDE PLAZA      TEN PKWY N                    222 S RIVERSIDE PLZ TEN PKWY N                    
#> # … with 64,480 more rows
```
…
``` r
akc %>% 
  select(contains("zip")) %>% 
  distinct() %>% 
  filter(is.na(entityphyszip))
#> # A tibble: 266 × 5
#>    entitymailingzip entityphyszip registeredmailzip registeredphyszip zip_norm
#>    <chr>            <chr>         <chr>             <chr>             <chr>   
#>  1 <NA>             <NA>          <NA>              <NA>              <NA>    
#>  2 <NA>             <NA>          99524             99515             99515   
#>  3 <NA>             <NA>          99509             99518             99518   
#>  4 99519            <NA>          99519             99501             99501   
#>  5 44286            <NA>          <NA>              <NA>              44286   
#>  6 85001            <NA>          99801             99801             99801   
#>  7 99588            <NA>          99503             99503             99503   
#>  8 99610            <NA>          99801             99801             99801   
#>  9 99635            <NA>          99635             99611             99611   
#> 10 <NA>             <NA>          99707             99701             99701   
#> # … with 256 more rows
```
…
      key_collision_merge() %>% 
      n_gram_merge(numgram = 1)
  ) %>% 
  filter(city_refine != city_swap) %>% 
  inner_join(
    y = zipcodes,
    by = c(
      "city_refine" = "city",
      "state_norm" = "state",
      "zip_norm" = "zip"
    )
  )
```

    #> # A tibble: 22 × 5
    #>    state_norm zip_norm city_swap              city_refine     n
    #>    <chr>      <chr>    <chr>                  <chr>       <int>
    #>  1 AK         99501    ANCHORAGE A            ANCHORAGE       2
    #>  2 AK         99504    ANCHORAGEANCHORAGE     ANCHORAGE       2
    #>  3 AK         99611    AK KENAI               KENAI           2
    #>  4 AK         99801    JUNEAUJUNEAU           JUNEAU          2
    #>  5 CO         80401    GOLDEN CO              GOLDEN          2
    #>  6 AK         99501    ANCHORAGE ANC          ANCHORAGE       1
    #>  7 AK         99507    ANCHORAGE ANCHORAGE    ANCHORAGE       1
    #>  8 AK         99514    ANCHORAGE ANCHORAGE    ANCHORAGE       1
    #>  9 AK         99515    ANCHORAGE ANC          ANCHORAGE       1
    #> 10 AK         99577    EAGLE RIVEREAGLE RIVER EAGLE RIVER     1
    #> # … with 12 more rows
…
