…
``` r
raw_info <- dir_info(raw_dir)
nrow(raw_info)
#> [1] 30
sum(raw_info$size)
#> 282M
as_tibble(raw_info) %>% 
  select(path, size, modification_time) %>% 
  mutate(across(path, path.abbrev))
#> # A tibble: 30 × 3
#>    path                                                                    size modification_time  
#>    <fs::path>                                                            <fs::> <dttm>             
#>  1 …bility_datacleaning/state/la/expends/data/raw/SearchResults_2000.csv  3.57M 2023-03-24 23:08:28
#>  2 …bility_datacleaning/state/la/expends/data/raw/SearchResults_2001.csv  3.18M 2023-03-24 23:27:06
#>  3 …bility_datacleaning/state/la/expends/data/raw/SearchResults_2002.csv  7.71M 2023-03-26 15:58:36
#>  4 …bility_datacleaning/state/la/expends/data/raw/SearchResults_2003.csv 19.81M 2023-03-26 15:59:29
#>  5 …bility_datacleaning/state/la/expends/data/raw/SearchResults_2004.csv  6.78M 2023-03-24 23:32:04
#>  6 …bility_datacleaning/state/la/expends/data/raw/SearchResults_2005.csv  4.08M 2023-03-24 23:32:28
#>  7 …bility_datacleaning/state/la/expends/data/raw/SearchResults_2006.csv  8.03M 2023-03-24 23:33:44
#>  8 …bility_datacleaning/state/la/expends/data/raw/SearchResults_2007.csv 19.02M 2023-03-24 23:37:03
#>  9 …bility_datacleaning/state/la/expends/data/raw/SearchResults_2008.csv  9.12M 2023-03-24 23:38:08
#> 10 …bility_datacleaning/state/la/expends/data/raw/SearchResults_2009.csv 12.62M 2023-03-26 16:06:47
#> # … with 20 more rows
```
…
We can flag any record missing a key variable like a name or date.

``` r
lae <- lae %>% flag_na(date, last, amount, recipient)
sum(lae$na_flag)
#> [1] 248
```

All such records are missing a beneficiary.

``` r
lae %>% 
  filter(na_flag) %>% 
  select(date, last, amount, recipient)
#> # A tibble: 248 × 4
#>    date       last                      amount recipient
#>    <date>     <chr>                      <dbl> <chr>    
#>  1 2002-04-22 Entergy Corp. PAC (ENPAC)  3000  <NA>     
#>  2 2003-12-29 Blanco                     1500  <NA>     
#>  3 2003-12-19 Blanco                     1473. <NA>     
#>  4 2003-12-27 Blanco                      647. <NA>     
#>  5 2003-12-26 Blanco                      579. <NA>     
#>  6 2003-12-26 Blanco                      297. <NA>     
#>  7 2003-12-26 Blanco                      279. <NA>     
#>  8 2003-12-31 Blanco                      185. <NA>     
#>  9 2003-01-08 Entergy Corp. PAC (ENPAC)   100  <NA>     
#> 10 2004-08-23 Blanco                    25000  <NA>     
#> # … with 238 more rows
```
…
Over 1% of records are such duplicates

``` r
percent(mean(lae$dupe_flag), 0.01)
#> [1] "1.21%"
```

``` r
lae %>% 
  filter(dupe_flag) %>% 
  select(date, last, amount, recipient, number)
#> # A tibble: 17,535 × 5
#>    date       last         amount recipient           number 
#>    <date>     <chr>         <dbl> <chr>               <chr>  
#>  1 2000-11-07 Addison, Jr.    150 STERLING COLLINS    LA-1619
#>  2 2000-11-07 Addison, Jr.    150 STERLING COLLINS    LA-1619
#>  3 2000-11-07 Addison, Jr.     75 MR DON KELLY        LA-1619
#>  4 2000-11-07 Addison, Jr.     75 MR DON KELLY        LA-1619
#>  5 2000-11-07 Addison, Jr.     75 MR ERIC D ADDISON   LA-1619
#>  6 2000-11-07 Addison, Jr.     75 ASHLEY SPOTSVILLE   LA-1619
#>  7 2000-11-07 Addison, Jr.     75 ASHLEY SPOTSVILLE   LA-1619
#>  8 2000-11-07 Addison, Jr.     75 TAREN MACK          LA-1619
#>  9 2000-11-07 Addison, Jr.     75 TAREN MACK          LA-1619
#> 10 2000-11-07 Addison, Jr.     75 MR ALLEN S MERCHANT LA-1619
#> # … with 17,525 more rows
```
…
      key_collision_merge() %>% 
      n_gram_merge(numgram = 1)
  ) %>% 
  filter(city_refine != city_swap) %>% 
  inner_join(
    y = zipcodes,
    by = c(
      "city_refine" = "city",
      "state_norm" = "state",
      "zip_norm" = "zip"
    )
  )
```

    #> # A tibble: 125 × 5
    #>    state_norm zip_norm city_swap       city_refine            n
    #>    <chr>      <chr>    <chr>           <chr>              <int>
    #>  1 CA         94103    SAN FRANSICO    SAN FRANCISCO         22
    #>  2 OH         45202    CINCINATTI      CINCINNATI            22
    #>  3 LA         70068    LAPALCE         LA PLACE              18
    #>  4 LA         70775    ST FRANCESVILLE SAINT FRANCISVILLE    15
    #>  5 CA         94025    MELONO PARK     MENLO PARK            12
    #>  6 LA         71457    NACTITOCHES     NATCHITOCHES          12
    #>  7 OH         45271    CINCINATTI      CINCINNATI            10
    #>  8 LA         70001    METIAIRE        METAIRIE               8
    #>  9 LA         70119    NEW ORLEANSLA   NEW ORLEANS            8
    #> 10 OH         45274    CINCINATTI      CINCINNATI             8
    #> # … with 115 more rows
…
