…
``` r
dc <- mutate(dc, transactionyear = year(dateofreceipt))
```

## Separate

We will have to break the `address` variable into distinct variables for
each component (address, city, state, ZIP).

``` r
select(sample_frac(dc), address)
#> # A tibble: 244,678 x 1
#>    address                                            
#>    <chr>                                              
#>  1 3834 WINDOM PL NW, WASHINGTON, DC 20016            
#>  2 14113 ARTIC AVENUE, ROCKVILLE, MD 20853            
#>  3 6613 13TH PL NW, WASHINGTON, DC 20012              
#>  4 1314  KENYON ST NW, WASHINGTON, DC 20010           
#>  5 3303 18TH ST NW, MCLEAN, VA 20010                  
#>  6 4339 CONNECTICUT AVE., NW., WASHINGTON, DC 20008   
#>  7 2929 38TH ST NW, WASHINGTON, DC 20016              
#>  8 101 CONSTITUTION AVENUE, N.W., WASHINGTON, DC 20080
#>  9 6503 N CAPITOL ST NE, WASHINGTON, DC 20012         
#> 10 113 10TH ST NE, WASHINGTON, DC 20002               
#> # … with 244,668 more rows
```
…
Finally, the state and ZIP code portion of the string is not separated
by a comma, so we will have to separate this into two strings based on
the space before the ZIP code digits.

``` r
dc %>% separate(
  col = state_zip,
  into = c("state_sep", "zip_sep"),  
  sep = "\\s{1,}(?=\\d)",
  remove = TRUE
) -> dc
```

    #> # A tibble: 244,678 x 5
    #>    address                                   address_sep             city_sep     state_sep zip_sep
    #>    <chr>                                     <chr>                   <chr>        <chr>     <chr>  
    #>  1 4002 COTTON TREE LN, BURTONSVILLE, MD 20… 4002 COTTON TREE LN     BURTONSVILLE MD        20866  
    #>  2 140 BRINKWOOD RD, BROOKEVILLE, DC 20833   140 BRINKWOOD RD        BROOKEVILLE  DC        20833  
    #>  3 3716 NASH STREET, SE, WASHINGTON, DC 200… 3716 NASH STREET SE     WASHINGTON   DC        20020  
    #>  4 3 CREEK PARK DRIVE , PORTOLA VALLEY, CA … "3 CREEK PARK DRIVE "   PORTOLA VAL… CA        94028  
    #>  5 1828 L STREET, NW SUITE 625, WASHINGTON,… 1828 L STREET NW SUITE… WASHINGTON   DC        20003  
    #>  6 23117 77TH AVE., SE., WOODINVILLE, WA 98… 23117 77TH AVE. SE.     WOODINVILLE  WA        98072  
    #>  7 2877 ARIZONA TERRACE,  NW, WASHINGTON, D… 2877 ARIZONA TERRACE  … WASHINGTON   DC        20016  
    #>  8 1312 FLORAL STREET, NW, WASHINGTON, DC 2… 1312 FLORAL STREET NW   WASHINGTON   DC        20012  
    #>  9 1445 CHURCH ST. NW, #31, WASHINGTON, DC … 1445 CHURCH ST. NW #31  WASHINGTON   DC        20005  
    #> 10 1505 Q STREET, NW, WASHINGTON, DC 20009   1505 Q STREET NW        WASHINGTON   DC        20009  
    #> # … with 244,668 more rows

There are a number of columns where the lack of a component in the
original `address` has caused the separation to incorrectly shift
content.

    #> # A tibble: 350 x 5
    #>    address                               address_sep         city_sep        state_sep      zip_sep
    #>    <chr>                                 <chr>               <chr>           <chr>          <chr>  
    #>  1 1350 PENNSYLVANIA AVE., NW SUITE 107  ""                  1350 PENNSYLVA… NW SUITE       107    
    #>  2 5431 WOODLAND BLVD, OXON HILL 20745   ""                  5431 WOODLAND … OXON HILL      20745  
    #>  3 202 VARNUM ST NW, WASHINGTON 20011    ""                  202 VARNUM ST … WASHINGTON     20011  
    #>  4 1212 NEW YORK AVENUE, #300-A, WASHIN… 1212 NEW YORK AVEN… WASHINGTON      DISTICT OF CO… 20005  
    #>  5 20910 BEALLSVILLE RD, DICKERSON, MAR… 20910 BEALLSVILLE … DICKERSON       MARYLAND       20842  
    #>  6 1750 K STREET NW #200, WASHINGTON 20… ""                  1750 K STREET … WASHINGTON     20006  
    #>  7 6305 WAYLES STREET, SPRINGFIELD, VIR… 6305 WAYLES STREET  SPRINGFIELD     VIRGINIA       22150  
    #>  8 4122 16TH STREET, NW, WASHINGTON 200… 4122 16TH STREET    NW              WASHINGTON     20011  
    #>  9 PO BOX 1732, BELTSVILLE, MARYLAND 20… PO BOX 1732         BELTSVILLE      MARYLAND       20706  
    #> 10 316 BAYLEN STREET, PENSACOLA, FLORID… 316 BAYLEN STREET   PENSACOLA       FLORIDA        32502  
    #> # … with 340 more rows
…
There are only 19 remaining rows with a unique `state_sep` value outside
of `valid_state` of `valid_name`.

    #> # A tibble: 29 x 4
    #>    address_sep              city_sep     state_sep                zip_sep
    #>    <chr>                    <chr>        <chr>                    <chr>  
    #>  1 10707 GLOXINIA DRIVE     ROCKVILLE    MARYALND                 20852  
    #>  2 4419 35TH STREET NW      WASHINGTON   DISTICT OF COLUMBIA      20008  
    #>  3 CALLE 84 #105            BOGATA       COLOMBIA                 00000  
    #>  4 8 MCCAUSLAND PLACE #T-1  GAITHERSBURG MARYALND                 20877  
    #>  5 131 INDUSTRY LN          #2           FOREST HILL              21050  
    #>  6 343 CEDAR STREET NW #116 WASHINGTON   DISTICT OF COLUMBIA      20012  
    #>  7 2200 20TH STREET NW      WASHINGTON   DISTICT OF COLUMBIA      20009  
    #>  8 7703 13TH STREET NW      WASHNGTON    DISTRICT OF THE COLUMBIA 20012  
    #>  9 REQUESTED                REQUESTED    REQUESTED                20000  
    #> 10 REQUESTED                REQUESTED    REQUESTED                0      
    #> # … with 19 more rows
…
The `campfin::normal_address()` function can be used to improve
consistency by removing punctuation and expanding abbreviations.

``` r
dc <- dc %>% 
  mutate(
    address_norm = normal_address(
      address = address_sep,
      add_abbs = usps_street,
      na_rep = TRUE
    )
  )
```

    #> # A tibble: 124,731 x 2
    #>    address_sep              address_norm                    
    #>    <chr>                    <chr>                           
    #>  1 6604 NEWPORT PALIVIS CT  6604 NEWPORT PALIVIS COURT      
    #>  2 1737 P ST NW #201        1737 P STREET NORTHWEST 201     
    #>  3 4207 CHESAPEAKE ST NW    4207 CHESAPEAKE STREET NORTHWEST
    #>  4 7621 TREMAYNE PLACE #311 7621 TREMAYNE PLACE 311         
    #>  5 7111 ELIZABETH DR        7111 ELIZABETH DRIVE            
    #>  6 28 BAILESY CT            28 BAILESY COURT                
    #>  7 43709 MAHOGNY RUN CT     43709 MAHOGNY RUN COURT         
    #>  8 "14 GLENHURST COURT "    14 GLENHURST COURT              
    #>  9 17 SEATON PLACE NW       17 SEATON PLACE NORTHWEST       
    #> 10 1029 VERMONT AVENUE NW   1029 VERMONT AVENUE NORTHWEST   
    #> # … with 124,721 more rows
…
Similarly, the `campfin::normal_zip()` function can be used to form
valid 5-digit US ZIP codes.

``` r
dc <- dc %>% 
  mutate(
    zip_norm = normal_zip(
      zip = zip_sep,
      na_rep = TRUE
    )
  )
```

    #> # A tibble: 1,114 x 2
    #>    zip_sep    zip_norm
    #>    <chr>      <chr>   
    #>  1 209011133  20901   
    #>  2 200081707  20008   
    #>  3 482363546  48236   
    #>  4 480701515  48070   
    #>  5 200095775  20009   
    #>  6 03755-3206 03755   
    #>  7 200072122  20007   
    #>  8 200101767  20010   
    #>  9 20017-4309 20017   
    #> 10 2726       02726   
    #> # … with 1,104 more rows
…
``` r
dc <- dc %>% 
  mutate(
    city_norm = normal_city(
      city = str_replace(city_sep, "DC", "WASHINGTON"),
      geo_abbs = usps_city,
      st_abbs = c("DC", "D C"),
      na = invalid_city,
      na_rep = TRUE
    )
  )
```

    #> # A tibble: 410 x 4
    #>    city_sep       city_norm             state_norm     n
    #>    <chr>          <chr>                 <chr>      <int>
    #>  1 FT. WASHINGTON FORT WASHINGTON       MD           117
    #>  2 FT WASHINGTON  FORT WASHINGTON       MD            78
    #>  3 ST. LOUIS      SAINT LOUIS           MO            71
    #>  4 FT. WASHINGTON FORT WASHINGTON       DC            55
    #>  5 FT WASHINGTON  FORT WASHINGTON       DC            48
    #>  6 WASHINGTON DC  WASHINGTON WASHINGTON DC            45
    #>  7 ST. PETERSBURG SAINT PETERSBURG      FL            19
    #>  8 NW             NORTHWEST             <NA>          15
    #>  9 DC             WASHINGTON            DC            14
    #> 10 ST LOUIS       SAINT LOUIS           MO            12
    #> # … with 400 more rows
…
Here we can see the 281 records where `city_norm` appears to be an
abbreviation of `city_match`, so the later was used in `city_swap`.

``` r
dc %>% 
  filter(match_abb) %>% 
  count(state_norm, zip_norm, city_norm, city_match, match_abb, sort = TRUE)
#> # A tibble: 148 x 6
#>    state_norm zip_norm city_norm   city_match           match_abb     n
#>    <chr>      <chr>    <chr>       <chr>                <lgl>     <int>
#>  1 MD         21093    LUTHERVILLE LUTHERVILLE TIMONIUM TRUE         30
#>  2 MD         21152    SPARKS      SPARKS GLENCOE       TRUE         19
#>  3 VA         22039    FAIRFAX     FAIRFAX STATION      TRUE         16
#>  4 MD         20769    GLENDALE    GLENN DALE           TRUE         13
#>  5 MD         21090    LINTHICUM   LINTHICUM HEIGHTS    TRUE         10
#>  6 FL         33139    MIAMI       MIAMI BEACH          TRUE          5
#>  7 MA         02460    NEWTON      NEWTONVILLE          TRUE          5
#>  8 VA         20132    PURCEVILLE  PURCELLVILLE         TRUE          5
#>  9 FL         33141    MIAMI       MIAMI BEACH          TRUE          4
#> 10 KS         66217    SHAWNEE     SHAWNEE MISSION      TRUE          4
#> # … with 138 more rows
```

Furthermore, 1652 records has a string distance of only 1, meaning only
1 character was different between `city_norm` and `city_match`, so again
the later was used in `city_swap`.

``` r
dc %>% 
  filter(match_dist == 1) %>% 
  count(state_norm, zip_norm, city_norm, city_match, match_abb, sort = TRUE)
#> # A tibble: 850 x 6
#>    state_norm zip_norm city_norm   city_match   match_abb     n
#>    <chr>      <chr>    <chr>       <chr>        <lgl>     <int>
#>  1 DC         20005    WASHNGTON   WASHINGTON   FALSE        61
#>  2 MD         20646    LAPLATA     LA PLATA     FALSE        34
#>  3 MD         21117    OWINGS MILL OWINGS MILLS FALSE        34
#>  4 VA         22101    MC LEAN     MCLEAN       FALSE        30
#>  5 VA         22003    ANNADALE    ANNANDALE    FALSE        27
#>  6 VA         22191    WOODBRIGE   WOODBRIDGE   FALSE        27
#>  7 VA         22101    MCCLEAN     MCLEAN       FALSE        23
#>  8 MD         20769    GLEN DALE   GLENN DALE   FALSE        21
#>  9 PA         15230    PITTSBURG   PITTSBURGH   FALSE        20
#> 10 PA         15219    PITTSBURG   PITTSBURGH   FALSE        17
#> # … with 840 more rows
```
…
Very few changes were made this way, but they are useful changes
nonetheless.

``` r
count(x = good_refine, state_norm, city_swap, city_refine, sort = TRUE)
#> # A tibble: 27 x 4
#>    state_norm city_swap             city_refine           n
#>    <chr>      <chr>                 <chr>             <int>
#>  1 DC         WASHINGTON WASHINGTON WASHINGTON           47
#>  2 FL         PONTE VERDE BEACH     PONTE VEDRA BEACH     2
#>  3 MD         BRYAN ROADS           BRYANS ROAD           2
#>  4 MD         OWNINGS MILL          OWINGS MILLS          2
#>  5 NY         SETAUKET              EAST SETAUKET         2
#>  6 CA         SAN FRANCISCO CA      SAN FRANCISCO         1
#>  7 DC         WASHINGONT            WASHINGTON            1
#>  8 GA         ALPHERTTA             ALPHARETTA            1
#>  9 GA         MARRIETA              MARIETTA              1
#> 10 LA         NEWS ORLEAN           NEW ORLEANS           1
#> # … with 17 more rows
```

``` r
dc <- dc %>% 
  left_join(good_refine) %>% 
  mutate(city_refine = coalesce(city_refine, city_swap))
```

#### City Progress

``` r
dc %>% 
  filter(city_refine %out% valid_city) %>% 
  count(state_norm, zip_norm, city_refine, sort = TRUE) %>% 
  drop_na()
#> # A tibble: 623 x 4
#>    state_norm zip_norm city_refine        n
#>    <chr>      <chr>    <chr>          <int>
#>  1 MD         20785    LANDOVER         326
#>  2 MD         20746    CAMP SPRINGS      95
#>  3 MD         20785    CHEVERLY          80
#>  4 MD         20878    NORTH POTOMAC     74
#>  5 FL         33134    CORAL GABLES      72
#>  6 MD         20852    NORTH BETHESDA    63
#>  7 FL         33133    COCONUT GROVE     55
#>  8 MD         20882    LAYTONSVILLE      35
#>  9 MD         20784    NEW CARROLLTON    34
#> 10 MD         20706    GLENARDEN         28
#> # … with 613 more rows
```
…
