…
``` r
n_distinct(aklr$Result) == nrow(aklr)
#> [1] FALSE
```

Using `readr::problems()`, we do see that, aside from the trailing
column, there are a couple dozen parsing problems. These typically stem
from an incorrect number of delimeter or escape characters.

``` r
problems(aklr) %>% 
  filter(expected != "51 columns") %>% 
  group_by(row)
#> # A tibble: 26 x 5
#>      row col          expected     actual                       file                               
#>    <int> <chr>        <chr>        <chr>                        <chr>                              
#>  1   467 Not Qualifi… 1/0/T/F/TRU… " John Middleton Co."        '/home/kiernan/R/accountability_da…
#>  2   467 Date Qualif… date like %… " U.S. Smokelss Tobacco Co." '/home/kiernan/R/accountability_da…
#>  3   555 Result       a double     "\",,,\r\n555,2018,1/8/2018… '/home/kiernan/R/accountability_da…
#>  4   555 Report Year  an integer   " 28 Liberty Ship Way"       '/home/kiernan/R/accountability_da…
#>  5   555 Other Servi… 1/0/T/F/TRU… 92.0000                      '/home/kiernan/R/accountability_da…
#>  6   555 Start Date   date like %… Computer Utilization; Educa… '/home/kiernan/R/accountability_da…
#>  7   730 Result       a double     "HB357\""                    '/home/kiernan/R/accountability_da…
#>  8   730 Report Year  an integer   True                         '/home/kiernan/R/accountability_da…
#>  9   920 Not Qualifi… 1/0/T/F/TRU… " John Middleton Co."        '/home/kiernan/R/accountability_da…
#> 10   920 Date Qualif… date like %… " U.S. Smokelss Tobacco Co." '/home/kiernan/R/accountability_da…
#> # … with 16 more rows
```
…
