…
For purchase orders, almost half the agency names are simply “STATEWIDE
CONTRACT” but the `po_agency_name` variable contains useful information.

``` r
arc %>% 
  filter(str_detect(file, "order")) %>% 
  count(agency, po_agency_name, sort = TRUE) %>% 
  mutate(p = n/sum(n))
#> # A tibble: 314 x 4
#>    agency                       po_agency_name                   n      p
#>    <chr>                        <chr>                        <int>  <dbl>
#>  1 STATEWIDE CONTRACT           AR DEPT OF HUMAN SERVICES    87407 0.163 
#>  2 AR DEPT OF TRANSPORTATION    AR DEPT OF TRANSPORTATION    68312 0.128 
#>  3 STATEWIDE CONTRACT           DEPT OF COMMUNITY CORRECTION 52090 0.0972
#>  4 AR DEPT OF HUMAN SERVICES    AR DEPT OF HUMAN SERVICES    36284 0.0677
#>  5 STATE HIGHWAY & TRANS DEPT   STATE HIGHWAY & TRANS DEPT   32259 0.0602
#>  6 DEPT OF COMMUNITY CORRECTION DEPT OF COMMUNITY CORRECTION 32071 0.0599
#>  7 STATEWIDE CONTRACT           DEPARTMENT OF CORRECTION     25371 0.0474
#>  8 DEPARTMENT OF CORRECTION     DEPARTMENT OF CORRECTION     22865 0.0427
#>  9 DEPT OF PARKS AND TOURISM    DEPT OF PARKS AND TOURISM    22721 0.0424
#> 10 STATEWIDE CONTRACT           DEPT OF PARKS AND TOURISM    22172 0.0414
#> # … with 304 more rows
```

The `po_agency_name` variable is not present for main contracts, so we
will have to merge these two columns in some kind of meaningful way.

``` r
arc %>% 
  filter(str_detect(file, "contract")) %>% 
  count(agency, po_agency_name, sort = TRUE) %>% 
  mutate(p = n/sum(n))
#> # A tibble: 154 x 4
#>    agency                        po_agency_name     n      p
#>    <chr>                         <chr>          <int>  <dbl>
#>  1 AR DEPT OF HUMAN SERVICES     <NA>           11529 0.167 
#>  2 STATEWIDE CONTRACT            <NA>            7964 0.116 
#>  3 AR DEPT OF TRANSPORTATION     <NA>            6388 0.0927
#>  4 AR DEPARTMENT OF HEALTH       <NA>            6090 0.0883
#>  5 DEPARTMENT OF CORRECTION      <NA>            4013 0.0582
#>  6 DEPT OF PARKS AND TOURISM     <NA>            3159 0.0458
#>  7 STATE HIGHWAY & TRANS DEPT    <NA>            2477 0.0359
#>  8 DEPT OF COMMUNITY CORRECTION  <NA>            2056 0.0298
#>  9 AR GAME AND FISH COMMISSION   <NA>            1885 0.0273
#> 10 DEPT OF ARKANSAS STATE POLICE <NA>            1613 0.0234
#> # … with 144 more rows
```
…
But we can flag those key values that should be present in both file
types.

``` r
arc <- arc %>% flag_na(date, agency, amount_spent, vendor_name)
percent(mean(arc$na_flag), 0.01)
#> [1] "0.13%"
```

``` r
arc %>% 
  filter(na_flag) %>% 
  select(date, agency, amount_spent, vendor_name, type) %>% 
  distinct()
#> # A tibble: 150 x 5
#>    date       agency           amount_spent vendor_name type    
#>    <date>     <chr>                   <dbl> <chr>       <chr>   
#>  1 2013-08-03 AUDITOR OF STATE       48476  <NA>        Contract
#>  2 2012-08-08 AUDITOR OF STATE      300000  <NA>        Purchase
#>  3 2012-09-28 LAND DEPARTMENT        11280  <NA>        Purchase
#>  4 2012-09-06 LAND DEPARTMENT        13020  <NA>        Purchase
#>  5 2012-08-13 LAND DEPARTMENT        46025. <NA>        Purchase
#>  6 2012-09-20 LAND DEPARTMENT       101857. <NA>        Purchase
#>  7 2012-12-05 LAND DEPARTMENT        48112. <NA>        Purchase
#>  8 2012-11-05 LAND DEPARTMENT        57388. <NA>        Purchase
#>  9 2012-12-19 LAND DEPARTMENT        11646. <NA>        Purchase
#> 10 2012-12-05 LAND DEPARTMENT        44731. <NA>        Purchase
#> # … with 140 more rows
```
…
Turns out there are quite a few records with enormous difference between
the amount ordered and spent.

``` r
arc %>% 
  mutate(amount_dif = amount_spent - amount_ordered) %>% 
  select(agency, contains("amount"), material_group) %>% 
  arrange(amount_dif)
#> # A tibble: 604,679 x 5
#>    agency                      amount_ordered amount_spent  amount_dif material_group      
#>    <chr>                                <dbl>        <dbl>       <dbl> <chr>               
#>  1 DEPT OF FINANCE AND ADMIN       140308182.     1860782. -138447400  INSURANCE, ALL TYPES
#>  2 DEPT OF FINANCE AND ADMIN       140308182.     1860782. -138447400  INSURANCE, ALL TYPES
#>  3 ARKANSAS LOTTERY COMMISSION      81102672.           0   -81102672. LOTTERY GAMING      
#>  4 ARKANSAS LOTTERY COMMISSION      81102672.           0   -81102672. LOTTERY GAMING      
#>  5 ARKANSAS LOTTERY COMMISSION      65428723.           0   -65428723. LOTTERY GAMING      
#>  6 ARKANSAS LOTTERY COMMISSION      63343743.           0   -63343743. LOTTERY GAMING      
#>  7 ARKANSAS LOTTERY COMMISSION      63343743.           0   -63343743. LOTTERY GAMING      
#>  8 ARKANSAS LOTTERY COMMISSION      53144227.           0   -53144227. LOTTERY GAMING      
#>  9 ARKANSAS LOTTERY COMMISSION      46490179.           0   -46490179. LOTTERY GAMING      
#> 10 ARKANSAS LOTTERY COMMISSION      46490179.           0   -46490179. LOTTERY GAMING      
#> # … with 604,669 more rows

arc %>% 
  mutate(amount_dif = amount_spent - amount_ordered) %>% 
  select(agency, contains("amount"), material_group) %>% 
  arrange(desc(amount_dif))
#> # A tibble: 604,679 x 5
#>    agency              amount_ordered amount_spent  amount_dif material_group                      
#>    <chr>                        <dbl>        <dbl>       <dbl> <chr>                               
#>  1 ARKANSAS BUILDING …        227933. 43490471078.     4.35e10 JANITORIAL/CUSTODIAL SERVICES       
#>  2 AR DEPT OF HUMAN S…             0  17848960000      1.78e10 PROFESSIONAL MEDICAL SERVICES - INC…
#>  3 DEPT OF INFORMATIO…             0    873427008      8.73e 8 DATA PROCESSING, COMPUTER, AND SOFT…
#>  4 STATEWIDE CONTRACT       23297122.   165206385.     1.42e 8 COMPUTER SOFTWARE FOR MICROCOMPUTER…
#>  5 DEPT OF FINANCE AN…       2995820.   141443220.     1.38e 8 INSURANCE, ALL TYPES                
#>  6 DEPT OF FINANCE AN…      14973162.   153420562.     1.38e 8 INSURANCE, ALL TYPES                
#>  7 STATEWIDE CONTRACT        2184928.   104998044.     1.03e 8 MICROCOMPUTERS, HANDHELD, LAPTOP, A…
#>  8 STATEWIDE CONTRACT            395.    77200000      7.72e 7 MICROCOMPUTERS, DESKTOP OR TOWERBAS…
#>  9 STATEWIDE CONTRACT          20650.    67200000      6.72e 7 MICROCOMPUTERS, HANDHELD, LAPTOP, A…
#> 10 STATEWIDE CONTRACT          41433.    60000000      6.00e 7 MICROCOMPUTERS, DESKTOP OR TOWERBAS…
#> # … with 604,669 more rows
```
…
