…
To better understand the type of records in the database, we can create
a new variable indicating the year of the relationship registration.

``` r
select(palr, ends_with("date"))
#> # A tibble: 28,262 x 8
#>    last_updated_da… sub_date   renewal_date lob_commenced_d… expire_date term_date  pri_start_date
#>    <date>           <date>     <date>       <date>           <date>      <date>     <date>        
#>  1 2016-05-22       2016-05-12 2018-12-20   2016-05-09       2020-12-31  NA         2016-05-22    
#>  2 2016-05-22       2016-05-12 2018-12-20   2016-05-09       2020-12-31  NA         2016-05-12    
#>  3 2016-05-22       2016-05-12 2018-12-20   2016-05-09       2020-12-31  NA         2016-05-12    
#>  4 2016-05-22       2016-05-12 2018-12-20   2016-05-09       2020-12-31  NA         2016-05-22    
#>  5 2013-01-03       2008-07-16 NA           2008-06-01       2014-12-31  2014-03-04 2008-06-01    
#>  6 2013-01-03       2008-07-16 NA           2008-06-01       2014-12-31  2014-03-04 2009-07-01    
#>  7 2014-12-30       2011-06-16 2016-12-21   2011-06-16       2018-12-31  2017-05-05 2011-06-16    
#>  8 2019-05-31       2007-01-31 2019-01-02   2007-01-29       2020-12-31  2019-05-31 2007-01-01    
#>  9 2019-05-31       2007-01-31 2019-01-02   2007-01-29       2020-12-31  2019-05-31 2007-01-31    
#> 10 2019-05-31       2007-01-31 2019-01-02   2007-01-29       2020-12-31  2019-05-31 2007-01-31    
#> # … with 28,252 more rows, and 1 more variable: pri_end_date <date>
```
…
    remove = FALSE,
    na.rm = TRUE
  ) %>% 
  mutate(
    lob_phone_norm = normal_phone(lob_phone_full),
    pri_phone_norm = normal_phone(pri_phone_full)
  ) %>% 
  select(-ends_with("phone_full")) %>% 
  mutate_at(
    .vars = vars(ends_with("fax")),
    .funs = list(norm = normal_phone)
  )
```

    #> # A tibble: 13,017 x 6
    #>    lob_phone    lob_phone_ext pri_phone    pri_phone_extn lob_phone_norm pri_phone_norm
    #>    <chr>        <chr>         <chr>        <chr>          <chr>          <chr>         
    #>  1 717-486-3696 <NA>          502-719-8761 <NA>           (717) 486-3696 (502) 719-8761
    #>  2 724-859-5325 <NA>          <NA>         <NA>           (724) 859-5325 ""            
    #>  3 717-234-4441 <NA>          267-979-6583 <NA>           (717) 234-4441 (267) 979-6583
    #>  4 412-562-1243 <NA>          856-231-1000 <NA>           (412) 562-1243 (856) 231-1000
    #>  5 <NA>         <NA>          717-584-6025 <NA>           ""             (717) 584-6025
    #>  6 412-562-1559 <NA>          412-255-6611 <NA>           (412) 562-1559 (412) 255-6611
    #>  7 717-635-2320 <NA>          717-653-8009 <NA>           (717) 635-2320 (717) 653-8009
    #>  8 215-735-6660 <NA>          215-895-6038 <NA>           (215) 735-6660 (215) 895-6038
    #>  9 412-553-5700 <NA>          717-720-5300 <NA>           (412) 553-5700 (717) 720-5300
    #> 10 717-236-0443 <NA>          717-467-4186 <NA>           (717) 236-0443 (717) 467-4186
    #> # … with 13,007 more rows
…
    starts_with("pri_line"),
    col = pri_addr,
    sep = " ",
    remove = FALSE,
    na.rm = TRUE
  ) %>% 
  mutate_at(
    .vars = vars(ends_with("addr")),
    .funs = list(norm = normal_address),
    abb = usps_street
  ) %>% 
  select(-ends_with("addr"))
```

    #> # A tibble: 2,592 x 3
    #>    lob_line1                 lob_line2                lob_addr_norm                                
    #>    <chr>                     <chr>                    <chr>                                        
    #>  1 200 NORTH THIRD STREET    Suite 1500               200 NORTH THIRD STREET SUITE 1500            
    #>  2 EQT Plaza, Suite 1700     625 Liberty Avenue       EQT PLAZA SUITE 1700 625 LIBERTY AVENUE      
    #>  3 Macquarie Capital (USA) … 1345 Avenue of the Amer… MACQUARIE CAPITAL USA INC 1345 AVENUE OF THE…
    #>  4 1332 Penn St              <NA>                     1332 PENN STREET                             
    #>  5 208 N. 3rd Street         Suite 202                208 NORTH 3RD STREET SUITE 202               
    #>  6 1140 Connecticut Avenue,… Suite 510                1140 CONNECTICUT AVENUE NORTHWEST SUITE 510  
    #>  7 1717 Arch Street          Suite 1310               1717 ARCH STREET SUITE 1310                  
    #>  8 1475 Phoenixville Pike    <NA>                     1475 PHOENIXVILLE PIKE                       
    #>  9 P O BOX 25                <NA>                     PO BOX 25                                    
    #> 10 4750 Lindle Road          <NA>                     4750 LINDLE ROAD                             
    #> # … with 2,582 more rows
…
