…
``` r
mac <- left_join(mac, dupes, by = "id")
mac <- mutate(mac, dupe_flag = !is.na(dupe_flag))
percent(mean(mac$dupe_flag), 0.1)
#> [1] "13.2%"
```

``` r
mac %>% 
  filter(dupe_flag) %>% 
  select(contrib_any, recip_any, date, amount) %>% 
  arrange(date, contrib_any)
#> # A tibble: 190,549 × 4
#>    contrib_any         recip_any                           date       amount
#>    <chr>               <chr>                               <date>      <dbl>
#>  1 David R Weiss-irwin Erika Uyterhoeven                   2020-02-13     50
#>  2 David R Weiss-irwin Erika Uyterhoeven                   2020-02-13     50
#>  3 Daniel Gilbert      Ranked Choice Voting 2020 Committee 2020-02-21      3
#>  4 Daniel Gilbert      Ranked Choice Voting 2020 Committee 2020-02-21      3
#>  5 Sam Hammar          Erika Uyterhoeven                   2020-03-09     20
#>  6 Sam Hammar          Erika Uyterhoeven                   2020-03-09     20
#>  7 Yotam Bentov        Erika Uyterhoeven                   2020-03-16     25
#>  8 Yotam Bentov        Erika Uyterhoeven                   2020-03-16     25
#>  9 Kathryn Deane       Raise Up Massachusetts 2022         2020-06-06     10
#> 10 Kathryn Deane       Raise Up Massachusetts 2022         2020-06-06     10
#> # … with 190,539 more rows
```
…
``` r
print(addr_norm)
#> # A tibble: 320,750 × 2
#>    address                     address_norm              
#>    <chr>                       <chr>                     
#>  1 <NA>                        <NA>                      
#>  2 159 S Main Street           159 S MAIN ST             
#>  3 7 Laborers Way              7 LABORERS WAY            
#>  4 100 Federal Street          100 FEDERAL ST            
#>  5 32 Chestnut Rd              32 CHESTNUT RD            
#>  6 11 Beacon Street  Suite 309 11 BEACON STREET SUITE 309
#>  7 11 Beacon St., Suite 410    11 BEACON ST SUITE 410    
#>  8 195 Old Colony Avenue       195 OLD COLONY AVE        
#>  9 PO Box 441146               PO BOX 441146             
#> 10 10 South Meadow Ridge       10 SOUTH MEADOW RDG       
#> # … with 320,740 more rows
```
…
``` r
mac <- left_join(mac, state_norm, by = "state")
rm(state_norm)
```

``` r
mac %>%
  filter(state != state_norm) %>%
  count(state, state_norm, sort = TRUE)
#> # A tibble: 79 × 3
#>    state state_norm     n
#>    <chr> <chr>      <int>
#>  1 ma    MA           283
#>  2 Ma    MA           207
#>  3 Fl    FL           112
#>  4 ct    CT           104
#>  5 nh    NH            96
#>  6 ny    NY            59
#>  7 fl    FL            57
#>  8 ri    RI            56
#>  9 Ct    CT            50
#> 10 ca    CA            37
#> # … with 69 more rows
```
…
  inner_join(
    y = zipcodes,
    by = c(
      "city_refine" = "city",
      "state_norm" = "state",
      "zip_norm" = "zip"
    )
  ) %>% 
  select(
    city_swap, 
    city_refine
  ) 
```

    #> # A tibble: 64 × 3
    #>    city_swap            city_refine         n
    #>    <chr>                <chr>           <int>
    #>  1 BOSTONBOSTON         BOSTON              3
    #>  2 SOMERVILLESOMERVILLE SOMERVILLE          2
    #>  3 ALARMOGORDA          ALAMOGORDO          1
    #>  4 AMHERST MA           AMHERST             1
    #>  5 ARLINGTONARLINGTON   ARLINGTON           1
    #>  6 AUGUSTINE            SAINT AUGUSTINE     1
    #>  7 BOXFORDORD           BOXFORD             1
    #>  8 BRAINTREEBRAINTREE   BRAINTREE           1
    #>  9 BRIGHTONRIGHTON      BRIGHTON            1
    #> 10 BROOKLYN NY          BROOKLYN            1
    #> # … with 54 more rows
…
