…
``` r
mac <- left_join(mac, dupes, by = "id")
mac <- mutate(mac, dupe_flag = !is.na(dupe_flag))
percent(mean(mac$dupe_flag), 0.1)
#> [1] "2.4%"
```

``` r
mac %>% 
  filter(dupe_flag) %>% 
  select(contrib_any, recip_any, date, amount) %>% 
  arrange(date, contrib_any)
#> # A tibble: 83,052 x 4
#>    contrib_any           recip_any                        date       amount
#>    <chr>                 <chr>                            <date>      <dbl>
#>  1 DUSTY S. RHODES       COMMITTEE TO ELECT DANIEL BOSLEY 2001-01-03    500
#>  2 DUSTY S. RHODES       COMMITTEE TO ELECT DANIEL BOSLEY 2001-01-03    500
#>  3 Hans Bellerman        Steve Brewer Committee           2001-01-25     50
#>  4 Hans Bellerman        Steve Brewer Committee           2001-01-25     50
#>  5 JAMES T. MORRIS       THE WALSH COMMITTEE              2001-02-13    200
#>  6 JAMES T. MORRIS       THE WALSH COMMITTEE              2001-02-13    200
#>  7 ROBERT P. MURRAY, JR. THE WALSH COMMITTEE              2001-02-13    100
#>  8 ROBERT P. MURRAY, JR. THE WALSH COMMITTEE              2001-02-13    100
#>  9 ROBERT WHITE          THE WALSH COMMITTEE              2001-02-13    100
#> 10 ROBERT WHITE          THE WALSH COMMITTEE              2001-02-13    100
#> # … with 83,042 more rows
```
…
``` r
print(addr_norm)
#> # A tibble: 922,950 x 2
#>    address                     address_norm        
#>    <chr>                       <chr>               
#>  1 <NA>                        <NA>                
#>  2 159 South Main Street       159 S MAIN ST       
#>  3 159 S Main Street           159 S MAIN ST       
#>  4 159 S. Main St.             159 S MAIN ST       
#>  5 7 Laborers' Way             7 LABORERS WAY      
#>  6 33 Arch Street 26th Floor   33 ARCH ST 26TH FL  
#>  7 195 Old Colony Avenue       195 OLD COLONY AVE  
#>  8 11 Beacon Street  Suite 309 11 BEACON ST STE 309
#>  9 PO Box 441146               PO BOX 441146       
#> 10 35 Travis Street            35 TRAVIS ST        
#> # … with 922,940 more rows
```
…
``` r
mac <- left_join(mac, state_norm, by = "state")
rm(state_norm)
```

``` r
mac %>%
  filter(state != state_norm) %>%
  count(state, state_norm, sort = TRUE)
#> # A tibble: 140 x 3
#>    state state_norm     n
#>    <chr> <chr>      <int>
#>  1 ma    MA          2103
#>  2 Ma    MA          1759
#>  3 nh    NH           222
#>  4 ct    CT           175
#>  5 ri    RI           170
#>  6 Fl    FL           151
#>  7 ny    NY           125
#>  8 ca    CA           113
#>  9 Ca    CA            93
#> 10 fl    FL            85
#> # … with 130 more rows
```
…
  inner_join(
    y = zipcodes,
    by = c(
      "city_refine" = "city",
      "state_norm" = "state",
      "zip_norm" = "zip"
    )
  ) %>% 
  select(
    city_swap, 
    city_refine
  )
```

    #> # A tibble: 105 x 3
    #>    city_swap        city_refine       n
    #>    <chr>            <chr>         <int>
    #>  1 CINCINATTI       CINCINNATI        8
    #>  2 NEW YORK NY      NEW YORK          6
    #>  3 SAN FRANSICO     SAN FRANCISCO     6
    #>  4 MARSHFIELD HILLS MARSHFIELD        2
    #>  5 NORTH HAMPTON    NORTHAMPTON       2
    #>  6 SOUTH HAMPTON    SOUTHAMPTON       2
    #>  7 WEST WINCHESTER  WINCHESTER        2
    #>  8 ACHUSHENT        ACUSHNET          1
    #>  9 ACHUSNET         ACUSHNET          1
    #> 10 ALBEQUREQUE      ALBUQUERQUE       1
    #> # … with 95 more rows
…
