…
### Phone

We can use `campfin::normal_phone()` to convert the numeric phone numbers into an unambiguous character format. This prevents the column from being read as a numeric variable.

``` r
nd_lobby_reg <- nd_lobby_reg %>% 
  mutate(phone_norm = normal_phone(phone),
         org_phone_norm = normal_phone(org_phone)
  )
```

    #> # A tibble: 1,389 x 4
    #>    phone          org_phone      phone_norm     org_phone_norm
    #>    <chr>          <chr>          <chr>          <chr>         
    #>  1 (701) 258-5537 (701) 223-3518 (701) 258-5537 (701) 223-3518
    #>  2 (701) 426-9393 (701) 258-4922 (701) 426-9393 (701) 258-4922
    #>  3 (701) 367-9257 (313) 436-7026 (701) 367-9257 (313) 436-7026
    #>  4 (405) 879-4887 (281) 293-6600 (405) 879-4887 (281) 293-6600
    #>  5 (   )    -     (888) 580-7747 ( ) -          (888) 580-7747
    #>  6 (701) 258-7117 <NA>           (701) 258-7117 <NA>          
    #>  7 (701) 222-1616 (701) 222-1616 (701) 222-1616 (701) 222-1616
    #>  8 (701) 240-3372 (314) 512-5000 (701) 240-3372 (314) 512-5000
    #>  9 (701) 693-5596 (   )    -     (701) 693-5596 ( ) -         
    #> 10 (701) 224-1541 (701) 224-1541 (701) 224-1541 (701) 224-1541
    #> # … with 1,379 more rows
…
