…
``` r
mde <- mutate(mde, payee = coalesce(payee, vendor))
mde <- mde %>% flag_na(date, payee, amount, committee)
percent(mean(mde$na_flag), 0.01)
#> [1] "0.06%"
```

``` r
mde %>% 
  filter(na_flag) %>% 
  select(date, payee, amount, committee)
#> # A tibble: 93 × 4
#>    date       payee amount committee               
#>    <date>     <chr>  <dbl> <chr>                   
#>  1 2021-04-16 <NA>    22   Edelson, Mark Friends of
#>  2 2021-04-24 <NA>   144.  Ivey, Julian Friends of 
#>  3 2021-04-24 <NA>    59.1 Ivey, Julian Friends of 
#>  4 2021-04-24 <NA>    26.5 Ivey, Julian Friends of 
#>  5 2021-04-24 <NA>   122.  Ivey, Julian Friends of 
#>  6 2021-04-24 <NA>    40.3 Ivey, Julian Friends of 
#>  7 2021-04-24 <NA>   102.  Ivey, Julian Friends of 
#>  8 2021-04-24 <NA>    59.9 Ivey, Julian Friends of 
#>  9 2021-04-24 <NA>    51.6 Ivey, Julian Friends of 
#> 10 2021-04-24 <NA>    39.9 Ivey, Julian Friends of 
#> # … with 83 more rows
```
…
``` r
d1 <- duplicated(mde, fromLast = FALSE)
d2 <- duplicated(mde, fromLast = TRUE)
mde <- mutate(mde, dupe_flag = d1 | d2)
percent(mean(mde$dupe_flag), 0.01)
#> [1] "4.89%"
rm(d1, d2); flush_memory()
```

``` r
mde %>% 
  filter(dupe_flag) %>% 
  select(date, payee, amount, committee)
#> # A tibble: 7,685 × 4
#>    date       payee          amount committee            
#>    <date>     <chr>           <dbl> <chr>                
#>  1 2021-01-15 SYED SAQIB ALI    100 Ali, Saqib Friends of
#>  2 2021-01-15 SYED SAQIB ALI      0 Ali, Saqib Friends of
#>  3 2021-01-15 SYED SAQIB ALI      0 Ali, Saqib Friends of
#>  4 2021-01-15 SYED SAQIB ALI      0 Ali, Saqib Friends of
#>  5 2021-01-15 SYED SAQIB ALI      0 Ali, Saqib Friends of
#>  6 2021-01-15 SYED SAQIB ALI    100 Ali, Saqib Friends of
#>  7 2021-01-15 SYED SAQIB ALI      0 Ali, Saqib Friends of
#>  8 2021-01-15 SYED SAQIB ALI      0 Ali, Saqib Friends of
#>  9 2021-01-15 SYED SAQIB ALI      0 Ali, Saqib Friends of
#> 10 2021-01-15 SYED SAQIB ALI    100 Ali, Saqib Friends of
#> # … with 7,675 more rows
```
…
``` r
mde %>% 
  filter(state_sep != state_norm) %>% 
  count(state_sep, state_norm, sort = TRUE)
#> # A tibble: 77 × 3
#>    state_sep            state_norm     n
#>    <chr>                <chr>      <int>
#>  1 Maryland             MD         88452
#>  2 California           CA         16938
#>  3 Massachusetts        MA          9619
#>  4 District Of Columbia DC          5899
#>  5 Louisiana            LA          4588
#>  6 Virginia             VA          3248
#>  7 New York             NY          2978
#>  8 Ohio                 OH          2655
#>  9 Pennsylvania         PA          2557
#> 10 Arizona              AZ          1776
#> # … with 67 more rows
```
…
      key_collision_merge() %>% 
      n_gram_merge(numgram = 1)
  ) %>% 
  filter(city_refine != city_swap) %>% 
  inner_join(
    y = zipcodes,
    by = c(
      "city_refine" = "city",
      "state_norm" = "state",
      "zip_norm" = "zip"
    )
  )
```

    #> # A tibble: 35 × 5
    #>    state_norm zip_norm city_swap    city_refine       n
    #>    <chr>      <chr>    <chr>        <chr>         <int>
    #>  1 CA         94107    SAN FRANSICO SAN FRANCISCO    14
    #>  2 CA         94158    FRANCISCO    SAN FRANCISCO    13
    #>  3 CA         94105    SAN FRANSICO SAN FRANCISCO    10
    #>  4 DC         20006    WASHIGNTONO  WASHINGTON        8
    #>  5 OH         45249    CINCINATTI   CINCINNATI        8
    #>  6 CA         94158    SAN FRANSICO SAN FRANCISCO     6
    #>  7 MD         21206    BALTIMORE CO BALTIMORE         5
    #>  8 MD         21209    BALTIMORE CO BALTIMORE         4
    #>  9 MD         21224    BALTIMORE CO BALTIMORE         4
    #> 10 OH         45271    CINCINATTI   CINCINNATI        4
    #> # … with 25 more rows
…
``` r
mde <- mde %>% 
  left_join(good_refine) %>% 
  mutate(city_refine = coalesce(city_refine, city_swap))
```

#### Progress

``` r
many_city <- c(valid_city, extra_city)
mde %>% 
  filter(city_refine %out% many_city) %>% 
  count(city_refine, sort = TRUE)
#> # A tibble: 284 × 2
#>    city_refine        n
#>    <chr>          <int>
#>  1 <NA>            6677
#>  2 LANGLEY PARK     854
#>  3 PRINCE GEORGES   518
#>  4 BALTIMORE CITY   451
#>  5 ANNE ARUNDEL     351
#>  6 BALTIMORE CO     273
#>  7 MELNO PARK       203
#>  8 IN STATE         171
#>  9 ST MARYS         157
#> 10 NORTH SEATTLE     98
#> # … with 274 more rows
```
…
