…
### Duplicates

If we ignore the (supposedly) unique `expenditure_id` variable, there
are a number of duplicated records. We can flag every duplicate record
(after the first) with a new `dupe_flag` variable.

``` r
me <- flag_dupes(me, -expenditure_id)
sum(me$dupe_flag)
#> [1] 5205
percent(mean(me$dupe_flag))
#> [1] "3%"
```

    #> # A tibble: 5,205 x 33
    #>    org_id expenditure_amo… expenditure_date last_name first_name middle_name suffix address1
    #>    <chr>             <dbl> <date>           <chr>     <chr>      <chr>       <chr>  <chr>   
    #>  1 639                50.6 2008-01-07       Vonage    <NA>       <NA>        <NA>   www.von…
    #>  2 639                50.6 2008-02-06       Vonage    <NA>       <NA>        <NA>   www.von…
    #>  3 1308               25   2008-03-03       Eapps     <NA>       <NA>        <NA>   3850 Ho…
    #>  4 639                50.6 2008-04-07       Vonage    <NA>       <NA>        <NA>   www.von…
    #>  5 639                78.7 2008-04-07       Staples   <NA>       <NA>        <NA>   Civic C…
    #>  6 638               550   2008-05-01       Maine De… <NA>       <NA>        <NA>   PO Box …
    #>  7 3987                5   2008-05-03       Tobey's … <NA>       <NA>        <NA>   <NA>    
    #>  8 2257               10.5 2008-05-28       Printing  Atkins     <NA>        <NA>   155 Mai…
    #>  9 2257               10.5 2008-05-28       Printing  Atkins     <NA>        <NA>   155 Mai…
    #> 10 3993               31.5 2008-05-28       Rite Aid  <NA>       <NA>        <NA>   <NA>    
    #> # … with 5,195 more rows, and 25 more variables: address2 <chr>, city <chr>, state <chr>,
    #> #   zip <chr>, explanation <chr>, expenditure_id <chr>, filed_date <date>, purpose <chr>,
    #> #   expenditure_type <chr>, committee_type <chr>, committee_name <chr>, candidate_name <chr>,
    #> #   amended <lgl>, legacy_id <chr>, committee_office <chr>, committee_district <chr>,
    #> #   committee_party <chr>, committee_financing_type <chr>,
    #> #   support_oppose_candidate_legacy_id <chr>, office <chr>, district <chr>, report_name <chr>,
    #> #   expender_name <chr>, na_flag <lgl>, dupe_flag <lgl>
…
