…
### Duplicates

``` r
wyc <- flag_dupes(wyc, everything(), .check = TRUE)
mean(wyc$dupe_flag)
#> [1] 0.04087364
```

``` r
wyc %>% 
  filter(dupe_flag) %>% 
  select(date, contributor_name, amount, recipient_name)
#> # A tibble: 4,497 x 4
#>    date       contributor_name           amount recipient_name 
#>    <date>     <chr>                       <dbl> <chr>          
#>  1 2019-10-23 COLLIER, WILL  (GILLETTE)     100 WY REALTORS PAC
#>  2 2019-10-23 COLLIER, WILL  (GILLETTE)     100 WY REALTORS PAC
#>  3 2019-09-19 BELUS, MAXINE  (CLEARMONT)    100 WY REALTORS PAC
#>  4 2019-09-19 BELUS, MAXINE  (CLEARMONT)    100 WY REALTORS PAC
#>  5 2019-09-19 DELACH, SHEILA  (CASPER)      100 WY REALTORS PAC
#>  6 2019-09-19 DELACH, SHEILA  (CASPER)      100 WY REALTORS PAC
#>  7 2019-09-19 KORNKVEN, JOHN A  (CASPER)    100 WY REALTORS PAC
#>  8 2019-09-19 KORNKVEN, JOHN A  (CASPER)    100 WY REALTORS PAC
#>  9 2019-09-19 LEVER, GARY P  (CASPER)       100 WY REALTORS PAC
#> 10 2019-09-19 LEVER, GARY P  (CASPER)       100 WY REALTORS PAC
#> # … with 4,487 more rows
```
…
