…
To better understand the type of records in the database, we can create
a new variable indicating the year of the relationship registration.

``` r
select(palr, ends_with("date"))
#> # A tibble: 37,111 × 8
#>    last_updated_date sub_date   renewal_date lob_comm…¹ expire_d…² term_date  pri_star…³ pri_end_…⁴
#>    <date>            <date>     <date>       <date>     <date>     <date>     <date>     <date>    
#>  1 2016-05-22        2016-05-12 2018-12-20   2016-05-09 2020-12-31 NA         2016-05-22 NA        
#>  2 2016-05-22        2016-05-12 2018-12-20   2016-05-09 2020-12-31 NA         2016-05-12 NA        
#>  3 2016-05-22        2016-05-12 2018-12-20   2016-05-09 2020-12-31 NA         2016-05-12 NA        
#>  4 2016-05-22        2016-05-12 2018-12-20   2016-05-09 2020-12-31 NA         2016-05-22 NA        
#>  5 2013-01-03        2008-07-16 NA           2008-06-01 2014-12-31 2014-03-04 2008-06-01 NA        
#>  6 2013-01-03        2008-07-16 NA           2008-06-01 2014-12-31 2014-03-04 2009-07-01 NA        
#>  7 2014-12-30        2011-06-16 2016-12-21   2011-06-16 2018-12-31 2017-05-05 2011-06-16 NA        
#>  8 2021-04-14        2021-04-14 NA           2021-04-14 2022-12-31 NA         2021-04-14 NA        
#>  9 2019-05-31        2007-01-31 2019-01-02   2007-01-29 2020-12-31 2019-05-31 2007-01-01 2019-05-31
#> 10 2019-05-31        2007-01-31 2019-01-02   2007-01-29 2020-12-31 2019-05-31 2007-01-31 2019-05-31
#> # … with 37,101 more rows, and abbreviated variable names ¹​lob_commenced_date, ²​expire_date,
#> #   ³​pri_start_date, ⁴​pri_end_date
```
…
    remove = FALSE,
    na.rm = TRUE
  ) %>% 
  mutate(
    lob_phone_norm = normal_phone(lob_phone_full),
    pri_phone_norm = normal_phone(pri_phone_full)
  ) %>% 
  select(-ends_with("phone_full")) %>% 
  mutate_at(
    .vars = vars(ends_with("fax")),
    .funs = list(norm = normal_phone)
  )
```

    #> # A tibble: 17,341 × 6
    #>    lob_phone    lob_phone_ext pri_phone    pri_phone_extn lob_phone_norm pri_phone_norm        
    #>    <chr>        <chr>         <chr>        <chr>          <chr>          <chr>                 
    #>  1 412-497-1060 <NA>          412-259-8696 <NA>           (412) 497-1060 "(412) 259-8696"      
    #>  2 717-238-6715 <NA>          <NA>         <NA>           (717) 238-6715 ""                    
    #>  3 717-703-5900 <NA>          312-279-1032 <NA>           (717) 703-5900 "(312) 279-1032"      
    #>  4 717-234-2376 <NA>          610-357-8963 <NA>           (717) 234-2376 "(610) 357-8963"      
    #>  5 215-625-3874 <NA>          215-625-3874 106            (215) 625-3874 "(215) 625-3874 x106" 
    #>  6 215-735-6660 <NA>          330-493-4443 1476           (215) 735-6660 "(330) 493-4443 x1476"
    #>  7 717-214-2200 <NA>          904-490-5857 <NA>           (717) 214-2200 "(904) 490-5857"      
    #>  8 717-238-9078 <NA>          717-761-7210 <NA>           (717) 238-9078 "(717) 761-7210"      
    #>  9 215-735-6660 <NA>          608-381-7237 <NA>           (215) 735-6660 "(608) 381-7237"      
    #> 10 412-765-1180 <NA>          412-471-9500 <NA>           (412) 765-1180 "(412) 471-9500"      
    #> # … with 17,331 more rows
…
  unite(
    starts_with("pri_line"),
    col = pri_addr,
    sep = " ",
    remove = FALSE,
    na.rm = TRUE
  ) %>% 
  mutate_at(
    .vars = vars(ends_with("addr")),
    .funs = list(norm = ~ normal_address(.,abbs = usps_street,
                                         na_rep = TRUE))
  )
```

    #> # A tibble: 3,070 × 3
    #>    lob_line1                     lob_line2        lob_addr_norm                            
    #>    <chr>                         <chr>            <chr>                                    
    #>  1 2579 INTERSTATE DRIVE         <NA>             2579 INTERSTATE DR                       
    #>  2 614 N. FRONT ST               STE G            614 N FRONT ST STE G                     
    #>  3 6155 Mulberry Court           <NA>             6155 MULBERRY CT                         
    #>  4 30 North Third Street         Suite 600        30 NORTH THIRD STREET SUITE 600          
    #>  5 121 N. Sugan  Road            <NA>             121 N SUGAN RD                           
    #>  6 PA Manufacturers' Association 225 State Street PA MANUFACTURERS ASSOCIATION 225 STATE ST
    #>  7 635 W. 42nd Street            #32J             635 W 42ND STREET #32J                   
    #>  8 24 Elan Lane                  <NA>             24 ELAN LN                               
    #>  9 319 North Front St            <NA>             319 NORTH FRONT ST                       
    #> 10 22 S. 22nd ST.                <NA>             22 S 22ND ST                             
    #> # … with 3,060 more rows
…
