…
#### Progress

We can make very few manual changes to capture the last few big invalid values. Local city abbreviations (e.g., SPFD) often need to be changed by hand.

``` r
wv <- wv %>% 
  mutate(
    city_clean = coalesce(sec_city_match, city_swap)) 
wv %>%
  filter(city_clean %out% valid_city) %>% 
  count(state, city_clean, sort = TRUE) %>% 
  drop_na(city_clean)
#> # A tibble: 54 x 3
#>    state city_clean          n
#>    <chr> <chr>           <int>
#>  1 WV    CITY               61
#>  2 WV    ""                 23
#>  3 CA    SAN FRANSICO       14
#>  4 OH    MES TOWNSHIP       12
#>  5 MA    WEST COMERVILLE     6
#>  6 NJ    | SOMERVILLE        5
#>  7 WV    CHARSLETON          5
#>  8 WV    GREENBAG ROAD       5
#>  9 WV    STONEWOOD           4
#> 10 WV    TEL AVIV            3
#> # … with 44 more rows
```
…
