…
This process brought us to 95% valid.

It also increased the proportion of `NA` values by 0%. These new `NA`
values were either a single (possibly repeating) character, or contained
in the `na_city` vector.

    #> # A tibble: 75 x 4
    #>    zip_norm state_norm city       city_norm
    #>    <chr>    <chr>      <chr>      <chr>    
    #>  1 <NA>     IN         *          <NA>     
    #>  2 46250    IN         unknown    <NA>     
    #>  3 47374    IN         332        <NA>     
    #>  4 <NA>     IN         online     <NA>     
    #>  5 <NA>     IN         none given <NA>     
    #>  6 <NA>     IN         None given <NA>     
    #>  7 46312    IN         E.         <NA>     
    #>  8 <NA>     <NA>       1111       <NA>     
    #>  9 <NA>     IN         u          <NA>     
    #> 10 <NA>     IN         i          <NA>     
    #> # … with 65 more rows
…
      key_collision_merge() %>% 
      n_gram_merge(numgram = 1)
  ) %>% 
  filter(city_refine != city_swap) %>% 
  inner_join(
    y = zipcodes,
    by = c(
      "city_refine" = "city",
      "state_norm" = "state",
      "zip_norm" = "zip"
    )
  )
```

    #> # A tibble: 22 x 5
    #>    state_norm zip_norm city_swap        city_refine         n
    #>    <chr>      <chr>    <chr>            <chr>           <int>
    #>  1 IN         47150    NEW ALBANY LANE  NEW ALBANY         64
    #>  2 IN         46184    NEW WHITELAND    WHITELAND          34
    #>  3 IN         46590    WINNIOA LAKE     WINONA LAKE         4
    #>  4 IN         47978    RENESSLEAR       RENSSELAER          4
    #>  5 CA         94107    FRANCISCO        SAN FRANCISCO       3
    #>  6 IA         50265    WEST DEMONIS     WEST DES MOINES     3
    #>  7 SC         29419    NORTH CHARLESTON CHARLESTON          3
    #>  8 IN         46410    MERRERVILLE      MERRILLVILLE        2
    #>  9 OH         45999    CINNATTI         CINCINNATI          2
    #> 10 CA         94102    SAN FRANCISCO CA SAN FRANCISCO       1
    #> # … with 12 more rows
…
This brings us to 99% valid values.

We can make very few manual changes to capture the last few big invalid
values. Local city abbreviations (e.g., INDPLS) often need to be changed
by hand.

``` r
ind %>%
  filter(city_refine %out% valid_city) %>% 
  count(state_norm, city_refine, sort = TRUE) %>% 
  drop_na(city_refine)
#> # A tibble: 519 x 3
#>    state_norm city_refine          n
#>    <chr>      <chr>            <int>
#>  1 IL         COUNTRYSIDE        405
#>  2 IN         SPEEDWAY           404
#>  3 IN         INDY               157
#>  4 IL         OAKBROOK TERRACE    86
#>  5 IN         OGDEN DUNES         60
#>  6 MA         FITCHBONS           59
#>  7 IN         INDPLS              56
#>  8 MA         WEST SOMERVILLE     53
#>  9 FL         PLANTATION          52
#> 10 TX         DFW AIRPORT         52
#> # … with 509 more rows
```
…
