…
These records can be flagged with `campfin::flag_na()`.

``` r
dcc <- dcc %>% flag_na(award_date, vendor, amount, agency)
percent(mean(dcc$na_flag), 0.01)
#> [1] "9.75%"
```

``` r
dcc %>% 
  filter(na_flag) %>% 
  select(award_date, vendor, amount, agency)
#> # A tibble: 595 x 4
#>    award_date vendor                              amount agency
#>    <date>     <chr>                                <dbl> <chr> 
#>  1 2019-04-26 Cura Concepts                       500000 <NA>  
#>  2 2018-04-24 Capital Consulting LLC              950000 <NA>  
#>  3 2019-04-22 Market Me Consulting                900000 <NA>  
#>  4 2019-04-22 KoVais Innovative Solutions         950000 <NA>  
#>  5 2018-10-25 DIGI DOCS INC DOCUMENT MGERS        750000 <NA>  
#>  6 2018-04-18 Business Development Associates LLC 950000 <NA>  
#>  7 2019-04-18 Clearly Innovative, Inc.            500000 <NA>  
#>  8 2018-04-12 ROBINSON ASSOCIATES LLC             900000 <NA>  
#>  9 2018-04-11 Sol Support LLC                     950000 <NA>  
#> 10 2019-04-10 Empowerment Enterprise Group, LLC   500000 <NA>  
#> # … with 585 more rows
```
…
``` r
add_prop(count(dcc, agency, sort = TRUE))
#> # A tibble: 100 x 3
#>    agency                                                                                  n      p
#>    <chr>                                                                               <int>  <dbl>
#>  1 Department on Disability Services (DDS)                                               737 0.121 
#>  2 Contracting and Procurement (OCP)                                                     624 0.102 
#>  3 <NA>                                                                                  592 0.0970
#>  4 Chief Technology Officer (OCTO)                                                       418 0.0685
#>  5 Health (DOH)                                                                          334 0.0548
#>  6 Public Works (DPW)                                                                    294 0.0482
#>  7 Human Services (DHS)                                                                  291 0.0477
#>  8 State Superintendent of Education (OSSE)                                              280 0.0459
#>  9 Contracting and Procurement (OCP),Deputy Mayor for Greater Economic Opportunity (D…   239 0.0392
#> 10 Employment Services (DOES)                                                            220 0.0361
#> # … with 90 more rows
add_prop(count(dcc, option_period, sort = TRUE))
#> # A tibble: 28 x 3
#>    option_period     n        p
#>    <chr>         <int>    <dbl>
#>  1 Base Period    3412 0.559   
#>  2 Option 1       1241 0.203   
#>  3 Option 2        752 0.123   
#>  4 Option 3        443 0.0726  
#>  5 Option 4        196 0.0321  
#>  6 Base Year        14 0.00230 
#>  7 Base              7 0.00115 
#>  8 Option Year 2     5 0.000820
#>  9 Option Year 3     5 0.000820
#> 10 Option Year 1     3 0.000492
#> # … with 18 more rows
```
…
