…
We can flag any record missing a key variable needed to identify a
voter.

``` r
key_vars <- c("sos_voterid", "last_name", "birth_date", "reg_date")
ohv <- flag_na(ohv, all_of(key_vars))
sum(ohv$na_flag)
#> [1] 21
```

``` r
ohv %>% 
  filter(na_flag) %>% 
  select(sos_voterid, first_name, middle_name, last_name, birth_date)
#> # A tibble: 21 x 5
#>    sos_voterid  first_name middle_name last_name birth_date
#>    <chr>        <chr>      <chr>       <chr>     <date>    
#>  1 OH0023161330 BRIAN      <NA>        <NA>      1987-08-16
#>  2 OH0024598005 MATALAY    <NA>        <NA>      1969-11-18
#>  3 OH0023512707 JUNGHYE    KIM         <NA>      1980-07-10
#>  4 OH0024429442 PAN        MA          <NA>      1981-10-10
#>  5 OH0013823070 ELIZABETH  I           <NA>      1955-01-13
#>  6 OH0022208256 INA        <NA>        <NA>      1985-04-24
#>  7 OH0023550478 SU         SA          <NA>      1987-08-18
#>  8 OH0025794817 JOHN       CHRISTOPHER <NA>      1993-09-07
#>  9 OH0022468713 JIYOUNG    <NA>        <NA>      1963-03-20
#> 10 OH0024406108 CHENG      LUN         <NA>      1965-10-02
#> # … with 11 more rows
```
…
We can see that, despite unique IDs, there are duplicate voters.

``` r
ohv %>% 
  filter(dupe_flag) %>% 
  select(sos_voterid, all_of(key_vars)) %>% 
  arrange(last_name)
#> # A tibble: 283 x 4
#>    sos_voterid  last_name  birth_date reg_date  
#>    <chr>        <chr>      <date>     <date>    
#>  1 OH0026065942 ABRAMOVICH 1959-03-24 2020-11-02
#>  2 OH0026039865 ABRAMOVICH 1959-03-24 2020-11-02
#>  3 OH0026045522 BADER      1970-11-14 2020-11-03
#>  4 OH0026043463 BADER      1970-11-14 2020-11-03
#>  5 OH0026045494 BAL        1992-07-31 2020-11-03
#>  6 OH0026044683 BAL        1992-07-31 2020-11-03
#>  7 OH0025407215 BEERS      2000-03-08 2020-02-12
#>  8 OH0024464140 BEERS      2000-03-08 2020-02-12
#>  9 OH0023859505 BLACKWELL  1993-04-23 2019-10-09
#> 10 OH0025303136 BLACKWELL  1993-04-23 2019-10-09
#> # … with 273 more rows
```
…
The cities are mostly valid, but the database uses abbreviations like
“HTS” rather than “HEIGHTS”, as we would in our database. We can
expand these abbreviations with `campfin::normal_city()`.

``` r
many_city <- c(valid_city, extra_city)
prop_in(ohv$city, many_city)
#> [1] 0.955614
norm_city <- ohv %>% 
  count(city, sort = TRUE) %>% 
  select(-n) %>% 
  filter(city %out% many_city) %>% 
  mutate(across(city, list(clean = normal_city), abbs = usps_city))
norm_city
#> # A tibble: 120 x 2
#>    city          city_clean       
#>    <chr>         <chr>            
#>  1 CLEVELAND HTS CLEVELAND HEIGHTS
#>  2 N RIDGEVILLE  NORTH RIDGEVILLE 
#>  3 SHAKER HTS    SHAKER HEIGHTS   
#>  4 GARFIELD HTS  GARFIELD HEIGHTS 
#>  5 MAPLE HTS     MAPLE HEIGHTS    
#>  6 BROADVIEW HTS BROADVIEW HEIGHTS
#>  7 E LIVERPOOL   EAST LIVERPOOL   
#>  8 PARMA HTS     PARMA HEIGHTS    
#>  9 WASHINGTON CH WASHINGTON CH    
#> 10 MAYFIELD HTS  MAYFIELD HEIGHTS 
#> # … with 110 more rows
…
