…
There are a significant number of duplicates but not enough to warrant
removal.

``` r
ksc %>% 
  filter(dupe_flag) %>% 
  select(all_of(key_vars)) %>% 
  arrange(date)
#> # A tibble: 1,289 × 4
#>    date       contributor            amount cand_name    
#>    <date>     <chr>                   <dbl> <chr>        
#>  1 2009-08-15 Dale Haselhorst            50 Sam Brownback
#>  2 2009-08-15 Dale Haselhorst            50 Sam Brownback
#>  3 2009-11-22 Kraft Foods Global Inc   1000 Sam Brownback
#>  4 2009-11-22 Kraft Foods Global Inc   1000 Sam Brownback
#>  5 2009-11-25 Antoine Wakim             100 Sam Brownback
#>  6 2009-11-25 Antoine Wakim             100 Sam Brownback
#>  7 2009-11-25 Antoine Wakim             100 Sam Brownback
#>  8 2009-11-25 Todd Frankenbery          100 Sam Brownback
#>  9 2009-11-25 Todd Frankenbery          100 Sam Brownback
#> 10 2009-11-25 Todd Frankenbery          100 Sam Brownback
#> # … with 1,279 more rows
```
…
``` r
addr_norm <- ksc %>% 
  distinct(address) %>%
  mutate(
    address_norm = normal_address(
      address = address,
      abbs = usps_street,
      na_rep = TRUE
    )
  )
```

``` r
addr_norm
#> # A tibble: 53,621 × 2
#>    address                               address_norm                        
#>    <chr>                                 <chr>                               
#>  1 1101 15th NW ST STE 500               1101 15TH NW ST STE 500             
#>  2 1101 15th NW ST                       1101 15TH NW ST                     
#>  3 5423 SW 7th Street                    5423 SW 7TH ST                      
#>  4 5614 Connecticut Avenue NW, Suite 270 5614 CONNECTICUT AVENUE NW SUITE 270
#>  5 5614 Connecticut Avenue, NW Suite 270 5614 CONNECTICUT AVENUE NW SUITE 270
#>  6 Box 5637                              BOX 5637                            
#>  7 2601 Midwest Dr                       2601 MIDWEST DR                     
#>  8 Box 4199                              BOX 4199                            
#>  9 1600 Amphitheatre Pkwy                1600 AMPHITHEATRE PKWY              
#> 10 Box 9265                              BOX 9265                            
#> # … with 53,611 more rows
```
…
