…
### Phone

We can use `campfin::normal_phone()` to convert the numeric phone
numbers into an unambiguous character format. This prevents the column
from being read as a numeric variable.

``` r
nc_lob <- mutate_at(
  .tbl  = nc_lob,
  .vars = vars(ends_with("phone")),
  .funs = list(norm = normal_phone)
)
```

    #> # A tibble: 11,757 × 4
    #>    lobby_phone    prin_phone          lobby_phone_norm prin_phone_norm    
    #>    <chr>          <chr>               <chr>            <chr>              
    #>  1 (919) 787-8880 (608) 630-4686      (919) 787-8880   (608) 630-4686     
    #>  2 (910) 323-0415 (336) 770-2000      (910) 323-0415   (336) 770-2000     
    #>  3 (919) 836-4008 (919) 828-4199      (919) 836-4008   (919) 828-4199     
    #>  4 (919) 783-2847 (212) 255-0200      (919) 783-2847   (212) 255-0200     
    #>  5 (919) 452-6086 (919) 774-4511      (919) 452-6086   (919) 774-4511     
    #>  6 (919) 836-4015 (984) 480-3199 x101 (919) 836-4015   (984) 480-3199 x101
    #>  7 (919) 899-3045 (919) 478-4661      (919) 899-3045   (919) 478-4661     
    #>  8 (919) 653-7803 (252) 436-2040      (919) 653-7803   (252) 436-2040     
    #>  9 <NA>           (972) 764-9319      <NA>             (972) 764-9319     
    #> 10 (212) 455-6393 (202) 496-5652      (212) 455-6393   (202) 496-5652     
    #> # … with 11,747 more rows
…
Our database uses 5-digit ZIP codes, so we can pass the original postal
code variables to `campfin::normal_zip()` to trim the strings and try
and repair and broken formats.

``` r
nc_lob <- mutate_at(
  .tbl  = nc_lob,
  .vars = vars(ends_with("zip")),
  .funs = list(norm = normal_zip),
  na_rep = TRUE
)
```

    #> # A tibble: 3,706 × 4
    #>    lobby_zip  prin_zip   lobby_zip_norm prin_zip_norm
    #>    <chr>      <chr>      <chr>          <chr>        
    #>  1 27602      27511-6372 27602          27511        
    #>  2 27608      27301-9752 27608          27301        
    #>  3 27601-1891 20171      27601          20171        
    #>  4 27601-2998 21202      27601          21202        
    #>  5 23452      27709-2195 23452          27709        
    #>  6 27608      28445-6985 27608          28445        
    #>  7 27602-2611 30339      27602          30339        
    #>  8 28806-4550 27406      28806          27406        
    #>  9 27611-7404 27605-0918 27611          27605        
    #> 10 27602      27102-3199 27602          27102        
    #> # … with 3,696 more rows
…
prop_in(nc_lob$lobby_state_norm, valid_state, na.rm = T)
#> [1] 1
prop_in(nc_lob$prin_state_norm, valid_state, na.rm = T)
#> [1] 0.9986809

nc_lob <- nc_lob %>% 
  mutate_at(
    .vars = vars(ends_with("state_norm")),
    .funs = na_if, "XX" 
  ) %>% 
  mutate(prin_state_norm = prin_state_norm %>% na_if("XX") %>% str_replace("LO", "LA"))
```

    #> # A tibble: 304 × 4
    #>    lobby_state prin_state lobby_state_norm prin_state_norm
    #>    <chr>       <chr>      <chr>            <chr>          
    #>  1 VA          MO         VA               MO             
    #>  2 NC          IL         NC               IL             
    #>  3 LA          CA         LA               CA             
    #>  4 FL          RI         FL               RI             
    #>  5 NC          NM         NC               NM             
    #>  6 MA          NC         MA               NC             
    #>  7 MO          LA         MO               LA             
    #>  8 NY          IL         NY               IL             
    #>  9 NC          ON         NC               ON             
    #> 10 NC          MA         NC               MA             
    #> # … with 294 more rows
…
