…
``` r
raw_all <- unzip(
  zipfile = raw_zip,
  junkpaths = TRUE,
  exdir = raw_dir
)
```

``` r
file_info(raw_all) %>% 
  select(path, size, modification_time) %>% 
  mutate(across(path, path.abbrev))
#> # A tibble: 63 × 3
#>    path                                                                          size modification_time  
#>    <fs::path>                                                             <fs::bytes> <dttm>             
#>  1 /home/kiernan/Documents/tap/R_tap/ne/contribs/data/raw/forma1cand.txt      176.79K 2022-03-29 12:46:12
#>  2 /home/kiernan/Documents/tap/R_tap/ne/contribs/data/raw/nadc_tables.rtf     308.23K 2022-03-29 12:46:12
#>  3 /home/kiernan/Documents/tap/R_tap/ne/contribs/data/raw/forma1.txt          513.79K 2022-03-29 12:46:12
#>  4 /home/kiernan/Documents/tap/R_tap/ne/contribs/data/raw/formcfla4.txt         18.3K 2022-03-29 12:46:12
#>  5 /home/kiernan/Documents/tap/R_tap/ne/contribs/data/raw/formb73.txt           1.13M 2022-03-29 12:46:12
#>  6 /home/kiernan/Documents/tap/R_tap/ne/contribs/data/raw/formb1c.txt         263.48K 2022-03-29 12:46:12
#>  7 /home/kiernan/Documents/tap/R_tap/ne/contribs/data/raw/formb4a.txt           3.54M 2022-03-29 12:46:12
#>  8 /home/kiernan/Documents/tap/R_tap/ne/contribs/data/raw/loblatefile.txt     328.73K 2022-03-29 12:46:12
#>  9 /home/kiernan/Documents/tap/R_tap/ne/contribs/data/raw/formb7.txt             2.8M 2022-03-29 12:46:12
#> 10 /home/kiernan/Documents/tap/R_tap/ne/contribs/data/raw/formcfla8.txt         3.06K 2022-03-29 12:46:12
#> # … with 53 more rows
```
…
``` r
key_vars <- c("contribution_date", "contributor_name", 
              "contribution_amount", "committee_name")
nec <- flag_na(nec, all_of(key_vars))
mean(nec$na_flag)
#> [1] 0.001133721
sum(nec$na_flag)
#> [1] 272
```

``` r
nec %>% 
  filter(na_flag) %>% 
  select(all_of(key_vars), source_form)
#> # A tibble: 272 × 5
#>    contribution_date contributor_name                     contribution_amount committee_name                 source_form
#>    <date>            <chr>                                              <dbl> <chr>                          <chr>      
#>  1 2003-05-01        LINCOLN FIREFIGHTERS ASSOCIATION PAC                  NA ANNETTE MCROY FOR CITY COUNCI… Form B1AB  
#>  2 2005-10-05        777, INC DBA CLANCY'S PUBS                            NA AQUATIC PARK                   Form B5    
#>  3 2001-12-21        LESLIE   PARRETTE                                     NA AQUILA, INC EMPLOYEE STATE PAC Form B4A   
#>  4 1999-01-28        <NA>                                                 500 BOB STEPHENS FOR CITY COUNCIL  Form B1AB  
#>  5 1999-01-01        INTEGRITY BUILDERS, INC.                              NA BOB STEPHENS FOR CITY COUNCIL  Form B1AB  
#>  6 1999-01-01        MANAGEMENT ONE                                        NA BOB STEPHENS FOR CITY COUNCIL  Form B1AB  
#>  7 1999-01-01        NEBCO, INC.                                           NA BOB STEPHENS FOR CITY COUNCIL  Form B1AB  
#>  8 1999-01-01        PIERSON, FITCHETT, HUNZEKER,                          NA BOB STEPHENS FOR CITY COUNCIL  Form B1AB  
#>  9 1999-01-01        <NA>                                                  NA BOB STEPHENS FOR CITY COUNCIL  Form B1AB  
#> 10 1999-01-01        PRAIRIE HOMES                                         NA BOB STEPHENS FOR CITY COUNCIL  Form B1AB  
#> # … with 262 more rows
```
…
``` r
nec <- flag_dupes(nec, everything())
sum(nec$dupe_flag)
#> [1] 1396
mean(nec$dupe_flag)
#> [1] 0.005818655
```

``` r
nec %>% 
  filter(dupe_flag) %>% 
  select(all_of(key_vars)) %>% 
  arrange(contribution_date)
#> # A tibble: 1,396 × 4
#>    contribution_date contributor_name                      contribution_amount committee_name                           
#>    <date>            <chr>                                               <dbl> <chr>                                    
#>  1 1901-01-01        MUTUAL OF OMAHA COMPANIES PAC (IMPAC)                37.5 MUTUAL OF OMAHA INSURANCE COMPANY        
#>  2 1901-01-01        MUTUAL OF OMAHA COMPANIES PAC (IMPAC)                37.5 MUTUAL OF OMAHA INSURANCE COMPANY        
#>  3 1986-01-25        ROTH FOR SHERIFF COMMITTEE                           50   HERZOG, DAVID L. P.C.                    
#>  4 1986-01-25        ROTH FOR SHERIFF COMMITTEE                           50   HERZOG, DAVID L. P.C.                    
#>  5 1986-01-29        ROTH FOR SHERIFF COMMITTEE                           50   P.J. MORGAN INVESTMENTS, INC.            
#>  6 1986-01-29        ROTH FOR SHERIFF COMMITTEE                           50   P.J. MORGAN INVESTMENTS, INC.            
#>  7 1986-09-05        NE CONSTRUCTION INDUSTRY PAC                        500   CHARLES VRANA & SON CONSTRUCTION CO.     
#>  8 1986-09-05        NE CONSTRUCTION INDUSTRY PAC                        500   CHARLES VRANA & SON CONSTRUCTION CO.     
#>  9 1986-09-05        NE CONSTRUCTION INDUSTRY PAC                        500   CHARLES VRANA & SON CONSTRUCTION CO.     
#> 10 1986-12-12        SCHELLPEPER FOR LEGISLATURE                         500   TRANSPORTATION POLITICAL EDUCATION LEAGUE
#> # … with 1,386 more rows
```
…
