…
``` r
key_vars <- c("receipt_date", "filer_name", 
              "receipt_amount", "contributor_name")
nec <- flag_na(nec, all_of(key_vars))
mean(nec$na_flag)
#> [1] 0.01773374
sum(nec$na_flag)
#> [1] 775
```

``` r
nec %>% 
  filter(na_flag) %>% 
  select(all_of(key_vars))
#> # A tibble: 775 × 4
#>    receipt_date filer_name                                                receipt_amount contributor_name
#>    <date>       <chr>                                                     <chr>          <chr>           
#>  1 2021-01-01   NEBRASKA COOPERATIVE COUNCIL - POLITICAL ACTION COMMITTEE 3.92           <NA>            
#>  2 2021-01-01   STINNER FOR LEGISLATURE                                   0.84           <NA>            
#>  3 2021-01-01   FRIENDS OF CHRIS JERRAM                                   1000           <NA>            
#>  4 2021-01-01   CAVANAUGH FOR NEBRASKA                                    80             <NA>            
#>  5 2021-01-07   KINDIG FOR MAYOR                                          0.13           <NA>            
#>  6 2021-01-22   LA GRONE FOR LEGISLATURE                                  2571.25        <NA>            
#>  7 2021-01-31   NEBRASKA COOPERATIVE COUNCIL - POLITICAL ACTION COMMITTEE 4.05           <NA>            
#>  8 2021-01-31   IOWA-NEBRASKA EQUIPMENT DEALERS PAC                       0.33           <NA>            
#>  9 2021-01-31   FRIENDS OF ERIC WILLIAMS                                  2.71           <NA>            
#> 10 2021-02-26   IOWA-NEBRASKA EQUIPMENT DEALERS PAC                       0.28           <NA>            
#> # … with 765 more rows
```
…
We can also flag any record completely duplicated across every column.

``` r
nec <- flag_dupes(nec, everything())
sum(nec$dupe_flag)
#> [1] 0
mean(nec$dupe_flag)
#> [1] NA
```

``` r
nec %>% 
  group_by(source_type) %>% 
  arrange(receipt_date)
#> # A tibble: 43,702 × 25
#>    receipt_id org_id filer_…¹ filer…² candi…³ recei…⁴ other…⁵ receipt_…⁶ recei…⁷ descr…⁸ sourc…⁹ contr…˟ first…˟ middl…˟
#>    <chr>      <chr>  <chr>    <chr>   <chr>   <chr>   <chr>   <date>     <chr>   <chr>   <chr>   <chr>   <chr>   <chr>  
#>  1 8734       7559   Candida… COMMIT… JOHN E… Loan    <NA>    2006-02-08 5170    <NA>    Self (… EWING   JOHN    <NA>   
#>  2 19248      7478   Candida… NEBRAS… DAVID … Loan    <NA>    2007-03-30 74800   <NA>    Indivi… HAHN    DAVID   <NA>   
#>  3 42652      7403   Candida… DAVID … DAVID … Loan    <NA>    2007-03-30 74800   <NA>    Self (… HAHN    DAVID   <NA>   
#>  4 3041       7696   Candida… JIM RI… JIM RI… Loan    <NA>    2008-11-07 13657.… <NA>    Self (… RIHA    JIM     <NA>   
#>  5 19270      7657   Candida… PEOPLE… PAUL S… Loan    <NA>    2010-03-08 2500    <NA>    Self (… SCHUMA… PAUL    <NA>   
#>  6 9191       7694   Candida… PETE R… PETE R… Loan    <NA>    2014-04-04 930000  <NA>    Self (… RICKET… PETE    <NA>   
#>  7 4407       7689   Candida… NEBRAS… PETE P… Loan    <NA>    2014-05-12 20000   <NA>    Self (… PIRSCH  PETE    <NA>   
#>  8 19331      7657   Candida… PEOPLE… PAUL S… Loan    <NA>    2014-09-29 2500    <NA>    Self (… SCHUMA… PAUL    <NA>   
#>  9 9313       7425   Candida… FRIEND… MICHAE… Loan    <NA>    2015-01-01 7500    <NA>    Self (… HILGERS MICHAEL <NA>   
#> 10 6209       7380   Candida… STEVE … STEVE … Loan    <NA>    2016-01-01 4600    <NA>    Self (… ERDMAN  STEVE   <NA>   
#> # … with 43,692 more rows, 11 more variables: suffix <chr>, address_1 <chr>, address_2 <chr>, city <chr>, state <chr>,
#> #   zip <chr>, filed_date <date>, amended <chr>, employer <chr>, occupation <chr>, na_flag <lgl>, and abbreviated
#> #   variable names ¹​filer_type, ²​filer_name, ³​candidate_name, ⁴​receipt_transaction_contribution_type,
#> #   ⁵​other_funds_type, ⁶​receipt_date, ⁷​receipt_amount, ⁸​description, ⁹​source_type, ˟​contributor_name, ˟​first_name,
#> #   ˟​middle_name
```
…
