…
``` r
flc <- flc %>% flag_na(Address, ContribName)
sum(flc$na_flag)
#> [1] 378
```

``` r
flc %>% 
  filter(na_flag) %>% 
  select(Candidate_Committee,Date, Amount, Type, InkindDesc)
#> # A tibble: 378 x 5
#>    Candidate_Committee                    Date       Amount Type  InkindDesc
#>    <chr>                                  <chr>       <dbl> <chr> <chr>     
#>  1 Floridians for Honest Government (PAC) 08/10/2020      0 X     <NA>      
#>  2 Gulf Coast Citizen's Alliance (PAC)    07/28/2020   1000 CHE   <NA>      
#>  3 Parents for Great Schools (ECO)        08/13/2020  50000 CHE   <NA>      
#>  4 Florida ACRE (PAC)                     03/10/2020    100 MUC   <NA>      
#>  5 Florida ACRE (PAC)                     06/01/2020    104 MUC   <NA>      
#>  6 Florida ACRE (PAC)                     06/01/2020    530 MUC   <NA>      
#>  7 Florida ACRE (PAC)                     08/25/2020     11 MUC   <NA>      
#>  8 Florida ACRE (PAC)                     05/06/2020     11 MUC   <NA>      
#>  9 Florida ACRE (PAC)                     04/22/2020     44 MUC   <NA>      
#> 10 Florida ACRE (PAC)                     04/09/2019   2825 MUC   <NA>      
#> # … with 368 more rows
```

### Duplicates

``` r
flc <- flag_dupes(flc, everything())
sum(flc$dupe_flag)
#> [1] 9488
```

``` r
flc %>% 
  filter(dupe_flag) %>% 
  select(Candidate_Committee,Date, Amount, Type, InkindDesc)
#> # A tibble: 9,488 x 5
#>    Candidate_Committee                            Date       Amount Type  InkindDesc
#>    <chr>                                          <chr>       <dbl> <chr> <chr>     
#>  1 Duval Teachers United Tiger Cope (PAC)         04/23/2020    4.2 MUC   <NA>      
#>  2 Duval Teachers United Tiger Cope (PAC)         04/23/2020    4.2 MUC   <NA>      
#>  3 Alachua - Totally Involved in Government (PAC) 09/30/2019   25   MUC   <NA>      
#>  4 Alachua - Totally Involved in Government (PAC) 09/30/2019   25   MUC   <NA>      
#>  5 Duval Teachers United Tiger Cope (PAC)         04/23/2020   43.2 MUC   <NA>      
#>  6 Duval Teachers United Tiger Cope (PAC)         04/23/2020   43.2 MUC   <NA>      
#>  7 United TIGER/COPE South (PAC)                  07/16/2019  166.  MUC   <NA>      
#>  8 United TIGER/COPE South (PAC)                  07/16/2019  166.  MUC   <NA>      
#>  9 United TIGER/COPE North (PAC)                  03/01/2019  172.  MUC   <NA>      
#> 10 United TIGER/COPE North (PAC)                  03/01/2019  172.  MUC   <NA>      
#> # … with 9,478 more rows
```
…
      key_collision_merge() %>% 
      n_gram_merge(numgram = 1)
  ) %>% 
  filter(City_refine != City_swap) %>% 
  inner_join(
    y = zipcodes,
    by = c(
      "City_refine" = "city",
      "State_norm" = "state",
      "ZIP5" = "zip"
    )
  )
```

    #> # A tibble: 59 x 5
    #>    State_norm ZIP5  City_swap        City_refine         n
    #>    <chr>      <chr> <chr>            <chr>           <int>
    #>  1 FL         34653 NEW POINT RICHEY NEW PORT RICHEY    72
    #>  2 FL         34655 NEW POINT RICHEY NEW PORT RICHEY    56
    #>  3 FL         34654 NEW POINT RICHEY NEW PORT RICHEY    50
    #>  4 CA         94127 SAN FRANCISCO CA SAN FRANCISCO      12
    #>  5 FL         33433 BACO RATON       BOCA RATON         12
    #>  6 FL         33948 PORT CHAROLETTE  PORT CHARLOTTE     10
    #>  7 FL         32801 ORLANDONDO       ORLANDO             8
    #>  8 FL         33647 TAMPAPA          TAMPA               6
    #>  9 FL         32132 EDAGWATER        EDGEWATER           3
    #> 10 CA         94104 SAN FRANSICO     SAN FRANCISCO       2
    #> # … with 49 more rows
…
