…
``` r
key_vars <- c("initial_issue_date", "licensee_name", "license_type")
dcl <- flag_na(dcl, all_of(key_vars))
sum(dcl$na_flag)
#> [1] 227116
```

All 227116 rows missing a `licensee_name` are cosmetology apprentices
that were originally issued on January 1, 2001. Suspicious.

``` r
dcl %>% 
  filter(na_flag) %>% 
  count(initial_issue_date, licensee_name, license_type)
#> # A tibble: 222,252 × 4
#>    initial_issue_date licensee_name                   license_type                                      n
#>    <date>             <chr>                           <chr>                                         <int>
#>  1 NA                 "- NORRINGTON PATTERSON, SHEIL" Cosmetology Operator                              1
#>  2 NA                 ". GABRIELLE"                   Real Estate Broker                                1
#>  3 NA                 ". GABRIELLE"                   Real Estate Salesperson                           1
#>  4 NA                 ". NIAMAAT"                     Real Estate Broker                                1
#>  5 NA                 ". NIAMAAT"                     Real Estate Salesperson                           1
#>  6 NA                 "*LEON CIFUENTES"               Asbestos Worker                                   1
#>  7 NA                 "\\TAR ELEC CONTR CO"           Electrician Contractor                            1
#>  8 NA                 "~~ A & M REALTY"               Independent Broker                                1
#>  9 NA                 "~~ CASTLE FINDERS INC"         Real Estate Broker                                1
#> 10 NA                 "~~ CHAPMAN"                    Certified Public Accountant - Not to Practice     1
#> # … with 222,242 more rows
```
### Duplicates

We can also flag any record completely duplicated across every column.

``` r
dcl <- flag_dupes(dcl, -license_number)
sum(dcl$dupe_flag)
#> [1] 4099
```

``` r
dcl %>% 
  filter(dupe_flag) %>% 
  count(initial_issue_date, licensee_name, license_type, sort = TRUE)
#> # A tibble: 1,929 × 4
#>    initial_issue_date licensee_name   license_type                                     n
#>    <date>             <chr>           <chr>                                        <int>
#>  1 NA                 <NA>            Cosmetology Apprentice                          39
#>  2 NA                 UNK             Cosmetology Apprentice                          21
#>  3 NA                 NU              Cosmetology Apprentice                          16
#>  4 NA                 ROBERT WILLIAMS Real Estate Salesperson                          7
#>  5 NA                 JAMES SMITH     Real Estate Salesperson                          6
#>  6 NA                 UN              Cosmetology Apprentice                           6
#>  7 NA                 Thi Le          Cosmetology Specialist Operator - Manicurist     5
#>  8 NA                 Thi Nguyen      Cosmetology Specialist Operator - Manicurist     5
#>  9 NA                 Thi Tran        Cosmetology Specialist Operator - Manicurist     5
#> 10 NA                 ANGELA ROBINSON Cosmetology Apprentice                           4
#> # … with 1,919 more rows
```
…
