…
We can also flag any record completely duplicated across every column.

``` r
hic <- flag_dupes(hic, everything())
sum(hic$dupe_flag)
#> [1] 451
```

``` r
hic %>% 
  filter(dupe_flag) %>% 
  select(all_of(key_vars)) %>% 
  arrange(date, contributor_name)
#> # A tibble: 451 × 5
#>    date       contributor_name   amount committee_name             candidate_name
#>    <date>     <chr>               <dbl> <chr>                      <chr>         
#>  1 2008-02-21 Dowling, Everett     1000 Democratic Party of Hawaii <NA>          
#>  2 2008-02-21 Dowling, Everett     1000 Democratic Party of Hawaii <NA>          
#>  3 2008-02-21 Engesser, Thea J.     100 Democratic Party of Hawaii <NA>          
#>  4 2008-02-21 Engesser, Thea J.     100 Democratic Party of Hawaii <NA>          
#>  5 2008-03-25 Hawaii Link           100 Democratic Party of Hawaii <NA>          
#>  6 2008-03-25 Hawaii Link           100 Democratic Party of Hawaii <NA>          
#>  7 2008-03-26 Morey, Lee F.         100 Democratic Party of Hawaii <NA>          
#>  8 2008-03-26 Morey, Lee F.         100 Democratic Party of Hawaii <NA>          
#>  9 2008-03-30 Kong Kee, FLorence    100 Democratic Party of Hawaii <NA>          
#> 10 2008-03-30 Kong Kee, FLorence    100 Democratic Party of Hawaii <NA>          
#> # ℹ 441 more rows
```
…
### State

All the `state` values are known to be valid abbreviations.

``` r
prop_in(hic$state, valid_state)
#> [1] 1
```

``` r
count(hic, state, sort = TRUE)
#> # A tibble: 58 × 2
#>    state      n
#>    <chr>  <int>
#>  1 HI    303492
#>  2 CA      7694
#>  3 DC      2058
#>  4 MO      1534
#>  5 WA      1432
#>  6 VA      1252
#>  7 TX      1246
#>  8 FL       928
#>  9 NY       926
#> 10 IL       760
#> # ℹ 48 more rows
```
…
      key_collision_merge() %>% 
      n_gram_merge(numgram = 1)
  ) %>% 
  filter(city_refine != city_swap) %>% 
  inner_join(
    y = zipcodes,
    by = c(
      "city_refine" = "city",
      "state" = "state",
      "zip_norm" = "zip"
    )
  )
```

    #> # A tibble: 28 × 5
    #>    state zip_norm city_swap      city_refine        n
    #>    <chr> <chr>    <chr>          <chr>          <int>
    #>  1 MA    01983    TOPFIELDS      TOPSFIELD          5
    #>  2 CA    94103    SAN FRANSICO   SAN FRANCISCO      2
    #>  3 HI    96741    KAHALEO        KALAHEO            2
    #>  4 HI    96792    WAINEAE        WAIANAE            2
    #>  5 HI    96797    WAIPUHA        WAIPAHU            2
    #>  6 HI    96821    HONOLULULU     HONOLULU           2
    #>  7 CA    91367    WOODLAWN HILLS WOODLAND HILLS     1
    #>  8 CA    94549    LAYAFETTE      LAFAYETTE          1
    #>  9 HI    96703    AHANOLA        ANAHOLA            1
    #> 10 HI    96712    HALEIWAHI      HALEIWA            1
    #> # ℹ 18 more rows
…
