…
We can flag any record missing a key variable needed to identify a
transaction.

``` r
key_vars <- c("date", "committee_name", "amount", "vendor_name")
mne <- flag_na(mne, all_of(key_vars))
sum(mne$na_flag)
#> [1] 48822
```

``` r
mne %>% 
  filter(na_flag) %>% 
  select(all_of(key_vars))
#> # A tibble: 48,822 × 4
#>    date       committee_name                         amount vendor_name
#>    <date>     <chr>                                   <dbl> <chr>      
#>  1 2015-04-09 Anderson, Patricia State Aud Committee   500  <NA>       
#>  2 2015-06-26 Anderson, Patricia State Aud Committee   300  <NA>       
#>  3 2015-06-26 Charron, Michael House Committee        1000  <NA>       
#>  4 2015-07-13 Sawatzke, Pat Senate Committee           300  <NA>       
#>  5 2015-07-13 Sawatzke, Pat Senate Committee           300  <NA>       
#>  6 2015-08-04 Branstad, John House Committee           850  <NA>       
#>  7 2015-06-29 Cermak, Grant J House Committee         2259. <NA>       
#>  8 2015-09-03 McKendry, Laurie Senate Committee       1000  <NA>       
#>  9 2015-10-10 Abeler II, Jim J House Committee         497. <NA>       
#> 10 2015-10-10 Hooten, Carol Dist Court Committee       103. <NA>       
#> # … with 48,812 more rows
```
…
We can also flag any record completely duplicated across every column.

``` r
mne <- flag_dupes(mne, everything())
sum(mne$dupe_flag)
#> [1] 12053
```

``` r
mne %>% 
  filter(dupe_flag) %>% 
  select(all_of(key_vars)) %>% 
  arrange(date, amount, vendor_name)
#> # A tibble: 12,053 × 4
#>    date       committee_name                amount vendor_name    
#>    <date>     <chr>                          <dbl> <chr>          
#>  1 2015-01-01 Dill, David K House Committee   2.77 Dill, David K  
#>  2 2015-01-01 Dill, David K House Committee   2.77 Dill, David K  
#>  3 2015-01-01 Dill, David K House Committee   2.77 Dill, David K  
#>  4 2015-01-01 Dill, David K House Committee   4.11 Dill, David K  
#>  5 2015-01-01 Dill, David K House Committee   4.11 Dill, David K  
#>  6 2015-01-01 Dill, David K House Committee   5.96 Dill, David K  
#>  7 2015-01-01 Dill, David K House Committee   5.96 Dill, David K  
#>  8 2015-01-01 Dill, David K House Committee   6.39 Dill, David K  
#>  9 2015-01-01 Dill, David K House Committee   6.39 Dill, David K  
#> 10 2015-01-01 IFAPAC Minn                   285.   NAIFA Minnesota
#> # … with 12,043 more rows
```
…
``` r
addr_norm
#> # A tibble: 30,951 × 3
#>    vendor_address_1         vendor_address_2 address_norm               
#>    <chr>                    <chr>            <chr>                      
#>  1 5 Apple Orchard Ct       <NA>             5 APPLE ORCHARD CT         
#>  2 PO Box 242               <NA>             PO BOX 242                 
#>  3 <NA>                     <NA>             <NA>                       
#>  4 5300 Painter Creek Green <NA>             5300 PAINTER CREEK GRN     
#>  5 5403 85th St NE          <NA>             5403 85TH ST NE            
#>  6 275 4th ST E, #250       <NA>             275 4TH ST E 250           
#>  7 PO Box 15668             <NA>             PO BOX 15668               
#>  8 10 Industrial Dr.        P.O. Box 363     10 INDUSTRIAL DR PO BOX 363
#>  9 8201 46th Avenue North   Apt. #109        8201 46TH AVENUE N APT 109 
#> 10 2325 Fairview Ave N      <NA>             2325 FAIRVIEW AVE N        
#> # … with 30,941 more rows
```
…
