…
We can see that, despite supposedly unique IDs, there are duplicate
voters.

``` r
njv %>% 
  filter(dupe_flag) %>% 
  select(displayId, all_of(nm_vars), street_name, city) %>% 
  arrange(last)
#> # A tibble: 10,525 x 7
#>    displayId   first   middle last      suffix street_name     city            
#>    <chr>       <chr>   <chr>  <chr>     <chr>  <chr>           <chr>           
#>  1 L6144652726 VERA    L      ABABIO    <NA>   Belmont Ln      Willingboro     
#>  2 F3266653678 VERA    L      ABABIO    <NA>   Belmont Ln      Willingboro     
#>  3 D2962652517 JOSEPH  P      ABBADESSA <NA>   Kinderkamack Rd Oradell         
#>  4 P3149053171 JOSEPH  P      ABBADESSA <NA>   Kinderkamack Rd Oradell         
#>  5 O2893452781 JOHN    C      ABBOTT    <NA>   Farmingdale Rd  Wayne           
#>  6 K4789753418 JOHN    C      ABBOTT    <NA>   Farmingdale Rd  Wayne           
#>  7 I4007251179 ROBERT  H      ABBOTT    <NA>   S 24th St       Kenilworth      
#>  8 K2320251220 ROBERT  H      ABBOTT    <NA>   S 24th St       Kenilworth      
#>  9 J5300651571 MELISSA C      ABDELHADY <NA>   PINE ST         NORTH MIDDLETOWN
#> 10 A1087453936 MELISSA C      ABDELHADY <NA>   PINE ST         NORTH MIDDLETOWN
#> # … with 10,515 more rows
```
…
