…
If we ignore the supposedly unique `id` variable, there are a number of
duplicate records.

``` r
arc <- flag_dupes(arc, -id)
percent(mean(arc$dupe_flag), 0.1)
#> [1] "56.9%"
```

``` r
arc %>% 
  filter(dupe_flag) %>% 
  select(date, last, address1, amount, candidate) %>% 
  drop_na()
#> # A tibble: 491 x 5
#>    date       last                                       address1         amount candidate         
#>    <date>     <chr>                                      <chr>             <dbl> <chr>             
#>  1 2017-08-19 Arkansas Conservative Legislative PAC      PO Box 85          2700 Linda Collins-Smi…
#>  2 2017-08-19 Arkansas Conservative Legislative PAC      PO Box 85          2700 Linda Collins-Smi…
#>  3 2017-08-24 Smith                                      2222 Madison 65…     10 Bob Ballinger     
#>  4 2017-08-24 Smith                                      2222 Madison 65…     10 Bob Ballinger     
#>  5 2017-09-23 Pownall                                    6 Martz Circle       15 Bob Ballinger     
#>  6 2017-09-23 Pownall                                    6 Martz Circle       15 Bob Ballinger     
#>  7 2017-07-20 Arkansas Pharmacists Political Action Com… 417 South victo…    500 Clinton Joseph Pe…
#>  8 2017-07-20 Arkansas Pharmacists Political Action Com… 417 South victo…    500 Clinton Joseph Pe…
#>  9 2017-07-25 Cameron                                    P.O. Box 21440     2700 Leslie Rutledge   
#> 10 2017-07-25 Cameron                                    P.O. Box 21440     2700 Leslie Rutledge   
#> # … with 481 more rows
```
…
``` r
arc %>% 
  count(cents = amount %% 1, sort = TRUE) %>% 
  add_prop()
#> # A tibble: 795 x 3
#>    cents      n       p
#>    <dbl>  <int>   <dbl>
#>  1  0    164299 0.490  
#>  2  0.5    4969 0.0148 
#>  3  0.3    4797 0.0143 
#>  4  0.01   4381 0.0131 
#>  5  0.02   3523 0.0105 
#>  6  0.33   2960 0.00883
#>  7  0.17   2951 0.00880
#>  8  0.03   2934 0.00875
#>  9  0.62   2781 0.00829
#> 10  0.46   2638 0.00787
#> # … with 785 more rows
```
…
Then we can join the refined values back to the database.

``` r
arc <- arc %>% 
  left_join(good_refine, by = names(.)) %>% 
  mutate(city_refine = coalesce(city_refine, city_swap))
```

#### Progress

``` r
arc %>% 
  filter(city_refine %out% valid_city) %>% 
  count(city_refine, state_norm, sort = TRUE)
#> # A tibble: 325 x 3
#>    city_refine     state_norm      n
#>    <chr>           <chr>       <int>
#>  1 <NA>            ME         211189
#>  2 ROCHESTER HILLS MI            142
#>  3 HOLIDAY ISLAND  AR            127
#>  4 GREERS FERRY    AR            117
#>  5 HOOVER          AL             98
#>  6 THE WOODLANDS   TX             98
#>  7 TEXAS           TX             90
#>  8 MOUNTAIN BROOK  AL             85
#>  9 CAMMACK VILLAGE AR             78
#> 10 VESTAVIA        AL             77
#> # … with 315 more rows
```
…
