…
### Wrangle

To improve the searchability and consistency of the database, we can
perform some very basic and confident text normalization.

#### Phone

We can convert the phone numbers into a standard charatcer (i.e.,
non-numeric) format.

``` r
milr <- mutate(milr, phone_norm = normal_phone(phone))
```

    #> # A tibble: 883 x 2
    #>    phone      phone_norm    
    #>    <chr>      <chr>         
    #>  1 6468228057 (646) 822-8057
    #>  2 2482983425 (248) 298-3425
    #>  3 3175653274 (317) 565-3274
    #>  4 7349452636 (734) 945-2636
    #>  5 5179995414 (517) 999-5414
    #>  6 5174873376 (517) 487-3376
    #>  7 6467431330 (646) 743-1330
    #>  8 8012623942 (801) 262-3942
    #>  9 2487374477 (248) 737-4477
    #> 10 <NA>       <NA>          
    #> # … with 873 more rows

#### Address

We can use `campfin::normal_address()` to improve the consistency in the
`addr` variable.

``` r
milr <- mutate(milr, addr_norm = normal_address(addr, abbs = usps_street))
```

    #> # A tibble: 998 x 2
    #>    addr                                          addr_norm                                 
    #>    <chr>                                         <chr>                                     
    #>  1 108 WILMOT RD  MS #1844                       108 WILMOT RD MS 1844                     
    #>  2 120 W OTTAWA ST                               120 W OTTAWA ST                           
    #>  3 332 TOWNSEND ST                               332 TOWNSEND ST                           
    #>  4 PO BOX 63                                     PO BOX 63                                 
    #>  5 185 CALAIS COURT SE                           185 CALAIS CT SE                          
    #>  6 111 S CAPITOL AVE 6TH FL %STATE BUDGET OFFICE 111 S CAPITOL AVE 6 TH FL STATE BUDGET OFC
    #>  7 4647 MERIDIAN RD                              4647 MERIDIAN RD                          
    #>  8 200 RENAISSANCE CENTER STE 3900               200 RENAISSANCE CTR STE 3900              
    #>  9 347 N WEST TORCH LAKE DRIVE                   347 N W TORCH LK DR                       
    #> 10 PO BOX 8647 % CITY OF ANN ARBOR               PO BOX 8647 CITY OF ANN ARBOR             
    #> # … with 988 more rows

#### ZIP

``` r
milr <- mutate(milr, zip_norm = normal_zip(zip, na_rep = TRUE))
```

    #> # A tibble: 338 x 2
    #>    zip   zip_norm
    #>    <chr> <chr>   
    #>  1 60091 60091   
    #>  2 77002 77002   
    #>  3 63040 63040   
    #>  4 48909 48909   
    #>  5 89128 89128   
    #>  6 49083 49083   
    #>  7 48864 48864   
    #>  8 46204 46204   
    #>  9 48875 48875   
    #> 10 48603 48603   
    #> # … with 328 more rows
…
