…
We can flag any record missing a key variable needed to identify a
transaction.

``` r
key_vars <- c("approval_date", "department", "award_amount", "vendor_name")
chic <- flag_na(chic, all_of(key_vars))
sum(chic$na_flag)
#> [1] 10054
```

``` r
chic %>% 
  filter(na_flag) %>% 
  select(all_of(key_vars))
#> # A tibble: 10,054 × 4
#>    approval_date department              award_amount vendor_name                       
#>    <date>        <chr>                          <dbl> <chr>                             
#>  1 NA            DEPARTMENT OF BUILDINGS        17500 MIDWEST WRECKING COMPANY 01       
#>  2 NA            <NA>                               0 CHICAGO UNITED INDUSTRIES, LIMITED
#>  3 NA            DEPARTMENT OF BUILDINGS         7000 DEMOLITION & DEVELOPMENT, LIMITED.
#>  4 NA            DEPARTMENT OF BUILDINGS         8200 DEMOLITION & DEVELOPMENT, LIMITED.
#>  5 NA            <NA>                           22220 JULIE & STEVE'S ACQUISITION       
#>  6 NA            <NA>                           68100 JULIE & STEVE'S ACQUISITION       
#>  7 NA            <NA>                          100000 JULIE & STEVE'S ACQUISITION       
#>  8 NA            <NA>                         1258514 ZOLL MEDICAL CORP                 
#>  9 NA            <NA>                        13745682 MAX MADSON FORD                   
#> 10 NA            <NA>                          187650 G. VALDES ENTERPRISES             
#> # … with 10,044 more rows
```
…
