…
``` r
txl <- txl %>% flag_na(lob_name, pri_name)
percent(mean(txl$na_flag), 0.1)
#> [1] "1.2%"
```

``` r
txl %>% 
  filter(na_flag) %>% 
  select(lob_name, pri_name) %>% 
  sample_frac()
#> # A tibble: 853 × 2
#>    lob_name                 pri_name
#>    <chr>                    <chr>   
#>  1 Migliaro, Alyse          <NA>    
#>  2 Ballew, Joel D.          <NA>    
#>  3 Thompson III, John David <NA>    
#>  4 Rotkoff, Jeffre W.       <NA>    
#>  5 Wallace, Blair Ruth      <NA>    
#>  6 Burner, Burnie           <NA>    
#>  7 Rogers Jr., Johnnie B.   <NA>    
#>  8 Boutilier, Bruce         <NA>    
#>  9 Newell, Stephanie M.     <NA>    
#> 10 Adair, Bobby Glenn       <NA>    
#> # … with 843 more rows
```
…
``` r
txl <- flag_dupes(txl, everything(), .check = TRUE)
percent(mean(txl$dupe_flag), 0.1)
#> [1] "3.8%"
```

``` r
txl %>% 
  filter(dupe_flag) %>% 
  select(lob_name, pri_name, begin, stop, na_flag) %>% 
  arrange(lob_name)
#> # A tibble: 2,621 × 5
#>    lob_name          pri_name begin  stop   na_flag
#>    <chr>             <chr>    <date> <date> <lgl>  
#>  1 Aguilar, Leonard  <NA>     NA     NA     TRUE   
#>  2 Aguilar, Leonard  <NA>     NA     NA     TRUE   
#>  3 Aguilar, Leonard  <NA>     NA     NA     TRUE   
#>  4 Aguilar, Leonard  <NA>     NA     NA     TRUE   
#>  5 Akins, Dwain A.   <NA>     NA     NA     TRUE   
#>  6 Akins, Dwain A.   <NA>     NA     NA     TRUE   
#>  7 Aleman, Steven R. <NA>     NA     NA     TRUE   
#>  8 Aleman, Steven R. <NA>     NA     NA     TRUE   
#>  9 Aleman, Steven R. <NA>     NA     NA     TRUE   
#> 10 Aleman, Steven R. <NA>     NA     NA     TRUE   
#> # … with 2,611 more rows
```
…
