…
ct %>% 
  select(
    street_address,
    address_clean
  )
```

    #> # A tibble: 293,466 x 2
    #>    street_address           address_clean         
    #>    <chr>                    <chr>                 
    #>  1 PO BOX 261172            PO BOX 261172         
    #>  2 P.O BOX 1372             PO BOX 1372           
    #>  3 116 CROFT DRIVE          116 CROFT DRIVE       
    #>  4 116 CROFT DRIVE          116 CROFT DRIVE       
    #>  5 P.O. BOX 96047           PO BOX 96047          
    #>  6 31 PRATT ST.             31 PRATT STREET       
    #>  7 111 APPLE HILL           111 APPLE HILL        
    #>  8 35 MARSHALL RD.          35 MARSHALL ROAD      
    #>  9 574 NEW LONDON TPK       574 NEW LONDON TPK    
    #> 10 289 NORWICH / NEW LONDON 289 NORWICH NEW LONDON
    #> # … with 293,456 more rows
…
``` r
ct %>% 
  filter(city != city_norm) %>% 
  count(state_clean, city, city_norm, sort = TRUE)
```

    #> # A tibble: 193 x 4
    #>    state_clean city                 city_norm           n
    #>    <chr>       <chr>                <chr>           <int>
    #>  1 MN          ST PAUL              SAINT PAUL        183
    #>  2 CT          HTFD                 HARTFORD           89
    #>  3 CT          W. HARTFORD          WEST HARTFORD      66
    #>  4 MN          ST. PAUL             SAINT PAUL         52
    #>  5 MO          ST LOUIS             SAINT LOUIS        52
    #>  6 CT          W HARTFORD           WEST HARTFORD      35
    #>  7 <NA>        SURRY HILLS NSW 2010 SURRY HILLS NSW    26
    #>  8 FL          FT LAUDERDALE        FORT LAUDERDALE    23
    #>  9 CT          E. HTFD              EAST HARTFORD      17
    #> 10 CT          W. HTFD              WEST HARTFORD      16
    #> # … with 183 more rows
…
