…
``` r
d1 <- duplicated(dcv, fromLast = FALSE)
d2 <- duplicated(dcv, fromLast = TRUE)
dcv <- mutate(dcv, dupe_flag = d1 | d2)
sum(dcv$dupe_flag)
#> [1] 56
```

``` r
dcv %>% 
  filter(dupe_flag) %>% 
  select(reg_date, last, party, smd) %>% 
  arrange(reg_date)
#> # A tibble: 56 x 4
#>    reg_date   last        party      smd   
#>    <date>     <chr>       <chr>      <chr> 
#>  1 2017-08-10 ROBERTS     DEMOCRATIC [7E07]
#>  2 2017-08-10 ROBERTS     DEMOCRATIC [7E07]
#>  3 2017-08-25 NEWMAN-WISE DEMOCRATIC [3C06]
#>  4 2017-08-25 NEWMAN-WISE DEMOCRATIC [3C06]
#>  5 2018-11-06 BRAVO DIAZ  NO PARTY   [6C06]
#>  6 2018-11-06 BRAVO DIAZ  NO PARTY   [6C06]
#>  7 2018-11-06 DORSEY      DEMOCRATIC [8E01]
#>  8 2018-11-06 DORSEY      DEMOCRATIC [8E01]
#>  9 2018-11-06 KEANE       REPUBLICAN [6D02]
#> 10 2018-11-06 KEANE       REPUBLICAN [6D02]
#> # … with 46 more rows
```
…
