…
``` r
delr %>% 
  select(starts_with("lob_address")) %>% 
  distinct() %>% 
  sample_frac()
#> # A tibble: 322 x 3
#>    lob_address1                      lob_address2    lob_address_norm                             
#>    <chr>                             <chr>           <chr>                                        
#>  1 385 Blair Shore Road              <NA>            385 BLAIR SHORE ROAD                         
#>  2 136 East Water Street             <NA>            136 EAST WATER STREET                        
#>  3 1255 23rd Street NW               Suite 450       1255 23RD STREET NORTHWEST SUITE 450         
#>  4 Hamilton Goodman Partners LLC     2325 Fells Lane HAMILTON GOODMAN PARTNERS LLC 2325 FELLS LANE
#>  5 1501 N. Walnut Street Ste. 100    <NA>            1501 NORTH WALNUT STREET SUITE 100           
#>  6 2704 Landon Drive                 Chalfonte       2704 LANDON DRIVE CHALFONTE                  
#>  7 4405 Kennett Pike                 <NA>            4405 KENNETT PIKE                            
#>  8 240 N. James Street               Suite B1B       240 NORTH JAMES STREET SUITE B1B             
#>  9 Ruggerio Willson & Associates LLC PO Box 481      RUGGERIO WILLSON ASSOCIATES LLC PO BOX 481   
#> 10 1280 S Governors Ave              <NA>            1280 SOUTH GOVERNORS AVENUE                  
#> # … with 312 more rows
```
…
``` r
select(delr, contains("state")) %>% 
  distinct() %>% 
  sample_frac()
#> # A tibble: 93 x 4
#>    lob_state            emp_state      lob_state_norm emp_state_norm
#>    <chr>                <chr>          <chr>          <chr>         
#>  1 Connecticut          Minnesota      CT             MN            
#>  2 District of Columbia North Carolina DC             NC            
#>  3 Florida              North Carolina FL             NC            
#>  4 <NA>                 California     <NA>           CA            
#>  5 Delaware             Colorado       DE             CO            
#>  6 Maryland             California     MD             CA            
#>  7 Delaware             Washington     DE             WA            
#>  8 Maryland             New York       MD             NY            
#>  9 Arkansas             Arkansas       AR             AR            
#> 10 Indiana              Indiana        IN             IN            
#> # … with 83 more rows
```
…
