…
We can also flag records that are entirely duplicated across every row,
save for the supposedly unique `id`.

``` r
wvc <- flag_dupes(wvc, -id)
percent(mean(wvc$dupe_flag), 0.01)
#> [1] "0.99%"
```

``` r
wvc %>% 
  filter(dupe_flag) %>% 
  select(date, contributor, amount, recipient)
#> # A tibble: 762 x 4
#>    date       contributor        amount recipient  
#>    <date>     <chr>               <dbl> <chr>      
#>  1 2018-02-12 Hollis Ramsey           2 Lissa Lucas
#>  2 2018-02-12 Hollis Ramsey           2 Lissa Lucas
#>  3 2018-02-14 Carol Mukhopadhyay      2 Lissa Lucas
#>  4 2018-02-14 Carol Mukhopadhyay      2 Lissa Lucas
#>  5 2018-02-13 Kathy Carlise           3 Lissa Lucas
#>  6 2018-02-13 Kathy Carlise           3 Lissa Lucas
#>  7 2018-11-09 Ernest Allen            3 Lissa Lucas
#>  8 2018-11-09 Ernest Allen            3 Lissa Lucas
#>  9 2018-05-12 Daniel Goguen           5 Lissa Lucas
#> 10 2018-05-12 Daniel Goguen           5 Lissa Lucas
#> # … with 752 more rows
```
…
