…
    pri_name = ifelse(!indent, name, NA),
    pri_geo = ifelse(!indent, address, NA),
    pri_phone = ifelse(!indent, phone, NA)
  ) %>%
  fill(starts_with("pri")) %>%
  filter(indent) %>%
  select(-indent) %>% 
  rename(
    lob_name = name,
    lob_geo = address,
    lob_phone = phone
  )
```

    #> # A tibble: 901 x 6
    #>    lob_name         lob_geo             lob_phone  pri_name            pri_geo           pri_phone 
    #>    <chr>            <chr>               <chr>      <chr>               <chr>             <chr>     
    #>  1 O'Hara Lindsay … 1320 K Street, Lin… (402)474-… 21st Century Agric… 7365 North 122nd… (402)740-…
    #>  2 Bromm Nielsen &… 635 S 14th Suite 3… (402)327-… 3M COMPANY          225-4N-14, St. P… (651)503-…
    #>  3 Husch Blackwell… 1327 H Street, Lin… (402)434-… 4 Lanes 4 Nebraska  609 W Norfolk Av… (402)434-…
    #>  4 White, Rosemary  910 N. 96th Street… (402)938-… AAA Nebraska and T… 910 N. 96th Stre… (402)938-…
    #>  5 American Commun… 1141 H Street, Sui… (402)475-… AARP Nebraska       301 S. 13th Stre… (402)323-…
    #>  6 Benjamin, Connie 301 South 13th Str… (402)323-… AARP Nebraska       301 S. 13th Stre… (402)323-…
    #>  7 Decamp, Suzan    301 South 13th Str… (402)323-… AARP Nebraska       301 S. 13th Stre… (402)323-…
    #>  8 DeLong, Danny    P.O. Box 501, Beat… (402)323-… AARP Nebraska       301 S. 13th Stre… (402)323-…
    #>  9 Holmquist, David 301 S. 13th Street… (402)323-… AARP Nebraska       301 S. 13th Stre… (402)323-…
    #> 10 Lassen, Robert   301 S. 13th Street… (402)323-… AARP Nebraska       301 S. 13th Stre… (402)323-…
    #> # … with 891 more rows
…
### Address

``` r
nelr <- nelr %>% 
  mutate_at(
    .vars = vars(ends_with("address")),
    .fun = list(norm = normal_address),
    abbs = usps_street,
    na_rep = TRUE
  )
```

    #> # A tibble: 546 x 2
    #>    pri_address                       pri_address_norm                    
    #>    <chr>                             <chr>                               
    #>  1 1999 Shepard Road                 1999 SHEPARD ROAD                   
    #>  2 625 S 14th St Suite A             625 SOUTH 14TH STREET SUITE A       
    #>  3 1600 S. 48th Street               1600 SOUTH 48TH STREET              
    #>  4 1400 K St NW #400                 1400 K STREET NORTHWEST 400         
    #>  5 9019 South 72nd Street            9019 SOUTH 72ND STREET              
    #>  6 701 P St. Ste. 305 P.O. Box 80410 701 P STREET SUITE 305 P O BOX 80410
    #>  7 7521 Main Street Suite 103        7521 MAIN STREET SUITE 103          
    #>  8 6949 South 110th St.              6949 SOUTH 110TH STREET             
    #>  9 12611 W Blackstone Lane           12611 WEST BLACKSTONE LANE          
    #> 10 8200 Dodge Street                 8200 DODGE STREET                   
    #> # … with 536 more rows
…
