…
``` r
mde <- mutate(mde, payee = coalesce(payee, vendor))
mde <- mde %>% flag_na(date, payee, amount, committee)
percent(mean(mde$na_flag), 0.01)
#> [1] "0.25%"
```

``` r
mde %>% 
  filter(na_flag) %>% 
  select(date, payee, amount, committee)
#> # A tibble: 1,648 x 4
#>    date       payee amount committee                                        
#>    <date>     <chr>  <dbl> <chr>                                            
#>  1 2010-07-12 <NA>   5000  Busch, Mike Friends Of                           
#>  2 2008-02-25 <NA>    150  MSEA's Fund For Children And Public Education PAC
#>  3 2008-03-20 <NA>    403. MSEA's Fund For Children And Public Education PAC
#>  4 2008-03-31 <NA>    255  MSEA's Fund For Children And Public Education PAC
#>  5 2008-03-31 <NA>   1000  MSEA's Fund For Children And Public Education PAC
#>  6 2008-03-31 <NA>    200  MSEA's Fund For Children And Public Education PAC
#>  7 2008-05-05 <NA>    140  MSEA's Fund For Children And Public Education PAC
#>  8 2008-02-25 <NA>    150  MSEA's Fund For Children And Public Education PAC
#>  9 2008-03-20 <NA>    403. MSEA's Fund For Children And Public Education PAC
#> 10 2008-03-31 <NA>    255  MSEA's Fund For Children And Public Education PAC
#> # … with 1,638 more rows
```
…
``` r
d1 <- duplicated(mde, fromLast = FALSE)
d2 <- duplicated(mde, fromLast = TRUE)
mde <- mutate(mde, dupe_flag = d1 | d2)
percent(mean(mde$dupe_flag), 0.01)
#> [1] "2.51%"
rm(d1, d2); flush_memory()
```

``` r
mde %>% 
  filter(dupe_flag) %>% 
  select(date, payee, amount, committee)
#> # A tibble: 16,778 x 4
#>    date       payee                     amount committee                                       
#>    <date>     <chr>                      <dbl> <chr>                                           
#>  1 2014-12-22 Constant Contact             95  Carr, Alfred Friends Of                         
#>  2 2014-12-22 Constant Contact             95  Carr, Alfred Friends Of                         
#>  3 2014-03-11 JOSEPH MICHAEL STANALONIS     0  Stanalonis, Joe Committee To Elect              
#>  4 2014-03-11 JOSEPH MICHAEL STANALONIS     0  Stanalonis, Joe Committee To Elect              
#>  5 2014-03-11 JOSEPH MICHAEL STANALONIS     0  Stanalonis, Joe Committee To Elect              
#>  6 2014-04-26 Vic Bernson                   0  Bernson, Vic For Maryland                       
#>  7 2014-04-26 Vic Bernson                   0  Bernson, Vic For Maryland                       
#>  8 2015-06-26 LAURIE SEARS DEPPA            0  Deppa, Laurie Sears The Committee to Elect      
#>  9 2014-09-28 Kipke, Nic Friends of      1000  State Farm Agents And Associates Of Maryland PAC
#> 10 2007-01-06 BuzzMaker, LLC             5058. Dixon, Sheila Friends For                       
#> # … with 16,768 more rows
```
…
``` r
mde %>% 
  filter(state_sep != state_norm) %>% 
  count(state_sep, state_norm, sort = TRUE)
#> # A tibble: 121 x 3
#>    state_sep            state_norm      n
#>    <chr>                <chr>       <int>
#>  1 Maryland             MD         136169
#>  2 California           CA          19421
#>  3 District Of Columbia DC           7987
#>  4 Massachusetts        MA           6229
#>  5 Virginia             VA           4130
#>  6 Pennsylvania         PA           3703
#>  7 New York             NY           2641
#>  8 Texas                TX           2556
#>  9 Ohio                 OH           2545
#> 10 Louisiana            LA           1726
#> # … with 111 more rows
```
…
      key_collision_merge() %>% 
      n_gram_merge(numgram = 1)
  ) %>% 
  filter(city_refine != city_swap) %>% 
  inner_join(
    y = zipcodes,
    by = c(
      "city_refine" = "city",
      "state_norm" = "state",
      "zip_norm" = "zip"
    )
  )
```

    #> # A tibble: 93 x 5
    #>    state_norm zip_norm city_swap         city_refine         n
    #>    <chr>      <chr>    <chr>             <chr>           <int>
    #>  1 MD         21042    EILLOTT CITY      ELLICOTT CITY      19
    #>  2 CA         94105    SAN FRANSICO      SAN FRANCISCO      13
    #>  3 OH         45209    CINCINATTI        CINCINNATI         10
    #>  4 MD         20785    HYSTTAVILLE       HYATTSVILLE         9
    #>  5 MD         21784    SKYEVILLE         SYKESVILLE          9
    #>  6 AZ         85038    PHONIEX           PHOENIX             8
    #>  7 CA         94103    SAN FRANSICO      SAN FRANCISCO       8
    #>  8 MD         21666    SETEVENSILLE      STEVENSVILLE        7
    #>  9 MD         21794    WEST FRIENDERSHIP WEST FRIENDSHIP     7
    #> 10 MD         21201    BALTIMORE CO      BALTIMORE           6
    #> # … with 83 more rows
…
``` r
mde <- mde %>% 
  left_join(good_refine) %>% 
  mutate(city_refine = coalesce(city_refine, city_swap))
```

#### Progress

``` r
many_city <- c(valid_city, extra_city)
mde %>% 
  filter(city_refine %out% many_city) %>% 
  count(city_refine, sort = TRUE)
#> # A tibble: 1,107 x 2
#>    city_refine         n
#>    <chr>           <int>
#>  1 <NA>            32317
#>  2 PRINCE GEORGES    942
#>  3 ANNE ARUNDEL      459
#>  4 BALTIMORE CITY    455
#>  5 BALTO             317
#>  6 BERWYN HEIGHTS    297
#>  7 BALTIMORE CO      292
#>  8 COLMAR MANOR      188
#>  9 DC                173
#> 10 MOUNT LAKE PARK   122
#> # … with 1,097 more rows
```
…
