…
``` r
key_vars <- c("date", "contributor_name", "amount", "comm_name")
fle <- flag_na(fle, all_of(key_vars))
sum(fle$na_flag)
#> [1] 157
```

A few hundred records are missing a `contributor_name`.

``` r
fle %>% 
  filter(na_flag) %>% 
  select(all_of(key_vars), city_state_zip) %>% 
  relocate(city_state_zip, .after = contributor_name)
#> # A tibble: 157 × 5
#>    date       contributor_name city_state_zip           amount comm_name                                     
#>    <date>     <chr>            <chr>                     <dbl> <chr>                                         
#>  1 1996-03-01 <NA>             "WINTER HAVEN, FL 33882"  200   Brennan, Mary  (DEM)(STR)                     
#>  2 1996-03-01 <NA>             ",       "                 30   NRA Political Victory Fund (PAC)              
#>  3 1996-03-01 <NA>             ",       "                 56.3 NRA Political Victory Fund (PAC)              
#>  4 1996-03-01 <NA>             ",       "                 28.1 NRA Political Victory Fund (PAC)              
#>  5 1996-03-01 <NA>             ",       "                 28.1 NRA Political Victory Fund (PAC)              
#>  6 1996-03-01 <NA>             ",       "                 28.1 NRA Political Victory Fund (PAC)              
#>  7 1996-04-01 <NA>             ",  00000"                  0   The Parole Elimination Network Group (PAC)    
#>  8 1996-06-01 <NA>             "HOLLYWOOD, FL 23020"     175   Baum, Maurice  (REP)(STR)                     
#>  9 1996-06-01 <NA>             "HOLLYWOOD, FL 23020"      69   Baum, Maurice  (REP)(STR)                     
#> 10 1996-06-01 <NA>             ", FL 00000"                0   Palm Beach County PBA Association Campai (CCE)
#> # … with 147 more rows
```
…
4.87% of records are duplicated at least once.

``` r
fle %>% 
  filter(dupe_flag) %>% 
  select(all_of(key_vars)) %>% 
  arrange(contributor_name, amount)
#> # A tibble: 38,319 × 4
#>    date       contributor_name amount comm_name                 
#>    <date>     <chr>             <dbl> <chr>                     
#>  1 2011-06-01 1 @ $100          100   Ruth's List  Florida (CCE)
#>  2 2011-06-01 1 @ $100          100   Ruth's List  Florida (CCE)
#>  3 2009-07-01 1 @ $7              7   TREE PAC, Inc. (CCE)      
#>  4 2009-07-01 1 @ $7              7   TREE PAC, Inc. (CCE)      
#>  5 2001-10-01 1 @ 100.00        100   TREE PAC, Inc. (CCE)      
#>  6 2001-10-01 1 @ 100.00        100   TREE PAC, Inc. (CCE)      
#>  7 2001-10-01 1 @ 11.31          11.3 TREE PAC, Inc. (CCE)      
#>  8 2001-10-01 1 @ 11.31          11.3 TREE PAC, Inc. (CCE)      
#>  9 2001-10-01 1 @ 13.10          13.1 TREE PAC, Inc. (CCE)      
#> 10 2001-10-01 1 @ 13.10          13.1 TREE PAC, Inc. (CCE)      
#> # … with 38,309 more rows
```

``` r
fle %>% 
  filter(dupe_flag) %>% 
  select(all_of(key_vars)) %>% 
  count(contributor_name, amount, comm_name, sort = TRUE)
#> # A tibble: 13,867 × 4
#>    contributor_name              amount comm_name                                          n
#>    <chr>                          <dbl> <chr>                                          <int>
#>  1 CARDWELL GRACIE                 5    AT&T Florida Political Action Committee  (CCE)    86
#>  2 SIRIANNI MARYROSE               5    AT&T Florida Political Action Committee  (CCE)    86
#>  3 <NA>                            0    Streitfeld, Jeffrey E. (NOP)(CTJ)                 53
#>  4 LASTNAME FIRSTNAME MIDDLENAME   0    DRIVE-Democrat, Republican, Independent  (PAC)    41
#>  5 MEMBERSHIP DUES                 6    Florida Action Committee for Rural Elect (CCE)    39
#>  6 FERNANDEZ DANIEL                5    Hialeah Fire PAC (PAC)                            38
#>  7 SMITH JAMES                     0.25 Florida Police Benevolent Association In (PAC)    17
#>  8 SMITH JAMES                     0.5  Florida Police Benevolent Association In (PAC)    15
#>  9 HOLMES WILLIAM                  1    Sun Coast Police Benevolent Association  (PAC)    14
#> 10 JOHNSON WILLIAM                 0.25 Florida Police Benevolent Association In (PAC)    14
#> # … with 13,857 more rows
```
…
      key_collision_merge() %>% 
      n_gram_merge(numgram = 1)
  ) %>% 
  filter(city_refine != city_swap) %>% 
  inner_join(
    y = zipcodes,
    by = c(
      "city_refine" = "city",
      "state_norm" = "state",
      "zip_norm" = "zip"
    )
  )
```

    #> # A tibble: 97 × 5
    #>    state_norm zip_norm city_swap         city_refine           n
    #>    <chr>      <chr>    <chr>             <chr>             <int>
    #>  1 FL         34653    NEW POINT RICHEY  NEW PORT RICHEY      30
    #>  2 FL         34655    NEW POINT RICHEY  NEW PORT RICHEY      21
    #>  3 FL         34654    NEW POINT RICHEY  NEW PORT RICHEY      19
    #>  4 FL         32082    PONTEVERDE BEACH  PONTE VEDRA BEACH     9
    #>  5 FL         32082    PONTE VERDE BEACH PONTE VEDRA BEACH     5
    #>  6 SC         29406    NORTH CHARLESTON  CHARLESTON            5
    #>  7 NY         11733    SETAUKET          EAST SETAUKET         4
    #>  8 WV         25309    SO CHARLESTON     CHARLESTON            4
    #>  9 FL         34652    NEW POINT RICHEY  NEW PORT RICHEY       3
    #> 10 OH         45244    CINCINATTI        CINCINNATI            3
    #> # … with 87 more rows
…
``` r
fle <- fle %>% 
  left_join(good_refine, by = names(.)) %>% 
  mutate(city_refine = coalesce(city_refine, city_swap))
```

#### Manual

``` r
many_city <- c(valid_city, extra_city)
fle %>% 
  count(city_sep, city_refine, state_norm, sort = TRUE) %>% 
  filter(city_refine %out% many_city)
#> # A tibble: 2,253 × 4
#>    city_sep          city_refine       state_norm     n
#>    <chr>             <chr>             <chr>      <int>
#>  1 <NA>              <NA>              <NA>       14288
#>  2 PMBK PINES        PMBK PINES        FL          1406
#>  3 RYL PALM BEACH    RYL PALM BEACH    FL           469
#>  4 HALLANDALE BEACH  HALLANDALE BEACH  FL           423
#>  5 <NA>              <NA>              FL           302
#>  6 MIAMI SHORES      MIAMI SHORES      FL           285
#>  7 FARMINGTON HL     FARMINGTON HILL   MI           243
#>  8 SUNNY ISLES BEACH SUNNY ISLES BEACH FL           242
#>  9 FARMINGTON HILLS  FARMINGTON HILLS  MI           235
#> 10 PT. CHARLOTTE     POINT CHARLOTTE   FL           184
#> # … with 2,243 more rows
```
…
