…
Before we unzip the file, we can view it’s contents.

``` r
key_content <- as_tibble(unzip(key_file, list = TRUE))
print(key_content)
#> # A tibble: 49 × 3
#>    Name                                                     Length Date               
#>    <chr>                                                     <dbl> <dttm>             
#>  1 CalAccess-Documentation/                                      0 2018-04-12 11:23:00
#>  2 CalAccess-Documentation/CalFormat/                            0 2018-04-12 11:23:00
#>  3 CalAccess-Documentation/CalFormat/cal_errata_1_05_02.pdf  29189 2016-05-13 14:24:00
#>  4 CalAccess-Documentation/CalFormat/cal_errata_201.pdf     297342 2016-05-13 14:24:00
#>  5 CalAccess-Documentation/CalFormat/cal_errata_22.pdf      119974 2016-07-14 11:34:00
#>  6 CalAccess-Documentation/CalFormat/cal_format_1_05_02.pdf  92026 2016-05-13 14:24:00
#>  7 CalAccess-Documentation/CalFormat/cal_format_201.pdf     864677 2016-05-13 14:24:00
#>  8 CalAccess-Documentation/CalFormat/cal_format_22.pdf      395783 2016-07-14 13:02:00
#>  9 CalAccess-Documentation/CalFormat/cal_readme.pdf          37820 2016-05-13 14:24:00
#> 10 CalAccess-Documentation/DBInfo/                               0 2018-04-12 11:23:00
#> # … with 39 more rows
```
…
``` r
distinct_counts <- col_stats(calr, n_distinct, print = FALSE)
print(distinct_counts)
#> # A tibble: 52 × 4
#>    col        class      n          p
#>    <chr>      <chr>  <int>      <dbl>
#>  1 filing_id  <chr> 427232 0.917     
#>  2 amend_id   <dbl>     11 0.0000236 
#>  3 rec_type   <chr>      1 0.00000215
#>  4 form_type  <chr>      4 0.00000859
#>  5 sender_id  <chr>  16184 0.0347    
#>  6 filer_id   <chr>  19038 0.0409    
#>  7 entity_cd  <chr>      8 0.0000172 
#>  8 filer_naml <chr>  25595 0.0550    
#>  9 filer_namf <chr>   5285 0.0113    
#> 10 filer_namt <chr>     32 0.0000687 
#> # … with 42 more rows
…
``` r
# `sender_id` = ID# of Lobbyist Entity that is SUBMITTING this report.
# `filer_id` = ID# of Lobbyist Entity that is SUBJECT of this report.
inner_join(
  x = calr,
  y = cal_emp_lob,
  by = c("filer_id" = "lobbyist_id")
)
#> # A tibble: 9,864 × 57
#>    filing…¹ amend…² rec_t…³ form_…⁴ sende…⁵ filer…⁶ entit…⁷ filer…⁸ filer…⁹ filer…˟ filer…˟ repor…˟
#>    <chr>      <dbl> <chr>   <chr>   <chr>   <chr>   <chr>   <chr>   <chr>   <chr>   <chr>   <chr>  
#>  1 624398         0 CVR     F615    E00122  1222954 LBY     NIXON   DARRYL  <NA>    <NA>    000    
#>  2 624398         0 CVR     F615    E00122  1222954 LBY     NIXON   DARRYL  <NA>    <NA>    000    
#>  3 624398         0 CVR     F615    E00122  1222954 LBY     NIXON   DARRYL  <NA>    <NA>    000    
#>  4 624398         0 CVR     F615    E00122  1222954 LBY     NIXON   DARRYL  <NA>    <NA>    000    
#>  5 624445         0 CVR     F615    E00243  1222906 LBY     ROTHRO… DOROTHY <NA>    <NA>    000    
#>  6 624445         0 CVR     F615    E00243  1222906 LBY     ROTHRO… DOROTHY <NA>    <NA>    000    
#>  7 624445         0 CVR     F615    E00243  1222906 LBY     ROTHRO… DOROTHY <NA>    <NA>    000    
#>  8 624445         0 CVR     F615    E00243  1222906 LBY     ROTHRO… DOROTHY <NA>    <NA>    000    
#>  9 650665         0 CVR     F615    E00559  1223153 LBY     BROWN   AMY L.  <NA>    <NA>    000    
#> 10 650665         0 CVR     F615    E00559  1223153 LBY     BROWN   AMY L.  <NA>    <NA>    000    
#> # … with 9,854 more rows, 45 more variables: rpt_date <date>, from_date <date>, thru_date <date>,
#> #   cum_beg_dt <date>, firm_id <chr>, firm_name <chr>, firm_city <chr>, firm_st <chr>,
#> #   firm_zip4 <chr>, firm_phon <chr>, mail_city <chr>, mail_st <chr>, mail_zip4 <chr>,
#> #   mail_phon <chr>, sig_date <date>, sig_loc <chr>, sig_naml <chr>, sig_namf <chr>,
#> #   sig_namt <chr>, sig_nams <chr>, prn_naml <chr>, prn_namf <chr>, prn_namt <chr>,
#> #   prn_nams <chr>, sig_title <chr>, nopart1_cb <chr>, nopart2_cb <chr>, part1_1_cb <lgl>,
#> #   part1_2_cb <lgl>, ctrib_n_cb <lgl>, ctrib_y_cb <lgl>, lby_actvty <chr>, lobby_n_cb <chr>, …
```
…
