…
``` r
nm %>% 
  filter(city_swap %out% geo$city) %>% 
  count(city_swap, sort = TRUE)
```

    #> # A tibble: 583 x 2
    #>    city_swap         n
    #>    <chr>         <int>
    #>  1 <NA>           6862
    #>  2 T OR C          218
    #>  3 LOS RANCHOS     197
    #>  4 SOMMERVILLE     164
    #>  5 ALBQ            160
    #>  6 OHKAY OWINGEH   141
    #>  7 ALBUQ           107
    #>  8 CHESTERBROOK    103
    #>  9 CHAROLETTE      102
    #> 10 POJOAQUE        102
    #> # … with 573 more rows
…
