…
```r
print_tabyl(vt, office)
```

```
#> # A tibble: 170 x 4
#>    office                                  n percent valid_percent
#>    <chr>                               <dbl>   <dbl>         <dbl>
#>  1 <NA>                                 7997  0.202        NA     
#>  2 GOVERNOR                             6527  0.165         0.206 
#>  3 STATE REPRESENTATIVE - ADDISON 4     3447  0.0870        0.109 
#>  4 LIEUTENANT GOVERNOR                  2229  0.0562        0.0704
#>  5 STATE SENATE - CHITTENDEN            1538  0.0388        0.0486
#>  6 MAYOR -                               927  0.0234        0.0293
#>  7 ATTORNEY GENERAL                      710  0.0179        0.0224
#>  8 STATE SENATE - FRANKLIN               555  0.0140        0.0175
#>  9 STATE REPRESENTATIVE - FRANKLIN 3-1   552  0.0139        0.0174
#> 10 CITY COUNCILOR -                      538  0.0136        0.0170
#> # … with 160 more rows
```
…
```r
print_tabyl(vt, expenditure_purpose)
```

```
#> # A tibble: 87 x 4
#>    expenditure_purpose                     n percent valid_percent
#>    <chr>                               <dbl>   <dbl>         <dbl>
#>  1 ACTBLUE FEES                         4652  0.117         0.118 
#>  2 BANK CHARGES                         3644  0.0919        0.0921
#>  3 ADMINISTRATIVE - SALARIES AND WAGES  2682  0.0677        0.0678
#>  4 CONTRIBUTION TO REGISTRANT           2358  0.0595        0.0596
#>  5 POSTAGE                              2063  0.0520        0.0521
#>  6 OTHER                                1831  0.0462        0.0463
#>  7 MEDIA - NEWSPAPER                    1801  0.0454        0.0455
#>  8 MEDIA - ONLINE ADVERTISING           1560  0.0394        0.0394
#>  9 OFFICE SUPPLIES                      1317  0.0332        0.0333
#> 10 MEDIA - POSTCARDS                    1202  0.0303        0.0304
#> # … with 77 more rows
```
…
