…
1.4% of rows are duplicates.

``` r
ilc %>% 
  filter(dupe_flag) %>% 
  count(rcv_date, last_only_name, amount, cmte_name, sort = TRUE)
#> # A tibble: 72,494 × 5
#>    rcv_date            last_only_name                   amount cmte_name                           n
#>    <dttm>              <chr>                             <dbl> <chr>                           <int>
#>  1 2012-03-22 00:00:00 "SEIU Illinois Council PAC Fund"   75   United for Rudy Lozano Jr          33
#>  2 2014-08-11 00:00:00 "Working America"                  55.9 Working America                    30
#>  3 2014-07-24 00:00:00 "Working America"                  55.9 Working America                    25
#>  4 2014-09-26 00:00:00 "Working America"                  55.9 Working America                    17
#>  5 2011-02-28 00:00:00 "SEIU IL Council PAC"              75   Friends to Elect Toni L Foulkes     9
#>  6 2014-08-11 00:00:00 "Working America"                  77.5 Working America                     8
#>  7 2002-03-08 00:00:00 "437 North Rush"                 1916.  Friends of Blagojevich              7
#>  8 2016-03-21 00:00:00 "Friends of Robert \"Bob\" Rita"  210   Friends of Juliana Stratton         7
#>  9 2002-03-08 00:00:00 "Grais"                           300   Friends of Blagojevich              6
#> 10 2002-03-08 00:00:00 "Landis Plastics Inc."           1250   Citizens for Patrick O'Malley       6
#> # … with 72,484 more rows
```
…
``` r
st_norm %>% 
  filter(state != state_norm)
#> # A tibble: 36 × 2
#>    state state_norm
#>    <chr> <chr>     
#>  1 Mi    MI        
#>  2 Il    IL        
#>  3 Tx    TX        
#>  4 Ky    KY        
#>  5 Va    VA        
#>  6 il    IL        
#>  7 In    IN        
#>  8 Mn    MN        
#>  9 Wi    WI        
#> 10 wa    WA        
#> # … with 26 more rows
```
…
      key_collision_merge() %>% 
      n_gram_merge(numgram = 1)
  ) %>% 
  filter(city_refine != city_swap) %>% 
  inner_join(
    y = zipcodes,
    by = c(
      "city_refine" = "city",
      "state_norm" = "state",
      "zip_norm" = "zip"
    )
  )
```

    #> # A tibble: 235 × 5
    #>    state_norm zip_norm city_swap          city_refine           n
    #>    <chr>      <chr>    <chr>              <chr>             <int>
    #>  1 IL         60411    SO CHICAGO HEIGHTS CHICAGO HEIGHTS     576
    #>  2 IL         60429    EAST HAZEL CREST   HAZEL CREST         462
    #>  3 IL         60010    NO BARRINGTON      BARRINGTON           65
    #>  4 IA         51102    SOUIX CITY         SIOUX CITY           50
    #>  5 IL         60429    EAST HAZELCREST    HAZEL CREST          38
    #>  6 MD         20817    BESTHEDA           BETHESDA             27
    #>  7 IL         60476    THORTHON           THORNTON             23
    #>  8 IL         60007    LAKE GROVE VILLAGE ELK GROVE VILLAGE    21
    #>  9 IL         62832    DUQUION            DU QUOIN             19
    #> 10 IL         60411    CHCIAAGO HEIGHTS   CHICAGO HEIGHTS      18
    #> # … with 225 more rows
…
