…
#### Progress

``` r
many_city <- c(valid_city, extra_city)
```

Most of the remaining “invalid” cities are overseas.

``` r
out_city <- nya %>% 
  count(city_refine, country, sort = TRUE) %>% 
  filter(city_refine %out% many_city, !is.na(city_refine)) %>% 
  add_prop(sum = TRUE)
out_city
#> # A tibble: 5,568 × 4
#>    city_refine country                  n     p
#>    <chr>       <chr>                <int> <dbl>
#>  1 TOKYO       JAPAN                 2562 0.115
#>  2 SEOUL       KOREA                 1422 0.179
#>  3 BEIJING     CHINA                 1351 0.240
#>  4 SHANGHAI    CHINA                 1252 0.296
#>  5 HONG KONG   HONG KONG              984 0.340
#>  6 SINGAPORE   SINGAPORE              574 0.366
#>  7 TEL AVIV    ISRAEL                 230 0.376
#>  8 DUBAI       UNITED ARAB EMIRATES   215 0.386
#>  9 SYDNEY NSW  AUSTRALIA              206 0.395
#> 10 SEOUL       SOUTH KOREA            166 0.403
#> # … with 5,558 more rows
```
…
