…
``` r
ri %>% 
  filter(city_swap != city_norm) %>% 
  count(state_clean, city_sep, city_norm, city_swap) %>% 
  arrange(desc(n))
```

    #> # A tibble: 571 x 5
    #>    state_clean city_sep       city_norm      city_swap           n
    #>    <chr>       <chr>          <chr>          <chr>           <int>
    #>  1 GA          ALTLANTA       ALTLANTA       ATLANTA           126
    #>  2 RI          PROVIDNECE     PROVIDNECE     PROVIDENCE         90
    #>  3 RI          NORTH KINGSTON NORTH KINGSTON NORTH KINGSTOWN    75
    #>  4 RI          PROVIDENE      PROVIDENE      PROVIDENCE         67
    #>  5 MA          SOMMERVILLE    SOMMERVILLE    SOMERVILLE         51
    #>  6 CA          MENIO PARK     MENIO PARK     MENLO PARK         46
    #>  7 MA          WORCHESTER     WORCHESTER     WORCESTER          40
    #>  8 DE          WILMINTON      WILMINTON      WILMINGTON         32
    #>  9 TX          FORTH WORTH    FORTH WORTH    FORT WORTH         32
    #> 10 CA          SANJOSE        SANJOSE        SAN JOSE           30
    #> # … with 561 more rows
…
