…
## Explore

There are 768437 records of 34 variables in the full database.

``` r
sample_frac(wa)
```

    #> # A tibble: 768,437 x 34
    #>    id    report_number origin filer_id type  filer_name first_name middle_initial last_name office
    #>    <chr> <chr>         <chr>  <chr>    <chr> <chr>      <chr>      <chr>          <chr>     <chr> 
    #>  1 7097… 100458730     A/GT50 PAC 48 … Poli… SOUTHWEST… <NA>       <NA>           SOUTHWES… <NA>  
    #>  2 5442… 100337768     A/LE50 LOVIJ  … Cand… LOVICK JO… JOHNNY     R              LOVICK    COUNT…
    #>  3 9087… 100593860     A/LE50 LEE D  … Cand… LEE DEREK… DEREK      A              LEE       COUNT…
    #>  4 1199… 100806769     A/LE50 PUGHW  … Cand… PUGH WILL… WILLIAM    L              PUGH      MAYOR 
    #>  5 7330… 100476906     A/GT50 CANDP  … Poli… WA REALTO… <NA>       <NA>           WA REALT… <NA>  
    #>  6 2385… 100279917     B.1    JENSM  … Cand… JENSEN MA… MARLYN     E              JENSEN    STATE…
    #>  7 1191… 100802494     A/GT50 MASORC … Poli… MASON CO … <NA>       <NA>           MASON CO… <NA>  
    #>  8 1316… 100884892     A/GT50 42NDLRE… Poli… 42ND LEG … <NA>       <NA>           42ND LEG… <NA>  
    #>  9 8122… 100514602     A/GT50 MCKER  … Cand… MCKENNA R… ROBERT     M              MCKENNA   ATTOR…
    #> 10 9668… 100630170     A/GT50 HOUSDC … Poli… HOUSE DEM… <NA>       <NA>           HOUSE DE… <NA>  
    #> # … with 768,427 more rows, and 24 more variables: position <chr>, party <chr>,
    #> #   jurisdiction <chr>, jurisdiction_county <chr>, jurisdiction_type <chr>, election_year <dbl>,
    #> #   amount <dbl>, expenditure_date <date>, description <chr>, recipient_name <chr>,
    #> #   recipient_address <chr>, recipient_city <chr>, recipient_state <chr>, recipient_zip <chr>,
    #> #   url_description <chr>, url <chr>, recipient_location.type <chr>, recipient_longitude <dbl>,
    #> #   recipient_latitude <dbl>, legislative_district <chr>, code <chr>, ballot_number <chr>,
    #> #   expenditure_itemized <lgl>, filer_supports <lgl>
…
    #> # A tibble: 2 x 3
    #>   type                     n percent
    #>   <chr>                <dbl>   <dbl>
    #> 1 Candidate           424722   0.553
    #> 2 Political Committee 343715   0.447

    #> # A tibble: 44 x 4
    #>    office                     n percent valid_percent
    #>    <chr>                  <dbl>   <dbl>         <dbl>
    #>  1 <NA>                  343718  0.447        NA     
    #>  2 STATE REPRESENTATIVE  118408  0.154         0.279 
    #>  3 CITY COUNCIL MEMBER    67527  0.0879        0.159 
    #>  4 STATE SENATOR          50190  0.0653        0.118 
    #>  5 COUNTY COMMISSIONER    24058  0.0313        0.0566
    #>  6 GOVERNOR               20805  0.0271        0.0490
    #>  7 MAYOR                  19765  0.0257        0.0465
    #>  8 COUNTY COUNCIL MEMBER  19412  0.0253        0.0457
    #>  9 SUPERIOR COURT JUDGE   13514  0.0176        0.0318
    #> 10 PORT COMMISSIONER       9315  0.0121        0.0219
    #> # … with 34 more rows

    #> # A tibble: 67 x 4
    #>    position      n percent valid_percent
    #>    <chr>     <dbl>   <dbl>         <dbl>
    #>  1 <NA>     494713 0.644         NA     
    #>  2 01        91647 0.119          0.335 
    #>  3 02        87353 0.114          0.319 
    #>  4 03        25182 0.0328         0.0920
    #>  5 05        13204 0.0172         0.0482
    #>  6 04        13099 0.0170         0.0479
    #>  7 06        12559 0.0163         0.0459
    #>  8 07         9293 0.0121         0.0340
    #>  9 08         5527 0.00719        0.0202
    #> 10 09         3953 0.00514        0.0144
    #> # … with 57 more rows
…
    #> # A tibble: 2 x 3
    #>   expenditure_itemized      n percent
    #>   <lgl>                 <dbl>   <dbl>
    #> 1 TRUE                 661376   0.861
    #> 2 FALSE                107061   0.139

    #> # A tibble: 51 x 4
    #>    legislative_district      n percent valid_percent
    #>    <chr>                 <dbl>   <dbl>         <dbl>
    #>  1 <NA>                 599762 0.780         NA     
    #>  2 26                     7446 0.00969        0.0441
    #>  3 45                     6496 0.00845        0.0385
    #>  4 28                     5810 0.00756        0.0344
    #>  5 30                     5797 0.00754        0.0344
    #>  6 17                     5726 0.00745        0.0339
    #>  7 47                     5229 0.00680        0.0310
    #>  8 06                     5111 0.00665        0.0303
    #>  9 44                     4834 0.00629        0.0287
    #> 10 10                     4584 0.00597        0.0272
    #> # … with 41 more rows
…
wa %>% 
  filter(na_flag) %>%
  sample_frac() %>% 
  select(
    na_flag,
    id, 
    report_number,
    filer_name,
    recipient_name,
    amount,
    expenditure_date
    )
```

    #> # A tibble: 365 x 7
    #>    na_flag id         report_number filer_name        recipient_name        amount expenditure_date
    #>    <lgl>   <chr>      <chr>         <chr>             <chr>                  <dbl> <date>          
    #>  1 TRUE    398034.ex… 1001267600    CUTLER JIM M      Expenses of $50 or l…   27.6 NA              
    #>  2 TRUE    570768.ex… 1001276533    KOVER JUSTIN R    Expenses of $50 or l…    0   NA              
    #>  3 TRUE    623258.ex… 1001277368    WOOD ALEX W       Expenses of $50 or l…    0   NA              
    #>  4 TRUE    414596.ex… 1001267992    LJUNGHAMMAR KEIT… Expenses of $50 or l…    0   NA              
    #>  5 TRUE    558765.ex… 1001275630    KUESTER ERIC M    Expenses of $50 or l…   30   NA              
    #>  6 TRUE    498662.ex… 1001258821    WA WINE PAC       Expenses of $50 or l…    0   NA              
    #>  7 TRUE    428986.ex… 100268733     RICHTER DENNIS L  Expenses of $50 or l…    0   NA              
    #>  8 TRUE    432267.ex… 1001268332    WOOD ALEX W       Expenses of $50 or l…    0   NA              
    #>  9 TRUE    866491.ex… 1001287777    SHEFFER CHARLES K Expenses of $50 or l…   29.0 NA              
    #> 10 TRUE    428905.ex… 1001268301    REEVES AUBREY C … Expenses of $50 or l…    0   NA              
    #> # … with 355 more rows
…
``` r
wa_refined %>% 
  count(city_swap, city_refine) %>% 
  arrange(desc(n))
```

    #> # A tibble: 105 x 3
    #>    city_swap        city_refine          n
    #>    <chr>            <chr>            <int>
    #>  1 FREELAND         FERNDALE           322
    #>  2 SEA TAC          SEATAC              52
    #>  3 TUKWILLA         TUKWILA             35
    #>  4 BATTLEGROUND     BATTLE GROUND       34
    #>  5 BANBRIDGE        BAINBRIDGE          18
    #>  6 CONVINGTON       COVINGTON           16
    #>  7 UNIVERISTY PLACE UNIVERSITY PLACE    16
    #>  8 CLYDE HILEE      CLYDE HILL          15
    #>  9 MILLCREEK        MILL CREEK          15
    #> 10 NEW CASTLE       NEWCASTLE           13
    #> # … with 95 more rows
…
There are only a few distinct refined values that do not appear in our
list of valid cities. These are the values that need to be checked
manually checked.

``` r
wa_refined %>% 
  filter(city_refine %out% zipcode$city) %>% 
  select(-id) %>% 
  distinct()
```

    #> # A tibble: 33 x 8
    #>    state zip   city_raw        city_prep       city_match  match_dist city_swap      city_refine   
    #>    <chr> <chr> <chr>           <chr>           <chr>            <dbl> <chr>          <chr>         
    #>  1 WA    98168 TUKWILIA        TUKWILIA        SEATTLE              7 TUKWILIA       TUKWILA       
    #>  2 WA    98188 TUKWILLA        TUKWILLA        SEATTLE              7 TUKWILLA       TUKWILA       
    #>  3 WA    98188 SEA TAC         SEA TAC         SEATTLE              3 SEA TAC        SEATAC        
    #>  4 WA    98168 TUKWILLA        TUKWILLA        SEATTLE              7 TUKWILLA       TUKWILA       
    #>  5 WA    98273 INTERTNET  COM… INTERTNET COMP… MOUNT VERN…         13 INTERTNET COM… INTERNET COMP…
    #>  6 WA    99302 TRICITIES       TRICITIES       PASCO                8 TRICITIES      TRI CITIES    
    #>  7 WA    98004 CLYDE HILEE     CLYDE HILEE     BELLEVUE             9 CLYDE HILEE    CLYDE HILL    
    #>  8 WA    99206 SPOLKANE VALLEY SPOLKANE VALLEY SPOKANE              8 SPOLKANE VALL… SPOKANE VALLEY
    #>  9 WA    98155 LAKE FORREST P… LAKE FORREST P… SEATTLE             15 LAKE FORREST … LAKE FOREST P…
    #> 10 WA    98188 SEA-TAC         SEA TAC         SEATTLE              3 SEA TAC        SEATAC        
    #> # … with 23 more rows
…
