…
### Extract

``` r
raw_txt <- unlist(map(raw_zip, unzip, exdir = raw_dir))
length(raw_txt)
#> [1] 97
file_info_short(raw_txt)
#> # A tibble: 97 × 3
#>    path                 size modification_time  
#>    <chr>         <fs::bytes> <dttm>             
#>  1 Gub_P2005.txt       3.41M 2021-09-23 15:35:51
#>  2 Gub_G1981.txt       1.82M 2021-09-23 15:35:51
#>  3 Gub_G1985.txt     980.67K 2021-09-23 15:35:51
#>  4 Gub_G1989.txt       1.04M 2021-09-23 15:35:51
#>  5 Gub_G1993.txt       2.46M 2021-09-23 15:35:51
#>  6 Gub_G1997.txt       2.37M 2021-09-23 15:35:51
#>  7 Gub_G2001.txt       2.52M 2021-09-23 15:35:51
#>  8 Gub_G2005.txt     394.82K 2021-09-23 15:35:51
#>  9 Gub_I1982.txt     211.88K 2021-09-23 15:35:51
#> 10 Gub_I1986.txt     337.67K 2021-09-23 15:35:51
#> # … with 87 more rows
…
``` r
key_vars <- c("cont_date", "cont_xname", "cont_amt", "rec_xname")
njc <- flag_na(njc, all_of(key_vars))
mean(njc$na_flag)
#> [1] 0.6407659
```

64.1% of records are missing a key variable.

``` r
njc %>% 
  filter(na_flag) %>% 
  select(all_of(key_vars))
#> # A tibble: 563,544 × 4
#>    cont_date cont_xname        cont_amt rec_xname       
#>    <date>    <chr>                <dbl> <chr>           
#>  1 NA        FRANCIS J WALSH      -2600 BRET D SCHUNDLER
#>  2 NA        FRANCIS J WALSH      -3000 BRET D SCHUNDLER
#>  3 NA        PIERRE YANNEY        -1000 BRET D SCHUNDLER
#>  4 NA        EDWARD BREEN         -1000 BRET D SCHUNDLER
#>  5 NA        DAVID C KLIPSTEIN    -1000 BRET D SCHUNDLER
#>  6 NA        LEWIS ARNO           -2600 BRET D SCHUNDLER
#>  7 NA        BONNIE ARNO          -2600 BRET D SCHUNDLER
#>  8 NA        BONNIE ARNO          -2600 BRET D SCHUNDLER
#>  9 NA        JOHN T SULLIVAN       -100 BRET D SCHUNDLER
#> 10 NA        RONALD CAMI          -2000 BRET D SCHUNDLER
#> # … with 563,534 more rows
```
…
We can also flag any record completely duplicated across every column.

``` r
njc <- flag_dupes(njc, everything())
sum(njc$dupe_flag)
#> [1] 10631
```

``` r
njc %>% 
  filter(dupe_flag) %>% 
  select(all_of(key_vars)) %>% 
  arrange(cont_date)
#> # A tibble: 10,631 × 4
#>    cont_date  cont_xname    cont_amt rec_xname     
#>    <date>     <chr>            <dbl> <chr>         
#>  1 1978-09-15 <NA>               100 THOMAS F SMITH
#>  2 1978-09-15 <NA>               100 THOMAS F SMITH
#>  3 1978-09-18 <NA>               100 THOMAS F SMITH
#>  4 1978-09-18 <NA>               100 THOMAS F SMITH
#>  5 1978-09-18 <NA>               100 THOMAS F SMITH
#>  6 1978-09-18 <NA>               100 THOMAS F SMITH
#>  7 1978-09-18 VICTOR SMARRO      100 THOMAS F SMITH
#>  8 1978-09-18 VICTOR SMARRO      100 THOMAS F SMITH
#>  9 1978-09-18 LOUIS PUZIO        100 THOMAS F SMITH
#> 10 1978-09-18 LOUIS PUZIO        100 THOMAS F SMITH
#> # … with 10,621 more rows
```
…
      key_collision_merge() %>% 
      n_gram_merge(numgram = 1)
  ) %>% 
  filter(cont_city_refine != cont_city_swap) %>% 
  inner_join(
    y = zipcodes,
    by = c(
      "cont_city_refine" = "city",
      "cont_state" = "state",
      "cont_zip_norm" = "zip"
    )
  )
```

    #> # A tibble: 67 × 5
    #>    cont_state cont_zip_norm cont_city_swap    cont_city_refine     n
    #>    <chr>      <chr>         <chr>             <chr>            <int>
    #>  1 NJ         07203         ROSSELL           ROSELLE              4
    #>  2 NJ         08902         SOUTH BRUNSWICK   NORTH BRUNSWICK      4
    #>  3 NJ         07054         PARSIPANNY        PARSIPPANY           3
    #>  4 NJ         08540         PRICENTON         PRINCETON            3
    #>  5 NJ         07058         PINEBRROK         PINE BROOK           2
    #>  6 NJ         07090         WESTIFLED         WESTFIELD            2
    #>  7 NJ         07424         EAST LITTLE FALLS LITTLE FALLS         2
    #>  8 NJ         08008         HAVEN BEACH       BEACH HAVEN          2
    #>  9 NJ         08542         PRICENTON         PRINCETON            2
    #> 10 NJ         08826         GLEN GARDEN       GLEN GARDNER         2
    #> # … with 57 more rows
…
``` r
njc <- njc %>% 
  left_join(good_refine) %>% 
  mutate(cont_city_refine = coalesce(cont_city_refine, cont_city_swap))
```

#### Progress

``` r
many_city <- c(valid_city, extra_city)
njc %>% 
  filter(cont_city_refine %out% many_city) %>% 
  count(cont_state, cont_city_refine, sort = TRUE)
#> # A tibble: 2,301 × 3
#>    cont_state cont_city_refine     n
#>    <chr>      <chr>            <int>
#>  1 <NA>       <NA>             16579
#>  2 NJ         MANALAPAN         2046
#>  3 NJ         OCEAN              963
#>  4 NJ         WEST WINDSOR       462
#>  5 NJ         <NA>               446
#>  6 NJ         GREEN BROOK        436
#>  7 NJ         CARNEYS POINT      364
#>  8 NN         NO NAME            353
#>  9 NJ         PITTSGROVE         269
#> 10 NJ         BRICK TOWN         234
#> # … with 2,291 more rows
```
…
