Data Diary
…
For the least distinct variables, we can explore the most common values.

print_tabyl(nj, source_file)

#> # A tibble: 42 x 3
#>    source_file     n percent
#>    <chr>       <dbl>   <dbl>
#>  1 Leg_P2011   21610  0.0851
#>  2 Leg_P2013   17703  0.0697
#>  3 PAC2010     11970  0.0471
#>  4 LEG_G2011   11850  0.0466
#>  5 Leg_G2013   11449  0.0451
#>  6 LEG_P2015   11419  0.0449
#>  7 PAC2011     11226  0.0442
#>  8 PAC2013     10340  0.0407
#>  9 PAC2012     10294  0.0405
#> 10 PAC2014      9195  0.0362
#> #  with 32 more rows
…
print_tabyl(nj, receipt_type)

#> # A tibble: 23 x 3
#>    receipt_type      n  percent
#>    <chr>         <dbl>    <dbl>
#>  1 MONETARY     218506 0.860   
#>  2 CURRENCY      12579 0.0495  
#>  3 IN-KIND       11055 0.0435  
#>  4 N/SUBMITTED    3322 0.0131  
#>  5 INTEREST       2616 0.0103  
#>  6 LOAN           1940 0.00764 
#>  7 REBURS/REFD    1781 0.00701 
#>  8 ADJUSTMENTS    1438 0.00566 
#>  9 LOAN PAY        270 0.00106 
#> 10 CASH N/SUBM     229 0.000901
#> #  with 13 more rows

print_tabyl(nj, office)

#> # A tibble: 21 x 3
#>    office                    n percent
#>    <chr>                 <dbl>   <dbl>
#>  1 STATE ASSEMBLY        55285  0.218 
#>  2 JOINT CANDIDATES CMTE 34666  0.136 
#>  3 STATE SENATE          32984  0.130 
#>  4 MUNICIPAL DEM PARTY   23234  0.0914
#>  5 COUNTY DEM PARTY      15602  0.0614
#>  6 MUNICIPAL OFFICE      12527  0.0493
#>  7 COUNTY REP PARTY      12264  0.0483
#>  8 MAYOR                 12144  0.0478
#>  9 COUNTY FREEHOLDER     10933  0.0430
#> 10 COUNTY SHERIFF        10446  0.0411
#> #  with 11 more rows

print_tabyl(nj, cont_state)

#> # A tibble: 58 x 4
#>    cont_state      n percent valid_percent
#>    <chr>       <dbl>   <dbl>         <dbl>
#>  1 NJ         227728 0.896         0.916  
#>  2 <NA>         5414 0.0213       NA      
#>  3 PA           5407 0.0213        0.0217 
#>  4 NY           5344 0.0210        0.0215 
#>  5 DC           2463 0.00969       0.00990
#>  6 CA           1049 0.00413       0.00422
#>  7 FL            941 0.00370       0.00378
#>  8 TX            748 0.00294       0.00301
#>  9 NC            609 0.00240       0.00245
#> 10 VA            557 0.00219       0.00224
#> #  with 48 more rows

print_tabyl(nj, occupation)

#> # A tibble: 88 x 4
#>    occupation                     n percent valid_percent
#>    <chr>                      <dbl>   <dbl>         <dbl>
#>  1 <NA>                      145279  0.572        NA     
#>  2 LEGAL                      19667  0.0774        0.181 
#>  3 RETIRED                    11465  0.0451        0.105 
#>  4 MGMT/EXECUTIVES            10220  0.0402        0.0939
#>  5 PROTECTIVE/ARMED SERVICES   4628  0.0182        0.0425
#>  6 PROFESSORS/TEACHERS         3751  0.0148        0.0345
#>  7 SERVICE OCCUPATIONS         3616  0.0142        0.0332
#>  8 PUBLIC SECTOR               3548  0.0140        0.0326
#>  9 OWNERS                      3461  0.0136        0.0318
#> 10 MGMT/ADMINISTRATORS         3331  0.0131        0.0306
#> #  with 78 more rows
…
# show dupes
nj_dupes %>% 
  mutate(rec = coalesce(rec_lname, rec_non_ind_name)) %>% 
  select(
    cont_lname,
    cont_amt,
    cont_date,
    rec,
    dupe_count,
    dupe_flag
  )

#> # A tibble: 1,319 x 6
#>    cont_lname cont_amt cont_date  rec                                     dupe_count dupe_flag
#>    <chr>         <dbl> <date>     <chr>                                        <int> <lgl>    
#>  1 BATTAGLIA     319   2009-06-23 GOODWIN                                          2 TRUE     
#>  2 BREZA          35   2009-06-23 GOODWIN                                          2 TRUE     
#>  3 BUMBERNICK     62.8 2009-09-20 BUMBERNICK                                       2 TRUE     
#>  4 CAMERINO      500   2009-10-20 SCAGLLIONE                                       2 TRUE     
#>  5 CHAMBERLIN     70   2009-06-23 GOODWIN                                          2 TRUE     
#>  6 COSTANTINO     60   2009-07-30 GONNELLI BUECKNER COSTANTINO & MCKEEVER          2 TRUE     
#>  7 GOTTESHAM    2600   2009-10-26 GARGANIO & OBRIEN                                2 TRUE     
#>  8 MASER         500   2009-10-13 SCAGLLIONE                                       2 TRUE     
#>  9 OLSEN         500   2009-05-09 GONNELLI BUECKNER COSTANTINO & MCKEEVER          2 TRUE     
#> 10 OSWALD         35   2009-06-23 GOODWIN                                          2 TRUE     
#> #  with 1,309 more rows
…
We can filter for zip codes that are not five characters long and compare them against the first valid zipcode for that contributors city and state. If need be, the cont_street1 can be looked up to get an exact ZIP.

nj_bad_zip <- nj %>% 
  filter(nchar(zip5) != 5) %>% 
  select(id, cont_street1, cont_city, cont_state, cont_zip, zip5) %>% 
  left_join(zipcode, by = c("cont_city" = "city", "cont_state" = "state")) %>% 
  rename(clean_zip = zip5, valid_zip = zip)

print(nj_bad_zip)

#> # A tibble: 318 x 7
#>    id     cont_street1          cont_city   cont_state cont_zip clean_zip valid_zip
#>    <chr>  <chr>                 <chr>       <chr>      <chr>    <chr>     <chr>    
#>  1 038089 540 NORTH AVE         UNION       NJ         070083   070083    07083    
#>  2 076342 1 ASHGROVE CT         <NA>        <NA>       008816   008816    <NA>     
#>  3 079735 2 LAURA CT            BRIDGETON   NJ         080302   080302    08302    
#>  4 095477 600 CORPORATE PARK DR SAINT LOUIS MO         631053   631053    63101    
#>  5 095477 600 CORPORATE PARK DR SAINT LOUIS MO         631053   631053    63102    
#>  6 095477 600 CORPORATE PARK DR SAINT LOUIS MO         631053   631053    63103    
#>  7 095477 600 CORPORATE PARK DR SAINT LOUIS MO         631053   631053    63104    
#>  8 095477 600 CORPORATE PARK DR SAINT LOUIS MO         631053   631053    63105    
#>  9 095477 600 CORPORATE PARK DR SAINT LOUIS MO         631053   631053    63106    
#> 10 095477 600 CORPORATE PARK DR SAINT LOUIS MO         631053   631053    63107    
#> #  with 308 more rows
…
sum(!(na.omit(nj$state_clean) %in% valid_abb))
#> [1] 0
n_distinct(nj$state_clean)
#> [1] 52

Over 98% of all contributions have a state_clean value from the top 10 most common states.

nj %>% 
  tabyl(state_clean) %>% 
  arrange(desc(n)) %>% 
  as_tibble() %>% 
  mutate(cum_percent = cumsum(percent))

#> # A tibble: 52 x 5
#>    state_clean      n percent valid_percent cum_percent
#>    <chr>        <dbl>   <dbl>         <dbl>       <dbl>
#>  1 NJ          227736 0.896         0.916         0.896
#>  2 <NA>          5414 0.0213       NA             0.918
#>  3 PA            5413 0.0213        0.0218        0.939
#>  4 NY            5344 0.0210        0.0215        0.960
#>  5 DC            2463 0.00969       0.00990       0.970
#>  6 CA            1049 0.00413       0.00422       0.974
#>  7 FL             941 0.00370       0.00378       0.977
#>  8 TX             748 0.00294       0.00301       0.980
#>  9 NC             609 0.00240       0.00245       0.983
#> 10 VA             557 0.00219       0.00224       0.985
#> #  with 42 more rows
…
Many (almost all) of these bad cont_city values are valid city names simply not in the created list of municipalities. They are either too obscure, are unincorporated territories, or have too many valid spelling variations. Almost 50% of all bad values are from the 10 most common, and are all actually valid.

nj_bad_city %>% 
  group_by(cont_city, state_clean) %>% 
  count() %>% 
  ungroup() %>% 
  arrange(desc(n)) %>% 
  mutate(
    prop = n / sum(n),
    cumsum = cumsum(n),
    cumprop = cumsum(prop)
  )

#> # A tibble: 988 x 6
#>    cont_city           state_clean     n   prop cumsum cumprop
#>    <chr>               <chr>       <int>  <dbl>  <int>   <dbl>
#>  1 WEST TRENTON        NJ            531 0.114     531   0.114
#>  2 MERCERVILLE         NJ            322 0.0688    853   0.182
#>  3 WINSTON-SALEM       NC            297 0.0635   1150   0.246
#>  4 TURNERSVILLE        NJ            230 0.0492   1380   0.295
#>  5 HAMILTON SQUARE     NJ            222 0.0475   1602   0.342
#>  6 WHITE HOUSE STATION NJ            193 0.0413   1795   0.384
#>  7 NORTH CAPE MAY      NJ            163 0.0348   1958   0.419
#>  8 YARDVILLE           NJ            126 0.0269   2084   0.445
#>  9 CONVENT STATION     NJ            118 0.0252   2202   0.471
#> 10 YARDLEY             PA            111 0.0237   2313   0.494
#> #  with 978 more rows
…
nrow(good_fix) # total changes made

#> [1] 513

n_distinct(good_fix$city_fix) # distinct changes

#> [1] 75

print(good_fix)

#> # A tibble: 513 x 7
#>    id     cont_street1      state_clean zip5  city_original     city_prep         city_fix        
#>    <chr>  <chr>             <chr>       <chr> <chr>             <chr>             <chr>           
#>  1 108886 18 ALBERT ROAD    NJ          07401 ALENDALE          ALENDALE          ALLENDALE       
#>  2 160091 3102 RIVERWALK DR MD          21403 ANAPOLIS          ANAPOLIS          ANNAPOLIS       
#>  3 105326 60 MILL POND RD   NJ          08502 BELLE MEADE       BELLE MEADE       BELLE MEAD      
#>  4 122542 40 BELLMONT RD    NJ          08502 BELLE MEADE       BELLE MEADE       BELLE MEAD      
#>  5 130392 105 WILSHIRE DR   NJ          08502 BELLEMEAD         BELLEMEAD         BELLE MEAD      
#>  6 141176 40 BELLEMONT RD   NJ          08502 BELLEMEAD         BELLEMEAD         BELLE MEAD      
#>  7 126161 P O BOX 1362      NJ          08099 BELMAWR           BELMAWR           BELLMAWR        
#>  8 145030 701 SEVENTH AVE   NJ          07719 BELLMAR           BELLMAR           BELMAR          
#>  9 122667 223 KEMEYS AVE    NY          10510 BRIAR CLIFF MANOR BRIAR CLIFF MANOR BRIARCLIFF MANOR
#> 10 043752 4907 JACKSON DR   PA          19015 BROOK HAVEN       BROOK HAVEN       BROOKHAVEN      
#> #  with 503 more rows

Those changes without a full matching combination should be checked and corrected.

bad_fix <- nj_city_fix %>%
  filter(!(id %in% good_fix$id))

nrow(bad_fix)

#> [1] 549

print(bad_fix)

#> # A tibble: 549 x 7
#>    id     cont_street1        state_clean zip5  city_original      city_prep        city_fix       
#>    <chr>  <chr>               <chr>       <chr> <chr>              <chr>            <chr>          
#>  1 101169 428 LLOYD RD        NJ          07747 ABERDEN            ABERDEN          ABERDEEN       
#>  2 085329 799 VIA ONDULANDO   CA          93003 VENTURA            VENTURA          AVENTURA       
#>  3 075522 206 LAKE AVE        NJ          08742 BAYHEAD            BAYHEAD          BAY HEAD       
#>  4 211867 206 LAKE AVE        NJ          08742 BAYHEAD            BAYHEAD          BAY HEAD       
#>  5 218999 242 EAST AVE        NJ          08742 BAYHEAD            BAYHEAD          BAY HEAD       
#>  6 181666 10 STEVENS ST       NJ          07924 BERARDDSVILLE      BERARDDSVILLE    BERARDSVILLE   
#>  7 150961 10 EAGLE ROCK DR    NJ          07005 BOONTOON TOWNSHIP  BOONTOON TOWNSH BOONTON TOWNSH
#>  8 185561 200 EVANS WAY       NJ          08869 BRA NCHBURG TOWNS BRA NCHBURG TOW BRANCHBURG TOW
#>  9 227617 622 CEDAR CREST DR  NJ          08069 CARNEYS POINTS     CARNEYS POINTS   CARNEYS POINT  
#> 10 038340 1751 BRINTON BRIDG PA          19371 CHADDS FORDS       CHADDS FORDS     CHADDS FORD    
#> #  with 539 more rows
…
After fixing the bad fixes, the two tables of fixed spellings can be combined.

if (nrow(good_fix) + nrow(bad_fix) == nrow(nj_city_fix)) {
  nj_city_fix <- 
    bind_rows(good_fix, bad_fix) %>% 
    select(id, city_original, city_fix) %>% 
    filter(city_original != city_fix)
}

print(nj_city_fix)

#> # A tibble: 629 x 3
#>    id     city_original     city_fix        
#>    <chr>  <chr>             <chr>           
#>  1 108886 ALENDALE          ALLENDALE       
#>  2 160091 ANAPOLIS          ANNAPOLIS       
#>  3 105326 BELLE MEADE       BELLE MEAD      
#>  4 122542 BELLE MEADE       BELLE MEAD      
#>  5 130392 BELLEMEAD         BELLE MEAD      
#>  6 141176 BELLEMEAD         BELLE MEAD      
#>  7 126161 BELMAWR           BELLMAWR        
#>  8 145030 BELLMAR           BELMAR          
#>  9 122667 BRIAR CLIFF MANOR BRIARCLIFF MANOR
#> 10 043752 BROOK HAVEN       BROOKHAVEN      
#> #  with 619 more rows
…
nj <- nj %>% 
  left_join(nj_city_fix, by = "id") %>% 
  mutate(city_clean = ifelse(is.na(city_fix), cont_city, city_fix)) %>% 
  select(-city_original, -city_fix)

n_distinct(nj$cont_city)
#> [1] 2970
n_distinct(nj$city_clean)
#> [1] 2823

nj %>% 
  filter(cont_city != city_clean) %>% 
  select(id, cont_city, city_clean, state_clean) %>% 
  sample_frac()
#> # A tibble: 629 x 4
#>    id     cont_city     city_clean    state_clean
#>    <chr>  <chr>         <chr>         <chr>      
#>  1 222843 WINSTON-SALEM WINSTON SALEM NC         
#>  2 228393 WOOD- RIDGE   WOOD RIDGE    NJ         
#>  3 084137 RIVERVALE     RIVER VALE    NJ         
#>  4 092148 RIVERVALE     RIVER VALE    NJ         
#>  5 220576 WOOD-RIDGE    WOOD RIDGE    NJ         
#>  6 153125 CHERRY HIL    CHERRY HILL   NJ         
#>  7 138482 WINSTON-SALEM WINSTON SALEM NC         
#>  8 067971 WINTERHAVEN   WINTER HAVEN  FL         
#>  9 242721 WINSTON-SALEM WINSTON SALEM NC         
#> 10 181804 WINSTON-SALEM WINSTON SALEM NC         
#> #  with 619 more rows
…
print(nj_key_vars)
#> # A tibble: 254,081 x 6
#>    id     cont_date  cont_type   cont_amt cont               rec                                   
#>    <chr>  <date>     <chr>          <dbl> <chr>              <chr>                                 
#>  1 000001 2009-01-05 INDIVIDUAL   1000    MICHAEL E HOGAN    MICHAEL E HOGAN                       
#>  2 000002 2009-01-05 INDIVIDUAL   2000    MICHAEL E HOGAN    MICHAEL E HOGAN                       
#>  3 000003 2009-01-11 BUSINESS/C   300    CIROS RISTORANTE   MILLER DALINA & TAMBURRO              
#>  4 000004 2009-01-14 INDIVIDUAL    200    JAMES V CAPONE     MADARA GALLAGHER CAPONE & MANGEL DEPT
#>  5 000005 2009-01-15 INTEREST        0.18 STURDY SAVINGS BA MARY H PEREZ                          
#>  6 000006 2009-01-16 INDIVIDUAL   1000    MUJIBA  SALAAM PA MUJIBA SALAAM  PARKER                 
#>  7 000007 2009-01-22 INDIVIDUAL    755.   MUJIBA  SALAAM PA MUJIBA SALAAM  PARKER                 
#>  8 000008 2009-01-26 UNION PAC    2500    UNITE HERE LOCAL  ANGELO  DEMAIO                        
#>  9 000009 2009-01-30 INDIVIDUAL   1045    MUJIBA  SALAAM PA MUJIBA SALAAM  PARKER                 
#> 10 000010 2009-01-31 BUSINESS/C   500    ASPEN TREE EXPERT MICHAEL  REINA                        
#> #  with 254,071 more rows
…
The YEAR field from the transaction date is named cont_year

There are 105 records missing contributor names (flagged with na_flag)

nj %>% 
  select(
    id,
    cont_date, 
    cont_type, 
    cont_amt,
    ends_with("clean"),
    ends_with("flag")
  )

#> # A tibble: 254,081 x 9
#>    id     cont_date  cont_type    cont_amt state_clean city_clean       dupe_flag date_flag na_flag
#>    <chr>  <date>     <chr>           <dbl> <chr>       <chr>            <lgl>     <lgl>     <lgl>  
#>  1 000001 2009-01-05 INDIVIDUAL    1000    NJ          WASHINGTON TOWN FALSE     FALSE     FALSE  
#>  2 000002 2009-01-05 INDIVIDUAL    2000    NJ          WASHINGTON TOWN FALSE     FALSE     FALSE  
#>  3 000003 2009-01-11 BUSINESS/CO   300    NJ          MONROE TOWNSHIP  FALSE     FALSE     FALSE  
#>  4 000004 2009-01-14 INDIVIDUAL     200    NJ          DEPTFORD         FALSE     FALSE     FALSE  
#>  5 000005 2009-01-15 INTEREST         0.18 NJ          DENNISVILLE      FALSE     FALSE     FALSE  
#>  6 000006 2009-01-16 INDIVIDUAL    1000    NJ          CAMDEN           FALSE     FALSE     FALSE  
#>  7 000007 2009-01-22 INDIVIDUAL     755.   NJ          CAMDEN           FALSE     FALSE     FALSE  
#>  8 000008 2009-01-26 UNION PAC     2500    NJ          ATLANTIC CITY    FALSE     FALSE     FALSE  
#>  9 000009 2009-01-30 INDIVIDUAL    1045    NJ          CAMDEN           FALSE     FALSE     FALSE  
#> 10 000010 2009-01-31 BUSINESS/CO   500    NJ          JACKSON          FALSE     FALSE     FALSE  
#> #  with 254,071 more rows
…
