…
```r
nv_candidates <- 
  here("nv_contribs", "data") %>% 
  dir_ls(glob = "*.csv") %>% 
  extract(1) %>% 
  vroom(col_types = cols(.default = "c")) %>% 
  clean_names()

print(nv_candidates)
```

```
#> # A tibble: 6,659 x 6
#>    candidate_id first_name last_name  party         office                          jurisdiction   
#>    <chr>        <chr>      <chr>      <chr>         <chr>                           <chr>          
#>  1 28           Michael    Douglas    Nonpartisan   Supreme Court Justice, Seat F   NV SOS         
#>  2 30           Richard    Ziser      Republican P… U.S. Senate                     NV SOS         
#>  3 31           Carlo      Poliak     Unspecified   City Council, Las Vegas         CITY OF LAS VE…
#>  4 32           Lynn       Hettrick   Republican P… State Assembly, District 39     NV SOS         
#>  5 33           James      Gibbons    Republican P… Governor                        NV SOS         
#>  6 34           Bonnie     Parnell    Democratic P… State Assembly, District 40     NV SOS         
#>  7 35           Marcia     Washington Nonpartisan   State Senate, District 4        CLARK COUNTY   
#>  8 36           Harry      Reid       Democratic P… U.S. Senate                     NV SOS         
#>  9 37           Kenneth    Wegner     Republican P… U.S. Senate                     NV SOS         
#> 10 38           Cynthia    Steel      Nonpartisan   District Court Judge, District… CLARK COUNTY   
#> # … with 6,649 more rows
```
…
print(nv_contribs)
```

```
#> # A tibble: 456,976 x 8
#>    contribution_id report_id candidate_id group_id contribution_da… contribution_am…
#>    <chr>           <chr>     <chr>        <chr>    <date>                      <dbl>
#>  1 2               6980      <NA>         1220     2006-06-28                  35000
#>  2 3               6983      <NA>         1332     2006-03-29                      2
#>  3 4               6983      <NA>         1332     2006-03-31                      1
#>  4 5               6983      <NA>         1332     2006-04-10                    200
#>  5 6               6983      <NA>         1332     2006-01-01                      0
#>  6 7               6983      <NA>         1332     2006-01-01                      0
#>  7 8               6983      <NA>         1332     2006-01-01                      0
#>  8 9               6987      <NA>         1364     2006-01-13                   1000
#>  9 10              6991      2360         <NA>     2006-02-07                    100
#> 10 11              6991      2360         <NA>     2006-02-08                    500
#> # … with 456,966 more rows, and 2 more variables: contribution_type <chr>, contributor_id <chr>
```
…
print(nv_groups)
```

```
#> # A tibble: 1,196 x 6
#>    group_id group_name                               group_type       contact_name  active city    
#>    <chr>    <chr>                                    <chr>            <chr>         <lgl>  <chr>   
#>  1 598      Allstate Insurance Company Political Ac… Political Actio… Shirlanda Wa… TRUE   Northbr…
#>  2 600      American Insurance Association PAC - Ne… Political Actio… James L. Wad… FALSE  Sacrame…
#>  3 601      Board of Realtors Political Action Comm… Political Actio… Wendy DiVecc… TRUE   Las Veg…
#>  4 603      Churchill County Education Association   Political Actio… Sue S Matuska TRUE   Fallon  
#>  5 607      Carriers Allied for Responsible Governm… Political Actio… Daryl E. Cap… FALSE  SPARKS  
#>  6 610      P.A.C. 357   (fka IBEW LOCAL 357 PAC)    Political Actio… James Halsey  TRUE   Las Veg…
#>  7 615      Southwest Regional Council of Carpenter… Political Actio… Frank Hawk    TRUE   Sacrame…
#>  8 616      Construction Industry Committee          Political Actio… Craig Madole  TRUE   Reno    
#>  9 617      Douglas County Professional Education A… Political Actio… Sue S Matuska TRUE   South L…
#> 10 621      International Union of Painters and All… Political Actio… Jason Lamber… TRUE   Hanover 
#> # … with 1,186 more rows
```
…
print(nv_reports)
```

```
#> # A tibble: 37,580 x 9
#>    report_id candidate_id group_id report_name election_cycle filing_due_date filed_date amended
#>    <chr>     <chr>        <chr>    <chr>       <chr>          <date>          <date>     <lgl>  
#>  1 6980      <NA>         1220     CE Report 1 2006           NA              2006-08-08 FALSE  
#>  2 6981      1988         <NA>     CE Report 1 2006           NA              2006-10-30 FALSE  
#>  3 6982      1988         <NA>     CE Report 1 2006           NA              2006-08-07 FALSE  
#>  4 6983      <NA>         1332     CE Report 1 2006           NA              2006-08-07 FALSE  
#>  5 6984      1992         <NA>     CE Report 1 2006           NA              2006-08-07 FALSE  
#>  6 6985      1165         <NA>     CE Report 1 2006           NA              2006-08-07 FALSE  
#>  7 6986      155          <NA>     CE Report 1 2006           NA              2006-08-07 FALSE  
#>  8 6987      <NA>         1364     CE Report 1 2006           NA              2006-08-08 FALSE  
#>  9 6990      2368         <NA>     CE Report 1 2006           NA              2006-08-08 FALSE  
#> 10 6991      2360         <NA>     CE Report 1 2006           NA              2006-08-08 FALSE  
#> # … with 37,570 more rows, and 1 more variable: superseded <lgl>
```
…
```r
print_tabyl(nv, seeking_office)
```

```
#> # A tibble: 762 x 4
#>    seeking_office      n percent valid_percent
#>    <chr>           <dbl>   <dbl>         <dbl>
#>  1 <NA>           197465 0.432         NA     
#>  2 Steve           18271 0.0400         0.0704
#>  3 Kate            13277 0.0291         0.0512
#>  4 Adam            12409 0.0272         0.0478
#>  5 Chris           11878 0.0260         0.0458
#>  6 Aaron            6573 0.0144         0.0253
#>  7 John             5290 0.0116         0.0204
#>  8 Richard          4906 0.0107         0.0189
#>  9 James            4904 0.0107         0.0189
#> 10 Justin           4205 0.00920        0.0162
#> # … with 752 more rows
```

```r
print_tabyl(nv, jurisdiction)
```

```
#> # A tibble: 36 x 4
#>    jurisdiction                 n percent valid_percent
#>    <chr>                    <dbl>   <dbl>         <dbl>
#>  1 <NA>                    197465 0.432        NA      
#>  2 NV SOS                   96253 0.211         0.371  
#>  3 CLARK COUNTY             94874 0.208         0.366  
#>  4 WASHOE COUNTY            26706 0.0584        0.103  
#>  5 CITY OF LAS VEGAS        11966 0.0262        0.0461 
#>  6 CITY OF RENO              7589 0.0166        0.0292 
#>  7 CITY OF HENDERSON         3255 0.00712       0.0125 
#>  8 CARSON CITY               3188 0.00698       0.0123 
#>  9 CITY OF NORTH LAS VEGAS   3180 0.00696       0.0123 
#> 10 UNKNOWN                   2489 0.00545       0.00959
#> # … with 26 more rows
```

```r
print_tabyl(nv, report_name)
```

```
#> # A tibble: 80 x 3
#>    report_name               n percent
#>    <chr>                 <dbl>   <dbl>
#>  1 CE Report 1           75902  0.166 
#>  2 CE Report 3           71187  0.156 
#>  3 2014 Annual CE Filing 70831  0.155 
#>  4 CE Report 1 (Amended) 30016  0.0657
#>  5 CE Report 3 (Amended) 26267  0.0575
#>  6 CE Report 4           24566  0.0538
#>  7 CE Report 2           19083  0.0418
#>  8 2012 Annual CE Filing 16192  0.0354
#>  9 2018 Annual CE Filing 15378  0.0337
#> 10 CE Report 5           15354  0.0336
#> # … with 70 more rows
```
…
```
#> # A tibble: 3 x 4
#>   group_active      n percent valid_percent
#>   <lgl>         <dbl>   <dbl>         <dbl>
#> 1 NA           259511  0.568        NA     
#> 2 TRUE         181224  0.397         0.918 
#> 3 FALSE         16241  0.0355        0.0822
```

```r
print_tabyl(nv, group_city)
```

```
#> # A tibble: 89 x 4
#>    group_city       n percent valid_percent
#>    <chr>        <dbl>   <dbl>         <dbl>
#>  1 <NA>        259511 0.568         NA     
#>  2 Washington   57513 0.126          0.291 
#>  3 Las Vegas    46687 0.102          0.236 
#>  4 Reno         43772 0.0958         0.222 
#>  5 Wilmington   12815 0.0280         0.0649
#>  6 Hartford     11433 0.0250         0.0579
#>  7 Northbrook    8521 0.0186         0.0432
#>  8 Carson City   5381 0.0118         0.0273
#>  9 Henderson     3013 0.00659        0.0153
#> 10 New York      2019 0.00442        0.0102
#> # … with 79 more rows
```
…
