…
The same can be done for records entirely duplicated more than once.

``` r
dec <- flag_dupes(dec, everything())
percent(mean(dec$dupe_flag), 0.001)
#> [1] "1.701%"
```

``` r
dec %>% 
  filter(dupe_flag) %>% 
  select(date, contributor, amount, recipient) %>% 
  arrange(date)
#> # A tibble: 4,838 x 4
#>    date       contributor                       amount recipient                        
#>    <date>     <chr>                              <dbl> <chr>                            
#>  1 2004-01-13 Fraternal Order of Police Lodge 1   2000 F O P LODGE #1 PAC COMMITTEE     
#>  2 2004-01-13 Fraternal Order of Police Lodge 1   2000 F O P LODGE #1 PAC COMMITTEE     
#>  3 2004-02-25 Robert Krapf  Jean   &               200 James M. Baker Campaign Committee
#>  4 2004-02-25 Robert Krapf  Jean   &               200 James M. Baker Campaign Committee
#>  5 2004-02-27 Dr. Regina Turner  Mark   &          100 James M. Baker Campaign Committee
#>  6 2004-02-27 Dr. Regina Turner  Mark   &          100 James M. Baker Campaign Committee
#>  7 2004-03-01 AIA Delaware PAC                     100 James M. Baker Campaign Committee
#>  8 2004-03-01 AIA Delaware PAC                     100 James M. Baker Campaign Committee
#>  9 2004-03-04 Andrea Levine  Richard   &           100 James M. Baker Campaign Committee
#> 10 2004-03-04 Andrea Levine  Richard   &           100 James M. Baker Campaign Committee
#> # … with 4,828 more rows
```
…
``` r
dec %>% 
  filter(state != state_norm) %>% 
  count(state, state_norm, sort = TRUE)
#> # A tibble: 34 x 3
#>    state state_norm     n
#>    <chr> <chr>      <int>
#>  1 De    DE          1998
#>  2 Pa    PA          1060
#>  3 de    DE           396
#>  4 Ct    CT            45
#>  5 Md    MD            38
#>  6 pa    PA            27
#>  7 Il    IL            21
#>  8 dc    DC            17
#>  9 nj    NJ            17
#> 10 Fl    FL            16
#> # … with 24 more rows
```
…
    #> [1] 82
    #> # A tibble: 64 x 5
    #>    state_norm zip_norm city_swap        city_refine        n
    #>    <chr>      <chr>    <chr>            <chr>          <int>
    #>  1 CA         92037    JOLLA            LA JOLLA           4
    #>  2 DE         19710    MONTCHANIN CT    MONTCHANIN         3
    #>  3 DE         19904    DOVER DE         DOVER              3
    #>  4 NY         11733    SETAUKET         EAST SETAUKET      3
    #>  5 CA         92625    CORONADO DEL MAR CORONA DEL MAR     2
    #>  6 CA         94023    ALTOS            LOS ALTOS          2
    #>  7 CA         94109    FRANCISCO        SAN FRANCISCO      2
    #>  8 CA         94121    FRANCISCO        SAN FRANCISCO      2
    #>  9 CA         94131    FRANCISCO        SAN FRANCISCO      2
    #> 10 DE         19801    WILMINGONT       WILMINGTON         2
    #> # … with 54 more rows
…
``` r
dec <- dec %>% 
  left_join(good_refine) %>% 
  mutate(city_refine = coalesce(city_refine, city_swap))
```

#### Progress

``` r
many_city <- c(valid_city, extra_city)
dec %>% 
  filter(city_refine %out% many_city) %>% 
  count(city_refine, sort = TRUE) %>% 
  print(n = 30)
#> # A tibble: 1,090 x 2
#>    city_refine      n
#>    <chr>        <int>
#>  1 <NA>         24138
#>  2 DE            1723
#>  3 ROAD           970
#>  4 SQUARE         716
#>  5 RD             556
#>  6 LONG NECK      523
#>  7 SUITE          450
#>  8 SAINT          444
#>  9 DRIVE          421
#> 10 WILM           410
#> 11 DR             275
#> 12 NECK           230
#> 13 DEWEY BEACH    209
#> 14 VIEW           194
#> 15 MEETING        130
#> 16 VEGAS          129
#> 17 CITY           120
#> 18 ND FLOOR       110
#> 19 SHEPARDSTOWN    93
#> 20 WAY             90
#> 21 STATION         86
#> 22 CHURCH          84
#> 23 CYNWYD          80
#> 24 COURT           79
#> 25 MAWR            79
#> 26 CT              76
#> 27 PA              76
#> 28 TOWNSHIP        73
#> 29 NORTHWEST       62
#> 30 STE             61
#> # … with 1,060 more rows
```
…
