…
``` r
raw_all <- unzip(
  zipfile = raw_zip,
  junkpaths = TRUE,
  exdir = raw_dir
)
```

``` r
file_info(raw_all) %>% 
  select(path, size, modification_time) %>% 
  mutate(across(path, path.abbrev))
#> # A tibble: 63 × 3
#>    path                                                                          size modification_time  
#>    <fs::path>                                                             <fs::bytes> <dttm>             
#>  1 /home/kiernan/Documents/tap/R_tap/ne/contribs/data/raw/forma1cand.txt      176.79K 2022-04-01 13:37:18
#>  2 /home/kiernan/Documents/tap/R_tap/ne/contribs/data/raw/nadc_tables.rtf     308.23K 2022-04-01 13:37:18
#>  3 /home/kiernan/Documents/tap/R_tap/ne/contribs/data/raw/forma1.txt          513.79K 2022-04-01 13:37:18
#>  4 /home/kiernan/Documents/tap/R_tap/ne/contribs/data/raw/formcfla4.txt         18.3K 2022-04-01 13:37:18
#>  5 /home/kiernan/Documents/tap/R_tap/ne/contribs/data/raw/formb73.txt           1.13M 2022-04-01 13:37:18
#>  6 /home/kiernan/Documents/tap/R_tap/ne/contribs/data/raw/formb1c.txt         263.48K 2022-04-01 13:37:18
#>  7 /home/kiernan/Documents/tap/R_tap/ne/contribs/data/raw/formb4a.txt           3.54M 2022-04-01 13:37:18
#>  8 /home/kiernan/Documents/tap/R_tap/ne/contribs/data/raw/loblatefile.txt     328.73K 2022-04-01 13:37:18
#>  9 /home/kiernan/Documents/tap/R_tap/ne/contribs/data/raw/formb7.txt             2.8M 2022-04-01 13:37:18
#> 10 /home/kiernan/Documents/tap/R_tap/ne/contribs/data/raw/formcfla8.txt         3.06K 2022-04-01 13:37:18
#> # … with 53 more rows
```
…
``` r
key_vars <- c("expenditure_date", "committee_name", 
              "expenditure_amount", "payee_name")
nee <- flag_na(nee, all_of(key_vars))
mean(nee$na_flag)
#> [1] 0.02621879
sum(nee$na_flag)
#> [1] 3699
```

``` r
nee %>% 
  filter(na_flag) %>% 
  select(all_of(key_vars), source_form)
#> # A tibble: 3,699 × 5
#>    expenditure_date committee_name                            expenditure_amount payee_name                  source_form
#>    <date>           <chr>                                                  <dbl> <chr>                       <chr>      
#>  1 2007-04-12       ABBOTT FOR COUNCIL (DISSOLVED)                          NA   STEAMFITTERS AND PLUMBERS … Form B1D   
#>  2 2012-10-01       AL DAVIS FOR LEGISLATURE                                25.8 <NA>                        Form B1D   
#>  3 2017-01-17       AL DAVIS FOR LEGISLATURE                                NA   AL DAVIS                    Form B1D   
#>  4 2006-05-10       AMY LINDSAY FOR MUD BOARD (DISSOLVED)                   NA   SUAREZ, ALFRED M            Form B1D   
#>  5 2015-03-25       ANDY STEBBING FOR MAYOR                                 NA   LANCASTER CO TREASURER      Form B1D   
#>  6 2018-12-31       ANGIE MORONES-HARRIS                                    NA   ANGIE MORONES HARRIS        Form B1D   
#>  7 2012-04-25       ANN FERLIC ASHFORD FOR REGENT (DISSOLVED)               NA   KFAB,KGOR                   Form B1D   
#>  8 2012-04-12       ANN FERLIC ASHFORD FOR REGENT (DISSOLVED)               NA   UNIONIST                    Form B1D   
#>  9 2012-03-31       ANN FERLIC ASHFORD FOR REGENT (DISSOLVED)               NA   UNIONIST                    Form B1D   
#> 10 2012-04-25       ANN FERLIC ASHFORD FOR REGENT (DISSOLVED)               NA   KSRZ                        Form B1D   
#> # … with 3,689 more rows
```
…
``` r
nee <- flag_dupes(nee, everything())
sum(nee$dupe_flag)
#> [1] 1017
mean(nee$dupe_flag)
#> [1] 0.007208574
```

``` r
nee %>% 
  filter(dupe_flag) %>% 
  select(all_of(key_vars)) %>% 
  arrange(expenditure_date)
#> # A tibble: 1,017 × 4
#>    expenditure_date committee_name                      expenditure_amount payee_name                 
#>    <date>           <chr>                                            <dbl> <chr>                      
#>  1 1999-01-14       CITIZENS FOR WESELY                               2300 PAT EGAN INSURANCE, INC.   
#>  2 1999-01-14       CITIZENS FOR WESELY                               2300 PAT EGAN INSURANCE, INC.   
#>  3 1999-01-14       CITIZENS FOR WESELY                               2300 PAT EGAN INSURANCE, INC.   
#>  4 1999-01-20       CITIZENS FOR WESELY                               2500 BATT, BOB                  
#>  5 1999-01-20       CITIZENS FOR WESELY                               2500 BATT, BOB                  
#>  6 1999-02-15       JOHNSON FOR MAYOR (DISSOLVED)                     1176 STRICTLY BUSINESS MAGAZINE 
#>  7 1999-02-15       JOHNSON FOR MAYOR (DISSOLVED)                     1176 STRICTLY BUSINESS MAGAZINE 
#>  8 1999-02-15       JOHNSON FOR MAYOR (DISSOLVED)                     1176 STRICTLY BUSINESS MAGAZINE 
#>  9 1999-03-04       JON CAMP FOR CITY COUNCIL COMMITTEE                 15 BORCHERT, MARSHALL & JENNIE
#> 10 1999-03-04       JON CAMP FOR CITY COUNCIL COMMITTEE                 15 BORCHERT, MARSHALL & JENNIE
#> # … with 1,007 more rows
```
…
``` r
nee <- nee %>% 
  mutate(
    state_clean = map_chr(payee_address, pull_state)
  )
```

``` r
nee %>% 
  filter(!is.na(payee_address)) %>% 
  select(payee_address, state_clean) %>% 
  group_by(state_clean) %>% slice(1)
#> # A tibble: 50 × 2
#>    payee_address                            state_clean
#>    <chr>                                    <chr>      
#>  1 BENTONVILLE, AK                          AK         
#>  2 111 INDUSTRIAL PARK RD PRATTVILLE, AL 36 AL         
#>  3 PO BOX 7836 PINE BLUFF, AR 71611         AR         
#>  4 4714 E VIRGINIA AVE PHOENIX AZ 85008     AZ         
#>  5 1020 ENTERPRISE WAY, SUNNYDALE CA        CA         
#>  6 13085 W.CEDARDR,#313 LAKEWOOD, CO 80203  CO         
#>  7 9270 PIONEER CT                          CT         
#>  8 PO BOX 15298, WILMINGTON DE              DE         
#>  9 2145 SUNNYDALE BLVD CLEATWATER,FL 33765  FL         
#> 10 PO BOX4002 ACWORTH GA 30101              GA         
#> # … with 40 more rows
```
…
