…
We can flag any record missing a key variable needed to identify a
transaction.

``` r
moc <- moc %>% flag_na(date, last_name, amount, committee_name,address_1)
sum(moc$na_flag)
#> [1] 41036
```

``` r
moc %>% 
  filter(na_flag) %>% 
  select(date, last_name, amount, committee,address_1)
#> # A tibble: 41,036 × 5
#>    date                   last_name amount committee                   address_1                   
#>    <chr>                  <chr>      <dbl> <chr>                       <chr>                       
#>  1 10/25/2020 12:00:00 AM <NA>         500 <NA>                        "1600 INDIAN CREEK RD"      
#>  2 10/25/2020 12:00:00 AM <NA>         500 MO OPTOMETRIC PAC           "100 EAST HIGH STREET"      
#>  3 11/28/2020 12:00:00 AM <NA>         500 LATHROP GAGE CONSULTING PAC "314 E HIGH ST"             
#>  4 10/1/2020 12:00:00 AM  <NA>         500 <NA>                        "8600 Hillcrest "           
#>  5 10/8/2020 12:00:00 AM  <NA>         200 <NA>                        "6 SW 2nd st Suite 107 "    
#>  6 10/5/2020 12:00:00 AM  <NA>         500 <NA>                        "4019 Clark Ave"            
#>  7 10/8/2020 12:00:00 AM  <NA>        2000 <NA>                        "1401 Hampton Ave 3rd Floor…
#>  8 10/6/2020 12:00:00 AM  <NA>         500 <NA>                        "6320 Manchester Ave Ste 42…
#>  9 10/14/2020 12:00:00 AM <NA>         500 <NA>                        "4501 Emanuel Cleaver II Bl…
#> 10 10/7/2020 12:00:00 AM  <NA>        2047 <NA>                        "6601 Winchester Ste 280"   
#> # … with 41,026 more rows
```
### Duplicates

We can also flag any record completely duplicated across every column.

``` r
moc <- flag_dupes(moc, -cd1_a_id)
sum(moc$dupe_flag)
#> [1] 2435
```

``` r
moc %>% 
  filter(dupe_flag) %>% 
  select(date, last_name, amount, committee,address_1)
#> # A tibble: 2,435 × 5
#>    date                   last_name amount committee                                        addre…¹
#>    <chr>                  <chr>      <dbl> <chr>                                            <chr>  
#>  1 11/17/2020 12:00:00 AM <NA>         500 "MPGA PROPANE PAC "                              "4110 …
#>  2 11/17/2020 12:00:00 AM <NA>         500 "MPGA PROPANE PAC "                              "4110 …
#>  3 9/18/2020 12:00:00 AM  <NA>        3675 "Catalyst PAC"                                   "PO Bo…
#>  4 9/18/2020 12:00:00 AM  <NA>        3675 "Catalyst PAC"                                   "PO Bo…
#>  5 6/26/2020 12:00:00 AM  <NA>        5000 "NEXUS PAC"                                      "714 L…
#>  6 6/26/2020 12:00:00 AM  <NA>        5000 "NEXUS PAC"                                      "714 L…
#>  7 10/22/2020 12:00:00 AM <NA>        1000 "AT&T MISSOURI EMPLOYEE POLITICAL ACTION COMMIT… "ONE A…
#>  8 10/22/2020 12:00:00 AM <NA>        1000 "AT&T MISSOURI EMPLOYEE POLITICAL ACTION COMMIT… "ONE A…
#>  9 10/23/2020 12:00:00 AM Kambitsch      3  <NA>                                            "2065 …
#> 10 10/23/2020 12:00:00 AM Kambitsch      3  <NA>                                            "2065 …
#> # … with 2,425 more rows, and abbreviated variable name ¹​address_1
```
…
      key_collision_merge() %>% 
      n_gram_merge(numgram = 1)
  ) %>% 
  filter(city_refine != city_swap) %>% 
  inner_join(
    y = zipcodes,
    by = c(
      "city_refine" = "city",
      "state_norm" = "state",
      "zip_norm" = "zip"
    )
  )
```

    #> # A tibble: 29 × 5
    #>    state_norm zip_norm city_swap        city_refine      n
    #>    <chr>      <chr>    <chr>            <chr>        <int>
    #>  1 MO         63031    FLORRISANT       FLORISSANT       4
    #>  2 MO         63368    OFFALON          O FALLON         3
    #>  3 MO         65201    COLUMBIA `       COLUMBIA         3
    #>  4 SC         29406    NORTH CHARLESTON CHARLESTON       3
    #>  5 MO         63034    FLORRISANT       FLORISSANT       2
    #>  6 MO         63073    ST ALBINS        SAINT ALBANS     2
    #>  7 MO         65203    COLUMBIA `       COLUMBIA         2
    #>  8 SD         57104    SOUIX FALLS      SIOUX FALLS      2
    #>  9 AZ         85015    PHOENIX PHOENIX  PHOENIX          1
    #> 10 CA         91106    PASENDENA        PASADENA         1
    #> # … with 19 more rows
…
