…
``` r
delr %>% 
  select(starts_with("lobby_address")) %>% 
  distinct() %>% 
  sample_frac()
#> # A tibble: 316 x 3
#>    lobby_address1                 lobby_address2      lobby_address_norm                           
#>    <chr>                          <chr>               <chr>                                        
#>  1 300 Exelon Way                 <NA>                300 EXELON WAY                               
#>  2 200 Sandy Beach Dr             <NA>                200 SANDY BEACH DRIVE                        
#>  3 700 13th Street NW             Suite 600           700 13TH STREET NORTHWEST SUITE 600          
#>  4 c/o 2350 Kerner Blvd.          Ste. 250            CO 2350 KERNER BOULEVARD SUITE 250           
#>  5 Laird Stabler & Associates LLC P.O. Box 523        LAIRD STABLER ASSOCIATES LLC PO BOX 523      
#>  6 100 Matsonford Rd Bld 4        Suite 201           100 MATSONFORD ROAD BLD 4 SUITE 201          
#>  7 3326 North Rockfield Dr        <NA>                3326 NORTH ROCKFIELD DRIVE                   
#>  8 Medical Society of Delaware    900 Prides Crossing MEDICAL SOCIETY OF DELAWARE 900 PRIDES CROSS…
#>  9 48 Colonial Lane               <NA>                48 COLONIAL LANE                             
#> 10 91 Christiana Rd               <NA>                91 CHRISTIANA ROAD                           
#> # … with 306 more rows
```
…
``` r
select(delr, contains("state"))
#> # A tibble: 1,447 x 4
#>    lobby_state employer_state       lobby_state_norm employer_state_norm
#>    <chr>       <chr>                <chr>            <chr>              
#>  1 Delaware    Delaware             DE               DE                 
#>  2 Delaware    Delaware             DE               DE                 
#>  3 Delaware    Virginia             DE               VA                 
#>  4 Delaware    Delaware             DE               DE                 
#>  5 Delaware    District of Columbia DE               DC                 
#>  6 Delaware    New York             DE               NY                 
#>  7 Delaware    Minnesota            DE               MN                 
#>  8 Delaware    Delaware             DE               DE                 
#>  9 Delaware    New York             DE               NY                 
#> 10 Delaware    Massachusetts        DE               MA                 
#> # … with 1,437 more rows
```
…
