…
``` r
idc <- flag_dupes(idc, everything(), .check = TRUE)
sum(idc$dupe_flag)
#> [1] 5986
mean(idc$dupe_flag)
#> [1] 0.0125986
idc %>% 
  filter(dupe_flag) %>% 
  select(recip, last, date, amount)
#> # A tibble: 5,986 x 4
#>    recip     last                                                   date       amount
#>    <chr>     <chr>                                                  <date>      <dbl>
#>  1 ABERNATHY IRON WORKERS DISTRICT COUNCIL OF THE PACIFIC NORTHWEST 2018-07-05    500
#>  2 ABERNATHY IRON WORKERS DISTRICT COUNCIL OF THE PACIFIC NORTHWEST 2018-07-05    500
#>  3 ABERNATHY LANDON                                                 2018-06-12    500
#>  4 ABERNATHY LANDON                                                 2018-06-12    500
#>  5 ADDIS     ADDIS                                                  2018-09-30      0
#>  6 ADDIS     ADDIS                                                  2018-09-30      0
#>  7 AHLQUIST  SCARLETT IV                                            2017-09-14   1000
#>  8 AHLQUIST  SCARLETT IV                                            2017-09-14   1000
#>  9 AHLQUIST  WRIGHT                                                 2017-08-24   1000
#> 10 AHLQUIST  WRIGHT                                                 2017-08-24   1000
#> # … with 5,976 more rows
```
…
``` r
idc %>% 
  select(contains("address")) %>% 
  distinct() %>% 
  sample_frac()
#> # A tibble: 109,474 x 3
#>    address_1                address_2 address_norm          
#>    <chr>                    <chr>     <chr>                 
#>  1 1582 CASSEOPEIA ST       <NA>      1582 CASSEOPEIA ST    
#>  2 433 N C ST               <NA>      433 N C ST            
#>  3 501 WEST 123RD ST APT MG <NA>      501 W 123 RD ST APT MG
#>  4 PO BOX 4392              <NA>      PO BOX 4392           
#>  5 596 PEWAUKEE RD          <NA>      596 PEWAUKEE RD       
#>  6 3333 GEM AVE             <NA>      3333 GEM AVE          
#>  7 2402 W JEFFERSON         <NA>      2402 W JEFFERSON      
#>  8 3733 N SAWGRASS WAY      <NA>      3733 N SAWGRASS WAY   
#>  9 1101 S ROLFE ST          <NA>      1101 S ROLFE ST       
#> 10 703 RIGBY LAKE DR.       <NA>      703 RIGBY LK DR       
#> # … with 109,464 more rows
```
…
``` r
idc %>% 
  filter(city_swap %out% many_city) %>% 
  count(city_swap, sort = TRUE)
#> # A tibble: 161 x 2
#>    city_swap                  n
#>    <chr>                  <int>
#>  1 <NA>                    4199
#>  2 HAYDEN LAKE              630
#>  3 DALTON GARDENS           285
#>  4 PRIEST LAKE               49
#>  5 HIDDEN SPRINGS            33
#>  6 RESEARCH TRIANGLE PARK    26
#>  7 CHUBUCK                   20
#>  8 SEATAC                    12
#>  9 TULALIP                    9
#> 10 CHUBBOCK                   8
#> # … with 151 more rows
```
…
