…
(commcand <- raw_dir %>% 
  path("COMMCAND.txt") %>% 
  read_lines() %>% 
  # fix quote issues
  str_replace_all("(?<!,|^)\"(?!,|$)", "'") %>% 
  read_delim(
    delim = ",",
    col_names = fil_layout$field,
    col_types = cols(
      .default = col_character(),
      district = col_integer(),
      office = col_integer()
    )
  ))
#> # A tibble: 46,027 x 13
#>    filer_id filer_name filer_type status committee_type office district treas_first_name
#>    <chr>    <chr>      <chr>      <chr>  <chr>           <int>    <int> <chr>           
#>  1 C99295   FRIENDS O… COMMITTEE  INACT… 1                  24       NA DANIEL          
#>  2 C99294   I. DANEEK… CANDIDATE  ACTIVE <NA>               32       27 I.              
#>  3 C99293   FRIENDS O… COMMITTEE  ACTIVE 1                  32       27 MARK            
#>  4 C99292   DEBRA LYN… CANDIDATE  INACT… <NA>               57       NA DEBRA           
#>  5 C99291   COMMITTEE… COMMITTEE  INACT… 1                  57       NA DAVID           
#>  6 C99290   DR. BOLA … CANDIDATE  ACTIVE <NA>               32       16 DR. BOLA        
#>  7 C99289   FRIENDS O… COMMITTEE  ACTIVE 1                  32       16 ANTHONY         
#>  8 C99287   ADAM SILV… CANDIDATE  INACT… <NA>               60        2 ADAM            
#>  9 C99286   FRIENDS O… COMMITTEE  INACT… 1                  60        2 PAUL            
#> 10 C99285   ARI KAGAN  CANDIDATE  INACT… <NA>               32       48 ARI             
#> # … with 46,017 more rows, and 5 more variables: treas_last_name <chr>, address <chr>, city <chr>,
#> #   state <chr>, zip <chr>
```
…
``` r
key_vars <- c("ven_name", "fil_name", "amount", "date")
nye <- nye %>% flag_na(all_of(key_vars))
percent(mean(nye$na_flag), 0.01)
#> [1] "0.50%"
```

``` r
nye %>% 
  filter(na_flag) %>% 
  select(all_of(key_vars)) %>% 
  sample_frac()
#> # A tibble: 16,213 x 4
#>    ven_name                     fil_name                                  amount date      
#>    <chr>                        <chr>                                      <dbl> <date>    
#>  1 STAPLES                      TOWN OF KINDERHOOK DEMOCRATIC COMMITTEE       NA 2012-11-06
#>  2 LADAKINS                     FRIENDS OF JUDY PASCALE                       NA 2012-04-23
#>  3 ONTARIO REPUBLICAN GUIDE     REPUBLICAN TOWN COMMITTEE OF FARMINGTON       NA 2011-11-21
#>  4 PAESAN'S PIZZA               FRIENDS OF HELENE WEINSTEIN #7                NA 2012-02-28
#>  5 MENTAL HEALTH ASSOCIATION    FRIENDS OF PATRICIA RITCHIE                   NA 2012-05-25
#>  6 SOUTHBAY DINER               FRIENDS OF STEVE BELLONE                      NA 2011-10-20
#>  7 IL COLOSSEO                  ABBATE FOR ASSEMBLY                           NA 2013-03-02
#>  8 ASURION INSURANCE            FRIENDS OF STEVEN CYMBROWITZ                  NA 2013-08-19
#>  9 UNITED STATES POSTAL SERVICE TOWN OF SHAWANGUNK REPUBLICAN COMMITTEE       NA 2017-11-15
#> 10 AT&T                         WORKING FAMILIES PARTY CAMPAIGN COMMITTEE     NA 2012-09-14
#> # … with 16,203 more rows
```
…
``` r
d1 <- duplicated(nye, fromLast = FALSE)
d2 <- duplicated(nye, fromLast = TRUE)
nye <- mutate(nye, dupe_flag = d1 | d2)
rm(d1, d2); flush_memory()
mean(nye$dupe_flag)
#> [1] 0.0001717152
```

``` r
nye %>% 
  filter(dupe_flag) %>% 
  select(all_of(key_vars))
#> # A tibble: 560 x 4
#>    ven_name                           fil_name                  amount date      
#>    <chr>                              <chr>                      <dbl> <date>    
#>  1 NY ACCESS TO ABORTION FUND         FRIENDS OF DICK GOTTFRIED    100 2004-07-28
#>  2 NY ACCESS TO ABORTION FUND         FRIENDS OF DICK GOTTFRIED    100 2004-07-28
#>  3 EMPIRE STATE PRIDE AGENDA          FRIENDS OF DICK GOTTFRIED    500 2004-08-04
#>  4 EMPIRE STATE PRIDE AGENDA          FRIENDS OF DICK GOTTFRIED    500 2004-08-04
#>  5 REZNICK MEDIA                      FRIENDS OF DICK GOTTFRIED    120 2004-08-11
#>  6 REZNICK MEDIA                      FRIENDS OF DICK GOTTFRIED    120 2004-08-11
#>  7 504 DEMOCRATIC CLUB                FRIENDS OF DICK GOTTFRIED    150 2004-08-11
#>  8 504 DEMOCRATIC CLUB                FRIENDS OF DICK GOTTFRIED    150 2004-08-11
#>  9 NY STATEWIDE SENIOR ACTION COUNCIL FRIENDS OF DICK GOTTFRIED    150 2004-08-11
#> 10 NY STATEWIDE SENIOR ACTION COUNCIL FRIENDS OF DICK GOTTFRIED    150 2004-08-11
#> # … with 550 more rows
```
…
``` r
nye %>% 
  filter(ven_state != ven_state_norm) %>% 
  count(ven_state, ven_state_norm, sort = TRUE)
#> # A tibble: 34 x 3
#>    ven_state ven_state_norm     n
#>    <chr>     <chr>          <int>
#>  1 " N"      NY              1159
#>  2 "N"       NY               232
#>  3 "N."      NY               214
#>  4 "MY"      NY               195
#>  5 "NT"      NY               166
#>  6 "N/"      NY               132
#>  7 "NU"      NY                63
#>  8 "BY"      NY                51
#>  9 "N7"      NY                11
#> 10 " C"      C                  8
#> # … with 24 more rows
```
…
``` r
nye <- mutate(
  .data = nye,
  across(
    .cols = ends_with("city_norm"),
    .fns = normal_city,
    abbs = usps_city,
    states = c("NY", "DC", "NEW YORK"),
    na = invalid_city,
    na_rep = TRUE
  )
)
```

    #> # A tibble: 166 x 3
    #>    ven_city      ven_city_norm     n
    #>    <chr>         <chr>         <int>
    #>  1 UNKNOWN       <NA>            747
    #>  2 N/A           <NA>            415
    #>  3 ONLINE        <NA>            276
    #>  4 NONE          <NA>            166
    #>  5 INTERNET      <NA>            124
    #>  6 .             <NA>            120
    #>  7 ..            <NA>            115
    #>  8 XXXX          <NA>            103
    #>  9 NO ADDRESS    <NA>             97
    #> 10 NOT AVAILABLE <NA>             61
    #> # … with 156 more rows
…
This swap caught many small differences between city names.

``` r
nye %>% 
  filter(match_dist == 1) %>% 
  count(ven_city_norm, ven_city_swap, sort = TRUE)
#> # A tibble: 9,091 x 3
#>    ven_city_norm    ven_city_swap        n
#>    <chr>            <chr>            <int>
#>  1 SARATOGA SPRING  SARATOGA SPRINGS  6786
#>  2 LONG ISLAND CIT  LONG ISLAND CITY  4404
#>  3 ROCKVILLE CENTR  ROCKVILLE CENTRE  4063
#>  4 ROCKVILLE CENTER ROCKVILLE CENTRE  2046
#>  5 YORKTOWN HEIGHT  YORKTOWN HEIGHTS  1225
#>  6 WAPPINGERS FALL  WAPPINGERS FALLS  1200
#>  7 JEFFERSON VALLE  JEFFERSON VALLEY   756
#>  8 BAYSHORE         BAY SHORE          698
#>  9 MANSFIELD CENTE  MANSFIELD CENTER   615
#> 10 PITTSBURG        PITTSBURGH         548
#> # … with 9,081 more rows
```

We can also see how many abbreviations were found and replaced.

``` r
nye %>% 
  filter(match_abb) %>% 
  count(ven_city_norm, ven_city_swap, sort = TRUE)
#> # A tibble: 1,355 x 3
#>    ven_city_norm   ven_city_swap          n
#>    <chr>           <chr>              <int>
#>  1 NY              NEW YORK           12006
#>  2 BKLYN           BROOKLYN            3869
#>  3 NF              NIAGARA FALLS       2659
#>  4 SI              STATEN ISLAND       2131
#>  5 ROCH            ROCHESTER           1493
#>  6 HUNTINGTON STAT HUNTINGTON STATION  1408
#>  7 LIC             LONG ISLAND CITY    1299
#>  8 BUFF            BUFFALO             1212
#>  9 LKPT            LOCKPORT            1078
#> 10 BX              BRONX               1071
#> # … with 1,345 more rows
```
…
      key_collision_merge() %>% 
      n_gram_merge(numgram = 1)
  ) %>% 
  filter(ven_city_refine != ven_city_swap) %>% 
  inner_join(
    y = zipcodes,
    by = c(
      "ven_city_refine" = "city",
      "ven_state_norm" = "state",
      "ven_zip" = "zip"
    )
  )
```

    #> # A tibble: 676 x 5
    #>    ven_state_norm ven_zip_norm ven_city_norm         ven_city_refine            n
    #>    <chr>          <chr>        <chr>                 <chr>                  <int>
    #>  1 NY             11733        SETAUKET              EAST SETAUKET           1859
    #>  2 NY             12144        RENESSELAR            RENSSELAER               111
    #>  3 OH             45274        CINCINATTI            CINCINNATI                99
    #>  4 NY             11746        HUNTINGTON SAINT      HUNTINGTON STATION        47
    #>  5 NY             11776        POINT JEFFERSON SAINT PORT JEFFERSON STATION    42
    #>  6 CA             94025        MELANO PARK           MENLO PARK                33
    #>  7 IL             60197        CORAL STREAM          CAROL STREAM              33
    #>  8 NY             11791        SYOSETT               SYOSSET                   26
    #>  9 CA             94103        SAN FRANSICO          SAN FRANCISCO             21
    #> 10 NY             12866        SARATOGA SRPING       SARATOGA SPRINGS          20
    #> # … with 666 more rows
…
