…
``` r
vtc <- flag_dupes(vtc, everything())
sum(vtc$dupe_flag)
#> [1] 1069
```

1.6% of rows are duplicated at once.

``` r
vtc %>% 
  filter(dupe_flag) %>% 
  select(all_of(key_vars)) %>% 
  arrange(transaction_date)
#> # A tibble: 1,069 × 4
#>    transaction_date contributor_name  amount receiving_registrant                              
#>    <date>           <chr>              <dbl> <chr>                                             
#>  1 2014-08-13       Fletcher, Darcy       20 Vermont-NEA Fund for Children and Public Education
#>  2 2014-08-13       Fletcher, Darcy       20 Vermont-NEA Fund for Children and Public Education
#>  3 2014-08-13       Fletcher, Darcy       20 Vermont-NEA Fund for Children and Public Education
#>  4 2014-08-13       Fletcher, Darcy       20 Vermont-NEA Fund for Children and Public Education
#>  5 2014-08-13       Fletcher, Darcy       20 Vermont-NEA Fund for Children and Public Education
#>  6 2014-08-13       Fletcher, Darcy       20 Vermont-NEA Fund for Children and Public Education
#>  7 2014-08-19       Wamble, Louis        100 Morris, Kiah                                      
#>  8 2014-08-19       Wamble, Louis        100 Morris, Kiah                                      
#>  9 2014-09-29       Richmond, Douglas    100 Feliciano, Dan                                    
#> 10 2014-09-29       Richmond, Douglas    100 Feliciano, Dan                                    
#> # … with 1,059 more rows
```
…
First, we notice that the vast majority of the existing `town_city` and
`town_state` variables are missing.

``` r
prop_na(vtc$town_city)
#> [1] 0.3088281
prop_na(vtc$town_state)
#> [1] 0.2585699
vtc %>% 
  select(contributor_address, town_city, town_state) %>% 
  filter(!is.na(town_city) & !is.na(town_state))
#> # A tibble: 46,643 × 3
#>    contributor_address                                    town_city  town_state
#>    <chr>                                                  <chr>      <chr>     
#>  1 Anonymous                                              Danville   VT        
#>  2 38081 Agua Vista, Apt. A, A, Murrieta, CA 92563        MURRIETA   CA        
#>  3 52 Henry Street, Burlington, VT 05401                  Burlington VT        
#>  4 Anonymous                                              Burlington VT        
#>  5 45 Alfred Terrace, Burlington, VT 05401                BURLINGTON VT        
#>  6 5 S. Main St. Ste. 322, White River Junction, VT 05001 Hartford   VT        
#>  7 Anonymous                                              BURLINGTON VT        
#>  8 Anonymous                                              Grand Isle VT        
#>  9 41 N Champlain Street, Burlington, VT 05401            Burlington VT        
#> 10 428 Bolton Valley Access Rd, Bolton, VT 05676          Bolton     VT        
#> # … with 46,633 more rows
```
…
``` r
vtc <- vtc %>% 
  left_join(good_refine, by = names(.)) %>% 
  mutate(city_refine = coalesce(city_refine, city_swap))
```

#### Manual

``` r
many_city <- c(valid_city, extra_city)
vtc %>% 
  count(state_norm, city_refine, sort = TRUE) %>% 
  filter(city_refine %out% many_city)
#> # A tibble: 233 × 3
#>    state_norm city_refine          n
#>    <chr>      <chr>            <int>
#>  1 <NA>       <NA>               675
#>  2 VT         <NA>               642
#>  3 VT         WEYBRIDGE          195
#>  4 VT         GEORGIA            114
#>  5 VT         WEST BRATTLEBORO    77
#>  6 MA         NEEDHAM HEIGHTS     74
#>  7 VT         ST ALBANS           70
#>  8 VT         ST JOHNSBURY        66
#>  9 VT         PANTON              61
#> 10 VT         NORTH MIDDLESEX     46
#> # … with 223 more rows
```
…
