…
### Address

``` r
nelr <- nelr %>% 
  mutate_at(
    .vars = vars(ends_with("address")),
    .fun = list(norm = normal_address),
    abbs = usps_street,
    na_rep = TRUE
  )
```

    #> # A tibble: 3,467 × 4
    #>    pri_address                              pri_address_norm                        lob_a…¹ lob_a…²
    #>    <chr>                                    <chr>                                   <chr>   <chr>  
    #>  1 660 W Germantown Pike                    660 W GERMANTOWN PIKE                   625 S.… 625 S …
    #>  2 401 N. Main St.                          401 N MAIN ST                           2744 S… 2744 S…
    #>  3 6688 North Central Expressway, Suite 500 6688 NORTH CENTRAL EXPRESSWAY SUITE 500 1700 F… 1700 F…
    #>  4 4361 Lafayette Avenue, PO Box 31031      4361 LAFAYETTE AVENUE PO BOX 31031      1125 Q… 1125 Q…
    #>  5 One Takeda Parkway                       ONE TAKEDA PKWY                         1030 N… 1030 N…
    #>  6 5201 Interchange Way                     5201 INTERCHANGE WAY                    635 S … 635 S …
    #>  7 2200 Dodge Stree                         2200 DODGE STREE                        6035 B… 6035 B…
    #>  8 1327 H Street, Suite 303                 1327 H STREET SUITE 303                 5400 S… 5400 S…
    #>  9 850 Lincoln Ctr Dr                       850 LINCOLN CTR DR                      1201 P… 1201 P…
    #> 10 1620 Dodge Street, Mail Stop 3395        1620 DODGE STREET MAIL STOP 3395        1220 L… 1220 L…
    #> # … with 3,457 more rows, and abbreviated variable names ¹​lob_address, ²​lob_address_norm
…
