…
Ignoreing the semi-unique `doc_num` variable, there are a number of
duplicated records that need to be flagged.

``` r
orc <- flag_dupes(orc, -doc_num)
sum(orc$dupe_flag)
#> [1] 398
```

``` r
orc %>% 
  filter(dupe_flag) %>% 
  select(start_date, agency, amount, vendor)
#> # A tibble: 398 x 4
#>    start_date agency                             amount vendor                                     
#>    <date>     <chr>                               <dbl> <chr>                                      
#>  1 2015-11-19 DHS - Department of Human Services    450 Lane Independent Living Alliance           
#>  2 2015-11-19 DHS - Department of Human Services    450 Lane Independent Living Alliance           
#>  3 2015-11-19 DHS - Department of Human Services    450 Lane Independent Living Alliance           
#>  4 2016-01-06 DHS - Department of Human Services    580 Lane Independent Living Alliance           
#>  5 2016-01-06 DHS - Department of Human Services    580 Lane Independent Living Alliance           
#>  6 2016-01-06 DHS - Department of Human Services    580 Lane Independent Living Alliance           
#>  7 2016-01-06 DHS - Department of Human Services    580 Lane Independent Living Alliance           
#>  8 2015-12-07 DHS - Department of Human Services   3205 Community Rehabilitation Services of Oregon
#>  9 2015-12-07 DHS - Department of Human Services   3205 Community Rehabilitation Services of Oregon
#> 10 2016-02-10 DHS - Department of Human Services   1400 Albertina Kerr Centers                     
#> # … with 388 more rows
```
…
#### Progress

``` r
many_city <- c(valid_city, extra_city)
orc %>% 
  filter(city_swap %out% many_city) %>% 
  count(city_swap, state_norm, sort = TRUE)
#> # A tibble: 103 x 3
#>    city_swap               state_norm     n
#>    <chr>                   <chr>      <int>
#>  1 MILWAUKIE               OR           583
#>  2 <NA>                    <NA>         434
#>  3 FEDERAL WAY WA          OR           106
#>  4 NEW YORK CITY           NY            46
#>  5 RESEARCH TRIANGLE PARK  NC            31
#>  6 SUNRIVER                OR            31
#>  7 SEATAC                  WA            30
#>  8 COBURG                  OR            26
#>  9 WALNUT CREEK CALIFORNIA OR            26
#> 10 LAKE SUCCESS            NY            24
#> # … with 93 more rows
```
…
