…
``` r
iac <- left_join(iac, dupes)
iac <- mutate(iac, dupe_flag = !is.na(dupe_flag))
percent(mean(iac$dupe_flag), 0.1)
#> [1] "100.0%"
```

``` r
iac %>% 
  filter(dupe_flag) %>% 
  select(all_of(key_vars)) %>% 
  arrange(date, last)
#> # A tibble: 2,248,344 × 4
#>    date       last       amount committee                                            
#>    <date>     <chr>       <dbl> <chr>                                                
#>  1 2003-01-01 Price        50   Planned Parenthood Advocates of Iowa PAC             
#>  2 2003-01-01 Unitemized  261   Community Bankers of Iowa Political Action Committee 
#>  3 2003-01-01 <NA>         21.8 Citizens to Elect Bill Dotzler                       
#>  4 2003-01-02 Balderston   15   Linn County Republican Women                         
#>  5 2003-01-02 Bee          25   Iowa Dental Political Action Committee               
#>  6 2003-01-02 Burnham     100   Iowa Dental Political Action Committee               
#>  7 2003-01-02 Consamus    100   Iowa Dental Political Action Committee               
#>  8 2003-01-02 DeVore      250   Manufactured Housing Political Action Committee #6096
#>  9 2003-01-02 Foster       15   Linn County Republican Women                         
#> 10 2003-01-02 Gee          15   Linn County Republican Women                         
#> # … with 2,248,334 more rows
```
…
``` r
many_city <- c(valid_city, extra_city)
ia_city %>% 
  count(city_swap, state_norm, sort = TRUE) %>% 
  filter(!is.na(city_swap), city_swap %out% many_city)
#> # A tibble: 1,693 × 3
#>    city_swap        state_norm     n
#>    <chr>            <chr>      <int>
#>  1 NEW YORK CITY    NY            33
#>  2 NYC              NY            24
#>  3 LECLAIRE         IA            14
#>  4 IA               IA            13
#>  5 FARMINGTON HILLS MI            11
#>  6 JOHNSTNON        IA            11
#>  7 LEMARS           IA            10
#>  8 UNITEMIZED       IA            10
#>  9 ST LOUIS         MO             9
#> 10 NY               NY             8
#> # … with 1,683 more rows
```
…
