…
ut_prin <- ut_reg %>% 
  filter(organization_type == "PRINCIPAL") %>% 
  rename(principal = organization_name) %>% 
  select(-organization_type)
# names(ut_business) %>% setdiff(names(ut_prin))just captures what's inside business but not in prin, and we only need to eliminate this column when we apply left_join to ut_prin.  
ut_bind <- ut_prin %>% 
  left_join(ut_business, by = names(ut_business) %>% setdiff(names(ut_business) %>% setdiff(names(ut_prin))))

sample_frac(ut_bind)
#> # A tibble: 4,467 x 21
#>    state address_1 address_2 city  date_organization_… date_organization_… principal phone
#>    <chr> <chr>     <chr>     <chr> <dttm>              <dttm>              <chr>     <chr>
#>  1 NY    433 PUGS… <NA>      AMEN… 2014-03-03 11:14:39 2014-03-24 09:59:32 NATIONAL… <NA> 
#>  2 PA    1 DISCOV… <NA>      SWIF… 2012-12-18 09:32:37 2014-01-03 14:43:58 SANOFI P… (570…
#>  3 CA    4100 MAC… SUITE 200 NEWP… 2015-12-17 11:45:49 2018-02-25 14:45:12 OUTLETS … (949…
#>  4 OR    528 COTT… SUITE 1-B SALEM 2014-12-30 16:01:06 NA                  KOCH COM… <NA> 
#>  5 UT    824 S 40… A105      SALT… 2017-10-23 16:56:47 2019-11-21 15:18:31 UTAH CHA… (801…
#>  6 UT    230 SOUT… <NA>      SALT… 2017-01-24 08:33:16 2018-11-01 13:27:09 INSURE-R… <NA> 
#>  7 UT    3600 CON… <NA>      WVC   2013-12-23 09:45:56 NA                  WEST VAL… <NA> 
#>  8 TN    6100 TOW… <NA>      NASH… 2019-02-28 20:33:55 NA                  ACADIA    <NA> 
#>  9 UT    323 S 60… <NA>      SALT… 2014-08-01 02:04:21 2017-01-08 21:29:21 IDEAL FO… (801…
#> 10 UT    9602 S. … <NA>      SANDY 2013-11-04 12:07:57 NA                  UTAH CAB… <NA> 
#> # … with 4,457 more rows, and 13 more variables: lobbyist_name <chr>, zip <chr>, year <dbl>,
#> #   date <date>, first_name <chr>, last_name <chr>, dupe_flag <lgl>, na_flag <lgl>,
#> #   phone_norm <chr>, address_clean <chr>, zip5 <chr>, city_clean <chr>, business <chr>
```
…
