…
Some equipment transfers are represented with a single row and a larger
`quantity` value. Others have many rows with a `quantity` of 1
(particularly) with items like “RIFLE,5.56 MILLIMETER” (the most common
item transferred).

``` r
leso[[i]] %>% 
  filter(quantity == 1) %>% 
  arrange(to_station, date, item)
#> # A tibble: 116,469 x 10
#>    to_state to_station   nsn    item   quantity ui    value demil_code demil_ic date               
#>    <chr>    <chr>        <chr>  <chr>     <dbl> <chr> <dbl> <chr>      <chr>    <dttm>             
#>  1 AR       14TH JUDICI… 1005-… RIFLE…        1 Each    499 D          1        1998-08-24 00:00:00
#>  2 AR       14TH JUDICI… 1005-… RIFLE…        1 Each    499 D          1        1998-08-24 00:00:00
#>  3 AR       14TH JUDICI… 1005-… RIFLE…        1 Each    499 D          1        1998-08-24 00:00:00
#>  4 AR       14TH JUDICI… 1005-… RIFLE…        1 Each    499 D          1        1998-08-24 00:00:00
#>  5 AR       14TH JUDICI… 1005-… RIFLE…        1 Each    499 D          1        1998-08-24 00:00:00
#>  6 AR       14TH JUDICI… 1005-… RIFLE…        1 Each    499 D          1        1998-08-24 00:00:00
#>  7 SC       ABBEVILLE C… 1005-… RIFLE…        1 Each    749 D          1        2017-09-18 00:00:00
#>  8 SC       ABBEVILLE C… 1005-… RIFLE…        1 Each    749 D          1        2017-09-18 00:00:00
#>  9 SC       ABBEVILLE C… 1005-… RIFLE…        1 Each    749 D          1        2017-09-18 00:00:00
#> 10 SC       ABBEVILLE C… 1005-… RIFLE…        1 Each    749 D          1        2017-09-18 00:00:00
#> # … with 116,459 more rows
```
…
