…
``` r
key_vars <- c("date", "payee_name", "amount", "comm_name")
fle <- flag_na(fle, all_of(key_vars))
sum(fle$na_flag)
#> [1] 920
```

A few hundred records are missing a `payee_name`.

``` r
fle %>% 
  filter(na_flag) %>% 
  select(all_of(key_vars), city_state_zip) %>% 
  relocate(city_state_zip, .after = payee_name)
#> # A tibble: 920 x 5
#>    date       payee_name city_state_zip              amount comm_name                                     
#>    <date>     <chr>      <chr>                        <dbl> <chr>                                         
#>  1 1901-01-01 <NA>       ",       "                       0 Rodriguez-Chomat, Jorge  (REP)(STR)           
#>  2 1901-01-01 <NA>       ",       "                       0 Rodriguez-Chomat, Jorge  (REP)(STR)           
#>  3 1901-01-01 <NA>       ",       "                       0 Rodriguez-Chomat, Jorge  (REP)(STR)           
#>  4 1901-01-01 <NA>       ",       "                       0 Rodriguez-Chomat, Jorge  (REP)(STR)           
#>  5 1996-01-05 <NA>       "PENSACOLA, FL 32503"          500 Florida Transportation Builders' Associa (CCE)
#>  6 1996-01-06 <NA>       ",  00000"                       0 CHIRO-PAC (CCE)                               
#>  7 1996-01-31 <NA>       "WEST PALM BEACH, FL 33405"    500 Jorandby, Richard L. (REP)(PUB)               
#>  8 1996-02-19 <NA>       "LAKELAND, FL 33801"           175 Putnam, Adam H. (REP)(STR)                    
#>  9 1996-02-22 <NA>       ",  00000"                       0 Dimitrouleas, William P. (NOP)(CTJ)           
#> 10 1996-02-22 <NA>       ",  00000"                       0 Dimitrouleas, William P. (NOP)(CTJ)           
#> # … with 910 more rows
```
…
2.02% of records are duplicated at least once.

``` r
fle %>% 
  filter(dupe_flag) %>% 
  select(all_of(key_vars)) %>% 
  arrange(payee_name, amount)
#> # A tibble: 38,460 x 4
#>    date       payee_name     amount comm_name                       
#>    <date>     <chr>           <dbl> <chr>                           
#>  1 2018-07-23 .COM, CALLFIRE     75 Porter, Jeffrey Duane (DEM)(AGR)
#>  2 2018-07-23 .COM, CALLFIRE     75 Porter, Jeffrey Duane (DEM)(AGR)
#>  3 2018-07-23 .COM, CALLFIRE     75 Porter, Jeffrey Duane (DEM)(AGR)
#>  4 2018-07-27 .COM, CALLFIRE     75 Porter, Jeffrey Duane (DEM)(AGR)
#>  5 2018-07-27 .COM, CALLFIRE     75 Porter, Jeffrey Duane (DEM)(AGR)
#>  6 2018-07-30 .COM, CALLFIRE    150 Porter, Jeffrey Duane (DEM)(AGR)
#>  7 2018-07-30 .COM, CALLFIRE    150 Porter, Jeffrey Duane (DEM)(AGR)
#>  8 2018-08-03 .COM, CALLFIRE    150 Porter, Jeffrey Duane (DEM)(AGR)
#>  9 2018-08-03 .COM, CALLFIRE    150 Porter, Jeffrey Duane (DEM)(AGR)
#> 10 2018-08-03 .COM, CALLFIRE    150 Porter, Jeffrey Duane (DEM)(AGR)
#> # … with 38,450 more rows
```

``` r
fle %>% 
  filter(dupe_flag) %>% 
  select(all_of(key_vars)) %>% 
  count(payee_name, amount, comm_name, sort = TRUE)
#> # A tibble: 13,504 x 4
#>    payee_name                amount comm_name                                          n
#>    <chr>                      <dbl> <chr>                                          <int>
#>  1 HANCOCK BANK               20    Florida Democratic Legislative Campaign  (PAP)   506
#>  2 GOOGLE                    500    Crist, Charlie  (DEM)(GOV)                       370
#>  3 RAISE THE MONEY             1.25 Hardy, Omari  (DEM)(STR)                         314
#>  4 VIP TRAVEL AND TOURS, INC  35    Crist, Charlie  (DEM)(GOV)                       184
#>  5 RAISE THE MONEY             0.65 Hardy, Omari  (DEM)(STR)                         173
#>  6 SUNTRUST BANK              10    Gillum, Andrew  (DEM)(GOV)                       136
#>  7 BANK OF AMERICA             3    Amendment 2 is for Everybody (PAC)               135
#>  8 RAISE THE MONEY             0.45 Hardy, Omari  (DEM)(STR)                         126
#>  9 FACEBOOK                  100    Smith, Carlos Guillermo (DEM)(STR)                89
#> 10 RAISE THE MONEY             2.25 Hardy, Omari  (DEM)(STR)                          80
#> # … with 13,494 more rows
```
…
      key_collision_merge() %>% 
      n_gram_merge(numgram = 1)
  ) %>% 
  filter(city_refine != city_swap) %>% 
  inner_join(
    y = zipcodes,
    by = c(
      "city_refine" = "city",
      "state_norm" = "state",
      "zip_norm" = "zip"
    )
  )
```

    #> # A tibble: 473 x 5
    #>    state_norm zip_norm city_swap          city_refine            n
    #>    <chr>      <chr>    <chr>              <chr>              <int>
    #>  1 OH         45274    CINCINATTI         CINCINNATI            92
    #>  2 OH         45249    CINCINATTI         CINCINNATI            30
    #>  3 FL         33606    TAMPAPA            TAMPA                 26
    #>  4 FL         32043    COVE SPRINGS       GREEN COVE SPRINGS    24
    #>  5 FL         32202    JACKSONVILLENVILLE JACKSONVILLE          23
    #>  6 FL         32806    ORLANDONDO         ORLANDO               19
    #>  7 FL         34653    NEW POINT RICHEY   NEW PORT RICHEY       19
    #>  8 FL         32082    PONTE VERDE BEACH  PONTE VEDRA BEACH     17
    #>  9 FL         34652    NEW POINT RICHEY   NEW PORT RICHEY       16
    #> 10 FL         32129    PORT ORANGEGE      PORT ORANGE           15
    #> # … with 463 more rows
…
