…
    remove = FALSE,
    na.rm = TRUE
  ) %>% 
  # normalize combined addr
  mutate(
    filer_address_norm = normal_address(
      address = filer_adress_full,
      add_abbs = usps_street,
      na_rep = TRUE
    )
  ) %>% 
  select(-filer_adress_full)
```

    #> # A tibble: 2,326 x 3
    #>    filer_addr1              filer_addr2             filer_address_norm                             
    #>    <chr>                    <chr>                   <chr>                                          
    #>  1 303 Colorado             Suite 2000              303 COLORADO SUITE 2000                        
    #>  2 c/o Perkins Cole, LLP    700 13th St. NW, Ste. … CO PERKINS COLE LLP 700 13TH STREET NORTHWEST …
    #>  3 1011 San Jacinto, Suite… <NA>                    1011 SAN JACINTO SUITE 411                     
    #>  4 1122 Colorado            Suite 2310              1122 COLORADO SUITE 2310                       
    #>  5 11200 Lakeline Blvd      Suite 1000              11200 LAKELINE BOULEVARD SUITE 1000            
    #>  6 823 Congress             Suite 650               823 CONGRESS SUITE 650                         
    #>  7 16503 Chalmette Park     <NA>                    16503 CHALMETTE PARK                           
    #>  8 919 Congress Ave. Ste. … <NA>                    919 CONGRESS AVENUE SUITE 450                  
    #>  9 314 E. Highland Mall Bl… Suite 108               314 EAST HIGHLAND MALL BOULEVARD SUITE 108     
    #> 10 6100 Main Street         MS 610                  6100 MAIN STREET MS 610                        
    #> # … with 2,316 more rows
…
    remove = FALSE,
    na.rm = TRUE
  ) %>% 
  # normalize combined addr
  mutate(
    client_address_norm = normal_address(
      address = client_address_full,
      add_abbs = usps_street,
      na_rep = TRUE
    )
  ) %>% 
  select(-client_address_full)
```

    #> # A tibble: 7,236 x 3
    #>    client_addr1                     client_addr2 client_address_norm               
    #>    <chr>                            <chr>        <chr>                             
    #>  1 P. O. Box 200847                 <NA>         PO BOX 200847                     
    #>  2 929 Esperanza, Ste. 2            <NA>         929 ESPERANZA SUITE 2             
    #>  3 3231 North Loop 1604 West, #3107 <NA>         3231 NORTH LOOP 1604 WEST 3107    
    #>  4 98 San Jacinto Blvd              Ste 400      98 SAN JACINTO BOULEVARD SUITE 400
    #>  5 500 East San Antonio             Room 301     500 EAST SAN ANTONIO ROOM 301     
    #>  6 401 W. 15th Street, Suite 840    <NA>         401 WEST 15TH STREET SUITE 840    
    #>  7 7400 viscount blvd               <NA>         7400 VISCOUNT BOULEVARD           
    #>  8 P. O. Box 1639                   <NA>         PO BOX 1639                       
    #>  9 9019 Elroy Rd.                   <NA>         9019 ELROY ROAD                   
    #> 10 P.O. Box 5117                    <NA>         PO BOX 5117                       
    #> # … with 7,226 more rows
…
``` r
txl %>% 
  filter(client_city_swap %out% valid_city) %>% 
  count(client_city_swap, sort = TRUE)
#> # A tibble: 58 x 2
#>    client_city_swap              n
#>    <chr>                     <int>
#>  1 <NA>                        837
#>  2 THE WOODLANDS               115
#>  3 JUNO BEACH                   73
#>  4 LAKEWAY                      30
#>  5 GREENWOOD VILLAGE            20
#>  6 FARMERS BRANCH               18
#>  7 HOOVER                       18
#>  8 DALLAS FORT WORTH AIRPORT    17
#>  9 WEST LAKE HILLS              17
#> 10 CORAL GABLES                 15
#> # … with 48 more rows
```
