…
### Duplicates

We can also flag any record completely duplicated across every column.

``` r
mol <- flag_dupes(mol, -lic_number)
sum(mol$dupe_flag)
#> [1] 1000933
```

``` r
mol %>% 
  filter(dupe_flag) %>% 
  count(prc_last_name, prc_entity_name, lic_orig_issue_date, sort = TRUE)
#> # A tibble: 52,606 × 4
#>    prc_last_name     prc_entity_name lic_orig_issue_date     n
#>    <chr>             <chr>           <date>              <int>
#>  1 Vazquez Guillamet <NA>            2019-04-21             90
#>  2 Ali               <NA>            2003-07-01             72
#>  3 Craig             <NA>            2000-06-30             72
#>  4 Kapoor            <NA>            1997-08-22             72
#>  5 O'Connor          <NA>            1967-06-24             72
#>  6 Sharma            <NA>            2002-12-18             72
#>  7 Walden            <NA>            1995-06-15             72
#>  8 Benzinger         <NA>            2001-08-10             63
#>  9 Brown             <NA>            1991-07-02             63
#> 10 Ceaser            <NA>            1981-03-06             63
#> # … with 52,596 more rows
```
…
``` r
addr_norm
#> # A tibble: 289,293 × 3
#>    ba_address                     ba_2address       address_norm                                    
#>    <chr>                          <chr>             <chr>                                           
#>  1 102 N Merritt St               <NA>              102 N MERRITT ST                                
#>  2 Positive Intervention Plus LLC 10408 N Lister Ct POSITIVE INTERVENTION PLUS LLC 10408 N LISTER CT
#>  3 1618 South Joplin Ave          <NA>              1618 SOUTH JOPLIN AVE                           
#>  4 Connecting Abilities, LLC      724 Lemay Ferry   CONNECTING ABILITIES LLC 724 LEMAY FRY          
#>  5 502 Glenn Drive                <NA>              502 GLENN DR                                    
#>  6 27998 McGee Rd                 <NA>              27998 MCGEE RD                                  
#>  7 Positive Intervention Plus     10408 N Lister Ct POSITIVE INTERVENTION PLUS 10408 N LISTER CT    
#>  8 Sadowsky Autism Services       214 Ferrel St     SADOWSKY AUTISM SERVICES 214 FERREL ST          
#>  9 214 Ferrel St                  <NA>              214 FERREL ST                                   
#> 10 13900 E Noah Rd                <NA>              13900 E NOAH RD                                 
#> # … with 289,283 more rows
```
…
``` r
mol %>% 
  filter(ba_state %out% valid_state) %>% 
  count(ba_cntry, sort = TRUE)
#> # A tibble: 50 × 2
#>    ba_cntry      n
#>    <chr>     <int>
#>  1 <NA>     262304
#>  2 CAN         416
#>  3 USA         232
#>  4 SAU         135
#>  5 PAK          99
#>  6 ARE          63
#>  7 CA           52
#>  8 DEU          44
#>  9 AUS          39
#> 10 GRC          36
#> # … with 40 more rows
```
…
