…
We can flag any record missing a key variable needed to identify a
transaction.

``` r
key_vars <- c("date", "contributor", "amount", "recipient")
mnc <- flag_na(mnc, all_of(key_vars))
sum(mnc$na_flag)
#> [1] 142
```

``` r
mnc %>% 
  filter(na_flag) %>% 
  select(all_of(key_vars))
#> # A tibble: 142 x 4
#>    date       contributor   amount recipient                              
#>    <date>     <chr>          <dbl> <chr>                                  
#>  1 2018-07-26 <NA>            0    Lessard, Robert Atty Gen Committee     
#>  2 2019-01-06 <NA>           56.8  IBEW Local 292 Political Education Fund
#>  3 2019-01-16 <NA>            6.15 IBEW Local 292 Political Education Fund
#>  4 2019-01-24 <NA>          101.   IBEW Local 292 Political Education Fund
#>  5 2019-03-18 <NA>          350.   IBEW Local 292 Political Education Fund
#>  6 2019-03-31 <NA>          196.   IBEW Local 292 Political Education Fund
#>  7 2019-06-10 <NA>           56.6  IBEW Local 292 Political Education Fund
#>  8 2019-08-01 <NA>        10001.   IBEW Local 292 Political Education Fund
#>  9 2019-09-30 <NA>          293.   IBEW Local 292 Political Education Fund
#> 10 2020-02-24 <NA>          296.   IBEW Local 292 Political Education Fund
#> # … with 132 more rows
```
…
We can also flag any record completely duplicated across every column.

``` r
mnc <- flag_dupes(mnc, everything())
percent(mean(mnc$dupe_flag), 0.1)
#> [1] "1.4%"
```

``` r
mnc %>% 
  filter(dupe_flag) %>% 
  select(all_of(key_vars)) %>% 
  arrange(date)
#> # A tibble: 3,065 x 4
#>    date       contributor      amount recipient                              
#>    <date>     <chr>             <dbl> <chr>                                  
#>  1 2015-01-05 Rice, Brian F       100 Hayden, Jeffrey (Jeff) Senate Committee
#>  2 2015-01-05 Rice, Brian F       100 Hayden, Jeffrey (Jeff) Senate Committee
#>  3 2015-01-20 Katyal, Maire       100 Otto, Rebecca State Aud Committee      
#>  4 2015-01-20 Katyal, Maire       100 Otto, Rebecca State Aud Committee      
#>  5 2015-01-24 Pederson, John C     40 14th Senate District RPM               
#>  6 2015-01-24 Pederson, John C     40 14th Senate District RPM               
#>  7 2015-01-24 Frey, Kristi         50 Gruenhagen, Glenn H House Committee    
#>  8 2015-01-24 Frey, Robert         50 Gruenhagen, Glenn H House Committee    
#>  9 2015-01-24 Frey, Robert         50 Gruenhagen, Glenn H House Committee    
#> 10 2015-01-24 Frey, Kristi         50 Gruenhagen, Glenn H House Committee    
#> # … with 3,055 more rows
```
…
