…
### Phone

We can convert all telephone numbers to a single format with
`campfin::normal_phone()`.

``` r
kylr <- mutate_at(
  .tbl  = kylr,
  .vars = vars(ends_with("phone")),
  .funs = list(norm = normal_phone)
)
```

    #> # A tibble: 420 x 2
    #>    lob_phone    lob_phone_norm
    #>    <chr>        <chr>         
    #>  1 502-848-8734 (502) 848-8734
    #>  2 859-381-1414 (859) 381-1414
    #>  3 901-818-7558 (901) 818-7558
    #>  4 859-957-0186 (859) 957-0186
    #>  5 859-233-9849 (859) 233-9849
    #>  6 859-420-3372 (859) 420-3372
    #>  7 717-514-9480 (717) 514-9480
    #>  8 859-699-1191 (859) 699-1191
    #>  9 859-940-2441 (859) 940-2441
    #> 10 859-357-8600 (859) 357-8600
    #> # … with 410 more rows
### Address

For street addresses, we can use `campfin::normal_address()` to force
string consistency and expand abbreviations.

``` r
kylr <- mutate_at(
  .tbl  = kylr,
  .vars = vars(ends_with("addr")),
  .funs = list(norm = normal_address),
  abbs  = usps_street
)
```

    #> # A tibble: 468 x 2
    #>    lob_addr                          lob_addr_norm             
    #>    <chr>                             <chr>                     
    #>  1 191 LOUISIANA AVE.                191 LOUISIANA AVE         
    #>  2 446 E HIGH ST. SUITE 10           446 E HIGH ST STE 10      
    #>  3 330 E. MAIN STREET P. O. BOX 1968 330 E MAIN ST P O BOX 1968
    #>  4 8471 STATE RTE. 351               8471 STATE RTE 351        
    #>  5 205 B CAPITAL AVE.                205 B CAPITAL AVE         
    #>  6 2001 MERCER RD.                   2001 MERCER RD            
    #>  7 110A EAST TODD STREET             110A E TODD ST            
    #>  8 3556 TAYLOR BLVD.                 3556 TAYLOR BLVD          
    #>  9 P. O. BOX 5522                    PO BOX 5522               
    #> 10 222 S. 1ST ST. SUITE 305          222 S 1ST ST STE 305      
    #> # … with 458 more rows
…
## State

The state variables are already entirely normalized to their 2-digit
USPS abbreviations.

``` r
count(kylr, lob_state, sort = TRUE)
#> # A tibble: 22 x 2
#>    lob_state     n
#>    <chr>     <int>
#>  1 KY         2263
#>  2 OH           15
#>  3 DC           10
#>  4 CA            9
#>  5 TN            7
#>  6 VA            7
#>  7 IL            6
#>  8 IN            5
#>  9 MI            4
#> 10 NY            3
#> # … with 12 more rows
…
