…
    #> # A tibble: 3 x 4
    #>   `va$match_dist == 0`      n percent valid_percent
    #>   <lgl>                 <dbl>   <dbl>         <dbl>
    #> 1 FALSE                 34152  0.0484        0.0493
    #> 2 TRUE                 658006  0.933         0.951 
    #> 3 NA                    12984  0.0184       NA

``` r
va %>% 
  filter(city_swap %out% valid_city) %>%
  count(city_swap, sort = TRUE)
```

    #> # A tibble: 481 x 2
    #>    city_swap              n
    #>    <chr>              <int>
    #>  1 <NA>               12984
    #>  2 WEST SOMERVILLE     2449
    #>  3 NORTH CHESTERFIELD  1968
    #>  4 SOUTH RIDING        1011
    #>  5 DALE CITY            806
    #>  6 MANASSAS PARK        368
    #>  7 GLENN ALLAN          249
    #>  8 POTOMAC FALLS        238
    #>  9 LAKE RIDGE           211
    #> 10 SAN FRANSICO         206
    #> # … with 471 more rows
…
