…
It also increased the proportion of `NA` values by 0%. These new `NA`
values were either a single (possibly repeating) character, or contained
in the `na_city` vector.

    #> # A tibble: 144 × 4
    #>    zip_norm state_norm city      city_norm
    #>    <chr>    <chr>      <chr>     <chr>    
    #>  1 65049    MO         UNKNOWN   <NA>     
    #>  2 64081    MO         Unknown   <NA>     
    #>  3 64801    MO         requested <NA>     
    #>  4 64423    MO         Requested <NA>     
    #>  5 64030    MO         Unknown   <NA>     
    #>  6 63040    MO         None      <NA>     
    #>  7 65804    MO         mmm       <NA>     
    #>  8 63104    MO         requested <NA>     
    #>  9 64151    MO         Somewhere <NA>     
    #> 10 63933    MO         online    <NA>     
    #> # … with 134 more rows
…
nrow(good_refine)
#> [1] 57
```

    #> # A tibble: 47 × 5
    #>    state_norm zip_norm city_raw              city_refine         n
    #>    <chr>      <chr>    <chr>                 <chr>           <int>
    #>  1 KS         66101    Kanssas Cityas City   KANSAS CITY         5
    #>  2 MO         64108    Kanssas Cityas City   KANSAS CITY         4
    #>  3 CA         92067    Ranchero Sante Fe     RANCHO SANTA FE     3
    #>  4 MO         64055    Indepence             INDEPENDENCE        2
    #>  5 CA         94133    San Francisco CA      SAN FRANCISCO       1
    #>  6 CA         95131    Jose San              SAN JOSE            1
    #>  7 IA         52802    Daavenportvenport     DAVENPORT           1
    #>  8 IL         60094    Palenentine           PALATINE            1
    #>  9 KS         66101    Kanansas Citysas City KANSAS CITY         1
    #> 10 KS         66101    Kansas City KS        KANSAS CITY         1
    #> # … with 37 more rows
…
#### Progress

We can make very few manual changes to capture the last few big invalid
values. Local city abbreviations (e.g., SPFD) often need to be changed
by hand.

``` r
mo %>%
  filter(city_refine %out% valid_city) %>% 
  count(state_norm, city_refine, sort = TRUE) %>% 
  drop_na(city_refine)
#> # A tibble: 823 × 3
#>    state_norm city_refine           n
#>    <chr>      <chr>             <int>
#>  1 MO         ST LOUIS          49192
#>  2 MO         ST CHARLES         3649
#>  3 MO         ST JOSEPH          2163
#>  4 MO         ST PETERS          1735
#>  5 KS         OVERLAND PARK      1199
#>  6 MO         NORTH KANSAS CITY   837
#>  7 MO         RAYTOWN             794
#>  8 MO         WEBSTER GROVES      689
#>  9 MO         OVERLAND            519
#> 10 MO         UNIVERSITY CITY     464
#> # … with 813 more rows
```
…
