…
``` r
nh %>% 
  select(payee_address_sep, payee_address_norm)
```

    #> # A tibble: 47,156 × 2
    #>    payee_address_sep                 payee_address_norm               
    #>    <chr>                             <chr>                            
    #>  1 PO BOX 1125                       PO BOX 1125                      
    #>  2 59 PLEASANT ST,                   59 PLEASANT ST                   
    #>  3 59 PLEASANT ST,                   59 PLEASANT ST                   
    #>  4 1719 RTE 114                      1719 RTE 114                     
    #>  5 332 BURPEE HILL ROAD              332 BURPEE HILL RD               
    #>  6 379 BROOKSIDE DRIVE               379 BROOKSIDE DR                 
    #>  7 366 SUMMER ST SOMERVILLE MA 02144 366 SUMMER ST SOMERVILLE MA 02144
    #>  8 107 NORTH MAIN STREET ROOM 204    107 NORTH MAIN STREET ROOM 204   
    #>  9 29 ANCELL STREET                  29 ANCELL ST                     
    #> 10 1225 I ST NW STE 1250             1225 I ST NW STE 1250            
    #> # … with 47,146 more rows
…
