…
## Explore

There are 768420 records of 34 variables in the full database.


```r
sample_frac(wa)
```

```
#> # A tibble: 768,420 x 34
#>    id    report_number origin filer_id type  filer_name first_name middle_initial last_name office
#>    <chr> <chr>         <chr>  <chr>    <chr> <chr>      <chr>      <chr>          <chr>     <chr> 
#>  1 9686… 100632154     A/GT50 INSLJ  … Cand… INSLEE JA… JAY        R              INSLEE    GOVER…
#>  2 9308… 100607890     A/LE50 ORMST  … Cand… ORMSBY TI… TIMM       S              ORMSBY    STATE…
#>  3 1339… 100910786     A/GT50 CLALDC … Poli… CLALLAM C… <NA>       <NA>           CLALLAM … <NA>  
#>  4 4361… 100274273     A/GT50 ROSSD  … Cand… ROSSI DIN… DINO       J              ROSSI     GOVER…
#>  5 4598… 100282058     A/GT50 NASSC  … Cand… ROLFES CH… CHRISTINE  N              ROLFES    STATE…
#>  6 1152… 100777925     A/GT50 LEVEH  … Cand… LEVER HAR… HARLEY     <NA>           LEVER     MAYOR 
#>  7 9558… 100620152     A/GT50 SERVA  … Cand… SERVICE A… ANSON      L              SERVICE   STATE…
#>  8 6635… 100421521     A/GT50 CLALRP … Poli… CLALLAM C… <NA>       <NA>           CLALLAM … <NA>  
#>  9 3672… 100481201     B.1    PIDGS  … Cand… PIDGEON S… STEPHEN    W              PIDGEON   ATTOR…
#> 10 7796… 100498744     A/GT50 BIG IP … Poli… BIG I PAC  <NA>       <NA>           BIG I PAC <NA>  
#> # … with 768,410 more rows, and 24 more variables: position <chr>, party <chr>,
#> #   jurisdiction <chr>, jurisdiction_county <chr>, jurisdiction_type <chr>, election_year <dbl>,
#> #   amount <dbl>, expenditure_date <date>, description <chr>, recipient_name <chr>,
#> #   recipient_address <chr>, recipient_city <chr>, recipient_state <chr>, recipient_zip <chr>,
#> #   url_description <chr>, url <chr>, recipient_location.type <chr>, recipient_longitude <dbl>,
#> #   recipient_latitude <dbl>, legislative_district <chr>, code <chr>, ballot_number <chr>,
#> #   expenditure_itemized <lgl>, filer_supports <lgl>
```
…
```
#> # A tibble: 2 x 3
#>   type                     n percent
#>   <chr>                <dbl>   <dbl>
#> 1 Candidate           424713   0.553
#> 2 Political Committee 343707   0.447
```

```
#> # A tibble: 44 x 4
#>    office                     n percent valid_percent
#>    <chr>                  <dbl>   <dbl>         <dbl>
#>  1 <NA>                  343710  0.447        NA     
#>  2 STATE REPRESENTATIVE  118408  0.154         0.279 
#>  3 CITY COUNCIL MEMBER    67525  0.0879        0.159 
#>  4 STATE SENATOR          50190  0.0653        0.118 
#>  5 COUNTY COMMISSIONER    24058  0.0313        0.0566
#>  6 GOVERNOR               20805  0.0271        0.0490
#>  7 MAYOR                  19765  0.0257        0.0465
#>  8 COUNTY COUNCIL MEMBER  19412  0.0253        0.0457
#>  9 SUPERIOR COURT JUDGE   13514  0.0176        0.0318
#> 10 PORT COMMISSIONER       9315  0.0121        0.0219
#> # … with 34 more rows
```

```
#> # A tibble: 67 x 4
#>    position      n percent valid_percent
#>    <chr>     <dbl>   <dbl>         <dbl>
#>  1 <NA>     494698 0.644         NA     
#>  2 01        91647 0.119          0.335 
#>  3 02        87353 0.114          0.319 
#>  4 03        25182 0.0328         0.0920
#>  5 05        13204 0.0172         0.0482
#>  6 04        13099 0.0170         0.0479
#>  7 06        12559 0.0163         0.0459
#>  8 07         9291 0.0121         0.0339
#>  9 08         5527 0.00719        0.0202
#> 10 09         3953 0.00514        0.0144
#> # … with 57 more rows
```
…
```
#> # A tibble: 2 x 3
#>   expenditure_itemized      n percent
#>   <lgl>                 <dbl>   <dbl>
#> 1 TRUE                 661362   0.861
#> 2 FALSE                107058   0.139
```

```
#> # A tibble: 51 x 4
#>    legislative_district      n percent valid_percent
#>    <chr>                 <dbl>   <dbl>         <dbl>
#>  1 <NA>                 599745 0.780         NA     
#>  2 26                     7446 0.00969        0.0441
#>  3 45                     6496 0.00845        0.0385
#>  4 28                     5810 0.00756        0.0344
#>  5 30                     5797 0.00754        0.0344
#>  6 17                     5726 0.00745        0.0339
#>  7 47                     5229 0.00680        0.0310
#>  8 06                     5111 0.00665        0.0303
#>  9 44                     4834 0.00629        0.0287
#> 10 10                     4584 0.00597        0.0272
#> # … with 41 more rows
```
…
```
#> # A tibble: 365 x 7
#>    na_flag id        report_number filer_name           recipient_name      amount expenditure_date
#>    <lgl>   <chr>     <chr>         <chr>                <chr>                <dbl> <date>          
#>  1 TRUE    426518.e… 1001268229    LJUNGHAMMAR KEITH N  SWEENEY JOHN          37   NA              
#>  2 TRUE    955786.e… 1001290548    MCPHEETERS LESTER A… Expenses of $50 or…  309.  NA              
#>  3 TRUE    495586.e… 100301580     WA ASSN MORTGAGE BR… Expenses of $50 or…    0   NA              
#>  4 TRUE    525067.e… 1001272964    FLEET HUGO A         Expenses of $50 or…    0   NA              
#>  5 TRUE    428986.e… 100268733     RICHTER DENNIS L     Expenses of $50 or…    0   NA              
#>  6 TRUE    872378.e… 1001288728    MORTON ROBERT H      Expenses of $50 or…    0   NA              
#>  7 TRUE    763220.e… 1001284295    HERDE ERIC P         Expenses of $50 or…   12.9 NA              
#>  8 TRUE    558773.e… 1001275639    YANEZ RODRIGO M      Expenses of $50 or…    0   NA              
#>  9 TRUE    494909.e… 100272741     WA INDEPENDENT BANK… Expenses of $50 or…    0   NA              
#> 10 TRUE    893736.e… 1001289852    EDWARDS FRANKLIN E … Expenses of $50 or…   71.8 NA              
#> # … with 355 more rows
```
…
