…
### Duplicates

We can also flag any record completely duplicated across every column.

``` r
gae <- flag_dupes(gae, everything())
sum(gae$dupe_flag)
#> [1] 9031
```

``` r
gae %>% 
  filter(dupe_flag) %>% 
  count(date, last_name, paid, committee_name, sort = TRUE)
#> # A tibble: 4,199 × 5
#>    date       last_name          paid committee_name                     n
#>    <date>     <chr>             <dbl> <chr>                          <int>
#>  1 2020-12-18 Chick Fil A           0 Georgia Republican Party, Inc.    22
#>  2 2020-10-30 Chick Fil A           0 Georgia Republican Party, Inc.    14
#>  3 2020-12-18 Zaxby''s              0 Georgia Republican Party, Inc.    12
#>  4 2020-12-21 Zaxby''s              0 Georgia Republican Party, Inc.    12
#>  5 2020-10-30 Kroger                0 Georgia Republican Party, Inc.    10
#>  6 2020-12-18 Delta Airlines        0 Georgia Republican Party, Inc.    10
#>  7 2020-12-18 Quick Trip            0 Georgia Republican Party, Inc.    10
#>  8 2020-12-18 Uber                  0 Georgia Republican Party, Inc.    10
#>  9 2020-12-31 Synovus Bank         18 Georgia Republican Party, Inc.    10
#> 10 2010-07-07 PBI Postage Meter   300 Porter for Georgia                 8
#> # … with 4,189 more rows
```
…
``` r
addr_norm <- gae %>% 
  distinct(address) %>% 
  mutate(
    address_norm = normal_address(
      address = address,
      abbs = usps_street,
      na_rep = TRUE
    )
  )
```

``` r
addr_norm
#> # A tibble: 145,629 × 2
#>    address                 address_norm          
#>    <chr>                   <chr>                 
#>  1 PO Box 12369            PO BOX 12369          
#>  2 3295 EBENEZER RD        3295 EBENEZER RD      
#>  3 7050 Hwy 85             7050 HWY 85           
#>  4 P O Box 1949            PO BOX 1949           
#>  5 P O Box 962571          PO BOX 962571         
#>  6 6091 Katherine Rd.      6091 KATHERINE RD     
#>  7 P O Box 99990           PO BOX 99990          
#>  8 P O Box 1936            PO BOX 1936           
#>  9 P O Box 4232            PO BOX 4232           
#> 10 1100 Spring St. STE 710 1100 SPRING ST STE 710
#> # … with 145,619 more rows
```
…
      key_collision_merge() %>% 
      n_gram_merge(numgram = 1)
  ) %>% 
  filter(city_refine != city_swap) %>% 
  inner_join(
    y = zipcodes,
    by = c(
      "city_refine" = "city",
      "state_norm" = "state",
      "zip_norm" = "zip"
    )
  )
```

    #> # A tibble: 123 × 5
    #>    state_norm zip_norm city_swap         city_refine             n
    #>    <chr>      <chr>    <chr>             <chr>               <int>
    #>  1 OH         45249    CINCINATTI        CINCINNATI             29
    #>  2 CA         94105    SAN FRANCISCO CA  SAN FRANCISCO          25
    #>  3 GA         31522    ST SIMMONS ISLAND SAINT SIMONS ISLAND    16
    #>  4 GA         30033    DECAUTER          DECATUR                12
    #>  5 CA         94117    SAN FRANSICO      SAN FRANCISCO           8
    #>  6 GA         30125    CEDARTOWNTOWN     CEDARTOWN               8
    #>  7 IL         60067    PALENTINE         PALATINE                8
    #>  8 GA         30125    CEADERTOWN        CEDARTOWN               7
    #>  9 GA         30533    DAHLONEGA GA      DAHLONEGA               6
    #> 10 GA         30251    ST LUTHERSVILLE   LUTHERSVILLE            5
    #> # … with 113 more rows
…
