…
``` r
sce <- flag_dupes(sce, -exp_id)
sum(sce$dupe_flag)
#> [1] 8806
mean(sce$dupe_flag)
#> [1] 0.0227169
```

``` r
sce %>% 
  filter(dupe_flag) %>% 
  select(all_of(key_vars)) %>% 
  arrange(exp_date)
#> # A tibble: 8,806 × 4
#>    exp_date   vendor_name          amount candidate_name       
#>    <date>     <chr>                 <dbl> <chr>                
#>  1 2007-07-12 Liollio & Associates  50    Alexander, Aubry G II
#>  2 2007-07-12 Liollio & Associates  50    Alexander, Aubry G II
#>  3 2007-07-19 Eckerd Drugs           3.61 Long, Ernest B       
#>  4 2007-07-19 Eckerd Drugs           3.61 Long, Ernest B       
#>  5 2007-08-09 Wal-Mart               0.96 Portee, Alvin   Jr.  
#>  6 2007-08-09 Wal-Mart               0.96 Portee, Alvin   Jr.  
#>  7 2007-08-17 Alltel                60.7  Allison, Merita A    
#>  8 2007-08-17 Alltel                60.7  Allison, Merita A    
#>  9 2007-09-03 Wal-Mart               3.48 Portee, Alvin   Jr.  
#> 10 2007-09-03 Wal-Mart               3.48 Portee, Alvin   Jr.  
#> # … with 8,796 more rows
```
…
``` r
sce %>%
  filter(zip_sep != zip_norm | !is.na(zip_sep) & is.na(zip_norm)) %>%
  count(zip_sep, zip_norm, sort = TRUE)
#> # A tibble: 1,359 × 3
#>    zip_sep    zip_norm     n
#>    <chr>      <chr>    <int>
#>  1 00000      <NA>       934
#>  2 02144-3132 02144      423
#>  3 27611-7131 27611      225
#>  4 75266-0108 75266      201
#>  5 02144-0031 02144      175
#>  6 30353-8641 30353      166
#>  7 28296-0019 28296      109
#>  8 33340-7066 33340      100
#>  9 29202-0029 29202       94
#> 10 99999      <NA>        93
#> # … with 1,349 more rows
```
…
