…
### Duplicates

``` r
ctc <- flag_dupes(ctc, everything())
percent(mean(ctc$dupe_flag), 0.1)
#> [1] "1.0%"
```

``` r
ctc %>% 
  filter(dupe_flag) %>% 
  select(date, contributor, amount, committee)
#> # A tibble: 4,889 x 4
#>    date       contributor     amount committee                       
#>    <date>     <chr>            <dbl> <chr>                           
#>  1 2008-12-05 Holly S Martin     3   AT & T Connecticut Employees PAC
#>  2 2008-12-05 Holly S Martin     3   AT & T Connecticut Employees PAC
#>  3 2008-11-05 Ralph E Nied       2.5 AT & T Connecticut Employees PAC
#>  4 2008-11-05 Ralph E Nied       2.5 AT & T Connecticut Employees PAC
#>  5 2008-05-20 MICHELE MACAUDA   21   AT & T Connecticut Employees PAC
#>  6 2008-05-20 MICHELE MACAUDA   21   AT & T Connecticut Employees PAC
#>  7 2008-05-05 MARK J SCHAIRER   10   AT & T Connecticut Employees PAC
#>  8 2008-05-05 MARK J SCHAIRER   10   AT & T Connecticut Employees PAC
#>  9 NA         <NA>            7613   AT & T Connecticut Employees PAC
#> 10 NA         <NA>            7613   AT & T Connecticut Employees PAC
#> # … with 4,879 more rows
```
…
``` r
ctc %>% 
  filter(state != state_norm) %>% 
  count(state, state_norm, sort = TRUE)
#> # A tibble: 25 x 3
#>    state state_norm     n
#>    <chr> <chr>      <int>
#>  1 Ct    CT          4584
#>  2 ct    CT           747
#>  3 CT.   CT            72
#>  4 cT    CT            36
#>  5 ny    NY            18
#>  6 Va    VA            18
#>  7 nc    NC            16
#>  8 Fl    FL             5
#>  9 nj    NJ             5
#> 10 CT5   CT             4
#> # … with 15 more rows
```
…
