…
We can also flag any record completely duplicated across every column.

``` r
msc <- flag_dupes(msc, everything())
sum(msc$dupe_flag)
#> [1] 999
```

``` r
msc %>% 
  filter(dupe_flag) %>% 
  select(all_of(key_vars)) %>% 
  arrange(date)
#> # A tibble: 999 × 4
#>    date                contributor                amount recipient             
#>    <dttm>              <chr>                       <dbl> <chr>                 
#>  1 2009-06-22 00:00:00 Gouras & Associates           250 Friends of Phil Bryant
#>  2 2009-06-22 00:00:00 Gouras & Associates           250 Friends of Phil Bryant
#>  3 2009-07-16 00:00:00 MS Assoc of Realtors         1000 Friends of Phil Bryant
#>  4 2009-07-16 00:00:00 MS Assoc of Realtors         1000 Friends of Phil Bryant
#>  5 2009-07-17 00:00:00 Desoto Co Republican Party    525 Friends of Phil Bryant
#>  6 2009-07-17 00:00:00 Desoto Co Republican Party    525 Friends of Phil Bryant
#>  7 2009-07-17 00:00:00 Dr. Jason K. Coleman         1000 Friends of Phil Bryant
#>  8 2009-07-17 00:00:00 Dr. Jason K. Coleman         1000 Friends of Phil Bryant
#>  9 2009-07-31 00:00:00 Denbury Resources PAC        2000 Friends of Phil Bryant
#> 10 2009-07-31 00:00:00 Denbury Resources PAC        2000 Friends of Phil Bryant
#> # … with 989 more rows
```
…
