…
### Duplicates

``` r
vtc <- flag_dupes(vtc, everything())
sum(vtc$dupe_flag)
#> [1] 747
```

``` r
vtc %>% 
  filter(dupe_flag) %>% 
  select(date, con_name, amount, rec_name)
#> # A tibble: 747 x 4
#>    date       con_name        amount rec_name         
#>    <date>     <chr>            <dbl> <chr>            
#>  1 2020-03-12 Feidner, Mary       25 Holcombe, Rebecca
#>  2 2020-03-12 Feidner, Mary       25 Holcombe, Rebecca
#>  3 2020-03-09 Muyskens, Sarah    100 Gray, Molly      
#>  4 2020-03-09 Muyskens, Sarah    100 Gray, Molly      
#>  5 2020-03-04 Winburn, Kim       100 Winburn, Patrick 
#>  6 2020-03-04 Winburn, Kim       100 Winburn, Patrick 
#>  7 2020-03-04 Kahn, Janet         10 Holcombe, Rebecca
#>  8 2020-03-04 Kahn, Janet         10 Holcombe, Rebecca
#>  9 2020-03-02 GAVIAN, SARAH      300 Zuckerman, David 
#> 10 2020-03-02 GAVIAN, SARAH      300 Zuckerman, David 
#> # … with 737 more rows
```
…
For the few separated values missing, we can look to the original
values.

``` r
vtc %>% 
  select(ends_with("raw"), ends_with("sep")) %>% 
  filter(is.na(city_sep) | is.na(state_sep))
#> # A tibble: 3,555 x 7
#>    address_raw city_raw         state_raw addr_sep city_sep state_sep zip_sep
#>    <chr>       <chr>            <chr>     <chr>    <chr>    <chr>     <chr>  
#>  1 <NA>        <NA>             VT        <NA>     <NA>     <NA>      <NA>   
#>  2 <NA>        <NA>             <NA>      <NA>     <NA>     <NA>      <NA>   
#>  3 <NA>        <NA>             <NA>      <NA>     <NA>     <NA>      <NA>   
#>  4 <NA>        Burlington       VT        <NA>     <NA>     <NA>      <NA>   
#>  5 <NA>        <NA>             VT        <NA>     <NA>     <NA>      <NA>   
#>  6 <NA>        Barre            VT        <NA>     <NA>     <NA>      <NA>   
#>  7 <NA>        <NA>             VT        <NA>     <NA>     <NA>      <NA>   
#>  8 <NA>        South Burlington VT        <NA>     <NA>     <NA>      <NA>   
#>  9 <NA>        Burlington       VT        <NA>     <NA>     <NA>      <NA>   
#> 10 <NA>        Rutland          VT        <NA>     <NA>     <NA>      <NA>   
#> # … with 3,545 more rows
```
…
