…
``` r
vtc <- flag_dupes(vtc, everything())
sum(vtc$dupe_flag)
#> [1] 1493
```

These may be legitimate contracts/payments made on the same day for the
same amount, but they are flagged nonetheless.

``` r
vtc %>% 
  filter(dupe_flag) %>% 
  select(all_of(key_vars)) %>% 
  arrange(quarter_ending, vendor)
#> # A tibble: 1,493 × 4
#>    quarter_ending department                 amount vendor                      
#>    <date>         <chr>                       <dbl> <chr>                       
#>  1 2012-03-31     Education                   800   Winooski ID School District 
#>  2 2012-03-31     Education                   800   Winooski ID School District 
#>  3 2012-06-30     Vermont Veterans' Home       15.9 Patterson Medical Supply Inc
#>  4 2012-06-30     Vermont Veterans' Home       15.9 Patterson Medical Supply Inc
#>  5 2012-06-30     Judiciary                    24.4 Rounds,Tom                  
#>  6 2012-06-30     Judiciary                    24.4 Rounds,Tom                  
#>  7 2012-09-30     Judiciary                   236.  Addison Press Inc           
#>  8 2012-09-30     Judiciary                   236.  Addison Press Inc           
#>  9 2012-09-30     Environmental Conservation 1000   Blouin Brothers Oil         
#> 10 2012-09-30     Environmental Conservation 1000   Blouin Brothers Oil         
#> # … with 1,483 more rows
```
…
