…
### State

As we would expect, all the Missouri voters live in Missouri.

``` r
count(mov, state, sort = TRUE)
#> # A tibble: 35 x 2
#>    state             n
#>    <chr>         <int>
#>  1 MO          4608112
#>  2 <NA>           1001
#>  3 DONIPHAN        304
#>  4 NAYLOR          141
#>  5 FAIRDEALING      41
#>  6 KAHOKA           34
#>  7 GATEWOOD         18
#>  8 ALEXANDRIA       14
#>  9 OXLY             14
#> 10 REVERE           13
#> # … with 25 more rows
```
…
