…
### Duplicates

``` r
inc <- flag_dupes(inc, everything())
mean(inc$dupe_flag)
#> [1] 0.03911312
```

``` r
inc %>% 
  filter(dupe_flag) %>% 
  select(all_of(key_vars)) %>% 
  arrange(date, name)
#> # A tibble: 7,956 × 4
#>    committee                                         name            amount date               
#>    <chr>                                             <chr>            <dbl> <dttm>             
#>  1 Indiana American Water Political Action Committee Douglas A Brock    100 2020-03-31 00:00:00
#>  2 Indiana American Water Political Action Committee Douglas A Brock    100 2020-03-31 00:00:00
#>  3 Citizens For Mike Andrade                         <NA>                50 2020-04-08 00:00:00
#>  4 Citizens For Mike Andrade                         <NA>                50 2020-04-08 00:00:00
#>  5 Citizens For Mike Andrade                         <NA>               -50 2020-04-08 00:00:00
#>  6 Citizens For Mike Andrade                         <NA>               -50 2020-04-08 00:00:00
#>  7 Citizens For Mike Andrade                         <NA>                20 2020-05-02 00:00:00
#>  8 Citizens For Mike Andrade                         <NA>                20 2020-05-02 00:00:00
#>  9 Citizens For Mike Andrade                         <NA>               -20 2020-05-02 00:00:00
#> 10 Citizens For Mike Andrade                         <NA>               -20 2020-05-02 00:00:00
#> # … with 7,946 more rows
```
…
``` r
inc %>% 
  filter(state != state_norm) %>% 
  count(state, state_norm, sort = TRUE)
#> # A tibble: 43 × 3
#>    state state_norm     n
#>    <chr> <chr>      <int>
#>  1 In    IN           339
#>  2 Un    UN           177
#>  3 in    IN            93
#>  4 Oh    OH            24
#>  5 Il    IL            13
#>  6 ky    KY            10
#>  7 Ma    MA            10
#>  8 oh    OH             9
#>  9 Fl    FL             7
#> 10 Mi    MI             7
#> # … with 33 more rows
```
…
inc %>% 
  filter(match_dist == 1) %>% 
  count(state, state_norm, sort = TRUE)
#> # A tibble: 56 × 3
#>    state state_norm     n
#>    <chr> <chr>      <int>
#>  1 In    IN           334
#>  2 IN    IL            83
#>  3 IL    IN            61
#>  4 Oh    OH            24
#>  5 N     IN            18
#>  6 D.    DC            13
#>  7 Il    IL            12
#>  8 Ma    MA             9
#>  9 Fl    FL             5
#> 10 ID    IN             5
#> # … with 46 more rows
```
…
``` r
many_city <- c(valid_city, extra_city)
inc %>% 
  count(city_swap, state_norm, sort = TRUE) %>% 
  filter(!is.na(city_swap), city_swap %out% many_city)
#> # A tibble: 95 × 3
#>    city_swap              state_norm     n
#>    <chr>                  <chr>      <int>
#>  1 MICHIANA SHORES        IN            29
#>  2 FARMINGTON HILLS       MI            12
#>  3 MICHIGAN CITTY         IN            12
#>  4 INDY                   IN            11
#>  5 CARNOTMOON             PA             9
#>  6 RESEARCH TRIANGLE PARK NC             9
#>  7 INDPLD                 IN             8
#>  8 FISHERS IN             IN             7
#>  9 BLOOMINGTON IN US      IN             5
#> 10 CARMELCARMEL           IN             5
#> # … with 85 more rows
```
…
