…
There are no entirely duplicate rows, but there are a few duplicate IDs.
These are multiple payments to the same provider/supplier. Without a
date value, it’s not clear what’s the cause.

``` r
aapp <- aapp %>% 
  group_by(npi) %>% 
  mutate(dupe_flag = n() > 1) %>% 
  ungroup()
```

``` r
filter(aapp, dupe_flag)
#> # A tibble: 193 x 4
#>    npi        name                                                     amount dupe_flag
#>    <chr>      <chr>                                                     <dbl> <lgl>    
#>  1 1548409626 ACTIVCARE PHYSICAL THERAPY, LLC                          905296 TRUE     
#>  2 1548409626 ACTIVCARE PHYSICAL THERAPY, LLC                            6533 TRUE     
#>  3 1235434283 ADVANCE REHABILITATION & CONSULTING LIMITED PARTNERSHIP 1152177 TRUE     
#>  4 1235434283 ADVANCE REHABILITATION & CONSULTING LIMITED PARTNERSHIP    6140 TRUE     
#>  5 1518020361 ADVANCED FOOT CARE LLP                                   127079 TRUE     
#>  6 1518020361 ADVANCED FOOT CARE LLP                                     1516 TRUE     
#>  7 1962501551 ADVANCED UROLOGY, PLLC                                   932501 TRUE     
#>  8 1962501551 ADVANCED UROLOGY, PLLC                                     9059 TRUE     
#>  9 1578900668 AGAPE PHYSICAL THERAPY & SPORTS REHABILITATION LP        376529 TRUE     
#> 10 1578900668 AGAPE PHYSICAL THERAPY & SPORTS REHABILITATION LP          7870 TRUE     
#> # … with 183 more rows
```
…
