…
      key_collision_merge() %>% 
      n_gram_merge(numgram = 1)
  ) %>% 
  filter(city_refine != city_swap) %>% 
  inner_join(
    y = zipcodes,
    by = c(
      "city_refine" = "city",
      "state" = "state",
      "zip_norm" = "zip"
    )
  )
```

    #> # A tibble: 38 × 5
    #>    state zip_norm city_swap        city_refine            n
    #>    <chr> <chr>    <chr>            <chr>              <int>
    #>  1 OH    45263    CINCINATTI       CINCINNATI           341
    #>  2 AL    36852    CUSETTA          CUSSETA               57
    #>  3 SC    29406    NORTH CHARLESTON CHARLESTON            50
    #>  4 SC    29415    NORTH CHARLESTON CHARLESTON            49
    #>  5 AL    36088    TUSKEEGEE INST   TUSKEGEE INSTITUTE    45
    #>  6 AL    35055    CULLMAN AL       CULLMAN               43
    #>  7 GA    30316    ALTALNTA         ATLANTA               35
    #>  8 IL    60673    CHICAGO I        CHICAGO               34
    #>  9 AL    35235    BRIMNGHAM        BIRMINGHAM            21
    #> 10 AL    35754    LACEY SPRINGS    LACEYS SPRING         20
    #> # … with 28 more rows
…
