…
To improve the consistency and search ability of our accountability database, we will perform some simple and **confident** manipulations to the original data and create new, normalized variables.

### Phone

We can use `campfin::normal_phone()` to convert the numeric phone numbers into an unambiguous character format. This prevents the column from being read as a numeric variable.

``` r
nc_lob <- mutate_at(
  .tbl  = nc_lob,
  .vars = vars(ends_with("phone")),
  .funs = list(norm = normal_phone)
)
```

    #> # A tibble: 9,950 x 4
    #>    lobby_phone    prin_phone     lobby_phone_norm prin_phone_norm
    #>    <chr>          <chr>          <chr>            <chr>          
    #>  1 (919) 855-5796 (214) 584-5808 (919) 855-5796   (214) 584-5808 
    #>  2 (919) 825-0914 2404821608     (919) 825-0914   (240) 482-1608 
    #>  3 (919) 783-2847 (203) 661-1100 (919) 783-2847   (203) 661-1100 
    #>  4 (704) 455-3208 (704) 455-3239 (704) 455-3208   (704) 455-3239 
    #>  5 (919) 981-4007 (202) 736-3219 (919) 981-4007   (202) 736-3219 
    #>  6 (919) 645-2431 (919) 833-6436 (919) 645-2431   (919) 833-6436 
    #>  7 (703) 947-1960 (202) 533-1140 (703) 947-1960   (202) 533-1140 
    #>  8 (919) 783-2847 (252) 232-2075 (919) 783-2847   (252) 232-2075 
    #>  9 (919) 523-4085 (202) 682-8219 (919) 523-4085   (202) 682-8219 
    #> 10 (919) 420-1817 (704) 336-2009 (919) 420-1817   (704) 336-2009 
    #> # … with 9,940 more rows
…
### ZIP

Our database uses 5-digit ZIP codes, so we can pass the original postal code variables to `campfin::normal_zip()` to trim the strings and try and repair and broken formats.

``` r
nc_lob <- mutate_at(
  .tbl  = nc_lob,
  .vars = vars(ends_with("zip")),
  .funs = list(norm = normal_zip),
  na_rep = TRUE
)
```

    #> # A tibble: 3,720 x 4
    #>    lobby_zip  prin_zip   lobby_zip_norm prin_zip_norm
    #>    <chr>      <chr>      <chr>          <chr>        
    #>  1 27602-0389 28202      27602          28202        
    #>  2 27609-7884 29169      27609          29169        
    #>  3 27518-8710 10005      27518          10005        
    #>  4 28202-4003 28202-6000 28202          28202        
    #>  5 27612      27709-2077 27612          27709        
    #>  6 27601-1348 55340-9100 27601          55340        
    #>  7 27981-0276 28570-5509 27981          28570        
    #>  8 27612      27605-1258 27612          27605        
    #>  9 27601      27609-3930 27601          27609        
    #> 10 27545      27602-0469 27545          27602        
    #> # … with 3,710 more rows
…
prop_in(nc_lob$lobby_state_norm, valid_state, na.rm = T)
#> [1] 1
prop_in(nc_lob$prin_state_norm, valid_state, na.rm = T)
#> [1] 0.998727

nc_lob <- nc_lob %>% 
  mutate_at(
    .vars = vars(ends_with("state_norm")),
    .funs = na_if, "XX" 
  ) %>% 
  mutate(prin_state_norm = prin_state_norm %>% na_if("XX") %>% str_replace("LO", "LA"))
```

    #> # A tibble: 295 x 4
    #>    lobby_state prin_state lobby_state_norm prin_state_norm
    #>    <chr>       <chr>      <chr>            <chr>          
    #>  1 NC          OR         NC               OR             
    #>  2 VA          MO         VA               MO             
    #>  3 OR          VA         OR               VA             
    #>  4 <NA>        DC         <NA>             DC             
    #>  5 VA          VA         VA               VA             
    #>  6 OR          IL         OR               IL             
    #>  7 GA          NV         GA               NV             
    #>  8 NC          LA         NC               LA             
    #>  9 NC          SD         NC               SD             
    #> 10 LA          WA         LA               WA             
    #> # … with 285 more rows
…
