…
``` r
njl <- njl %>% flag_na(active_date, agent_name, firm_name, client_name)
sum(njl$na_flag)
#> [1] 26
```

``` r
njl %>% 
  filter(na_flag) %>% 
  select(active_date, agent_name, firm_name, client_name)
#> # A tibble: 26 x 4
#>    active_date agent_name                   firm_name                    client_name
#>    <date>      <chr>                        <chr>                        <chr>      
#>  1 2017-10-16  Beatty, Steve                NJ Education Association     <NA>       
#>  2 1990-01-01  Bilheimer, Robert W          Robert W Bilheimer           <NA>       
#>  3 1990-12-30  Damant, Brian D              Brian D Damant               <NA>       
#>  4 1994-08-17  Howland, Susan               Susan Howland                <NA>       
#>  5 1992-09-30  Piccolo, Frank A  Esq        Frank A Piccolo              <NA>       
#>  6 1990-01-01  Whnen Baeckler, Virginia Van Virginia Van  Whnen Baeckler <NA>       
#>  7 1992-12-02  O'Day, Maureen               Maureen  O'Day               <NA>       
#>  8 1990-01-01  Lynch, Jeffrey R             Jeffrey R Lynch              <NA>       
#>  9 1990-12-28  Nord, Hans H                 Hans H Nord                  <NA>       
#> 10 1992-11-16  Gavan, Henry F               Henry F Gavan                <NA>       
#> # … with 16 more rows
```
…
