…
map2(ga_lob_curls,"lob",ga_lob_download)

### the 2001-2003 xls file can be accessed via a GET request
download.file("https://media.ethics.ga.gov/search/Lobbyist/Exp/Ros_2003_2001.xls", path(raw_dir,"ga_lob_0103.xls"))
```

We can view the file details here.

``` r
dir_info(raw_dir)
#> # A tibble: 58 × 18
#>    path        type   size permiss…¹ modification_time   user  group devic…² hard_…³ speci…⁴  inode
#>    <fs::path>  <fct> <fs:> <fs::per> <dttm>              <chr> <chr>   <dbl>   <dbl>   <dbl>  <dbl>
#>  1 …p_2004.xls file      0 rw-r--r-- 2020-09-04 09:50:34 yanq… staff  1.68e7       1       0 2.36e7
#>  2 …p_2005.xls file      0 rw-r--r-- 2020-09-04 09:50:34 yanq… staff  1.68e7       1       0 2.36e7
#>  3 …p_2006.csv file  1.05M rw-r--r-- 2020-09-09 13:42:14 yanq… staff  1.68e7       1       0 2.41e7
#>  4 …p_2006.xls file  2.27M rw-r--r-- 2020-09-04 09:50:35 yanq… staff  1.68e7       1       0 2.36e7
#>  5 …p_2007.csv file  3.29M rw-r--r-- 2020-09-09 13:46:08 yanq… staff  1.68e7       1       0 2.41e7
#>  6 …p_2007.xls file  7.18M rw-r--r-- 2020-09-04 09:50:37 yanq… staff  1.68e7       1       0 2.36e7
#>  7 …p_2008.csv file  3.31M rw-r--r-- 2020-09-09 13:50:08 yanq… staff  1.68e7       1       0 2.41e7
#>  8 …p_2008.xls file  7.22M rw-r--r-- 2020-09-04 09:50:39 yanq… staff  1.68e7       1       0 2.36e7
#>  9 …p_2009.csv file  3.33M rw-r--r-- 2020-09-09 13:53:37 yanq… staff  1.68e7       1       0 2.41e7
#> 10 …p_2009.xls file  7.28M rw-r--r-- 2020-09-04 09:31:01 yanq… staff  1.68e7       1       0 2.36e7
#> # … with 48 more rows, 7 more variables: block_size <dbl>, blocks <dbl>, flags <int>,
#> #   generation <dbl>, access_time <dttm>, change_time <dttm>, birth_time <dttm>, and abbreviated
#> #   variable names ¹​permissions, ²​device_id, ³​hard_links, ⁴​special_device_id
```
…
``` r
galr %>% 
  filter(na_flag) %>% 
  select(filer_id, first_name,last_name, date_registered,association)
#> # A tibble: 0 × 5
#> # … with 5 variables: filer_id <chr>, first_name <chr>, last_name <chr>, date_registered <date>,
#> #   association <chr>

galr_early %>% 
  filter(na_flag) %>% 
  select(first_name,last_name, date_registered,association)
#> # A tibble: 42 × 4
#>    first_name last_name date_registered association                                                
#>    <chr>      <chr>     <date>          <chr>                                                      
#>  1 Saralyn    <NA>      2002-01-08      Secretary Of State,elections Division                      
#>  2 KAREN      <NA>      2002-07-11      Progressive Insurance                                      
#>  3 RANDY      CRAWFORD  NA              BAKERY CONFECTIONARY TOBACCO & GRAIN MILLERS INTERNATIONAL…
#>  4 RICKEY     CRAWFORD  NA              BAKERY CONFECTIONARY TOBACCO & GRAIN MILLER INTERNATIONAL …
#>  5 J.         ALLEN     NA              GA. FORESTRY COMMISSION                                    
#>  6 ROBERT     FARRIS    NA              GA. FORESTRY COMMISSION                                    
#>  7 WILLIAM    LAZENBY   NA              GA. FORESTRY COMMISSION                                    
#>  8 MIKE       VAQUER    NA              INTERNATIONAL PAPER                                        
#>  9 CARLOTTA   FRANKLIN  NA              METRO ATLANTA CHAMBER OF COMMERCE                          
#> 10 SAMUEL     GARDNER   NA              SPALDING COUNTY                                            
#> # … with 32 more rows
```
…
galr_early <- galr_early %>% 
  mutate(
    phone_norm = normal_phone(
      number = "Phone",
      na_bad = FALSE,
      rm_ext = FALSE
    )
  )
```

    #> # A tibble: 4,375 × 3
    #>    phone            phone_ext phone_norm
    #>    <chr>            <chr>     <chr>     
    #>  1 (770) 627 - 7501 <NA>      phone_norm
    #>  2 (404) 506 - 6084 <NA>      phone_norm
    #>  3 (404) 506 - 7915 <NA>      phone_norm
    #>  4 (404) 506 - 7740 <NA>      phone_norm
    #>  5 (404) 975 - 8176 <NA>      phone_norm
    #>  6 (678) 595 - 9326 <NA>      phone_norm
    #>  7 (706) 272 - 6173 <NA>      phone_norm
    #>  8 (770) 617 - 9913 <NA>      phone_norm
    #>  9 (478) 993 - 4521 <NA>      phone_norm
    #> 10 (706) 846 - 2592 <NA>      phone_norm
    #> # … with 4,365 more rows
    #> # A tibble: 1,590 × 2
    #>    phone      phone_norm
    #>    <chr>      <chr>     
    #>  1 2298884750 Phone     
    #>  2 7704916343 Phone     
    #>  3 4046107452 Phone     
    #>  4 8506812591 Phone     
    #>  5 4046563508 Phone     
    #>  6 7703957200 Phone     
    #>  7 7709921874 Phone     
    #>  8 7709937896 Phone     
    #>  9 4042921551 Phone     
    #> 10 4049310969 Phone     
    #> # … with 1,580 more rows
…
