…
We can set up the raw directory.

``` r
raw_dir <- dir_create(here("state","ga", "lobby", "data", "raw","exp"))
```

We can download the data files by year from 2006 to 2020. The 2020 data
file is downloaded on September 29.

Then We can view the file details here.

``` r
dir_info(raw_dir)
#> # A tibble: 36 × 18
#>    path        type   size permiss…¹ modification_time   user  group devic…² hard_…³ speci…⁴  inode
#>    <fs::path>  <fct> <fs:> <fs::per> <dttm>              <chr> <chr>   <dbl>   <dbl>   <dbl>  <dbl>
#>  1 …rt2006.xls file  3.56M rw-r--r-- 2020-09-29 11:27:16 yanq… staff  1.68e7       1       0 2.65e7
#>  2 …rt2007.xls file   4.1M rw-r--r-- 2020-09-29 11:25:57 yanq… staff  1.68e7       1       0 2.65e7
#>  3 …rt2008.xls file   4.3M rw-r--r-- 2020-09-23 20:06:20 yanq… staff  1.68e7       1       0 2.60e7
#>  4 …rt2009.xls file  4.01M rw-r--r-- 2020-09-23 20:03:19 yanq… staff  1.68e7       1       0 2.60e7
#>  5 …rt2010.xls file  4.43M rw-r--r-- 2020-09-23 20:05:00 yanq… staff  1.68e7       1       0 2.60e7
#>  6 …rt2011.xls file  5.94M rw-r--r-- 2020-09-23 19:36:19 yanq… staff  1.68e7       1       0 2.60e7
#>  7 …rt2012.xls file  4.53M rw-r--r-- 2020-09-23 19:35:51 yanq… staff  1.68e7       1       0 2.60e7
#>  8 …rt2013.xls file  3.35M rw-r--r-- 2020-09-23 18:08:40 yanq… staff  1.68e7       1       0 2.60e7
#>  9 …rt2014.xls file  3.01M rw-r--r-- 2020-09-23 16:45:33 yanq… staff  1.68e7       1       0 2.60e7
#> 10 …rt2015.xls file  3.68M rw-r--r-- 2020-09-23 16:40:24 yanq… staff  1.68e7       1       0 2.60e7
#> # … with 26 more rows, 7 more variables: block_size <dbl>, blocks <dbl>, flags <int>,
#> #   generation <dbl>, access_time <dttm>, change_time <dttm>, birth_time <dttm>, and abbreviated
#> #   variable names ¹​permissions, ²​device_id, ³​hard_links, ⁴​special_device_id
```
…
