…
## Duplicates

``` r
orl <- flag_dupes(orl, everything(), .check = TRUE)
sum(orl$dupe_flag)
#> [1] 26
```

``` r
filter(orl, dupe_flag)
#> # A tibble: 26 x 9
#>    period  pri_biz               pri_last pri_first lob_first lob_last status  date       dupe_flag
#>    <chr>   <chr>                 <chr>    <chr>     <chr>     <chr>    <chr>   <date>     <lgl>    
#>  1 2018-2… Novartis Services, I… Casserly Daniel    Powell    John     Active  2018-01-09 TRUE     
#>  2 2018-2… Novartis Services, I… Casserly Daniel    Powell    John     Active  2018-01-09 TRUE     
#>  3 2018-2… Oregon Life and Heal… Delaney  Justin    Powell    John     Termin… 2019-03-01 TRUE     
#>  4 2018-2… Oregon Life and Heal… Delaney  Justin    Powell    John     Termin… 2019-03-01 TRUE     
#>  5 2018-2… AT&T                  Granger  George    Powell    John     Active  2018-01-17 TRUE     
#>  6 2018-2… AT&T                  Granger  George    Powell    John     Active  2018-01-17 TRUE     
#>  7 2018-2… Consumer Healthcare … Gutierr… Carlos    Powell    John     Active  2018-01-09 TRUE     
#>  8 2018-2… Consumer Healthcare … Gutierr… Carlos    Powell    John     Active  2018-01-09 TRUE     
#>  9 2018-2… Oregon Council for B… Jefferis Heather   Bruske    Cassie   Termin… 2018-01-01 TRUE     
#> 10 2018-2… Oregon Council for B… Jefferis Heather   Bruske    Cassie   Termin… 2018-01-01 TRUE     
#> # … with 16 more rows
```
…
