…
If we ignore the supposedly unique `id` variable, there are a number of
duplicate records.

``` r
arc <- flag_dupes(arc, -id)
percent(mean(arc$dupe_flag), 0.1)
#> [1] "54.4%"
```

``` r
arc %>% 
  filter(dupe_flag) %>% 
  select(date, last, address1, amount, candidate) %>% 
  drop_na()
#> # A tibble: 5,224 × 5
#>    date       last               address1                amount candidate       
#>    <date>     <chr>              <chr>                    <dbl> <chr>           
#>  1 2017-10-04 Gazaway            3105 Norman Rockwell      2700 "Asa Hutchinson"
#>  2 2017-09-27 Franklin           109 Chambord              2700 "Asa Hutchinson"
#>  3 2017-09-13 Nicholson          352 South Main Street     2700 "Asa Hutchinson"
#>  4 2017-11-24 Tregoning          55 Corporate Drive         193 " "             
#>  5 2017-09-27 Thomason           PO Box 3457               2700 "Asa Hutchinson"
#>  6 2017-08-15 Highway Safety PAC PO Box 846                2700 "Asa Hutchinson"
#>  7 2017-11-17 Oakley             362 Hammons Chapel Road   2700 "Asa Hutchinson"
#>  8 2017-11-08 Castellanos        399 North Quaker Lane     2700 "Tim Griffin"   
#>  9 2017-10-04 Rankin             4014 Ridge Creek Lane     2700 "Asa Hutchinson"
#> 10 2017-10-08 Rogers             880 Greene Road 718       2700 "Asa Hutchinson"
#> # ℹ 5,214 more rows
```
…
``` r
arc %>% 
  count(cents = amount %% 1, sort = TRUE) %>% 
  add_prop()
#> # A tibble: 987 × 3
#>    cents       n       p
#>    <dbl>   <int>   <dbl>
#>  1 0     1477430 0.496  
#>  2 0.5     54576 0.0183 
#>  3 0.300   42621 0.0143 
#>  4 0.460   38164 0.0128 
#>  5 0.230   37789 0.0127 
#>  6 0.330   34150 0.0115 
#>  7 0.61    33000 0.0111 
#>  8 0.170   28776 0.00965
#>  9 0.62    28741 0.00964
#> 10 0.670   27898 0.00936
#> # ℹ 977 more rows
```
…
``` r
arc %>% 
  filter(state != state_norm) %>% 
  count(state, state_norm, sort = TRUE)
#> # A tibble: 26 × 3
#>    state state_norm     n
#>    <chr> <chr>      <int>
#>  1 mI    MI          1117
#>  2 Ar    AR           160
#>  3 ar    AR           104
#>  4 oH    OH            99
#>  5 aR    AR            52
#>  6 tx    TX            49
#>  7 dc    DC            42
#>  8 mo    MO            14
#>  9 dC    DC            13
#> 10 oh    OH            11
#> # ℹ 16 more rows
```
…
      key_collision_merge() %>% 
      n_gram_merge(numgram = 1)
  ) %>% 
  filter(city_refine != city_swap) %>% 
  inner_join(
    y = zipcodes,
    by = c(
      "city_refine" = "city",
      "state_norm" = "state",
      "zip_norm" = "zip"
    )
  )
```

    #> # A tibble: 33 × 5
    #>    state_norm zip_norm city_swap              city_refine        n
    #>    <chr>      <chr>    <chr>                  <chr>          <int>
    #>  1 CA         92625    CORONA DALE MAR        CORONA DEL MAR     9
    #>  2 AR         71657    MONITCELLE             MONTICELLO         6
    #>  3 CA         91104    PADASENA               PASADENA           5
    #>  4 AL         36542    GULF SHORESGULF SHORES GULF SHORES        4
    #>  5 AR         72143    SEARCYARCY             SEARCY             3
    #>  6 SC         29406    NORTH CHARLESTON       CHARLESTON         3
    #>  7 AR         72003    ALMARY                 ALMYRA             2
    #>  8 AR         72740    HUNSTIVILLE            HUNTSVILLE         2
    #>  9 IN         47130    JEFFERERSONVILLE       JEFFERSONVILLE     2
    #> 10 AR         71742    FORDYCE DR             FORDYCE            1
    #> # ℹ 23 more rows
Then we can join the refined values back to the database.

``` r
arc <- arc %>% 
  left_join(good_refine, by = names(.)) %>% 
  mutate(city_refine = coalesce(city_refine, city_swap))
```

#### Progress

``` r
arc %>% 
  filter(city_refine %out% valid_city) %>% 
  count(city_refine, state_norm, sort = TRUE)
#> # A tibble: 900 × 3
#>    city_refine      state_norm       n
#>    <chr>            <chr>        <int>
#>  1 <NA>             <NA>       1814681
#>  2 ROCHESTER HILLS  MI            2891
#>  3 TEXAS            TX            1939
#>  4 THE WOODLANDS    TX            1871
#>  5 SHELBY TOWNSHIP  MI            1703
#>  6 HOOVER           AL            1619
#>  7 MOUNTAIN BROOK   AL            1443
#>  8 VESTAVIA         AL            1263
#>  9 ILLINOIS         IL            1187
#> 10 OAKLAND TOWNSHIP MI            1137
#> # ℹ 890 more rows
```
…
