…
sum(wa$na_flag)
#> [1] 366
wa %>% 
  filter(na_flag) %>%
  sample_frac() %>% 
  select(
    na_flag,
    id, 
    report_number,
    filer_name,
    recipient_name,
    amount,
    expenditure_date
    )
#> # A tibble: 366 x 7
#>    na_flag id        report_number filer_name            recipient_name     amount expenditure_date
#>    <lgl>   <chr>     <chr>         <chr>                 <chr>               <dbl> <date>          
#>  1 TRUE    558876.e… 1001275686    GRIFFEY DANIEL G      Expenses of $50 o…     0  NA              
#>  2 TRUE    1038902.… 1001294941    28TH DIST REPUB LEG … Expenses of $50 o…     0  NA              
#>  3 TRUE    493835.e… 100267574     WA PUBLIC EMPLOYEES … Expenses of $50 o…     0  NA              
#>  4 TRUE    400050.e… 1001267848    LJUNGHAMMAR KEITH N   Expenses of $50 o…     0  NA              
#>  5 TRUE    1039327.… 1001295002    TRAVIS BRIAN M        Expenses of $50 o…     0  NA              
#>  6 TRUE    746783.e… 1001283872    GALE STEPHAN G        Expenses of $50 o…     0  NA              
#>  7 TRUE    535146.e… 1001273137    REYNOLDS ELIZABETH A  Expenses of $50 o…     0  NA              
#>  8 TRUE    493792.e… 100230501     WA PUBLIC EMPLOYEES … Expenses of $50 o…     0  NA              
#>  9 TRUE    778594.e… 1001284363    DAVIES MARK T         Expenses of $50 o…   195. NA              
#> 10 TRUE    760323.e… 1001284164    GALE STEPHAN G        Expenses of $50 o…   103. NA              
#> # … with 356 more rows
```
…
``` r
wa %>% 
  select(contains("address")) %>% 
  distinct() %>% 
  sample_frac()
#> # A tibble: 112,864 x 2
#>    recipient_address              address_norm                     
#>    <chr>                          <chr>                            
#>  1 17837 1ST AVENUE SOUTH         17837 1ST AVENUE SOUTH           
#>  2 4023 E SPRAGUE                 4023 EAST SPRAGUE                
#>  3 1110 N GRAND AVE               1110 NORTH GRAND AVENUE          
#>  4 2925 HARRISON AVE NW           2925 HARRISON AVENUE NORTHWEST   
#>  5 115 S 10TH AVE                 115 SOUTH 10TH AVENUE            
#>  6 5432 PARK PLACE LOOP SE        5432 PARK PLACE LOOP SOUTHEAST   
#>  7 1000 AURORA AVENUE, UNIT N-100 1000 AURORA AVENUE UNIT NORTH 100
#>  8 600 STEWART ST., #1510         600 STEWART STREET 1510          
#>  9 1525 209TH AVE NE              1525 209TH AVENUE NORTHEAST      
#> 10 6934 FAIRWAY LN SE             6934 FAIRWAY LANE SOUTHEAST      
#> # … with 112,854 more rows
```
…
``` r
wa <- wa %>% 
  mutate(
    zip_norm = normal_zip(
      zip = recipient_zip,
      na_rep = TRUE
    )
  )
```

``` r
wa %>% 
  select(contains("zip")) %>% 
  filter(zip_norm != recipient_zip)
#> # A tibble: 762 x 2
#>    recipient_zip zip_norm
#>    <chr>         <chr>   
#>  1 985           00985   
#>  2 7011          07011   
#>  3 7011          07011   
#>  4 7011          07011   
#>  5 3792          03792   
#>  6 992           00992   
#>  7 982           00982   
#>  8 9811          09811   
#>  9 9366          09366   
#> 10 3/11/         00311   
#> # … with 752 more rows
```
…
``` r
wa_refine %>% 
  filter(city_refine != city_swap) %>% 
  count(city_swap, city_refine, sort = TRUE)
#> # A tibble: 30 x 3
#>    city_swap          city_refine           n
#>    <chr>              <chr>             <int>
#>  1 CINCINATTI         CINCINNATI           19
#>  2 MULKITEO           MUKILTEO              9
#>  3 OLAOOA             OLALLA                9
#>  4 COUER DALENE       COEUR D ALENE         8
#>  5 SAN FRANSICO       SAN FRANCISCO         7
#>  6 NO CANTON          CANTON                4
#>  7 OKANGAON           OKANOGAN              3
#>  8 SPOAKEN            SPOKANE               3
#>  9 FREDRAL WAY        FEDERAL WAY           2
#> 10 MOUNT LAEK TERRACE MOUNTLAKE TERRACE     2
#> # … with 20 more rows
```
…
``` r
wa <- wa %>% 
  left_join(wa_refine) %>% 
  mutate(city_refine = coalesce(city_refine, city_swap))
```

#### Progress

``` r
wa %>% 
  filter(city_refine %out% valid_city) %>% 
  count(city_refine, state_norm, sort = TRUE) %>% 
  drop_na()
#> # A tibble: 462 x 3
#>    city_refine      state_norm     n
#>    <chr>            <chr>      <int>
#>  1 SPOKANE VALLEY   WA          3423
#>  2 TUKWILA          WA          2150
#>  3 BURIEN           WA          1733
#>  4 SEATAC           WA          1173
#>  5 CAMANO ISLAND    WA           863
#>  6 LAKE FOREST PARK WA           644
#>  7 NORMANDY PARK    WA           439
#>  8 SYMMES TOWNSHIP  OH           293
#>  9 FIRCREST         WA           261
#> 10 UNION GAP        WA           161
#> # … with 452 more rows
```
…
