…
All of these tables are now saved and can be read into a single data
frame.

``` r
raw_info <- dir_info(raw_dir)
sum(raw_info$size)
#> 2.29M
select(raw_info, path, size, modification_time) %>% 
  mutate(across(path, path.abbrev))
#> # A tibble: 32 x 3
#>    path                                   size modification_time  
#>    <chr>                           <fs::bytes> <dttm>             
#>  1 ~/sd/contracts/data/raw/010.csv       26.9K 2020-08-31 13:31:44
#>  2 ~/sd/contracts/data/raw/011.csv      21.44K 2020-08-31 13:30:22
#>  3 ~/sd/contracts/data/raw/012.csv     272.22K 2020-08-31 13:30:22
#>  4 ~/sd/contracts/data/raw/013.csv      16.47K 2020-08-31 13:30:24
#>  5 ~/sd/contracts/data/raw/014.csv      12.56K 2020-08-31 13:30:23
#>  6 ~/sd/contracts/data/raw/02+.csv       5.54K 2020-08-31 13:32:16
#>  7 ~/sd/contracts/data/raw/028.csv       1.55K 2020-08-31 13:32:06
#>  8 ~/sd/contracts/data/raw/03+.csv       98.3K 2020-08-31 13:29:16
#>  9 ~/sd/contracts/data/raw/04+.csv      38.47K 2020-08-31 13:32:36
#> 10 ~/sd/contracts/data/raw/06+.csv      69.78K 2020-08-31 13:31:43
#> # … with 22 more rows
```
…
``` r
names(sdc) <- c("id", "desc", "vendor", "agency", "amount")
```

There are some contracts without a set amount. For others, the amount
can only be found by looking at the contract PDF.

``` r
count(sdc, amount, sort = TRUE)
#> # A tibble: 11,101 x 2
#>    amount            n
#>    <chr>         <int>
#>  1 No Set Amount  3352
#>  2 $10,000         251
#>  3 $5,000          226
#>  4 **              214
#>  5 $20,000         202
#>  6 $2,000          168
#>  7 $15,000         160
#>  8 $25,000         153
#>  9 $2,500          126
#> 10 $30,000         120
#> # … with 11,091 more rows
…
If we ignore the supposedly unique `id` variable, there are a couple
hundred duplicate records. These can be flagged with a new logical
variable using the `campfin::flag_dupes()` function.

``` r
sdc <- flag_dupes(sdc, -id)
sum(sdc$dupe_flag)
#> [1] 200
```

``` r
sdc %>% 
  filter(dupe_flag) %>% 
  select(id, created, vendor, amount, agency)
#> # A tibble: 200 x 5
#>    id             created             vendor                      amount agency                  
#>    <chr>          <dttm>              <chr>                        <dbl> <chr>                   
#>  1 CDBG1919-106   2020-01-08 18:07:24 AVON-CITY OF                166665 GOVERNOR'S OFFICE       
#>  2 CDBG 1919-106  2020-01-08 18:07:24 AVON-CITY OF                166665 GOVERNOR'S OFFICE       
#>  3 M2314--08X-CO2 2106-02-07 06:28:15 ALLIED PLUMBING AND HEATING     NA BUREAU OF ADMINISTRATION
#>  4 R0614--18XCO1  2106-02-07 06:28:15 ALLIED PLUMBING AND HEATING     NA BUREAU OF ADMINISTRATION
#>  5 M2315--03X-CO1 2106-02-07 06:28:15 ALLIED PLUMBING AND HEATING     NA BUREAU OF ADMINISTRATION
#>  6 M2315--03X-CO2 2106-02-07 06:28:15 ALLIED PLUMBING AND HEATING     NA BUREAU OF ADMINISTRATION
#>  7 R0312--26X-CO2 2106-02-07 06:28:15 CLARK DREW CONSTRUCTION INC     NA BUREAU OF ADMINISTRATION
#>  8 R0312--26X-CO1 2106-02-07 06:28:15 CLARK DREW CONSTRUCTION INC     NA BUREAU OF ADMINISTRATION
#>  9 R0314--12X-CO1 2106-02-07 06:28:15 CLARK DREW CONSTRUCTION INC     NA BUREAU OF ADMINISTRATION
#> 10 R0815--25XCO1  2106-02-07 06:28:15 CVD CONSTRUCTION INC            NA BUREAU OF ADMINISTRATION
#> # … with 190 more rows
```
…
There are 354 contracts whose PDF copy has a creation date of February
7… 2106. Looking at these documents, they contain signature dates
anywhere from June 2015 to May 2019. This document date can not
confidently be used as proxy for the contract.

``` r
count(sdc, created, sort = TRUE)
#> # A tibble: 18,629 x 2
#>    created                 n
#>    <dttm>              <int>
#>  1 2106-02-07 06:28:15   354
#>  2 2019-01-16 17:27:43    72
#>  3 NA                     71
#>  4 2018-06-09 17:35:19    64
#>  5 2019-09-23 16:45:56    60
#>  6 2018-06-09 17:27:02    51
#>  7 2020-06-11 21:51:40    45
#>  8 2020-08-25 21:39:05    43
#>  9 2020-03-30 11:25:06    41
#> 10 2019-09-23 16:45:55    37
#> # … with 18,619 more rows
```
…
``` r
many_city <- c(valid_city, extra_city)
sdc %>% 
  count(city_norm, state, sort = TRUE) %>% 
  filter(!is.na(city_norm), city_norm %out% many_city)
#> # A tibble: 119 x 3
#>    city_norm              state     n
#>    <chr>                  <chr> <int>
#>  1 AGENCY VILLAGE         SD       17
#>  2 BISMARK                ND       15
#>  3 FARMINGTON HILLS       MI        7
#>  4 ENGLEFELD CANADA       SK        6
#>  5 ROSYLN                 SD        6
#>  6 KATHMANDU NEPAL        <NA>      4
#>  7 RICHMOND CANADA        BC        4
#>  8 CARROL                 IA        3
#>  9 FRANKFURT              KY        3
#> 10 RESEARCH TRIANGLE PARK NC        3
#> # … with 109 more rows
```
…
