…
``` r
mnc <- mnc %>% flag_na(rec_name, con_name, date, amount)
sum(mnc$na_flag)
#> [1] 142
```

``` r
mnc %>% 
  filter(na_flag) %>% 
  select(rec_name, con_name, date, amount) %>% 
  sample_frac()
#> # A tibble: 142 x 4
#>    rec_name                                con_name date        amount
#>    <chr>                                   <chr>    <date>       <dbl>
#>  1 IBEW Local 292 Political Education Fund <NA>     2019-06-11   56.7 
#>  2 IBEW Local 292 Political Education Fund <NA>     2019-05-02 9547.  
#>  3 IBEW Local 292 Political Education Fund <NA>     2019-07-31   26.1 
#>  4 IBEW Local 292 Political Education Fund <NA>     2019-03-19    9.21
#>  5 IBEW Local 292 Political Education Fund <NA>     2019-03-20   23.7 
#>  6 IBEW Local 292 Political Education Fund <NA>     2019-11-17  297.  
#>  7 IBEW Local 292 Political Education Fund <NA>     2020-02-29  154.  
#>  8 IBEW Local 292 Political Education Fund <NA>     2019-03-07    1.97
#>  9 IBEW Local 292 Political Education Fund <NA>     2019-01-06   56.8 
#> 10 IBEW Local 292 Political Education Fund <NA>     2019-07-29   98.7 
#> # … with 132 more rows
```
…
Similarly, we can flag all records that are duplicated at least one
other time.

``` r
mnc <- flag_dupes(mnc, everything())
sum(mnc$dupe_flag)
#> [1] 3063
```

``` r
mnc %>% 
  filter(dupe_flag) %>% 
  select(rec_name, con_name, date, amount) %>% 
  arrange(rec_name)
#> # A tibble: 3,063 x 4
#>    rec_name                 con_name         date       amount
#>    <chr>                    <chr>            <date>      <dbl>
#>  1 14th Senate District RPM Pederson, John C 2015-01-24     40
#>  2 14th Senate District RPM Pederson, John C 2015-01-24     40
#>  3 14th Senate District RPM Schlangen, Beth  2017-01-13     40
#>  4 14th Senate District RPM Schlangen, Beth  2017-01-13     40
#>  5 16th Senate District DFL Kriegl, Josef A  2018-03-17    100
#>  6 16th Senate District DFL Kriegl, Josef A  2018-03-17    100
#>  7 16th Senate District DFL Hess, Deb        2017-03-18     70
#>  8 16th Senate District DFL Hess, Deb        2017-03-18     70
#>  9 19th Senate District DFL Dimock, Rebecca  2018-04-13     50
#> 10 19th Senate District DFL Filipovitch, A J 2018-04-13     25
#> # … with 3,053 more rows
```
…
