…
    sep = " ",
    remove = FALSE,
    na.rm = TRUE
  ) %>% 
  mutate(
    con_addr_norm = normal_address(
      address = con_addr_full,
      abbs = usps_street,
      na_rep = TRUE
    )
  ) %>% 
  select(-con_addr_full)
```

    #> # A tibble: 487,187 × 3
    #>    con_addr1            con_addr2 con_addr_norm          
    #>    <chr>                <chr>     <chr>                  
    #>  1 St Louis,  MO        <NA>      ST LOUIS MO            
    #>  2 12361 Henderson Rd   <NA>      12361 HENDERSON RD     
    #>  3 152 W. 57th St.      <NA>      152 W 57TH ST          
    #>  4 3100 Bacon School Rd <NA>      3100 BACON SCHOOL RD   
    #>  5 4705 Whetstone Ct    <NA>      4705 WHETSTONE CT      
    #>  6 5550 Columbia Pike   #521      5550 COLUMBIA PIKE #521
    #>  7 PO BOX 444           <NA>      PO BOX 444             
    #>  8 PO BOX 734           <NA>      PO BOX 734             
    #>  9 10463 Jordan Parkway <NA>      10463 JORDAN PKWY      
    #> 10 204 Forrest Drive    <NA>      204 FORREST DR         
    #> # … with 487,177 more rows
…
    con_city_swap = if_else(
      condition = !is.na(match_dist) & match_abb | match_dist == 1,
      true = city_match,
      false = con_city_norm
    )
  ) %>% 
  select(
    -city_match,
    -match_dist,
    -match_abb,
    -n
  )
```

    #> # A tibble: 3,412 × 4
    #>    con_city_norm con_state con_zip_norm con_city_swap      
    #>    <chr>         <chr>     <chr>        <chr>              
    #>  1 MC LEAN       VA        22101        MCLEAN             
    #>  2 MC LEAN       VA        22102        MCLEAN             
    #>  3 NEWTON        MA        02459        NEWTON CENTER      
    #>  4 VA BEACH      VA        23451        VIRGINIA BEACH     
    #>  5 VA BEACH      VA        23456        VIRGINIA BEACH     
    #>  6 WELLESLEY     MA        02481        WELLESLEY HILLS    
    #>  7 COEUR DALENE  ID        83815        COEUR D ALENE      
    #>  8 ST AUGUSTINE  FL        32084        SAINT AUGUSTINE    
    #>  9 CHINCOTEAGUE  VA        23336        CHINCOTEAGUE ISLAND
    #> 10 VA BEACH      VA        23454        VIRGINIA BEACH     
    #> # … with 3,402 more rows
…
    fil_city_swap = if_else(
      condition = !is.na(match_dist) & match_abb | match_dist == 1,
      true = city_match,
      false = fil_city_norm
    )
  ) %>% 
  select(
    -city_match,
    -match_dist,
    -match_abb,
    -n
  )
```

    #> # A tibble: 22 × 4
    #>    fil_city_norm fil_state fil_zip_norm fil_city_swap  
    #>    <chr>         <chr>     <chr>        <chr>          
    #>  1 FAIRFAX       VA        22039        FAIRFAX STATION
    #>  2 HMAPTON       VA        23666        HAMPTON        
    #>  3 VA BEACH      VA        23451        VIRGINIA BEACH 
    #>  4 FAIRFIEDL     VA        24435        FAIRFIELD      
    #>  5 CHESEAPEAKE   VA        23320        CHESAPEAKE     
    #>  6 VA BEACH      VA        23454        VIRGINIA BEACH 
    #>  7 BAYSE         VA        22810        BASYE          
    #>  8 VA BEACH      VA        23453        VIRGINIA BEACH 
    #>  9 ALEXNDRIA     VA        22314        ALEXANDRIA     
    #> 10 CLEARBROOK    VA        22624        CLEAR BROOK    
    #> # … with 12 more rows
…
    #> [1] 396
    #> # A tibble: 162 × 5
    #>    con_state con_zip_norm con_city_swap       con_city_refine     n
    #>    <chr>     <chr>        <chr>               <chr>           <int>
    #>  1 VA        22180        VIENNA VA           VIENNA             44
    #>  2 NV        89410        GARDNERVILLE NEVADA GARDNERVILLE       23
    #>  3 VA        20143        CATHARPINCATHARPIN  CATHARPIN          16
    #>  4 NY        11201        BROOKLYN|NY         BROOKLYN           15
    #>  5 PA        17402        YORKYORK            YORK               13
    #>  6 VA        23220        RICHMONDRICHMOND    RICHMOND           13
    #>  7 MA        02144        SOMMERSVILLE        SOMERVILLE         10
    #>  8 CO        80014        AURORA CO           AURORA              9
    #>  9 OR        97103        ASTORIA OR          ASTORIA             9
    #> 10 SC        29406        NORTH CHARLESTON    CHARLESTON          8
    #> # … with 152 more rows
…
