…
``` r
pa %>% group_by(EXPDESC) %>% summarize(total = sum(EXPAMT)) %>% arrange(desc(total))
```

    #> # A tibble: 79,862 x 2
    #>    EXPDESC                                       total
    #>    <chr>                                         <dbl>
    #>  1 <NA>                                     266672765.
    #>  2 CONTRIBUTION                             185395743.
    #>  3 NON PA DISBURSEMENTS                      95018717.
    #>  4 DONATION                                  26623333.
    #>  5 MEDIA BUY                                 26199723.
    #>  6 NON-PENNSYLVANIA EXPENDITURES             21187323.
    #>  7 POLITICAL CONTRIBUTION                    15977415.
    #>  8 BALANCE OF DISBURSEMENTS FROM FEC REPORT  15574849.
    #>  9 AD BUY                                    15494933.
    #> 10 CAMPAIGN CONTRIBUTION                     14995155.
    #> # … with 79,852 more rows
…
pa_refined %>% 
  count(city_swap, city_refine) %>% 
  arrange(desc(n))
```

    #> # A tibble: 70 x 3
    #>    city_swap        city_refine        n
    #>    <chr>            <chr>          <int>
    #>  1 SINKING SPRINGS  SINKING SPRING    23
    #>  2 SOUTHERN EASTERN SOUTHEASTERN      18
    #>  3 MC MURRAY        MCMURRAY          15
    #>  4 MC BG            MCCBG             13
    #>  5 PLEASANT MOUNT   MOUNT PLEASANT    12
    #>  6 CLIFFORD         FORD CLIFF         8
    #>  7 WESCOESVILLE     WESCOSVILLE        8
    #>  8 EDDYSTON         EDDYSTONE          7
    #>  9 BROMALL          BROOMALL           4
    #> 10 CARSLISLE        CARLISLE           4
    #> # … with 60 more rows
…
``` r
tabyl(pa_filer$STATE)
```

    #> # A tibble: 34 x 4
    #>    `pa_filer$STATE`     n  percent valid_percent
    #>    <chr>            <dbl>    <dbl>         <dbl>
    #>  1 AL                   5 0.000147      0.000147
    #>  2 AR                   7 0.000206      0.000206
    #>  3 AZ                  11 0.000324      0.000324
    #>  4 CA                  68 0.00200       0.00200 
    #>  5 CO                  23 0.000677      0.000678
    #>  6 CT                  36 0.00106       0.00106 
    #>  7 DC                1020 0.0300        0.0301  
    #>  8 DE                  51 0.00150       0.00150 
    #>  9 FL                  29 0.000853      0.000855
    #> 10 GA                  21 0.000618      0.000619
    #> # … with 24 more rows
…
