…
After uniting and coalescing the contributor and recipient columns, 0
records are missing a name, date, or amount.

``` r
key_vars <- c("date", "contributor", "amount", "recipient")
mec <- flag_na(mec, all_of(key_vars))
percent(mean(mec$na_flag), 0.1)
#> [1] "5.4%"
```

``` r
mec %>% 
  filter(na_flag) %>% 
  select(all_of(key_vars))
#> # A tibble: 21,414 x 4
#>    date       contributor  amount recipient                           
#>    <date>     <chr>         <dbl> <chr>                               
#>  1 2008-01-01 <NA>        1147.   Representative Christopher R Barstow
#>  2 2008-01-01 <NA>         463.   Representative Richard D Blanchard  
#>  3 2008-01-01 <NA>          35    Representative Donald E Pilon       
#>  4 2008-01-08 <NA>          15    Mr. Gary L Pelletier                
#>  5 2008-01-08 <NA>           3.15 Mr. Gary L Pelletier                
#>  6 2008-01-10 <NA>         400    Ms. Roberta B Beavers               
#>  7 2008-01-11 <NA>        2020.   Mr. Bradley S Moulton               
#>  8 2008-01-11 <NA>          25    Ms. Denise Anne Tepler              
#>  9 2008-01-11 <NA>          50    Ms. Denise Anne Tepler              
#> 10 2008-01-11 <NA>          10    Ms. Denise Anne Tepler              
#> # … with 21,404 more rows
```
…
``` r
mec <- flag_dupes(mec, -id)
percent(mean(mec$dupe_flag), 0.1)
#> [1] "2.5%"
```

``` r
mec %>% 
  filter(dupe_flag) %>% 
  select(all_of(key_vars)) %>% 
  arrange(date, contributor)
#> # A tibble: 9,725 x 4
#>    date       contributor amount recipient                
#>    <date>     <chr>        <dbl> <chr>                    
#>  1 2008-01-11 <NA>            25 Ms. Denise Anne Tepler   
#>  2 2008-01-11 <NA>            50 Ms. Denise Anne Tepler   
#>  3 2008-01-11 <NA>            25 Ms. Denise Anne Tepler   
#>  4 2008-01-11 <NA>            50 Ms. Denise Anne Tepler   
#>  5 2008-01-11 <NA>            25 Ms. Denise Anne Tepler   
#>  6 2008-01-20 <NA>            50 Ms. Denise Anne Tepler   
#>  7 2008-01-20 <NA>            50 Ms. Denise Anne Tepler   
#>  8 2008-01-27 <NA>            25 Mr. Ronald J McAllister  
#>  9 2008-01-27 <NA>            25 Mr. Ronald J McAllister  
#> 10 2008-01-29 <NA>            50 Senator Philip L Bartlett
#> # … with 9,715 more rows
```
…
    remove = FALSE,
    na.rm = TRUE
  ) %>% 
  mutate(
    address_norm = normal_address(
      address = address_full,
      abbs = usps_street,
      na_rep = TRUE
    )
  ) %>% 
  select(-address_full) %>% 
  distinct()
```

    #> # A tibble: 159,855 x 3
    #>    address1           address2 address_norm    
    #>    <chr>              <chr>    <chr>           
    #>  1 <NA>               <NA>     <NA>            
    #>  2 19 Community Drive <NA>     19 COMMUNITY DR 
    #>  3 19 COMMUNITY DRIVE <NA>     19 COMMUNITY DR 
    #>  4 35 COMMUNITY DRIVE <NA>     35 COMMUNITY DR 
    #>  5 .                  <NA>     <NA>            
    #>  6 186 Ledgemere Road <NA>     186 LEDGEMERE RD
    #>  7 P.O. Box 15277     <NA>     PO BOX 15277    
    #>  8 35 Community Drive <NA>     35 COMMUNITY DR 
    #>  9 70 Sewall Street   <NA>     70 SEWALL ST    
    #> 10 101 WESTERN AVE    <NA>     101 WESTERN AVE 
    #> # … with 159,845 more rows
…
``` r
mec %>% 
  filter(state != state_norm) %>% 
  count(state, state_norm, sort = TRUE)
#> # A tibble: 35 x 3
#>    state state_norm     n
#>    <chr> <chr>      <int>
#>  1 Me    ME            48
#>  2 me    ME            22
#>  3 Ma    MA            17
#>  4 Va    VA            10
#>  5 Fl    FL             9
#>  6 ma    MA             7
#>  7 Ct    CT             6
#>  8 dC    DC             5
#>  9 Pa    PA             5
#> 10 Ca    CA             4
#> # … with 25 more rows
```
…
    #> [1] 74
    #> # A tibble: 67 x 5
    #>    state_norm zip_norm city_swap              city_refine       n
    #>    <chr>      <chr>    <chr>                  <chr>         <int>
    #>  1 NY         11733    SETAUKET               EAST SETAUKET     3
    #>  2 CA         94102    SAN FRANSICO           SAN FRANCISCO     2
    #>  3 CA         94118    SAN FRANSICO           SAN FRANCISCO     2
    #>  4 ME         04046    KENNEBUNUNKPORT        KENNEBUNKPORT     2
    #>  5 MI         48640    MIDLAND MI             MIDLAND           2
    #>  6 NY         10028    NEW YORK NY            NEW YORK          2
    #>  7 AP         96319    APO AP                 APO               1
    #>  8 AZ         85003    PHOENIXPHOENIX         PHOENIX           1
    #>  9 AZ         85027    PHONIEX                PHOENIX           1
    #> 10 CA         90027    LOS ANGELOS ANGELESLES LOS ANGELES       1
    #> # … with 57 more rows
…
``` r
mec <- left_join(mec, norm_city)
```

``` r
comma(nrow(mec))
#> [1] "396,823"
```

``` r
many_city <- c(valid_city, extra_city)
mec %>% 
  filter(city_refine %out% many_city) %>% 
  count(city_refine, state_norm, sort = TRUE)
#> # A tibble: 1,085 x 3
#>    city_refine         state_norm     n
#>    <chr>               <chr>      <int>
#>  1 <NA>                ME         15675
#>  2 <NA>                <NA>       13285
#>  3 ARROWSIC            ME           451
#>  4 WEST BATH           ME           298
#>  5 VEAZIE              ME           268
#>  6 WESTPORT ISLAND     ME           182
#>  7 CARRABASSETT VALLEY ME           111
#>  8 CHINA VILLAGE       ME            97
#>  9 ABBOTT PARK         IL            93
#> 10 BOWERBANK           ME            90
#> # … with 1,075 more rows
```
…
