…
``` r
sce <- flag_dupes(sce, -exp_id)
sum(sce$dupe_flag)
#> [1] 5189
mean(sce$dupe_flag)
#> [1] 0.01493809
```

``` r
sce %>% 
  filter(dupe_flag) %>% 
  select(all_of(key_vars)) %>% 
  arrange(exp_date)
#> # A tibble: 5,189 × 4
#>    exp_date   vendor_name          amount candidate_name       
#>    <date>     <chr>                 <dbl> <chr>                
#>  1 2007-07-12 Liollio & Associates  50    Alexander, Aubry G II
#>  2 2007-07-12 Liollio & Associates  50    Alexander, Aubry G II
#>  3 2007-07-19 Eckerd Drugs           3.61 Long, Ernest B       
#>  4 2007-07-19 Eckerd Drugs           3.61 Long, Ernest B       
#>  5 2007-08-09 Wal-Mart               0.96 Portee, Alvin   Jr.  
#>  6 2007-08-09 Wal-Mart               0.96 Portee, Alvin   Jr.  
#>  7 2007-08-17 Alltel                60.7  Allison, Merita A    
#>  8 2007-08-17 Alltel                60.7  Allison, Merita A    
#>  9 2007-09-03 Wal-Mart               3.48 Portee, Alvin   Jr.  
#> 10 2007-09-03 Wal-Mart               3.48 Portee, Alvin   Jr.  
#> # … with 5,179 more rows
```
…
``` r
sce %>%
  filter(zip_sep != zip_norm | !is.na(zip_sep) & is.na(zip_norm)) %>%
  count(zip_sep, zip_norm, sort = TRUE)
#> # A tibble: 1,355 × 3
#>    zip_sep    zip_norm     n
#>    <chr>      <chr>    <int>
#>  1 00000      <NA>       929
#>  2 27611-7131 27611      225
#>  3 75266-0108 75266      201
#>  4 02144-3132 02144      193
#>  5 30353-8641 30353      156
#>  6 02144-0031 02144      139
#>  7 28296-0019 28296      109
#>  8 33340-7066 33340      100
#>  9 29202-0029 29202       94
#> 10 94043-1351 94043       92
#> # … with 1,345 more rows
```
…
