…
## Explore

### Categorical

#### Year

We can see that the data is pretty up to date. However, there’re some
fileds indicating the annual registration was recorded in `2055`, which
is presumably a human error.

``` r
owner <- owner %>% 
  mutate(year = year(association_date_clean))
tabyl(owner$year)
#> # A tibble: 75 x 4
#>    `owner$year`     n    percent valid_percent
#>           <dbl> <dbl>      <dbl>         <dbl>
#>  1         1942     1 0.00000603    0.00000605
#>  2         1943     1 0.00000603    0.00000605
#>  3         1945     1 0.00000603    0.00000605
#>  4         1947     1 0.00000603    0.00000605
#>  5         1948     2 0.0000121     0.0000121 
#>  6         1950     3 0.0000181     0.0000182 
#>  7         1952     4 0.0000241     0.0000242 
#>  8         1953     1 0.00000603    0.00000605
#>  9         1954     2 0.0000121     0.0000121 
#> 10         1955     3 0.0000181     0.0000182 
#> # … with 65 more rows
```
…
