…
``` r
hie %>% 
  count(city, sort = TRUE) %>% 
  filter(city %out% valid_city)
```

    #> # A tibble: 1,095 × 2
    #>    city               n
    #>    <chr>          <int>
    #>  1 KAILUA-KONA     2742
    #>  2 SOMMERVILLE      343
    #>  3 95131            227
    #>  4 HON              210
    #>  5 ???              202
    #>  6 IWILEI           190
    #>  7 ONLINE           171
    #>  8 HONOLULU, OAHU   147
    #>  9 -                133
    #> 10 KANE'OHE         132
    #> # ℹ 1,085 more rows
…
``` r
hie %>% 
  count(state, city_swap, sort = TRUE) %>% 
  filter(city_swap %out% valid_city) %>% 
  drop_na()
```

    #> # A tibble: 403 × 3
    #>    state city_swap         n
    #>    <chr> <chr>         <int>
    #>  1 HI    HON             233
    #>  2 HI    IWILEI          190
    #>  3 HI    HONOLULU OAHU   146
    #>  4 CA    MOUNT VIEW      110
    #>  5 PA    CHESTERBROOK    105
    #>  6 HI    LANAI            95
    #>  7 HI    WAILEA           89
    #>  8 HI    KONA             81
    #>  9 CA    SAN FRANSCISO    67
    #> 10 HI    KAHULUI MAUI     56
    #> # ℹ 393 more rows
…
