…
``` r
oke <- flag_dupes(oke, -expenditure_id)
sum(oke$dupe_flag)
#> [1] 4674
mean(oke$dupe_flag)
#> [1] 0.02554378
```

``` r
oke %>% 
  filter(dupe_flag) %>% 
  select(all_of(key_vars)) %>% 
  arrange(expenditure_date)
#> # A tibble: 4,674 × 5
#>    expenditure_date last_name              expenditure_amount candidate_name committee_name                             
#>    <date>           <chr>                               <dbl> <chr>          <chr>                                      
#>  1 2014-12-15       INMAN                               1000  <NA>           COMMITTEE FOR THE INAUGURATION OF GOVERNOR…
#>  2 2014-12-15       INMAN                               1000  <NA>           COMMITTEE FOR THE INAUGURATION OF GOVERNOR…
#>  3 2015-01-09       COLLINS                              110. <NA>           COMMITTEE FOR THE INAUGURATION OF GOVERNOR…
#>  4 2015-01-09       COLLINS                              110. <NA>           COMMITTEE FOR THE INAUGURATION OF GOVERNOR…
#>  5 2015-01-19       NON-ITEMIZED RECIPIENT               400  <NA>           THOROUGHBRED PAC                           
#>  6 2015-01-19       NON-ITEMIZED RECIPIENT               400  <NA>           THOROUGHBRED PAC                           
#>  7 2015-01-19       NON-ITEMIZED RECIPIENT               250  <NA>           THOROUGHBRED PAC                           
#>  8 2015-01-19       NON-ITEMIZED RECIPIENT               400  <NA>           THOROUGHBRED PAC                           
#>  9 2015-01-19       NON-ITEMIZED RECIPIENT               250  <NA>           THOROUGHBRED PAC                           
#> 10 2015-01-19       NON-ITEMIZED RECIPIENT               225  <NA>           THOROUGHBRED PAC                           
#> # … with 4,664 more rows
```
…
``` r
addr_norm
#> # A tibble: 21,367 × 3
#>    address_1                 address_2 address_norm          
#>    <chr>                     <chr>     <chr>                 
#>  1 4506 NE HIGHLANDER CIRCLE <NA>      4506 NE HIGHLANDER CIR
#>  2 <NA>                      <NA>      <NA>                  
#>  3 247906 E 1920 RD          <NA>      247906 E 1920 RD      
#>  4 1854 CHURCH AVENUE        <NA>      1854 CHURCH AVE       
#>  5 P. O. BOX 2300            <NA>      P O BOX 2300          
#>  6 4709 N LINCOLN BLVD       <NA>      4709 N LINCOLN BLVD   
#>  7 511 E LEE                 <NA>      511 E LEE             
#>  8 678 KICKAPOO SPUR         <NA>      678 KICKAPOO SPUR     
#>  9 305 NW 5TH                <NA>      305 NW 5TH            
#> 10 2010 RAMONA DRIVE         <NA>      2010 RAMONA DR        
#> # … with 21,357 more rows
```
…
