…
``` r
mi <- mi %>% 
  mutate(
    city_norm = normal_city(
      city = str_replace(city, "\\bTWP\\b", "TOWNSHIP"),
      geo_abbs = usps_city,
      st_abbs = c("MI", "MICHIGAN", "DC"),
      na = na_city,
      na_rep = TRUE
    )
  )
```

    #> # A tibble: 26,164 x 2
    #>    city             city_norm        
    #>    <chr>            <chr>            
    #>  1 ORION TWP        ORION TOWNSHIP   
    #>  2 MT. CLEMENS      MOUNT CLEMENS    
    #>  3 SAULT STE. MARIE SAULT STE MARIE  
    #>  4 REDFORD TWP.     REDFORD TOWNSHIP 
    #>  5 ST. JOSEPH       SAINT JOSEPH     
    #>  6 HARRISON TWP.    HARRISON TOWNSHIP
    #>  7 ST. JOHNS        SAINT JOHNS      
    #>  8 MT. PLEASANT     MOUNT PLEASANT   
    #>  9 MT. CLEMENS      MOUNT CLEMENS    
    #> 10 ST. CLAIR        SAINT CLAIR      
    #> # … with 26,154 more rows
…
#### Reivew

``` r
mi %>% 
  filter(city_swap %out% geo$city) %>% 
  count(state_norm, city_swap, sort = TRUE)
```

    #> # A tibble: 1,136 x 3
    #>    state_norm city_swap               n
    #>    <chr>      <chr>               <int>
    #>  1 MI         <NA>                 6844
    #>  2 <NA>       <NA>                 3697
    #>  3 MI         FARMINGTON HILLS     3381
    #>  4 MI         SHELBY TOWNSHIP      2445
    #>  5 MI         ROCHESTER HILLS      2222
    #>  6 OH         SYMMES TOWNSHIP       967
    #>  7 MI         GROSSE POINTE FARMS   847
    #>  8 MI         LATHRUP VILLAGE       806
    #>  9 MI         SAULT STE MARIE       772
    #> 10 MI         BINGHAM FARMS         767
    #> # … with 1,126 more rows
…
