…
This process also automatically removed a number of invalid values.

``` r
prop_na(mic$address)
#> [1] 0.0009947473
prop_na(mic$address_norm)
#> [1] 0.001430094
mic %>% 
  select(contains("address")) %>% 
  filter(!is.na(address), is.na(address_norm)) %>% 
  count(address, sort = TRUE)
#> # A tibble: 73 x 2
#>    address                     n
#>    <chr>                   <int>
#>  1 "NOT KNOWN"              2789
#>  2 "UNKNOWN"                2090
#>  3 "NULL"                    719
#>  4 "INFORMATION REQUESTED"   246
#>  5 " UNKNOWN"                228
#>  6 "P.O. BOX"                146
#>  7 "REQUESTED"               129
#>  8 "PO BOX"                   85
#>  9 " NA"                      83
#> 10 "N/A"                      73
#> # … with 63 more rows
```
…
      key_collision_merge() %>% 
      n_gram_merge(numgram = 1)
  ) %>% 
  filter(city_refine != city_swap) %>% 
  inner_join(
    y = zipcodes,
    by = c(
      "city_refine" = "city",
      "state_norm" = "state",
      "zip_norm" = "zip"
    )
  )
```

    #> # A tibble: 408 x 5
    #>    state_norm zip_norm city_swap          city_refine         n
    #>    <chr>      <chr>    <chr>              <chr>           <int>
    #>  1 MI         48094    WASHINGTON TOWNSHI WASHINGTON        714
    #>  2 MI         48021    EAST POINT         EASTPOINTE        378
    #>  3 MD         20910    SLIVER SPRINGS     SILVER SPRING     180
    #>  4 MI         48879    SAINT JOHNSON      SAINT JOHNS       159
    #>  5 WI         54151    NIARAGA            NIAGARA           104
    #>  6 MI         48094    WASHINGTON TOWNS   WASHINGTON         98
    #>  7 MI         48027    GOODLES            GOODELLS           69
    #>  8 MI         48322    WEST BLOOMFIELD TO WEST BLOOMFIELD    62
    #>  9 MI         48759    SEBAWING           SEBEWAING          61
    #> 10 MI         48095    WASHINGTON TOWNSHI WASHINGTON         60
    #> # … with 398 more rows
…
#### Progress

``` r
many_city <- c(valid_city, extra_city, valid_locality)
mic$city_refine <- str_remove(mic$city_refine, "\\sTOWNSHIP$")
mic %>% 
  filter(city_refine %out% many_city) %>% 
  count(city_refine, sort = TRUE)
#> # A tibble: 3,935 x 2
#>    city_refine            n
#>    <chr>              <int>
#>  1 <NA>               85088
#>  2 ORCHARD LAKE        6535
#>  3 FRMGTN HILLS        4544
#>  4 GROSSE POINTE FARM  3323
#>  5 GROSSE PTE WOODS    3230
#>  6 GROSSE POINTE WOOD  3111
#>  7 BURTCHVILLE         2865
#>  8 GROSSE PTE FARMS    2499
#>  9 GRS POINT WDS       1941
#> 10 GROSSE PTE PARKS    1875
#> # … with 3,925 more rows
```
…
