…
``` r
key_vars <- c("expenditure_date", "payee_last_name", 
              "expenditure_amount", "committee_name")
nme <- flag_na(nme, all_of(key_vars))
percent(mean(nme$na_flag), 0.01)
#> [1] "0.01%"
```

``` r
nme %>% 
  filter(na_flag) %>% 
  select(age, all_of(key_vars))
#> # A tibble: 76 × 5
#>    age   expenditure_date    payee_last_name expenditure_amount committee_name                              
#>    <chr> <dttm>              <chr>                        <dbl> <chr>                                       
#>  1 new   2020-11-12 00:00:00 <NA>                          70.1 Bernalillo County Democratic Party          
#>  2 new   2020-11-12 00:00:00 <NA>                          70.1 Bernalillo County Democratic Party          
#>  3 new   2020-11-12 00:00:00 <NA>                          70.1 Bernalillo County Democratic Party          
#>  4 new   2020-10-08 00:00:00 <NA>                         300   Bernalillo County Democratic Party          
#>  5 new   2020-10-08 00:00:00 <NA>                         300   Bernalillo County Democratic Party          
#>  6 new   2020-10-08 00:00:00 <NA>                         300   Bernalillo County Democratic Party          
#>  7 new   2020-07-30 00:00:00 <NA>                          83   Candidate Campaign Committee – REBECCA L DOW
#>  8 new   2020-10-01 00:00:00 <NA>                          83   Candidate Campaign Committee – REBECCA L DOW
#>  9 new   2020-11-02 00:00:00 <NA>                          83   Candidate Campaign Committee – REBECCA L DOW
#> 10 new   2020-12-01 00:00:00 <NA>                          83   Candidate Campaign Committee – REBECCA L DOW
#> # … with 66 more rows
```
…
A surprisingly large percentage of the expenditures are duplicates.

``` r
percent(mean(nme$dupe_flag), 0.01)
#> [1] "18.56%"
```

``` r
nme %>% 
  filter(dupe_flag) %>% 
  select(age, all_of(key_vars)) %>% 
  arrange(committee_name)
#> # A tibble: 103,958 × 5
#>    age   expenditure_date    payee_last_name                            expenditure_amount committee_name               
#>    <chr> <dttm>              <chr>                                                   <dbl> <chr>                        
#>  1 new   2020-10-06 00:00:00 "Luciano \"Lucky\" Varela for New Mexico …              873.  (no longer a campaign commit…
#>  2 new   2020-10-06 00:00:00 "Luciano \"Lucky\" Varela for New Mexico …              873.  (no longer a campaign commit…
#>  3 new   2020-11-03 00:00:00 "ActBlue"                                                 0.6 A New Day For NM             
#>  4 new   2020-11-15 00:00:00 "ActBlue"                                                 0.6 A New Day For NM             
#>  5 new   2020-12-13 00:00:00 "ActBlue"                                                 0.6 A New Day For NM             
#>  6 new   2020-12-31 00:00:00 "ActBlue"                                                18.8 A New Day For NM             
#>  7 new   2020-11-10 00:00:00 "Tokser Inc"                                             26.0 A New Day For NM             
#>  8 new   2020-11-17 00:00:00 "Hammer"                                                255   A New Day For NM             
#>  9 new   2020-11-17 00:00:00 "Altivus CRM Solutions"                                 263.  A New Day For NM             
#> 10 new   2020-11-17 00:00:00 "Bridges"                                               297   A New Day For NM             
#> # … with 103,948 more rows
```

Most of these duplicate expenditures were made from
`ActBlue New Mexico`.

``` r
nme %>% 
  filter(dupe_flag) %>% 
  count(committee_name, expenditure_type, sort = TRUE) %>% 
  add_prop()
#> # A tibble: 735 × 4
#>    committee_name                                             expenditure_type            n       p
#>    <chr>                                                      <chr>                   <int>   <dbl>
#>  1 ActBlue New Mexico                                         Other                   70065 0.674  
#>  2 ActBlue New Mexico                                         Monetary Expenditure    12903 0.124  
#>  3 Planned Parenthood Votes New Mexico  IE Committee          Independent Expenditure  1224 0.0118 
#>  4 NMHRCC-New Mexico House Republican Campaign Committee      Monetary Expenditures     560 0.00539
#>  5 Rio Grande Chapter of Sierra Club PAC                      Monetary Expenditures     450 0.00433
#>  6 Martinez                                                   Monetary Expenditure      438 0.00421
#>  7 Denish                                                     Monetary Expenditure      343 0.00330
#>  8 Keep Judge Erin O'onnell                                   Other                     306 0.00294
#>  9 Planned Parenthood Votes  New Mexico Coordinated Committee Monetary Expenditures     300 0.00289
#> 10 NM ASSOC OF REALTORS PAC                                   Other                     288 0.00277
#> # … with 725 more rows
```
…
``` r
nm_addr
#> # A tibble: 6,076 × 2
#>    payee_address_1             address_norm          
#>    <chr>                       <chr>                 
#>  1 Po box 2946                 PO BOX 2946           
#>  2 01 HAMMOND CT               01 HAMMOND CT         
#>  3 2214 Sun Ranch Village Loop 2214 SUN RNCH VLG LOOP
#>  4 1 MIRANDA RD                1 MIRANDA RD          
#>  5 1719 JEANNIE DR             1719 JEANNIE DR       
#>  6 1501 BOUTZ                  1501 BOUTZ            
#>  7 5305 SUPERSTITION DR        5305 SUPERSTITION DR  
#>  8 2 RED WILLOW CIR            2 RED WILLOW CIR      
#>  9 4449 LEVANTE DR             4449 LEVANTE DR       
#> 10 5248 SINGER RD              5248 SINGER RD        
#> # … with 6,066 more rows
```
…
``` r
nme %>% 
  filter(payee_state != state_norm) %>% 
  count(payee_state, state_norm, sort = TRUE)
#> # A tibble: 132 × 3
#>    payee_state          state_norm     n
#>    <chr>                <chr>      <int>
#>  1 New Mexico           NM          3742
#>  2 Tennessee            TN           113
#>  3 Utah                 UT           108
#>  4 nm                   NM           102
#>  5 Arizona              AZ           100
#>  6 District of Columbia DC            97
#>  7 California           CA            92
#>  8 Virginia             VA            81
#>  9 Washington           WA            72
#> 10 Illinois             IL            51
#> # … with 122 more rows
```
…
      key_collision_merge() %>% 
      n_gram_merge(numgram = 1)
  ) %>% 
  filter(city_refine != city_swap) %>% 
  inner_join(
    y = zipcodes,
    by = c(
      "city_refine" = "city",
      "state_norm" = "state",
      "zip_norm" = "zip"
    )
  )
```

    #> # A tibble: 100 × 5
    #>    state_norm zip_norm city_swap      city_refine       n
    #>    <chr>      <chr>    <chr>          <chr>         <int>
    #>  1 NC         28270    CHAROLETTE     CHARLOTTE       113
    #>  2 MA         02144    SOMMERVIELL    SOMERVILLE       82
    #>  3 CA         94105    SAN FRANSICO   SAN FRANCISCO    35
    #>  4 IL         60094    PALLANTINE     PALATINE         21
    #>  5 NM         88081    CHAPPARAL      CHAPARRAL        20
    #>  6 NM         87375    YA TA HEY      YATAHEY          19
    #>  7 NM         88310    ALMGORODO      ALAMOGORDO       16
    #>  8 NM         87106    ALBUQUERQERQUE ALBUQUERQUE      15
    #>  9 NM         87375    YAH TA HEY     YATAHEY          14
    #> 10 CA         94107    SAN FRANSICO   SAN FRANCISCO    12
    #> # … with 90 more rows
…
