…
The files are downloaded to the `scrape/` directory.

``` r
raw_dir <- dir_create(here("state","wi", "contribs", "data", "scrape"))
raw_info <- as_tibble(dir_info(raw_dir))
sum(raw_info$size)
#> 1.48G
raw_info %>% 
  select(path, size, modification_time) %>% 
  mutate(across(path, basename))
#> # A tibble: 130 × 3
#>    path                                   size modification_time  
#>    <chr>                           <fs::bytes> <dttm>             
#>  1 wi_contribs_1-65000.csv               13.8M 2023-06-04 20:50:52
#>  2 wi_contribs_1040001-1105000.csv       12.3M 2023-06-06 09:10:40
#>  3 wi_contribs_1105001-1170000.csv       11.2M 2023-06-06 09:14:34
#>  4 wi_contribs_1170001-1235000.csv       10.7M 2023-06-06 09:18:32
#>  5 wi_contribs_1235001-1300000.csv       11.1M 2023-06-06 09:22:31
#>  6 wi_contribs_1300001-1365000.csv       10.5M 2023-06-06 09:42:37
#>  7 wi_contribs_130001-195000.csv           13M 2023-06-04 23:55:59
#>  8 wi_contribs_1365001-1430000.csv       10.9M 2023-06-06 09:46:34
#>  9 wi_contribs_1430001-1495000.csv       11.4M 2023-06-06 09:50:28
#> 10 wi_contribs_1495001-1560000.csv       11.5M 2023-06-06 09:54:24
#> # … with 120 more rows
…
3.2% of rows are duplicates.

``` r
wic %>% 
  filter(dupe_flag) %>% 
  select(key_vars) %>% 
  arrange(transaction_date)
#> # A tibble: 266,268 × 4
#>    transaction_date contributor_last contribution_amount receiving_committee_name         
#>    <date>           <chr>                          <dbl> <chr>                            
#>  1 2004-09-27       PFAFF                         20000  Pfaff for State Senate           
#>  2 2004-09-27       PFAFF                         20000  Pfaff for State Senate           
#>  3 2004-09-27       PFAFF                         20000  Pfaff for State Senate           
#>  4 2006-12-01       Parker                          220  Greg Parker for District Attorney
#>  5 2006-12-01       Parker                          220  Greg Parker for District Attorney
#>  6 2006-12-28       Jardine                        6486. Jardine for Wisconsin            
#>  7 2006-12-28       Jardine                        6486. Jardine for Wisconsin            
#>  8 2007-01-29       Clair                          3000  Christine Clair for Judge        
#>  9 2007-01-29       Clair                          3000  Christine Clair for Judge        
#> 10 2007-01-31       Hahn                            200  People for Hahn                  
#> # … with 266,258 more rows
```

``` r
wic %>% 
  filter(dupe_flag) %>% 
  count(transaction_date, contributor_last, 
        contribution_amount, receiving_committee_name, 
        sort = TRUE)
#> # A tibble: 109,244 × 5
#>    transaction_date contributor_last    contribution_amount receiving_committee_name              n
#>    <date>           <chr>                             <dbl> <chr>                             <int>
#>  1 2023-04-23       JOHNSON                            2    WEAC PAC                            144
#>  2 2022-05-16       Anonymous                         10    Mueller for Attorney General Com…   130
#>  3 2023-04-23       JOHNSON                            1.67 WEAC PAC                            128
#>  4 2008-10-30       Unitemized                        20    Assembly Democratic Camp Comm       120
#>  5 2022-08-25       Anonymous under $10               10    Leah Spicer for 51st                 93
#>  6 2023-04-23       MILLER                             1.67 WEAC PAC                             88
#>  7 2023-04-23       SMITH                              2    WEAC PAC                             86
#>  8 2023-04-23       SMITH                              1.67 WEAC PAC                             84
#>  9 2023-04-23       ANDERSON                           2    WEAC PAC                             82
#> 10 2023-04-23       ANDERSON                           1.67 WEAC PAC                             76
#> # … with 109,234 more rows
```
…
``` r
addr_norm
#> # A tibble: 1,585,934 × 3
#>    address_line1                 address_line2 address_norm               
#>    <chr>                         <chr>         <chr>                      
#>  1 W269 S3244 Merrill Hills Road <NA>          W269 S3244 MERRILL HILLS RD
#>  2 7633 Geralayne Circle         <NA>          7633 GERALAYNE CIR         
#>  3 8819 Whispering Oaks Court    <NA>          8819 WHISPERING OAKS CT    
#>  4 N26779 County Road T          <NA>          N26779 COUNTY ROAD T       
#>  5 3032 Walden Circle            <NA>          3032 WALDEN CIR            
#>  6 2845 North 68th Street        <NA>          2845 NORTH 68TH ST         
#>  7 3033 W. Spencer St.           <NA>          3033 W SPENCER ST          
#>  8 823 East Sunset Avenue        <NA>          823 EAST SUNSET AVE        
#>  9 2520 Settlement Road          <NA>          2520 SETTLEMENT RD         
#> 10 8348 South 68th Street        <NA>          8348 SOUTH 68TH ST         
#> # … with 1,585,924 more rows
```
…
      key_collision_merge() %>% 
      n_gram_merge(numgram = 1)
  ) %>% 
  filter(city_refine != city_swap) %>% 
  inner_join(
    y = zipcodes,
    by = c(
      "city_refine" = "city",
      "state_code" = "state",
      "zip_norm" = "zip"
    )
  )
```

    #> # A tibble: 411 × 5
    #>    state_code zip_norm city_swap        city_refine         n
    #>    <chr>      <chr>    <chr>            <chr>           <int>
    #>  1 WI         54873    SOLON SPRINGSSS  SOLON SPRINGS      35
    #>  2 WI         54751    MENOMINEE        MENOMONIE          28
    #>  3 WI         53051    MENONOMEE FALLS  MENOMONEE FALLS    25
    #>  4 CA         90292    MARINA DALE REY  MARINA DEL REY     21
    #>  5 WI         54751    MENONOMIE        MENOMONIE          15
    #>  6 WI         53566    MNRO MONROE      MONROE             14
    #>  7 CA         92625    CORONA DALE MAR  CORONA DEL MAR     12
    #>  8 IL         60030    GREYS LAKE       GRAYSLAKE          12
    #>  9 SC         29406    NORTH CHARLESTON CHARLESTON         12
    #> 10 WI         54956    NEEHAN           NEENAH             10
    #> # … with 401 more rows
…
