…
It also increased the proportion of `NA` values by 0.0679%. These new
`NA` values were either a single (possibly repeating) character, or
contained in the `na_city` vector.

    #> # A tibble: 114 x 4
    #>    zip_norm state_norm city      city_norm
    #>    <chr>    <chr>      <chr>     <chr>    
    #>  1 63368    MO         Online    <NA>     
    #>  2 65203    MO         Unknown   <NA>     
    #>  3 65101    MO         unknown   <NA>     
    #>  4 <NA>     MO         None      <NA>     
    #>  5 63376    MO         requested <NA>     
    #>  6 64444    MO         Unkown    <NA>     
    #>  7 <NA>     MO         Unknown   <NA>     
    #>  8 65803    MO         internet  <NA>     
    #>  9 66212    MO         Unknown   <NA>     
    #> 10 12345    CA         Online    <NA>     
    #> # … with 104 more rows
…
nrow(good_refine)
#> [1] 66
```

    #> # A tibble: 57 x 5
    #>    state_norm zip_norm city_raw              city_refine         n
    #>    <chr>      <chr>    <chr>                 <chr>           <int>
    #>  1 KS         66101    Kanssas Cityas City   KANSAS CITY         5
    #>  2 MO         64108    Kanssas Cityas City   KANSAS CITY         4
    #>  3 CA         92067    Ranchero Sante Fe     RANCHO SANTA FE     3
    #>  4 CA         94133    "San Francisco CA "   SAN FRANCISCO       1
    #>  5 CA         95131    Jose San              SAN JOSE            1
    #>  6 DC         20009    NW Washington         WASHINGTON          1
    #>  7 IA         52802    Daavenportvenport     DAVENPORT           1
    #>  8 IL         60094    Palenentine           PALATINE            1
    #>  9 KS         66101    Kanansas Citysas City KANSAS CITY         1
    #> 10 KS         66101    Kansas City KS        KANSAS CITY         1
    #> # … with 47 more rows
…
#### Progress

We can make very few manual changes to capture the last few big invalid
values. Local city abbreviations (e.g., SPFD) often need to be changed
by hand.

``` r
mo %>%
  filter(city_refine %out% valid_city) %>% 
  count(state_norm, city_refine, sort = TRUE) %>% 
  drop_na(city_refine)
#> # A tibble: 553 x 3
#>    state_norm city_refine           n
#>    <chr>      <chr>             <int>
#>  1 KS         OVERLAND PARK       868
#>  2 MO         RAYTOWN             665
#>  3 MO         NORTH KANSAS CITY   518
#>  4 KS         PRAIRIE VILLAGE     430
#>  5 MO         OVERLAND            421
#>  6 MO         WEBSTER GROVES      418
#>  7 MO         UNIVERSITY CITY     376
#>  8 MO         STLOUIS             318
#>  9 MO         RICHMOND HEIGHTS    312
#> 10 KS         LENEXA              256
#> # … with 543 more rows
```
…
