…
``` r
addr_norm <- ctb %>% 
  distinct(billingstreet) %>% 
  mutate(
    address_norm = normal_address(
      address = billingstreet,
      abbs = usps_street,
      na_rep = TRUE
    )
  )
```

``` r
addr_norm
#> # A tibble: 139,716 × 2
#>    billingstreet                       address_norm                    
#>    <chr>                               <chr>                           
#>  1 744 ENFIELD STREET                  744 ENFIELD ST                  
#>  2 1585 BOSTON POST ROAD               1585 BOSTON POST RD             
#>  3 No information provided             NO INFORMATION PROVIDED         
#>  4 20 BROOKSIDE DRIVE                  20 BROOKSIDE DR                 
#>  5 295 SUNNYBANK AVE                   295 SUNNYBANK AVE               
#>  6 35 W BROAD STREET, 407              35 W BROAD STREET 407           
#>  7 253 INDIAN AVENUE 253 INDIAN AVENUE 253 INDIAN AVENUE 253 INDIAN AVE
#>  8 10 ANTHONY RD                       10 ANTHONY RD                   
#>  9 93 EAST MAIN STREET                 93 EAST MAIN ST                 
#> 10 43 W MAIN ST                        43 W MAIN ST                    
#> # … with 139,706 more rows
```
…
      key_collision_merge() %>% 
      n_gram_merge(numgram = 1)
  ) %>% 
  filter(city_refine != city_swap) %>% 
  inner_join(
    y = zipcodes,
    by = c(
      "city_refine" = "city",
      "state_norm" = "state",
      "zip_norm" = "zip"
    )
  )
```

    #> # A tibble: 22 × 5
    #>    state_norm zip_norm city_swap           city_refine             n
    #>    <chr>      <chr>    <chr>               <chr>               <int>
    #>  1 CT         06109    WHETERSFIELD        WETHERSFIELD            2
    #>  2 CT         06255    NORTH GROVESNORDALE NORTH GROSVENORDALE     2
    #>  3 CT         06002    BLOOMFLIED          BLOOMFIELD              1
    #>  4 CT         06110    WEST HARFROD        WEST HARTFORD           1
    #>  5 CT         06239    DANEISLON           DANIELSON               1
    #>  6 CT         06260    PUTMAN              PUTNAM                  1
    #>  7 CT         06268    MANSFIELD STORRS    STORRS MANSFIELD        1
    #>  8 CT         06410    CHERSIRE            CHESHIRE                1
    #>  9 CT         06441    HIGGUNAM            HIGGANUM                1
    #> 10 CT         06489    SOUGHTINGTON        SOUTHINGTON             1
    #> # … with 12 more rows
…
