…
#### Year

Sometimes in the current lobbyist list, there will be 2019 and 2020 registrations while everything else is the same. We can safely flag the earlier ones as duplicates and go with the new registration when joining it with the principal data.

``` r
mo_lob_reg <- mo_prin %>% 
  left_join(mo_lob, by = "lob_id")

mo_lob_reg <- mo_lob_reg %>% 
  mutate(year = year(rec_date))

mo_lob_reg$year %>% tabyl()
#> # A tibble: 27 x 3
#>        .     n   percent
#>    <dbl> <dbl>     <dbl>
#>  1  1991    36 0.00150  
#>  2  1993     1 0.0000417
#>  3  1994  3719 0.155    
#>  4  1995   757 0.0316   
#>  5  1996  1245 0.0520   
#>  6  1997  1026 0.0428   
#>  7  1998   304 0.0127   
#>  8  1999   426 0.0178   
#>  9  2000   685 0.0286   
#> 10  2001  1733 0.0723   
#> # … with 17 more rows
```
…
