…
    pri_name = ifelse(!indent, name, NA),
    pri_geo = ifelse(!indent, address, NA),
    pri_phone = ifelse(!indent, phone, NA)
  ) %>%
  fill(starts_with("pri")) %>%
  filter(indent) %>%
  select(-indent) %>% 
  rename(
    lob_name = name,
    lob_geo = address,
    lob_phone = phone
  )
```

    #> # A tibble: 809 x 6
    #>    lob_name         lob_geo              lob_phone   pri_name         pri_geo            pri_phone 
    #>    <chr>            <chr>                <chr>       <chr>            <chr>              <chr>     
    #>  1 Bromm Nielsen &… 635 S 14th Suite 31… (402)327-1… 3M COMPANY       225-4N-14, St. Pa… (651)503-…
    #>  2 Husch Blackwell… 1327 H Street, Linc… (402)434-8… 4 Lanes 4 Nebra… 1327 H St., Ste. … (402)434-…
    #>  3 White, Rosemary  910 N. 96th Street,… (402)938-3… AAA Nebraska an… 910 N. 96th Stree… (402)938-…
    #>  4 American Commun… 1141 H Street, Suit… (402)475-0… AARP Nebraska    301 S. 13th Stree… (402)323-…
    #>  5 Decamp, Suzan    301 South 13th Stre… (402)323-5… AARP Nebraska    301 S. 13th Stree… (402)323-…
    #>  6 DeLong, Danny    P.O. Box 501, Beatr… (402)323-5… AARP Nebraska    301 S. 13th Stree… (402)323-…
    #>  7 Holmquist, David 301 S. 13th Street,… (402)323-5… AARP Nebraska    301 S. 13th Stree… (402)323-…
    #>  8 Lassen, Robert   301 S. 13th Street,… (402)323-5… AARP Nebraska    301 S. 13th Stree… (402)323-…
    #>  9 Nathan, Robbie   301 S. 13th Street,… (402)323-5… AARP Nebraska    301 S. 13th Stree… (402)323-…
    #> 10 Potter, Tim      301 South 13th Stre… (402)323-5… AARP Nebraska    301 S. 13th Stree… (402)323-…
    #> # … with 799 more rows
…
### Address

``` r
nelr <- nelr %>% 
  mutate_at(
    .vars = vars(ends_with("address")),
    .fun = list(norm = normal_address),
    abbs = usps_street,
    na_rep = TRUE
  )
```

    #> # A tibble: 514 x 2
    #>    pri_address                               pri_address_norm                       
    #>    <chr>                                     <chr>                                  
    #>  1 1650 Farnam Street                        1650 FARNAM ST                         
    #>  2 PO Box 406                                PO BOX 406                             
    #>  3 6601 Pioneers Boulevard Ste 1             6601 PIONEERS BLVD STE 1               
    #>  4 8055 O Street Suite 300                   8055 O ST STE 300                      
    #>  5 66455 Ponderrosa Road                     66455 PONDERROSA RD                    
    #>  6 9019 South 72nd Street                    9019 S 72 ND ST                        
    #>  7 215 Centennial Mall South Suite 310       215 CENTENNIAL MALL S STE 310          
    #>  8 C/O Morrow Willnauer 1299 Farnam Ste. 250 CO MORROW WILLNAUER 1299 FARNAM STE 250
    #>  9 P.O. Box 200                              PO BOX 200                             
    #> 10 1321 Jones St.                            1321 JONES ST                          
    #> # … with 504 more rows
…
