…
idlr %>% 
  filter(emp_city_swap %out% many_city) %>% 
  count(emp_state, emp_city_norm, emp_city_swap, sort = TRUE)
#> # A tibble: 23 × 4
#>    emp_state emp_city_norm     emp_city_swap         n
#>    <chr>     <chr>             <chr>             <int>
#>  1 CA        RAFAEL            RAFAEL               17
#>  2 PA        CYNWYD            CYNWYD               15
#>  3 IL        OAK BROOKE HARRIS OAK BROOKE HARRIS    10
#>  4 NV        LAS VEGAS         <NA>                 10
#>  5 DC        DC                DC                    8
#>  6 OR        JORDAN VALLEY     <NA>                  8
#>  7 ID        WASHINGTON        <NA>                  6
#>  8 IL        CHICAGO           <NA>                  6
#>  9 VA        TYSONS            TYSONS                6
#> 10 ID        SANTA MONICA      <NA>                  5
#> # … with 13 more rows
```
…
