…
We can flag any record missing a key variable needed to identify a
transaction.

``` r
key_vars <- c("issue_date", "property_owner", "address")
dcb <- flag_na(dcb, all_of(key_vars))
sum(dcb$na_flag)
#> [1] 62
```

``` r
dcb %>% 
  filter(na_flag) %>% 
  select(all_of(key_vars))
#> # A tibble: 62 × 3
#>    issue_date property_owner address                                           
#>    <date>     <chr>          <chr>                                             
#>  1 2008-09-29 <NA>           1000 H ST NW, WASHINGTON, DC                      
#>  2 2008-10-16 <NA>           914 11TH ST SE, WASHINGTON, DC                    
#>  3 2008-10-17 <NA>           1354 - 1356 EUCLID ST NW, WASHINGTON, DC          
#>  4 2008-12-23 <NA>           1810 EDWIN ST NE, WASHINGTON, DC                  
#>  5 2008-12-09 <NA>           1900 - 1904 23RD ST SE, WASHINGTON, DC            
#>  6 2008-12-09 <NA>           1901 - 1909 23RD ST SE, WASHINGTON, DC            
#>  7 2008-12-17 <NA>           1906 - 1910 23RD ST SE, WASHINGTON, DC 20020      
#>  8 2008-12-09 <NA>           1805 - 1809 23RD ST SE, WASHINGTON, DC            
#>  9 2009-05-14 <NA>           300 D ST SW, WASHINGTON, DC 20024                 
#> 10 2009-04-28 <NA>           3303 A STANTON RD SE, STE# E, WASHINGTON, DC 20032
#> # … with 52 more rows
```
…
