…
```
## # A tibble: 1,426 x 5
##    cont_lname cont_amt cont_date  rec                                        dupe_count
##    <chr>         <dbl> <date>     <chr>                                           <int>
##  1 ALAIMO         2000 2010-08-23 ZIMMERMAN & SIMMONS                                 2
##  2 BARONE          150 2009-09-01 PEREZ                                               2
##  3 BATE             75 2010-01-22 SPEZIALE                                            2
##  4 BATTAGLIA       319 2009-06-23 GOODWIN                                             2
##  5 BEAUZYL         200 2010-02-10 DOMINGUEZ DASILVA LUCIO PADILLA & ABITANTO          3
##  6 BELLERO         300 2008-05-23 PEREZ                                               2
##  7 BENNETT        1000 2010-03-01 KELLY & LACEY                                       2
##  8 BODMAN          750 2010-06-10 GOODWIN                                             2
##  9 BOSWELL         200 2009-05-15 PIGNATELLI & VISCONTI                               2
## 10 BRANCATO        160 2010-10-10 BERDNIK                                             2
## # … with 1,416 more rows
```
…
