…
``` r
ri %>% 
  filter(city_swap != city_norm) %>% 
  count(state_clean, city_sep, city_norm, city_swap) %>% 
  arrange(desc(n))
```

    #> # A tibble: 259 × 5
    #>    state_clean city_sep       city_norm      city_swap           n
    #>    <chr>       <chr>          <chr>          <chr>           <int>
    #>  1 MA          SOMMERVILLE    SOMMERVILLE    SOMERVILLE         91
    #>  2 CA          SAN FRANSISCO  SAN FRANSISCO  SAN FRANCISCO      52
    #>  3 CA          SF             SF             SAN FRANCISCO      37
    #>  4 MN          ST. PAUL PARK  ST PAUL PARK   SAINT PAUL PARK    32
    #>  5 MO          ST LOUIS       ST LOUIS       SAINT LOUIS        32
    #>  6 RI          NORTH KINGSTON NORTH KINGSTON NORTH KINGSTOWN    30
    #>  7 MN          ST PAUL PARK   ST PAUL PARK   SAINT PAUL PARK    29
    #>  8 VA          ALEXNDRIA      ALEXNDRIA      ALEXANDRIA         29
    #>  9 CA          SAN FRISCO     SAN FRISCO     SAN FRANCISCO      28
    #> 10 OH          CINCINNATTI    CINCINNATTI    CINCINNATI         23
    #> # … with 249 more rows
…
