…
flag duplicate values

``` r
tne <- flag_dupes(tne, everything())
mean(tne$dupe_flag)
#> [1] 0.00837505
tne %>%
  filter(dupe_flag) %>%
  select(all_of(key_vars)) %>%
  arrange(candidate_pac_name)
#> # A tibble: 353 × 4
#>    date       candidate_pac_name                            amount vendor_name              
#>    <date>     <chr>                                          <dbl> <chr>                    
#>  1 2022-08-25 ADAMS AND REESE PAC                             2500 VAUGHAN, KEVIN           
#>  2 2022-08-25 ADAMS AND REESE PAC                             2500 VAUGHAN, KEVIN           
#>  3 2022-08-31 ASBESTOS WORKERS LOCAL 90 PAC                    500 UNIVERSITY OF MEMPHIS    
#>  4 2022-08-31 ASBESTOS WORKERS LOCAL 90 PAC                    500 UNIVERSITY OF MEMPHIS    
#>  5 2022-08-31 ASBESTOS WORKERS LOCAL 90 PAC                    500 ARKANSAS STATE UNIVERSITY
#>  6 2022-08-31 ASBESTOS WORKERS LOCAL 90 PAC                    500 UNIVERSITY OF MEMPHIS    
#>  7 2022-08-31 ASBESTOS WORKERS LOCAL 90 PAC                    500 ARKANSAS STATE UNIVERSITY
#>  8 2022-11-10 ASSN BUILDERS & CONTRACTORS - MID. TN CHAPTER    500 POWELL, JASON            
#>  9 2022-11-10 ASSN BUILDERS & CONTRACTORS - MID. TN CHAPTER    500 POWELL, JASON            
#> 10 2022-05-17 BAILEY, PAUL                                     330 CROSSVILLE CHRONICLE     
#> # … with 343 more rows
```
…
