…
Ignoring the supposedly unique `contract_no`, there are some records
with entirely duplicated values across every variable.

``` r
nmc <- flag_dupes(nmc, -contract_no)
sum(nmc$dupe_flag)
#> [1] 137
```

``` r
nmc %>% 
  filter(dupe_flag) %>% 
  select(contract_no, from_date, agency, amount, contractor)
#> # A tibble: 137 x 5
#>    contract_no       from_date  agency                           amount contractor               
#>    <chr>             <date>     <chr>                             <dbl> <chr>                    
#>  1 12 333 Z207 TR239 2012-05-24 Taxation and Revenue Department  75114  ACRO SERVICE CORPORATION 
#>  2 12 333 Z207 TR240 2012-05-24 Taxation and Revenue Department  75114  ACRO SERVICE CORPORATION 
#>  3 15 333 Z007 17155 2014-07-01 Taxation and Revenue Department 131310. DOC TECHNOLOGY GROUP     
#>  4 15 333 Z007 17399 2014-07-01 Taxation and Revenue Department 131310. DOC TECHNOLOGY GROUP     
#>  5 15 333 Z007 17738 2014-07-01 Taxation and Revenue Department 120405. VENTECH SOLUTIONS INC    
#>  6 15 333 Z907 17783 2014-07-01 Taxation and Revenue Department 120405. VENTECH SOLUTIONS INC    
#>  7 17 333 0000 20893 2017-06-02 Taxation and Revenue Department  50000  TEKSYSTEMS               
#>  8 17 333 0000 20894 2017-06-02 Taxation and Revenue Department  50000  TEKSYSTEMS               
#>  9 13 350 4905 00009 2012-07-01 General Services Department     400000  RICK FOLEY INVESTIGATIONS
#> 10 13 350 5905 00006 2012-07-01 General Services Department     400000  RICK FOLEY INVESTIGATIONS
#> # … with 127 more rows
```
…
