…
### Duplicates

``` r
vt <- flag_dupes(vt, everything())
sum(vt$dupe_flag)
#> [1] 52
```

``` r
filter(vt, dupe_flag)
#> # A tibble: 52 x 10
#>    registrant_type registrant_name biennium start_date end_date   filed_date amended_date
#>    <chr>           <chr>           <chr>    <date>     <date>     <date>     <date>      
#>  1 Employer        Vermont Busine… 2015 - … 2015-01-01 2015-03-31 2015-04-25 NA          
#>  2 Employer        Vermont Busine… 2015 - … 2015-04-01 2015-08-31 2015-09-15 NA          
#>  3 Employer        Community of V… 2015 - … 2015-09-01 2015-12-31 2015-10-12 NA          
#>  4 Employer        Healthfirst, I… 2015 - … 2015-09-01 2015-12-31 2015-10-12 NA          
#>  5 Employer        American Heart… 2015 - … 2015-09-01 2015-12-31 2015-10-12 NA          
#>  6 Employer        Vermont Chirop… 2015 - … 2015-09-01 2015-12-31 2015-10-12 NA          
#>  7 Employer        Vermont Associ… 2015 - … 2015-09-01 2015-12-31 2015-10-12 NA          
#>  8 Employer        Patient Choice… 2015 - … 2015-09-01 2015-12-31 2015-10-12 NA          
#>  9 Employer        Patient Choice… 2015 - … 2015-09-01 2015-12-31 2015-10-12 NA          
#> 10 Employer        Vermont Natura… 2015 - … 2015-09-01 2015-12-31 2015-11-24 NA          
#> # … with 42 more rows, and 3 more variables: filed_report_name <chr>, na_flag <lgl>,
#> #   dupe_flag <lgl>
```
…
