…
``` r
pac <- left_join(pac, dupes, by = "tx")
pac <- mutate(pac, dupe_flag = !is.na(dupe_flag))
percent(mean(pac$dupe_flag), 0.01)
#> [1] "2.13%"
```

``` r
pac %>% 
  filter(dupe_flag) %>% 
  select(tx, all_of(key_vars))
#> # A tibble: 390,830 x 5
#>        tx date       contributor            amount filer                                           
#>     <dbl> <date>     <chr>                   <dbl> <chr>                                           
#>  1 923573 2003-12-19 Timothy J. Schweers    250    Friends of Don White                            
#>  2 923586 2003-12-19 Timothy J. Schweers    250    Friends of Don White                            
#>  3 923854 2003-08-22 DuPont Good Governmen… 250    Friends of Tina Pickett                         
#>  4 923855 2003-08-22 DuPont Good Governmen… 250    Friends of Tina Pickett                         
#>  5 923907 2003-05-15 NEW CASTLE AREA SCHOO… 152    PAFT (PA FED TEACH) COM SUPT                    
#>  6 923908 2003-05-15 NEW CASTLE AREA SCHOO… 152    PAFT (PA FED TEACH) COM SUPT                    
#>  7 924851 2003-09-12 WESLEY C. SHIPLETT       5    ACE INA Political Action Committee              
#>  8 925149 2003-09-12 WESLEY C. SHIPLETT       5    ACE INA Political Action Committee              
#>  9 928290 2003-03-21 Mary J Poverstein        9.13 Prudential Financial Inc. Political Action Comm…
#> 10 928291 2003-03-21 Mary J Poverstein        9.13 Prudential Financial Inc. Political Action Comm…
#> # … with 390,820 more rows
```
…
``` r
norm_addr
#> # A tibble: 1,579,502 x 3
#>    con_addr1                 con_addr2   con_addr_norm                    
#>    <chr>                     <chr>       <chr>                            
#>  1 1719 SPRING GARDEN STREET <NA>        1719 SPG GDN ST                  
#>  2 929 Long Bridge Drive     <NA>        929 LONG BRG DR                  
#>  3 1719 Spring Garden Street <NA>        1719 SPG GDN ST                  
#>  4 1601 Chestnut St          <NA>        1601 CHESTNUT ST                 
#>  5 One Amgen Center Drive    <NA>        ONE AMGEN CTR DR                 
#>  6 135 Easton Turnpike       <NA>        135 EASTON TPKE                  
#>  7 Lilly Corporate Center    <NA>        LILLY CORPORATE CTR              
#>  8 100 N Riverside           <NA>        100 N RIVERSIDE                  
#>  9 PO Box 15437              <NA>        PO BOX 15437                     
#> 10 100 Abbott Park Rd.       D312 AP6D-2 100 ABBOTT PARK RD D 312 AP 6 D 2
#> # … with 1,579,492 more rows
…
``` r
norm_addr
#> # A tibble: 8,723 x 3
#>    fil_addr1                       fil_addr2  fil_addr_norm                    
#>    <chr>                           <chr>      <chr>                            
#>  1 <NA>                            <NA>       <NA>                             
#>  2 702 SW 8TH                      <NA>       702 SW 8 TH                      
#>  3 501 Third Street NW             <NA>       501 THIRD ST NW                  
#>  4 101 Constitution Ave NW         Suite 400W 101 CONSTITUTION AVE NW STE 400 W
#>  5 1719 Spring Garden Street       <NA>       1719 SPG GDN ST                  
#>  6 1200 WILSON BLVD                <NA>       1200 WILSON BLVD                 
#>  7 929 Long Bridge Drive           <NA>       929 LONG BRG DR                  
#>  8 501 THIRD ST  N W               <NA>       501 THIRD ST N W                 
#>  9 539 S. Main Street              <NA>       539 S MAIN ST                    
#> 10 One Johnson &amp; Johnson Plaza <NA>       ONE JOHNSON AMP JOHNSON PLZ      
#> # … with 8,713 more rows
…
      key_collision_merge() %>% 
      n_gram_merge(numgram = 1)
  ) %>% 
  filter(con_city_refine != con_city_swap) %>% 
  inner_join(
    y = zipcodes,
    by = c(
      "con_city_refine" = "city",
      "con_state" = "state",
      "con_zip_norm" = "zip"
    )
  )
```

    #> # A tibble: 495 x 5
    #>    con_state con_zip_norm con_city_swap     con_city_refine       n
    #>    <chr>     <chr>        <chr>             <chr>             <int>
    #>  1 SC        29406        NORTH CHARLESTON  CHARLESTON            4
    #>  2 PA        17702        SO WILLIAMSPORT   WILLIAMSPORT          3
    #>  3 CA        92563        MURIETTA          MURRIETA              2
    #>  4 FL        32082        PONTE VERDE BEACH PONTE VEDRA BEACH     2
    #>  5 IL        60429        EAST HAZEL CREST  HAZEL CREST           2
    #>  6 IN        46184        NEW WHITELAND     WHITELAND             2
    #>  7 MD        21078        HARV DE GRACE     HAVRE DE GRACE        2
    #>  8 MI        48094        WASHINGTON TW     WASHINGTON            2
    #>  9 MI        48095        WASHINGTON TN     WASHINGTON            2
    #> 10 MI        48304        BLOOMFIELDS H     BLOOMFIELD HILLS      2
    #> # … with 485 more rows
…
