…
0.10% of rows are missing a key variable.

``` r
mean(ohc$na_flag)
#> [1] 0.0009610911
ohc %>% 
  filter(na_flag) %>% 
  select(date, pay_name, amount, com_name)
#> # A tibble: 11,594 × 4
#>    date       pay_name                      amount com_name                                 
#>    <date>     <chr>                          <dbl> <chr>                                    
#>  1 1995-01-27 BERNARD JENKINS                 62.4 <NA>                                     
#>  2 1995-01-27 BERNARD JENKINS                235   <NA>                                     
#>  3 1995-04-27 BERNARD JENKINS                500   <NA>                                     
#>  4 NA         JOHN GRIFFIN                    80   JOHN W. GRIFFIN COMMITTEE                
#>  5 NA         STARK COUNTY REPUBLICAN PARTY  434.  HARPER FOR JUSTICE COMMITTEE             
#>  6 NA         STARK COUNTY REPUBLICAN PARTY  630.  HARPER FOR JUSTICE COMMITTEE             
#>  7 1995-12-31 <NA>                            18.5 FRIENDS OF MARTHA W. WISE                
#>  8 1995-08-16 <NA>                           450   LATELL FOR STATE REPRESENTATIVE          
#>  9 1995-03-10 <NA>                            10   INDEPENDENT-CHRISTIAN COMMITTEE-TIRBOVICH
#> 10 NA         TRANSFER FROM 31-C            2290.  BARRY LEVEY OHIO SENATE COMMITTEE        
#> # … with 11,584 more rows
```
…
After all that work, there are 668,494 duplicate records

5.5% of rows are duplicated at least once.

``` r
ohc %>% 
  arrange(pay_name) %>% 
  select(date, pay_name, amount, com_name)
#> # A tibble: 12,063,373 × 4
#>    date       pay_name amount com_name            
#>    <date>     <chr>     <dbl> <chr>               
#>  1 2003-02-28 "\v"        600 CITIZENS FOR AUSTRIA
#>  2 2003-05-23 "\v"        100 CITIZENS FOR AUSTRIA
#>  3 2003-05-23 "\v"        500 CITIZENS FOR AUSTRIA
#>  4 2003-12-30 "\v"       1000 CITIZENS FOR AUSTRIA
#>  5 2004-05-20 "\v"        350 CITIZENS FOR AUSTRIA
#>  6 2004-05-20 "\v"       1000 CITIZENS FOR AUSTRIA
#>  7 2004-05-20 "\v"        350 CITIZENS FOR AUSTRIA
#>  8 2004-08-29 "\v"       1000 CITIZENS FOR AUSTRIA
#>  9 2004-09-22 "\v"       1150 CITIZENS FOR AUSTRIA
#> 10 2004-09-22 "\v"       2500 CITIZENS FOR AUSTRIA
#> # … with 12,063,363 more rows
```
…
``` r
ohc <- left_join(ohc, oh_addr_norm, by = "address")
```

    #> # A tibble: 1,967,184 × 2
    #>    address            address_norm     
    #>    <chr>              <chr>            
    #>  1 2400 HARRISON RD.  2400 HARRISON RD 
    #>  2 1482 KREBS DR.     1482 KREBS DR    
    #>  3 502 N. MARKET ST.  502 N MARKET ST  
    #>  4 1720 HARRINGTON    1720 HARRINGTON  
    #>  5 45 E. FOUNTAIN     45 E FOUNTAIN    
    #>  6 5 BEECHREST LN.    5 BEECHREST LN   
    #>  7 5245 DUBLIN RD.    5245 DUBLIN RD   
    #>  8 227 PRESTON RD.    227 PRESTON RD   
    #>  9 695 KENWICK RD.    695 KENWICK RD   
    #> 10 1201 EDGECLIFF PL. 1201 EDGECLIFF PL
    #> # … with 1,967,174 more rows
…
      n_gram_merge(numgram = 1)
  ) %>% 
  filter(city_refine != city_swap) %>% 
  inner_join(
    y = zipcodes,
    by = c(
      "city_refine" = "city",
      "state_norm" = "state",
      "zip_norm" = "zip"
    )
  ) %>% 
  distinct()
```

    #> # A tibble: 572 × 5
    #>    state_norm zip_norm city_swap       city_refine        n
    #>    <chr>      <chr>    <chr>           <chr>          <int>
    #>  1 OH         45245    CINCINATTI      CINCINNATI       126
    #>  2 OH         45239    CINCINATTI      CINCINNATI       102
    #>  3 OH         44094    WILLOUGHBY HI   WILLOUGHBY        96
    #>  4 OH         44657    MINVERA         MINERVA           56
    #>  5 NY         11733    SETAUKET        EAST SETAUKET     51
    #>  6 OH         44094    WILLOUGHBY HILL WILLOUGHBY        46
    #>  7 OH         44721    NO CANTON       CANTON            31
    #>  8 OH         43334    MERANGO         MARENGO           23
    #>  9 OH         45247    CINCINATTI      CINCINNATI        21
    #> 10 OH         44413    PALESTINE       EAST PALESTINE    20
    #> # … with 562 more rows
…
``` r
many_city <- c(valid_city, extra_city)
ohc %>% 
  filter(city_refine %out% many_city) %>% 
  count(city_refine, state_norm, zip_norm, sort = TRUE) %>% 
  drop_na() %>% 
  left_join(
    y = zipcodes, 
    by = c(
      "zip_norm" = "zip", 
      "state_norm" = "state"
    )
  )
#> # A tibble: 11,005 × 5
#>    city_refine       state_norm zip_norm     n city          
#>    <chr>             <chr>      <chr>    <int> <chr>         
#>  1 SAGAMORE HILLS    OH         44067     7203 NORTHFIELD    
#>  2 OLMSTED TOWNSHIP  OH         44138     7028 OLMSTED FALLS 
#>  3 EAST CLEVELAND    OH         44112     5194 CLEVELAND     
#>  4 WILLOUGHBY HILLS  OH         44094     4174 WILLOUGHBY    
#>  5 SHEFFIELD VILLAGE OH         44054     4032 SHEFFIELD LAKE
#>  6 BEDFORD HEIGHTS   OH         44146     3218 BEDFORD       
#>  7 MAYFIELD VILLAGE  OH         44143     2330 CLEVELAND     
#>  8 WILLOUGHBY HILLS  OH         44092     1883 WICKLIFFE     
#>  9 WEST WORTHINGTON  OH         43235     1444 COLUMBUS      
#> 10 SOUTH AMHERST     OH         44001     1376 AMHERST       
#> # … with 10,995 more rows
```
…
