…
We can flag any record missing a key variable needed to identify a
transaction.

``` r
key_vars <- c("owners", "date_issued", "date_effective")
akl <- flag_na(akl, owners)
sum(akl$na_flag)
#> [1] 1478
```

``` r
akl %>% 
  filter(na_flag) %>% 
  select(all_of(key_vars))
#> # A tibble: 1,478 × 3
#>    owners date_issued date_effective
#>    <chr>  <date>      <date>        
#>  1 <NA>   1976-06-14  NA            
#>  2 <NA>   1993-08-18  2018-02-05    
#>  3 <NA>   1978-11-16  2020-04-30    
#>  4 <NA>   1979-09-11  2020-10-05    
#>  5 <NA>   1981-05-29  NA            
#>  6 <NA>   1985-03-20  2015-08-28    
#>  7 <NA>   1990-06-12  2015-12-18    
#>  8 <NA>   1996-02-07  2022-01-31    
#>  9 <NA>   2000-05-30  2020-01-24    
#> 10 <NA>   2017-06-19  2020-10-02    
#> # … with 1,468 more rows
```
…
We can also flag any record completely duplicated across every column.

``` r
akl <- flag_dupes(akl, -license_num)
sum(akl$dupe_flag)
#> [1] 373
```

``` r
akl %>% 
  filter(dupe_flag) %>% 
  select(license_num, address1, all_of(key_vars)) %>% 
  arrange(date_issued)
#> # A tibble: 373 × 5
#>    license_num address1         owners                                 date_issued date_effective
#>    <chr>       <chr>            <chr>                                  <date>      <date>        
#>  1 COLPA4746   <NA>             <NA>                                   2003-10-29  2020-12-24    
#>  2 COLPA4730   <NA>             <NA>                                   2003-10-29  2020-12-24    
#>  3 COLPA13960  <NA>             <NA>                                   2012-05-23  2012-05-23    
#>  4 COLPA13958  <NA>             <NA>                                   2012-05-23  2012-05-23    
#>  5 HADP19009   1148 HESS AVENUE Body Piercing Unlimited & Tattoo, Inc. 2013-09-11  2021-08-24    
#>  6 HADP19012   1148 HESS AVENUE Body Piercing Unlimited & Tattoo, Inc. 2013-09-11  2021-08-24    
#>  7 HADP19010   1148 HESS AVENUE Body Piercing Unlimited & Tattoo, Inc. 2013-09-11  2021-08-24    
#>  8 COLPA14513  <NA>             <NA>                                   2014-08-26  2014-08-26    
#>  9 102617      <NA>             <NA>                                   2014-08-26  2014-08-26    
#> 10 110278      <NA>             <NA>                                   2016-04-06  2020-12-23    
#> # … with 363 more rows
```
…
``` r
addr_norm
#> # A tibble: 76,679 × 3
#>    address1                     address2 address_norm           
#>    <chr>                        <chr>    <chr>                  
#>  1 6800 PARAGON PLACE #400      <NA>     6800 PARAGON PLACE #400
#>  2 3043 WALTON ROAD, SUITE 201  <NA>     3043 WALTON RD STE 201 
#>  3 501 SHELLEY DRIVE, SUITE 300 <NA>     501 SHELLEY DR STE 300 
#>  4 P O BOX 3910                 <NA>     P O BOX 3910           
#>  5 14 ORCHARD RD STE 100        <NA>     14 ORCHARD RD STE 100  
#>  6 6000 MARTWAY ST              <NA>     6000 MARTWAY ST        
#>  7 PO BOX 1267                  <NA>     PO BOX 1267            
#>  8 650 DUNDEE RD STE 370        <NA>     650 DUNDEE RD STE 370  
#>  9 PO BOX 24266                 <NA>     PO BOX 24266           
#> 10 629 L ST, SUITE 201          <NA>     629 L ST STE 201       
#> # … with 76,669 more rows
```
…
### ZIP

All unknown `zip` values belong to out-of-country locations.

``` r
prop_in(akl$zip, valid_zip)
#> [1] 0.996163
```

``` r
akl %>% 
  filter(zip %out% valid_zip) %>% 
  count(state, sort = TRUE)
#> # A tibble: 36 × 2
#>    state     n
#>    <chr> <int>
#>  1 <NA>   3791
#>  2 BC       97
#>  3 ON       44
#>  4 AB       27
#>  5 AK       27
#>  6 OR       26
#>  7 OH       20
#>  8 AZ       14
#>  9 UT       14
#> 10 WA       14
#> # … with 26 more rows
```
…
