…
``` r
key_vars <- c("date", "con_name", "amount", "fil_name")
nyc <- flag_na(nyc, all_of(key_vars))
mean(nyc$na_flag)
#> [1] 0.01081559
```

A little over 1% of records are missing a key variable, mostly a name
identifying the contributor.

``` r
nyc %>% 
  filter(na_flag) %>% 
  select(all_of(key_vars))
#> # A tibble: 100,596 x 4
#>    date       con_name    amount fil_name                                                        
#>    <date>     <chr>        <dbl> <chr>                                                           
#>  1 2000-01-11 <NA>          690  COMMITTEE TO ELECT MARGARET M. MARKEY                           
#>  2 2012-03-16 AMY M KRUSE    NA  COMMITTEE TO ELECT MARGARET M. MARKEY                           
#>  3 2018-10-01 <NA>         1449. BAC LOCAL 2 POLITICAL ACTION COMMITTEE                          
#>  4 2018-01-12 <NA>         7247. BAC LOCAL 2 POLITICAL ACTION COMMITTEE                          
#>  5 2008-12-12 <NA>        25792. UNITED TRANSPORTATION UNION POLITICAL ACTION COMMITTEE (UTU PAC)
#>  6 2009-12-11 <NA>        19753. UNITED TRANSPORTATION UNION POLITICAL ACTION COMMITTEE (UTU PAC)
#>  7 2011-11-22 <NA>         3020. UNITED TRANSPORTATION UNION POLITICAL ACTION COMMITTEE (UTU PAC)
#>  8 2011-02-07 <NA>         4654. UNITED TRANSPORTATION UNION POLITICAL ACTION COMMITTEE (UTU PAC)
#>  9 2012-11-13 <NA>         4218. UNITED TRANSPORTATION UNION POLITICAL ACTION COMMITTEE (UTU PAC)
#> 10 2013-11-13 <NA>         4391. UNITED TRANSPORTATION UNION POLITICAL ACTION COMMITTEE (UTU PAC)
#> # … with 100,586 more rows
```
…
``` r
nyc <- left_join(nyc, st_norm, by = c("con_state", "con_zip_norm"))
```

``` r
nyc %>% 
  filter(con_state != con_state_norm) %>% 
  count(con_state, con_state_norm, sort = TRUE)
#> # A tibble: 46 x 3
#>    con_state con_state_norm     n
#>    <chr>     <chr>          <int>
#>  1 N         NY               467
#>  2 N.        NY               457
#>  3 MY        NY               333
#>  4 NT        NY               303
#>  5 NU        NY               129
#>  6 BY        NY                93
#>  7 Y         NY                72
#>  8 N.        N                 61
#>  9 D.        D                 22
#> 10 #N        N                 17
#> # … with 36 more rows
```
…
      key_collision_merge() %>% 
      n_gram_merge(numgram = 1)
  ) %>% 
  filter(con_city_refine != con_city_swap) %>% 
  inner_join(
    y = zipcodes,
    by = c(
      "con_city_refine" = "city",
      "con_state_norm" = "state",
      "con_zip_norm" = "zip"
    )
  )
```

    #> # A tibble: 1,126 x 5
    #>    con_state_norm con_zip_norm con_city_swap          con_city_refine      n
    #>    <chr>          <chr>        <chr>                  <chr>            <int>
    #>  1 NY             11733        SETAUKET               EAST SETAUKET     5454
    #>  2 MI             48230        GROSSE POINTE P        GROSSE POINTE      117
    #>  3 IL             60010        NO BARRINGTON          BARRINGTON          75
    #>  4 NY             11968        SOUTH HAMPTON          SOUTHAMPTON         71
    #>  5 NY             11791        SYOSETT                SYOSSET             42
    #>  6 NY             14845        HORSESHEAD             HORSEHEADS          39
    #>  7 NY             11733        SETUAKET               EAST SETAUKET       24
    #>  8 ME             04038        GORHAHAM               GORHAM              23
    #>  9 NY             11733        SETAUKET EAST SETAUKET EAST SETAUKET       17
    #> 10 NY             11570        ROCVKVILLE CENT        ROCKVILLE CENTRE    16
    #> # … with 1,116 more rows
…
## Export

Now the file can be saved on disk for upload to the Accountability
server.

``` r
clean_dir <- dir_create(here("ny", "contribs", "data", "clean"))
clean_path <- path(clean_dir, "ny_contribs_clean.csv")
write_csv(nyc, clean_path, na = "")
(clean_size <- file_size(clean_path))
#> 3.01G
non_ascii(clean_path)
#> # A tibble: 195 x 2
#>       row line                                                                                                          
#>     <int> <chr>                                                                                                         
#>  1 577458 A00917,A,B,2012,36863417,2012-08-06,,LONG ISLAND BOARD OF REALTORS<c2><ae>,,,,300 SUNRISE HWY,WEST BABYLON,NY…
#>  2 578990 A00917,K,B,2012,35253481,2012-03-08,,WARREN COUNTY ASSOCIATION OF REALTORS<c2><ae> INC.,,,,296 BAY RD,QUEENSB…
#>  3 579269 A00917,C,B,2013,39983112,2013-08-28,,LONG ISLAND BOARD OF REALTORS<c2><ae>,,,,300 SUNRISE HWY,WEST BABYLON,NY…
#>  4 579729 A00917,E,C,2013,40085096,2013-10-02,,SULLIVAN COUNTY BOARD OF REALTORS<c2><ae>,,,,548 BROADWAY,MONTICELLO,NY,…
#>  5 579759 A00917,E,D,2013,40124818,2013-10-11,CORP,ST LAWRENCE COUNTY BOARD OF REALTORS<c2><ae>,,,,15 MAIN ST,CANTON,NY…
#>  6 579765 A00917,E,D,2013,40124887,2013-10-11,CORP,ITHACA BOARD OF REALTORS<c2><ae> INC,,,,CORNERS COMMUNITY CTR 903 14…
#>  7 579767 A00917,E,D,2013,40124889,2013-10-11,CORP,WARREN COUNTY ASSOCIATION OF REALTORS<c2><ae> INC,,,,296 BAY RD,QUEE…
#>  8 580957 A00917,K,B,2013,37670124,2013-02-13,,WARREN COUNTY ASSOCIATION OF REALTORS<c2><ae> INC,,,,296 BAY RD,QUEENSBU…
#>  9 580969 A00917,K,B,2013,37953235,2013-03-29,,WARREN COUNTY ASSOCIATION OF REALTORS<c2><ae> INC,,,,296 BAY RD,QUEENSBU…
#> 10 580971 A00917,K,B,2013,37953237,2013-03-29,,WARREN COUNTY ASSOCIATION OF REALTORS<c2><ae> INC,,,,296 BAY RD,QUEENSBU…
#> # … with 185 more rows
```
…
