…
We can flag any record missing a key variable needed to identify a
transaction.

``` r
key_vars <- c("original_issue_date", "business_name")
ill <- flag_na(ill, all_of(key_vars))
sum(ill$na_flag)
#> [1] 15674
```

``` r
ill %>% 
  filter(na_flag) %>% 
  select(all_of(key_vars))
#> # A tibble: 15,674 × 2
#>    original_issue_date business_name           
#>    <date>              <chr>                   
#>  1 NA                  JOHN DAVID JANES        
#>  2 NA                  JEFFREY DON CONAWAY     
#>  3 2020-10-01          <NA>                    
#>  4 NA                  JEFFREY DON CONAWAY     
#>  5 NA                  STEVEN P WRIGHT         
#>  6 NA                  GEORGE E WESBEY III     
#>  7 NA                  PANKAJ JAIN MD          
#>  8 NA                  SHELLEY FIRESTONE MD    
#>  9 NA                  SHEILA RAE EHRLICH MD   
#> 10 NA                  RODRIGO L FARRALES JR MD
#> # … with 15,664 more rows
```
…
``` r
good_refine <- ill %>% 
  mutate(
    city_refine = city_swap %>% 
      key_collision_merge() %>% 
      n_gram_merge(numgram = 1)
  ) %>% 
  filter(city_refine != city_swap) %>% 
  inner_join(
    y = zipcodes,
    by = c("city_refine" = "city", "state", "zip")
  )
```

    #> # A tibble: 301 × 5
    #>    state zip   city_swap            city_refine         n
    #>    <chr> <chr> <chr>                <chr>           <int>
    #>  1 IL    60429 EAST HAZEL CREST     HAZEL CREST       185
    #>  2 IL    60411 EAST CHICAGO HEIGHTS CHICAGO HEIGHTS    75
    #>  3 IL    60429 EAST HAZELCREST      HAZEL CREST        37
    #>  4 IL    60411 SO CHICAGO HEIGHTS   CHICAGO HEIGHTS    30
    #>  5 SC    29406 NORTH CHARLESTON     CHARLESTON         18
    #>  6 IL    62832 DUQUION              DU QUOIN            9
    #>  7 MO    63031 FLORRISANT           FLORISSANT          8
    #>  8 NY    11733 SETAUKET             EAST SETAUKET       8
    #>  9 MO    63033 FLORRISANT           FLORISSANT          7
    #> 10 IL    60060 MUNDELINE            MUNDELEIN           6
    #> # … with 291 more rows
…
