…
Now that each data frame is read and cleaned, we can prepare them for a
join.

### Transactions

The most important table is `Transactions`. This table only identifies
the reporting committee and transaction partner using their unique ID
number. This table includes not just contribution *to* a committee but
also the expenses *from* that committee, etc. Each transaction has it’s
own unique ID.

``` r
az$transactions
#> # A tibble: 6,396,194 x 6
#>    txn_id txn_type_id   cmte_id txn_date   amount  nm_id
#>     <int>       <int>     <int> <date>      <dbl>  <int>
#>  1      1           2 200492094 2003-09-10     50 541067
#>  2      2           2 200492094 2003-12-09    100 541142
#>  3      3           2 200492094 2003-10-23    140 541066
#>  4      4           2 200492094 2003-10-27    250 541095
#>  5      5           2 200492094 2004-01-10    280 541218
#>  6      6           2 200492094 2003-01-09    160 541275
#>  7      7           2 200492094 2003-09-15    100 541418
#>  8      8           2 200492094 2003-09-24    100 541408
#>  9      9           2 200002301 2001-10-02     10 307788
#> 10     10           2 200002301 2001-10-16     10 307788
#> # … with 6,396,184 more rows
```

Contributions from individuals are the most common transaction type, but
there are other types that are different kinds of income.

``` r
az$transactions %>% 
  count(txn_type_id, sort = TRUE) %>% 
  left_join(az$transaction_types, by = "txn_type_id") %>% 
  add_prop(sum = FALSE)
#> # A tibble: 162 x 5
#>    txn_type_id       n txn_type_nm                                  income_expense_neutral_id       p
#>          <int>   <int> <chr>                                                            <int>   <dbl>
#>  1           2 5103997 Contribution from Individuals                                        1 0.798  
#>  2          31  379067 Operating Expense - Pay Cash/Check                                   2 0.0593 
#>  3           5  269450 Aggregate Contributions less than $50                                1 0.0421 
#>  4          10  230295 CCEC $5 Qualifying Contribution                                      1 0.0360 
#>  5           3   45386 Contribution from Committee                                          1 0.00710
#>  6          37   43417 Other Expenses - Pay Cash/Check                                      2 0.00679
#>  7          35   34118 Contribute to another Committee                                      2 0.00533
#>  8           1   28538 Contribution from Candidate or Family                                1 0.00446
#>  9          32   26808 Operating Expense - Purchase on Terms/Credit                         2 0.00419
#> 10          75   25689 Pay a Bill - Operating Expenses                                      3 0.00402
#> # … with 152 more rows
```
…
``` r
az$transactions <- az$transactions %>% 
  # identify transaction type
  left_join(az$transaction_types, by = "txn_type_id") %>% 
  # identify if type is income
  left_join(az$income_expense_neutral, by = "income_expense_neutral_id") %>% 
  # keep only income types
  filter(income_expense_neutral == "Income") %>% 
  # remove ids and move cols
  select(-txn_type_id, -income_expense_neutral_id, -income_expense_neutral) %>% 
  relocate(txn_type_nm = txn_type_nm, .before = cmte_id)
```

    #> # A tibble: 5,768,411 x 6
    #>    txn_id txn_type_nm                     cmte_id txn_date   amount  nm_id
    #>     <int> <chr>                             <int> <date>      <dbl>  <int>
    #>  1      1 Contribution from Individuals 200492094 2003-09-10     50 541067
    #>  2      2 Contribution from Individuals 200492094 2003-12-09    100 541142
    #>  3      3 Contribution from Individuals 200492094 2003-10-23    140 541066
    #>  4      4 Contribution from Individuals 200492094 2003-10-27    250 541095
    #>  5      5 Contribution from Individuals 200492094 2004-01-10    280 541218
    #>  6      6 Contribution from Individuals 200492094 2003-01-09    160 541275
    #>  7      7 Contribution from Individuals 200492094 2003-09-15    100 541418
    #>  8      8 Contribution from Individuals 200492094 2003-09-24    100 541408
    #>  9      9 Contribution from Individuals 200002301 2001-10-02     10 307788
    #> 10     10 Contribution from Individuals 200002301 2001-10-16     10 307788
    #> # … with 5,768,401 more rows

Now we will have to use the `Names` and `Committees` tables to identify
the entities making the contributions and the committees receiving them.

### Committees

The `Committees` table contains all the information on political
committees, including their financial institutions, chairpersons, etc.
We are only interested in adding names and addresses to the transaction
data so it can be searched.

``` r
az$committees
#> # A tibble: 4,611 x 27
#>    cmte_id  nm_id chairperson_nm_… treasurer_nm_id cand_nm_id designee_nm_id sponsor_nm_id ballot_measure_…
#>      <int>  <int>            <int>           <int>      <int>          <int>         <int>            <int>
#>  1    1001 1.54e6          1541829         1541830         NA             NA            NA               NA
#>  2    1002 1.44e6           695421         1610589         NA             NA            NA               NA
#>  3    1004 1.44e6          1338246         1430479         NA             NA       1082064               NA
#>  4    1007 1.56e6           695447         1562704         NA             NA        695451               NA
#>  5    1013 1.67e6          1271050         1589839         NA             NA       1111516               NA
#>  6    1014 1.44e6          1558627         1090076         NA             NA            NA               NA
#>  7    1016 1.53e6          1344676         1148739         NA             NA       1148740               NA
#>  8    1018 6.96e5           695527          695528         NA             NA            NA               NA
#>  9    1022 1.68e6          1684401         1684402         NA             NA       1684404               NA
#> 10    1024 1.44e6          1420895         1420896         NA             NA       1420897               NA
#> # … with 4,601 more rows, and 19 more variables: physical_address1 <chr>, physical_address2 <chr>, physical_city <chr>,
#> #   physical_state <chr>, physical_zip_code <chr>, sponsor_type <chr>, sponsor_relationship <chr>,
#> #   organization_date <date>, termination_date <dttm>, benefits_ballot_measure <lgl>, financial_institution1 <chr>,
#> #   financial_institution2 <chr>, financial_institution3 <chr>, cand_party_id <int>, cand_office_id <int>,
#> #   cand_county_id <int>, cand_is_incumbent <lgl>, cand_cycle_id <int>, cand_other_party_nm <chr>
```
…
This data still only identifies the committees by their unique
`cmte_id`. We can use the `nm_id` variable to add the names for those
committees.

``` r
cmte_nms <- select(az$names, nm_id, cmte_nm = last_nm)
cmte_nms
#> # A tibble: 1,233,705 x 2
#>    nm_id cmte_nm                           
#>    <int> <chr>                             
#>  1    -7 Multiple Vendors                  
#>  2    -5 Previous/Next Committee           
#>  3    -3 Arizona Secretary of State        
#>  4    -2 Citizens Clean Election Commission
#>  5    -1 Multiple Contributors             
#>  6     0 Invalid Name                      
#>  7     4 ARIZONA STATE DEMOCRATIC PARTY    
#>  8     5 ARIZONA STATE AFL-CIO             
#>  9     9 PAUL JOHNSON FOR GOVERNOR         
#> 10    12 COMMITTEE TO ELECT DAWN KNIGHT    
#> # … with 1,233,695 more rows
```

``` r
az$committees <- az$committees %>% 
  # add the committee name
  inner_join(cmte_nms, by = "nm_id") %>% 
  relocate(cmte_nm, .after = cmte_id) %>% 
  select(-nm_id)
```

    #> # A tibble: 4,611 x 11
    #>    cmte_id cmte_nm cmte_address1 cmte_address2 cmte_city cmte_state cmte_zip cand_is_incumbe… cand_office cand_party
    #>      <int> <chr>   <chr>         <chr>         <chr>     <chr>      <chr>    <lgl>            <chr>       <chr>     
    #>  1    1001 ARIZON… 3117 N 16th … <NA>          PHOENIX   AZ         85016    FALSE            <NA>        <NA>      
    #>  2    1002 INDEPE… 333 EAST FLO… <NA>          PHOENIX   AZ         85012    FALSE            <NA>        <NA>      
    #>  3    1004 ALLSTA… 2775 SANDERS… <NA>          NORTHBRO… IL         60062    FALSE            <NA>        <NA>      
    #>  4    1007 AMIGOS… 8711 E. Pinn… <NA>          Scottsda… AZ         85255    FALSE            <NA>        <NA>      
    #>  5    1013 AZ ACR… 2210 S. Prie… <NA>          Tempe     AZ         85282    FALSE            <NA>        <NA>      
    #>  6    1014 CUPAC   2020 N Centr… Suite 530     PHOENIX   AZ         85004    FALSE            <NA>        <NA>      
    #>  7    1016 PINNAC… PO BOX 53999  <NA>          PHOENIX   AZ         85072    FALSE            <NA>        <NA>      
    #>  8    1018 ASARCO… 1150 N 7TH A… <NA>          TUCSON    AZ         85705    FALSE            <NA>        <NA>      
    #>  9    1022 #1022 … 3419 E Unive… <NA>          Phoenix   AZ         85034    FALSE            <NA>        <NA>      
    #> 10    1024 AZ LIC… 8155 N. 24th… <NA>          PHOENIX   AZ         85021    FALSE            <NA>        <NA>      
    #> # … with 4,601 more rows, and 1 more variable: cand_cycle <int>
…
This problem has been confirmed to exist in the raw Microsoft Access
database and not be an error stemming from our conversion to a flat text
file.

``` r
az$names %>% 
  filter(str_detect(zip, "\\$")) %>% 
  select(6:10)
#> # A tibble: 15,046 x 5
#>    address1     address2 city  state zip  
#>    <chr>        <chr>    <chr> <chr> <chr>
#>  1 PLYMOUTH     <NA>     NH    32    $1.00
#>  2 JACKSONVILLE <NA>     FL    32    $7.00
#>  3 INDIANAPOLIS <NA>     IN    46    $4.00
#>  4 CHICAGO      <NA>     IL    60    $7.00
#>  5 CHICAGO      <NA>     IL    60    $1.00
#>  6 SAN ANTONIO  <NA>     TX    78    $3.00
#>  7 PHOENIX      <NA>     AZ    85    $7.00
#>  8 PHOENIX      <NA>     AZ    85    $2.00
#>  9 PHOENIX      <NA>     AZ    85    $4.00
#> 10 PHOENIX      <NA>     AZ    85    $1.00
#> # … with 15,036 more rows
```
…
Only 10.6% of these combined ZIP code values are actually valid, but
that is an improvement over the bad data. It seems as though some
accuracy was lost whenever these ZIP codes were accidentally converted
to dollar values.

``` r
prop_in(az$names$zip[dollar_zip], valid_zip)
#> [1] 0
prop_in(bad_zip, valid_zip)
#> [1] 0.1056759
```

``` r
mutate(count_vec(bad_zip), valid = value %in% valid_zip)
#> # A tibble: 84 x 3
#>    value     n valid
#>    <chr> <int> <lgl>
#>  1 85700  5193 FALSE
#>  2 85400  2529 FALSE
#>  3 85175  1702 FALSE
#>  4 85100  1113 FALSE
#>  5 86400   612 FALSE
#>  6 85200   577 TRUE 
#>  7 85900   404 FALSE
#>  8 85350   402 TRUE 
#>  9 85600   375 FALSE
#> 10 85140   329 TRUE 
#> # … with 74 more rows
```
…
``` r
nm_norm_addr
#> # A tibble: 494,889 x 3
#>    address1                      address2  address_norm             
#>    <chr>                         <chr>     <chr>                    
#>  1 <NA>                          <NA>      <NA>                     
#>  2 1700 W Washington St          Floor 7   1700 W WASHINGTON ST FL 7
#>  3 1616 W Adams                  Suite 110 1616 W ADAMS STE 110     
#>  4 5818 N 7th St                 Ste 200   5818 N 7TH ST STE 200    
#>  5 5818 N 7th St                 Ste 206   5818 N 7TH ST STE 206    
#>  6 5818 N. 7THS STREET., STE 206 <NA>      5818 N 7THS ST STE 206   
#>  7 25 Louisiana Ave NW           <NA>      25 LOUISIANA AVE NW      
#>  8 501 3rd St NW                 <NA>      501 3RD ST NW            
#>  9 PO Box 260180                 <NA>      PO BOX 260180            
#> 10 3109 N 24th St                <NA>      3109 N 24TH ST           
#> # … with 494,879 more rows
```
…
``` r
az$names %>% 
  filter(state != state_norm) %>% 
  count(state, state_norm, sort = TRUE)
#> # A tibble: 74 x 3
#>    state   state_norm     n
#>    <chr>   <chr>      <int>
#>  1 "Az"    AZ           794
#>  2 "az"    AZ           582
#>  3 "AZ "   AZ           114
#>  4 "Az."   AZ            25
#>  5 "AZ - " AZ            12
#>  6 "az."   AZ             7
#>  7 "ca"    CA             7
#>  8 "Ca"    CA             7
#>  9 "Co"    CO             7
#> 10 "AZ  "  AZ             6
#> # … with 64 more rows
```
…
``` r
key_vars <- c("txn_id", "txn_date", "last_nm", "amount", "cmte_nm")
azc <- flag_na(azc, all_of(key_vars))
sum(azc$na_flag)
#> [1] 994
```

``` r
azc %>% 
  filter(na_flag) %>% 
  select(all_of(key_vars)) %>% 
  sample_frac()
#> # A tibble: 994 x 5
#>     txn_id txn_date   last_nm amount cmte_nm                                              
#>      <int> <date>     <chr>    <dbl> <chr>                                                
#>  1 2202110 2004-01-22 <NA>      5    HSBC North America Political Action Committee (H-PAC)
#>  2 2336334 2004-10-28 <NA>      9.04 HSBC North America Political Action Committee (H-PAC)
#>  3 2152550 2003-01-10 <NA>      1    HSBC North America Political Action Committee (H-PAC)
#>  4 1216591 2002-03-22 <NA>      5    HSBC North America Political Action Committee (H-PAC)
#>  5 2158069 2004-05-27 <NA>      5    HSBC North America Political Action Committee (H-PAC)
#>  6 2437150 2005-02-17 <NA>    300    REALTORS OF AZ PAC (RAPAC)                           
#>  7 2190429 2004-02-19 <NA>      5    HSBC North America Political Action Committee (H-PAC)
#>  8 2162724 2004-05-13 <NA>      8.98 HSBC North America Political Action Committee (H-PAC)
#>  9 1287061 2002-02-22 <NA>      5    HSBC North America Political Action Committee (H-PAC)
#> 10   39405 2003-08-29 <NA>     40    PARSONS CORPORATION PAC                              
#> # … with 984 more rows
```
…
We can see that, despite unique `txn_id` values, there are duplicate
records.

``` r
azc %>% 
  filter(dupe_flag) %>% 
  select(txn_id, all_of(key_vars)) %>% 
  arrange(last_nm)
#> # A tibble: 439,874 x 5
#>     txn_id txn_date   last_nm                           amount cmte_nm                                                  
#>      <int> <date>     <chr>                              <dbl> <chr>                                                    
#>  1 7088629 2017-07-31 "\"Wells Fargo Bank, N.A.\""         0.4 AZ SOCIETY OF CPAS PAC                                   
#>  2 7089098 2017-07-31 "\"Wells Fargo Bank, N.A.\""         0.4 AZ SOCIETY OF CPAS PAC                                   
#>  3 7201747 2017-11-27 "\"Wells Fargo Bank, N.A.\""        14   Arizona ArchiPAC:AIA Arizona, American Institute of Arch…
#>  4 7201751 2017-11-27 "\"Wells Fargo Bank, N.A.\""        14   Arizona ArchiPAC:AIA Arizona, American Institute of Arch…
#>  5 6809502 2016-10-11 "1016 - Pinnacle West PAC"        1000   Committee to Elect Sylvia Allen 2016                     
#>  6 6809504 2016-10-11 "1016 - Pinnacle West PAC"        1000   Committee to Elect Sylvia Allen 2016                     
#>  7 6862376 2017-01-06 "1016 - Pinnacle West PAC"         500   Boyer for Senate                                         
#>  8 7165993 2017-01-06 "1016 - Pinnacle West PAC"         500   Boyer for Senate                                         
#>  9 5184742 2014-01-08 "1139 Freeport McMoran Arizona P…  200   Elect Hobbs                                              
#> 10 5184743 2014-01-08 "1139 Freeport McMoran Arizona P…  200   Elect Hobbs                                              
#> # … with 439,864 more rows
```
…
