…
``` r
key_vars <- c("debtor_nm_any", "sec_party_nm_bus", "dt_lapse", "dt_accept")
ctl <- flag_na(ctl, all_of(key_vars))
mean(ctl$na_flag)
#> [1] 0.007471257
sum(ctl$na_flag)
#> [1] 5536
```

``` r
ctl |> 
  filter(na_flag) |> 
  select(all_of(key_vars))
#> # A tibble: 5,536 × 4
#>    debtor_nm_any sec_party_nm_bus                               dt_lapse   dt_accept 
#>    <chr>         <chr>                                          <date>     <date>    
#>  1 <NA>          <NA>                                           2026-10-04 2021-11-29
#>  2 <NA>          <NA>                                           2026-12-19 2021-11-29
#>  3 <NA>          <NA>                                           2027-03-29 2021-11-29
#>  4 <NA>          IRS Hartford Connecticut                       9999-12-31 2020-08-24
#>  5 <NA>          <NA>                                           2026-09-15 2021-11-29
#>  6 <NA>          <NA>                                           2027-04-25 2017-05-02
#>  7 <NA>          <NA>                                           2026-11-08 2021-12-01
#>  8 <NA>          CORPORATION SERVICE COMPANY, AS REPRESENTATIVE 2024-10-23 2019-01-10
#>  9 <NA>          <NA>                                           2027-01-31 2012-06-15
#> 10 <NA>          IRS Hartford Connecticut                       9999-12-31 2021-03-29
#> # … with 5,526 more rows
```
…
``` r
ctl <- flag_dupes(ctl, -id_ucc_flng_nbr)
mean(ctl$dupe_flag)
#> [1] 0.003766669
sum(ctl$dupe_flag)
#> [1] 2791
```

``` r
ctl |> 
  filter(dupe_flag) |> 
  select(id_ucc_flng_nbr, all_of(key_vars)) |> 
  arrange(dt_lapse)
#> # A tibble: 2,791 × 5
#>    id_ucc_flng_nbr debtor_nm_any                                   sec_party_nm_bus                dt_lapse   dt_accept 
#>    <chr>           <chr>                                           <chr>                           <date>     <date>    
#>  1 0005010238      FRENCH SOCIAL CIRCLE BUILDING ASSOCIATION, INC. People's United Bank, National… 2021-10-20 2021-08-18
#>  2 0005010206      FRENCH SOCIAL CIRCLE BUILDING ASSOCIATION, INC. People's United Bank, National… 2021-10-20 2021-08-18
#>  3 0005014975      SIVAN GROUP LLC                                 BANKWELL BANK                   2022-01-04 2021-09-13
#>  4 0005015011      SIVAN GROUP LLC                                 BANKWELL BANK                   2022-01-04 2021-09-13
#>  5 0005003850      NICPER, LLC                                     CHARTER OAK FEDERAL CREDIT UNI… 2022-01-12 2021-06-23
#>  6 0005003239      NICPER, LLC                                     CHARTER OAK FEDERAL CREDIT UNI… 2022-01-12 2021-06-23
#>  7 0005015000      TRISTAR ALLIANCE, LLC                           People's United Bank, National… 2022-02-03 2021-09-13
#>  8 0005014969      TRISTAR ALLIANCE, LLC                           People's United Bank, National… 2022-02-03 2021-09-13
#>  9 0005020138      TISCHOFER                                       CT SOLAR LEASE 2 LLC            2022-05-09 2021-09-07
#> 10 0005020434      TISCHOFER                                       CT SOLAR LEASE 2 LLC            2022-05-09 2021-09-07
#> # … with 2,781 more rows
```
…
      na_rep = TRUE,
      abb_end = FALSE
    )
  ) |> 
  unite(
    col = sec_ad_norm,
    starts_with("sec_party_ad_str_norm"),
    sep = " ",
    remove = TRUE,
    na.rm = TRUE
  ) |> 
  mutate(across(sec_ad_norm, na_if, ""))
```

    #> # A tibble: 299 × 3
    #>    sec_party_ad_str1                               sec_party_ad_str2 sec_ad_norm                                       
    #>    <chr>                                           <chr>             <chr>                                             
    #>  1 55 Water St                                     50th Fl           55 WATER ST 50TH FL                               
    #>  2 2315 Whitney Avenue                             2B                2315 WHITNEY AVE 2B                               
    #>  3 2651 Strang Boulevard                           Suite 100         2651 STRANG BLVD STE 100                          
    #>  4 5480 Corporate Dr                               Suite 350         5480 CORPORATE DR STE 350                         
    #>  5 9 Regency Dr                                    3                 9 REGENCY DR                                      
    #>  6 185 ASYLUM STREET                               27TH FLOOR        185 ASYLUM ST 27TH FL                             
    #>  7 C/O FairWay Financial U.S., Inc. 85 Norman Road Unit 311          C/O FAIRWAY FINANCIAL US INC 85 NORMAN RD UNIT 311
    #>  8 85 Norman Rd                                    311               85 NORMAN RD 311                                  
    #>  9 C/O FairWay Financial U.S., Inc. 85 Norman Road 311               C/O FAIRWAY FINANCIAL US INC 85 NORMAN RD 311     
    #> 10 4 PARK PLAZA                                    SUITE 900         4 PARK PLZ STE 900                                
    #> # … with 289 more rows
…
      key_collision_merge() |> 
      n_gram_merge(numgram = 1)
  ) |> 
  filter(debt_city_refine != debt_city_swap) |> 
  inner_join(
    y = zipcodes,
    by = c(
      "debt_city_refine" = "city",
      "debt_state_norm" = "state",
      "debt_zip_norm" = "zip"
    )
  )
```

    #> # A tibble: 56 × 5
    #>    debt_state_norm debt_zip_norm debt_city_swap   debt_city_refine        n
    #>    <chr>           <chr>         <chr>            <chr>               <int>
    #>  1 CT              06260         PUTMAN           PUTNAM                 13
    #>  2 CT              06615         STAFFORD         STRATFORD               8
    #>  3 CT              06460         MILFORDRD        MILFORD                 6
    #>  4 CT              06108         EAST HARDFORDF   EAST HARTFORD           4
    #>  5 CT              06255         NORTH GROVESDALE NORTH GROSVENORDALE     4
    #>  6 CT              06824         FARIFILED        FAIRFIELD               4
    #>  7 CT              06405         BRANFORD ROAD    BRANFORD                3
    #>  8 CT              06611         TRMUBLL          TRUMBULL                3
    #>  9 CT              06896         REDDING RIDGE    REDDING                 3
    #> 10 NY              12590         WAPPINGGERS FALL WAPPINGERS FALLS        3
    #> # … with 46 more rows
…
