…
This is likely due to the lack of individual information for those
contributions reported as aggrigates.

``` r
ncc %>% 
  filter(is.na(con_state)) %>% 
  select(con_name, con_state) %>% 
  count(con_name, sort = TRUE) %>% 
  mutate(p = n/sum(n))
#> # A tibble: 2,655 × 3
#>    con_name                                n         p
#>    <chr>                               <int>     <dbl>
#>  1 Aggregated Individual Contribution 943207 0.952    
#>  2 Aggregated Non-Media Expenditure    43207 0.0436   
#>  3 <NA>                                   91 0.0000919
#>  4 Southern Bank                          41 0.0000414
#>  5 USPS                                   35 0.0000353
#>  6 GOOGLE, INC.                           33 0.0000333
#>  7 WIX.COM LTD                            30 0.0000303
#>  8 Google Domains                         29 0.0000293
#>  9 ActBlue                                28 0.0000283
#> 10 CANVA                                  26 0.0000263
#> # … with 2,645 more rows
```
…
A *huge* percentage of the overall records in this database are
duplicates. This stems from the use of aggregated records reported
millions of times by a handful of recipients.

``` r
percent(mean(ncc$dupe_flag))
#> [1] "50%"
ncc %>% 
  filter(dupe_flag) %>% 
  count(date, con_name, amount, rec_name, rec_id, report, sort = TRUE)
#> # A tibble: 76,906 × 7
#>    date       con_name                           amount rec_name                rec_id report     n
#>    <date>     <chr>                               <dbl> <chr>                   <chr>  <chr>  <int>
#>  1 2020-08-07 Aggregated Individual Contribution      2 EMPLOYEES POLITICAL AC… STA-C… 2020 …  5148
#>  2 2020-09-14 Aggregated Individual Contribution      2 EMPLOYEES POLITICAL AC… STA-C… 2020 …  5120
#>  3 2020-10-02 Aggregated Individual Contribution      2 EMPLOYEES POLITICAL AC… STA-C… 2020 …  5116
#>  4 2020-11-17 Aggregated Individual Contribution      2 EMPLOYEES POLITICAL AC… STA-C… 2020 …  4994
#>  5 2021-01-20 Aggregated Individual Contribution      2 EMPLOYEES POLITICAL AC… STA-C… 2021 …  4638
#>  6 2021-03-05 Aggregated Individual Contribution      2 EMPLOYEES POLITICAL AC… STA-C… 2021 …  4393
#>  7 2021-04-20 Aggregated Individual Contribution      2 EMPLOYEES POLITICAL AC… STA-C… 2021 …  4324
#>  8 2021-05-21 Aggregated Individual Contribution      2 EMPLOYEES POLITICAL AC… STA-C… 2021 …  4278
#>  9 2021-06-16 Aggregated Individual Contribution      2 EMPLOYEES POLITICAL AC… STA-C… 2021 …  4261
#> 10 2021-02-15 Aggregated Individual Contribution      2 EMPLOYEES POLITICAL AC… STA-C… 2021 …  4212
#> # … with 76,896 more rows
```
…
    #> [1] 165
    #> # A tibble: 70 × 5
    #>    con_state_norm con_zip_norm con_city_swap    con_city_refine     n
    #>    <chr>          <chr>        <chr>            <chr>           <int>
    #>  1 NC             27526        FUQAUYVARINA     FUQUAY VARINA      51
    #>  2 OH             45274        CINCINATTI       CINCINNATI         26
    #>  3 NC             27522        CREEDMORE        CREEDMOOR           3
    #>  4 NC             28086        KNGS MOUNTIAN    KINGS MOUNTAIN      3
    #>  5 NC             28778        SWANNONA         SWANNANOA           3
    #>  6 OH             45249        CINCINATTI       CINCINNATI          3
    #>  7 CA             92128        SAN DIEGON DIEGO SAN DIEGO           2
    #>  8 CA             93923        CARMELAR         CARMEL              2
    #>  9 CA             94107        SAN FRANSICO     SAN FRANCISCO       2
    #> 10 CA             94110        SAN FRANSSICO    SAN FRANCISCO       2
    #> # … with 60 more rows
…
