…
While there are zero completely duplicated records, there are a number
that are duplicated save for the `expense_id` variable.

``` r
nrow(mi) - nrow(distinct(select(mi, -expense_id)))
```

    #> [1] 9116

``` r
flag_dupes(mi, setdiff(names(mi),"expense_id"))
```

    #> # A tibble: 1,026,452 × 40
    #>    doc_se…¹ expen…² gub_a…³ gub_e…⁴ page_no expen…⁵ detai…⁶ doc_s…⁷ doc_t…⁸ com_l…⁹ commo…˟ cfr_c…˟
    #>    <chr>    <chr>   <chr>   <chr>     <int> <chr>   <chr>     <int> <chr>   <chr>   <chr>   <chr>  
    #>  1 275251   1B      <NA>    <NA>          0 4404    0          2008 POST-P… BETH S… BETH S… 512669 
    #>  2 275251   1B      <NA>    <NA>          0 4438    0          2008 POST-P… BETH S… BETH S… 512669 
    #>  3 275251   1B      <NA>    <NA>          0 4441    0          2008 POST-P… BETH S… BETH S… 512669 
    #>  4 275251   1B      <NA>    <NA>          0 4444    0          2008 POST-P… BETH S… BETH S… 512669 
    #>  5 275251   1B      <NA>    <NA>          0 4445    0          2008 POST-P… BETH S… BETH S… 512669 
    #>  6 275251   1B      <NA>    <NA>          0 4448    0          2008 POST-P… BETH S… BETH S… 512669 
    #>  7 275251   1B      <NA>    <NA>          0 4449    0          2008 POST-P… BETH S… BETH S… 512669 
    #>  8 282358   1B      <NA>    <NA>          0 4432    0          2008 AMENDE… BETH S… BETH S… 512669 
    #>  9 282358   1B      <NA>    <NA>          0 4436    0          2008 AMENDE… BETH S… BETH S… 512669 
    #> 10 282358   1B      <NA>    <NA>          0 4437    0          2008 AMENDE… BETH S… BETH S… 512669 
    #> # … with 1,026,442 more rows, 28 more variables: com_type <chr>, schedule_desc <chr>,
    #> #   exp_desc <chr>, purpose <chr>, extra_desc <chr>, f_name <chr>, lname_or_org <chr>,
    #> #   address <chr>, city <chr>, state <chr>, zip <chr>, exp_date <chr>, amount <dbl>,
    #> #   state_loc <chr>, supp_opp <chr>, can_or_ballot <chr>, office <chr>, county <chr>,
    #> #   debt_payment <chr>, vend_name <chr>, vend_addr <chr>, vend_city <chr>, vend_state <chr>,
    #> #   vend_zip <chr>, gotv_ink_ind <chr>, fundraiser <chr>, na_flag <lgl>, dupe_flag <lgl>, and
    #> #   abbreviated variable names ¹​doc_seq_no, ²​expenditure_type, ³​gub_account_type, …
…
``` r
mi <- mi %>% 
  mutate(
    city_norm = normal_city(
      city = str_replace(city, "\\bTWP\\b", "TOWNSHIP"),
      abbs = usps_city,
      states = c("MI", "DC", "MICHIGAN"),
      na = invalid_city,
      na_rep = TRUE
    )
  )
```

    #> # A tibble: 29,776 × 2
    #>    city             city_norm      
    #>    <chr>            <chr>          
    #>  1 MT PLEASANT      MOUNT PLEASANT 
    #>  2 MT. PLEASANT     MOUNT PLEASANT 
    #>  3 MT CLEMENS       MOUNT CLEMENS  
    #>  4 MT. PLEASANT     MOUNT PLEASANT 
    #>  5 ST. CLAIR SHORES ST CLAIR SHORES
    #>  6 ST. JOSEPH       ST JOSEPH      
    #>  7 MT. PLEASANT     MOUNT PLEASANT 
    #>  8 ST. LOUIS        ST LOUIS       
    #>  9 MT. CLEMENS      MOUNT CLEMENS  
    #> 10 SYMMES TWP       SYMMES TOWNSHIP
    #> # … with 29,766 more rows
…
      key_collision_merge() %>% 
      n_gram_merge(numgram = 1)
  ) %>% 
  filter(city_refine != city_swap) %>% 
  inner_join(
    y = zipcodes,
    by = c(
      "city_refine" = "city",
      "state_norm" = "state",
      "zip_norm" = "zip"
    )
  )
```

    #> # A tibble: 1,381 × 5
    #>    state_norm zip_norm city_swap    city_refine       n
    #>    <chr>      <chr>    <chr>        <chr>         <int>
    #>  1 MA         02144    SOMMERVILLE  SOMERVILLE      245
    #>  2 MI         49234    CLARK LAKE   CLARKLAKE       151
    #>  3 IL         60094    PALETINE     PALATINE        134
    #>  4 CA         94105    SAN FRANCISO SAN FRANCISCO   120
    #>  5 KY         40291    LOUSIVILLE   LOUISVILLE       96
    #>  6 MI         49127    STEVENVILLE  STEVENSVILLE     94
    #>  7 MI         49770    PETOSKY      PETOSKEY         77
    #>  8 VA         22102    MC LEAN      MCLEAN           77
    #>  9 MI         48015    CENTERLINE   CENTER LINE      73
    #> 10 MI         48848    LAINSBURG    LAINGSBURG       53
    #> # … with 1,371 more rows
…
#### Progress

Our goal for normalization was to increase the proportion of city values
known to be valid and reduce the total distinct values by correcting
misspellings.

``` r
many_city <- c(many_city,valid_locality)
mi %>% 
  filter(city_refine %out% many_city) %>% 
  count(city_refine, sort = TRUE)
```

    #> # A tibble: 1,973 × 2
    #>    city_refine          n
    #>    <chr>            <int>
    #>  1 <NA>              6752
    #>  2 SHELBY TOWNSHIP   3094
    #>  3 ST JOHNS          1969
    #>  4 ST LOUIS          1673
    #>  5 ST CLAIR           655
    #>  6 ST IGNACE          525
    #>  7 LUM                440
    #>  8 MACOMB TOWNSHIP    420
    #>  9 REDFORD TOWNSHIP   305
    #> 10 ST PAUL            267
    #> # … with 1,963 more rows
…
