…
``` r
fix_info <- as_tibble(dir_info(fix_dir))
sum(fix_info$size)
```

    #> 103M

``` r
fix_info %>% 
  select(path, size, modification_time) %>% 
  mutate(across(path, basename))
```

    #> # A tibble: 41 × 3
    #>    path                             size modification_time  
    #>    <chr>                     <fs::bytes> <dttm>             
    #>  1 FIX_2019_07_ScheduleD.csv       5.71M 2022-11-02 22:04:13
    #>  2 FIX_2019_08_ScheduleD.csv       1.07M 2022-11-02 22:04:15
    #>  3 FIX_2019_09_ScheduleD.csv        4.7M 2022-11-02 22:04:18
    #>  4 FIX_2019_10_ScheduleD.csv       9.61M 2022-11-02 22:04:23
    #>  5 FIX_2019_11_ScheduleD.csv      798.2K 2022-11-02 22:04:23
    #>  6 FIX_2019_12_ScheduleD.csv       4.22M 2022-11-02 22:04:25
    #>  7 FIX_2020_01_ScheduleD.csv       5.57M 2022-11-02 22:04:28
    #>  8 FIX_2020_02_ScheduleD.csv      80.03K 2022-11-02 22:04:28
    #>  9 FIX_2020_03_ScheduleD.csv      191.3K 2022-11-02 22:04:29
    #> 10 FIX_2020_04_ScheduleD.csv       1.76M 2022-11-02 22:04:29
    #> # … with 31 more rows
…
There are 4743 distinct duplicated records in this database, covering
12868 total records. It’s entirely possible that two expenditures can be
made by the same committee, to the same payeee, of the same amount, on
the same day, for the same purpose. However, we will flag these records
with `dupe_flag` nonetheless.

``` r
va_dupes %>% 
  tabyl(item_or_service) %>%
  as_tibble() %>% 
  arrange(desc(n)) %>% 
  mutate(cum_percent = cumsum(percent))
```

    #> # A tibble: 666 × 5
    #>    item_or_service                 n percent valid_percent cum_percent
    #>    <chr>                       <int>   <dbl>         <dbl>       <dbl>
    #>  1 Contribution Fee              943  0.199         0.199        0.199
    #>  2 Contribution Refund           229  0.0483        0.0483       0.247
    #>  3 Refund to Contributor         199  0.0420        0.0420       0.289
    #>  4 Processing Fee                193  0.0407        0.0407       0.330
    #>  5 Contribution processing fee   151  0.0318        0.0319       0.362
    #>  6 Processing fee                145  0.0306        0.0306       0.392
    #>  7 Fee                           117  0.0247        0.0247       0.417
    #>  8 Wire Fee                      105  0.0221        0.0222       0.439
    #>  9 Bank Fee                      103  0.0217        0.0217       0.461
    #> 10 Advertising                    66  0.0139        0.0139       0.475
    #> # … with 656 more rows
…
    #> # A tibble: 3 × 3
    #>   perf_match      n      p
    #>   <lgl>       <int>  <dbl>
    #> 1 FALSE       31087 0.0621
    #> 2 TRUE       460046 0.918 
    #> 3 NA           9803 0.0196

``` r
va %>% 
    filter(match_dist == 1) %>% 
    count(city_norm, city_match, sort = TRUE)
```

    #> # A tibble: 659 × 3
    #>    city_norm     city_match        n
    #>    <chr>         <chr>         <int>
    #>  1 SOMMERVILLE   SOMERVILLE      604
    #>  2 SAN FRANSISCO SAN FRANCISCO   496
    #>  3 CENTERVILLE   CENTREVILLE     251
    #>  4 MENIO PARK    MENLO PARK      212
    #>  5 MC LEAN       MCLEAN          147
    #>  6 MENLOW PARK   MENLO PARK      128
    #>  7 SOMERVBILLE   SOMERVILLE       99
    #>  8 WINSTONSALEM  WINSTON SALEM    89
    #>  9 SAN JOE       SAN JOSE         88
    #> 10 MOUTAIN VIEW  MOUNTAIN VIEW    81
    #> # … with 649 more rows
…
n_distinct(va$city_swap)
#> [1] 2850
```

There are still 22344 records with a `city_swap` value not in our list
of valid city names. Many, if not most, of these values are actually
acceptable city names that are simply not in our list.

``` r
va %>% 
  filter(city_swap %out% valid_city) %>%
  count(city_swap, sort = TRUE)
```

    #> # A tibble: 476 × 2
    #>    city_swap              n
    #>    <chr>              <int>
    #>  1 <NA>                9803
    #>  2 WEST SOMERVILLE     3983
    #>  3 NORTH CHESTERFIELD  1821
    #>  4 DALE CITY            400
    #>  5 MANASSAS PARK        367
    #>  6 FAIRLAWN             348
    #>  7 POTOMAC FALLS        316
    #>  8 CHESTERBROOK         299
    #>  9 SOUTH RIDING         271
    #> 10 ST PAUL PARK         213
    #> # … with 466 more rows
…
#### Review

The algorithms rely on comparing the relative frequencies of two similar
values, rather than a list of *actual* values. This can cause some
accidential changes to be made.

``` r
va_refined %>% 
  select(-schedule_d_id) %>%
  distinct()
```

    #> # A tibble: 39 × 7
    #>    state_clean zip_clean city_raw         city_norm       city_match       city_swap       city_r…¹
    #>    <chr>       <chr>     <chr>            <chr>           <chr>            <chr>           <chr>   
    #>  1 NY          14445     E Rochester      E ROCHESTER     EAST ROCHESTER   E ROCHESTER     ROCHEST…
    #>  2 VA          22103     McClean          MCCLEAN         WEST MCLEAN      MCCLEAN         MCLEAN  
    #>  3 VA          23860     N Prince George  N PRINCE GEORGE HOPEWELL         N PRINCE GEORGE PRINCE …
    #>  4 VA          23860     N. Prince George N PRINCE GEORGE HOPEWELL         N PRINCE GEORGE PRINCE …
    #>  5 VA          22201     Washingtong DC   WASHINGTONG     ARLINGTON        WASHINGTONG     WASHING…
    #>  6 VA          20111     Mansassas Park   MANSASSAS PARK  MANASSAS         MANSASSAS PARK  MANASSA…
    #>  7 VA          23834     S  Chesterfield  S CHESTERFIELD  COLONIAL HEIGHTS S CHESTERFIELD  CHESTER…
    #>  8 VA          23803     S Chesterfield   S CHESTERFIELD  PETERSBURG       S CHESTERFIELD  CHESTER…
    #>  9 VA          23860     n. Prince George N PRINCE GEORGE HOPEWELL         N PRINCE GEORGE PRINCE …
    #> 10 VA          23803     S. Chesterfield  S CHESTERFIELD  PETERSBURG       S CHESTERFIELD  CHESTER…
    #> # … with 29 more rows, and abbreviated variable name ¹​city_refine

``` r
va_refined %>% 
  count(state_clean, city_refine, sort = TRUE)
```

    #> # A tibble: 34 × 3
    #>    state_clean city_refine             n
    #>    <chr>       <chr>               <int>
    #>  1 MA          SOMERVILLE             37
    #>  2 VA          CHESTERFIELD           24
    #>  3 NY          ROCHESTER              17
    #>  4 VA          PRINCE GEORGE          16
    #>  5 CA          MENLO PARK CA          14
    #>  6 MN          BLOOMINGTON            11
    #>  7 VA          WILSON                  7
    #>  8 CA          SAN JOSE CALIFORNIA     5
    #>  9 VA          BAILEYS CROSSROADS      4
    #> 10 FL          NEWPORT                 2
    #> # … with 24 more rows
…
