…
We can use `campfin::flag_na()` to identify records missing key
variables.

``` r
dee <- dee %>% flag_na(date, name, amount, committee)
percent(mean(dee$na_flag), 0.1)
#> [1] "3.6%"
```

``` r
dee %>% 
  filter(na_flag) %>% 
  select(date, name, amount, committee)
#> # A tibble: 6,259 × 4
#>    date       name  amount committee                                                            
#>    <date>     <chr>  <dbl> <chr>                                                                
#>  1 2017-10-19 <NA>   100   Friends of Melanie George                                            
#>  2 2017-10-18 <NA>    75   Friends Of Margaret Rose Henry                                       
#>  3 2017-08-22 <NA>    90   Committee to Elect Laura Brown  NCC Recorder of Deeds                
#>  4 2017-08-10 <NA>    30   Committee to Elect Laura Brown  NCC Recorder of Deeds                
#>  5 2017-12-31 <NA>   890.  Outtens Campaign                                                     
#>  6 2017-04-12 <NA>    45   Committee to Elect Laura Brown for 17th State Representative District
#>  7 2017-12-28 <NA>    64   Committee to Elect Laura Brown for 17th State Representative District
#>  8 2017-03-22 <NA>    14.2 Progressive Democrats for Delaware  Inc.                             
#>  9 2017-01-25 <NA>    60   Friends of Rich Collins                                              
#> 10 2017-03-31 <NA>    12   Friends of Rich Collins                                              
#> # … with 6,249 more rows
```
…
### Duplicates

``` r
dee <- flag_dupes(dee, everything())
percent(mean(dee$dupe_flag), 0.1)
#> [1] "2.7%"
```

``` r
dee %>% 
  filter(dupe_flag) %>% 
  select(date, name, amount, committee)
#> # A tibble: 4,717 × 4
#>    date       name                                   amount committee                       
#>    <date>     <chr>                                   <dbl> <chr>                           
#>  1 2017-06-12 Democrat Legislative Campaign Committe 125    Friends of Quinn Johnson        
#>  2 2017-06-12 Democrat Legislative Campaign Committe 125    Friends of Quinn Johnson        
#>  3 2017-01-10 Joseph Fulgham                         295    BlueGoldPAC                     
#>  4 2017-01-10 Joseph Fulgham                         295    BlueGoldPAC                     
#>  5 2018-08-01 Shari Murphy                            40.4  Delaware P.E.O.P.L.E. Committee 
#>  6 2017-02-01 RallyPiryx  Inc.                        10.4  Kent County Republican Committee
#>  7 2017-02-01 RallyPiryx  Inc.                         5.18 Kent County Republican Committee
#>  8 2017-02-01 RallyPiryx  Inc.                        10.4  Kent County Republican Committee
#>  9 2017-02-01 RallyPiryx  Inc.                         5.18 Kent County Republican Committee
#> 10 2017-02-08 RallyPiryx  Inc.                         5.18 Kent County Republican Committee
#> # … with 4,707 more rows
```
…
``` r
dee %>% 
  filter(state != state_norm) %>% 
  count(state, state_norm, sort = TRUE)
#> # A tibble: 28 × 3
#>    state state_norm     n
#>    <chr> <chr>      <int>
#>  1 De    DE          1548
#>  2 de    DE           219
#>  3 Pa    PA            71
#>  4 Md    MD            47
#>  5 Ma    MA            28
#>  6 Fl    FL            16
#>  7 Ct    CT            13
#>  8 Tx    TX            12
#>  9 Ca    CA            11
#> 10 il    IL             8
#> # … with 18 more rows
```
…
``` r
dee <- dee %>% 
  left_join(good_refine) %>% 
  mutate(city_refine = coalesce(city_refine, city_swap))
```

#### Progress

``` r
many_city <- c(valid_city, extra_city)
dee %>% 
  filter(city_refine %out% many_city) %>% 
  count(city_refine, state_norm, sort = TRUE) %>% 
  drop_na()
#> # A tibble: 355 × 3
#>    city_refine state_norm     n
#>    <chr>       <chr>      <int>
#>  1 WILM        DE           481
#>  2 PHILA       DE           106
#>  3 PA          DE            69
#>  4 VIEW        DE            67
#>  5 DC          DE            41
#>  6 ST          DE            29
#>  7 MD          DE            27
#>  8 NECK        DE            27
#>  9 COUNTY      DE            22
#> 10 RD          DE            21
#> # … with 345 more rows
```
…
