…
``` r
leso <- flag_dupes(leso, everything())
mean(leso$dupe_flag)
#> [1] 0.7121246
```

It looks like most of these duplicates are simply multiple items
transferred in the same shipment with a `quantity` of 1.

``` r
leso %>% 
  filter(dupe_flag) %>% 
  select(date, to_station, value, quantity, item) %>% 
  arrange(date)
#> # A tibble: 100,458 x 5
#>    date                to_station               value quantity item                 
#>    <dttm>              <chr>                    <dbl>    <dbl> <chr>                
#>  1 1990-05-03 00:00:00 BLAINE CTY SHERIFF DEPT    138        1 RIFLE,7.62 MILLIMETER
#>  2 1990-05-03 00:00:00 BLAINE CTY SHERIFF DEPT    138        1 RIFLE,7.62 MILLIMETER
#>  3 1990-05-03 00:00:00 BLAINE CTY SHERIFF DEPT    138        1 RIFLE,7.62 MILLIMETER
#>  4 1990-05-03 00:00:00 BLAINE CTY SHERIFF DEPT    138        1 RIFLE,7.62 MILLIMETER
#>  5 1990-05-03 00:00:00 BLAINE CTY SHERIFF DEPT    138        1 RIFLE,7.62 MILLIMETER
#>  6 1990-05-03 00:00:00 DANIELS CTY SHERIFF DEPT   138        1 RIFLE,7.62 MILLIMETER
#>  7 1990-05-03 00:00:00 DANIELS CTY SHERIFF DEPT   138        1 RIFLE,7.62 MILLIMETER
#>  8 1990-05-03 00:00:00 DANIELS CTY SHERIFF DEPT   138        1 RIFLE,7.62 MILLIMETER
#>  9 1990-05-03 00:00:00 DILLON POLICE DEPT         138        1 RIFLE,7.62 MILLIMETER
#> 10 1990-05-03 00:00:00 DILLON POLICE DEPT         138        1 RIFLE,7.62 MILLIMETER
#> # … with 100,448 more rows
```

``` r
leso %>% 
  filter(dupe_flag) %>% 
  count(quantity, sort = TRUE) %>% 
  add_prop()
#> # A tibble: 38 x 3
#>    quantity     n        p
#>       <dbl> <int>    <dbl>
#>  1        1 99206 0.988   
#>  2        2   353 0.00351 
#>  3       10   252 0.00251 
#>  4        4   153 0.00152 
#>  5        3   104 0.00104 
#>  6        5    87 0.000866
#>  7        6    62 0.000617
#>  8       20    39 0.000388
#>  9        8    26 0.000259
#> 10       12    20 0.000199
#> # … with 28 more rows
```
…
