…
We can make very few manual changes to capture the last few big invalid
values. Local city abbreviations (e.g., SPFD) often need to be changed
by hand.

``` r
wve <- wve %>% 
  mutate(
    city_clean = coalesce(sec_city_match, city_swap)) 


wve %>%
  filter(city_clean %out% valid_city) %>% 
  count(state, city_clean, sort = TRUE) %>% 
  drop_na(city_clean)
#> # A tibble: 105 × 3
#>    state city_clean                  n
#>    <chr> <chr>                   <int>
#>  1 CA    SAN FRANSICO               78
#>  2 CA    PLAYA VISTA                28
#>  3 MA    WEST SOMERVILLE            23
#>  4 CA    ALMADEN BOULEVARD SUITE    22
#>  5 WV    ONLINE ORDERED             22
#>  6 MA    SOMMERVILLE                18
#>  7 CA    MELO PARK                  17
#>  8 WA    NORTH SEATTLE              17
#>  9 WV    STONEWOOD                  17
#> 10 OH    MES TOWNSHIP               13
#> # … with 95 more rows
```
…
