…
``` r
key_vars <- c("first_name", "last_name", "annual_salary", "hire_date")
bal <- flag_na(bal, all_of(key_vars))
sum(bal$na_flag)
#> [1] 410
```

Every record missing a value has the first name of “BPD” and is missing
a `last_name` value.

``` r
bal %>% 
  filter(na_flag) %>% 
  count(first_name, agency_name, sort = TRUE)
#> # A tibble: 29 x 3
#>    first_name agency_name                 n
#>    <chr>      <chr>                   <int>
#>  1 BPD        Police Department         241
#>  2 BPD        Police Department (200)    60
#>  3 BPD        Police Department (334)    27
#>  4 BPD        Police Department (347)    20
#>  5 BPD        Police Department (295)    14
#>  6 BPD        Police Department (422)    10
#>  7 BPD        Police Department (349)     9
#>  8 BPD        Police Department (070)     8
#>  9 BPD        BPD 1                       1
#> 10 BPD        BPD 10                      1
#> # … with 19 more rows
```
…
