…
``` r
hhspr <- mutate(hhspr, year = year(today()))
```

## Geography

All of the `state` values are valid abbreviations.

``` r
percent(prop_in(hhspr$state, valid_state), 0.01)
#> [1] "100.00%"
add_prop(count(hhspr, state, sort = TRUE))
#> # A tibble: 55 x 3
#>    state     n      p
#>    <chr> <int>  <dbl>
#>  1 CA    23286 0.111 
#>  2 TX    16815 0.0800
#>  3 NY    16153 0.0769
#>  4 FL    14444 0.0687
#>  5 NJ     8877 0.0422
#>  6 IL     8494 0.0404
#>  7 PA     8346 0.0397
#>  8 MI     7411 0.0353
#>  9 OH     6890 0.0328
#> 10 GA     5749 0.0274
#> # … with 45 more rows
```
…
``` r
many_city <- c(valid_city, extra_city)
percent(prop_in(hhspr$city, many_city), 0.01)
#> [1] "98.14%"
```

The only different between the `city` column and our list of known
cities is the abbreviations.

``` r
hhspr %>% 
  filter(city %out% many_city) %>% 
  count(city, state, sort = TRUE) %>% 
  add_prop(n = n)
#> # A tibble: 1,464 x 4
#>    city             state     n      p
#>    <chr>            <chr> <int>  <dbl>
#>  1 ST PETERSBURG    FL      164 0.0420
#>  2 FARMINGTON HILLS MI      146 0.0374
#>  3 ST LOUIS         MO      127 0.0325
#>  4 PORT ST LUCIE    FL       97 0.0248
#>  5 ST GEORGE        UT       74 0.0190
#>  6 ST AUGUSTINE     FL       72 0.0184
#>  7 MANALAPAN        NJ       66 0.0169
#>  8 SHELBY TOWNSHIP  MI       63 0.0161
#>  9 FT LAUDERDALE    FL       60 0.0154
#> 10 LUTHERVILLE      MD       49 0.0126
#> # … with 1,454 more rows
```
…
