…
``` r
key_vars <- c("transaction_date", "last_name", 
              "transaction_amount", "committee_name")
nmc <- flag_na(nmc, all_of(key_vars))
percent(mean(nmc$na_flag), 0.01)
#> [1] "1.34%"
```

``` r
nmc %>% 
  filter(na_flag) %>% 
  select(age, all_of(key_vars))
#> # A tibble: 15,028 × 5
#>    age   transaction_date    last_name transaction_amount committee_name                       
#>    <chr> <dttm>              <chr>                  <dbl> <chr>                                
#>  1 new   2020-11-01 00:00:00 <NA>                      20 Republican Party of Bernalillo County
#>  2 new   2020-12-11 00:00:00 <NA>                      41 Republican Party of Bernalillo County
#>  3 new   2020-12-04 00:00:00 <NA>                      50 Republican Party of Bernalillo County
#>  4 new   2020-10-30 00:00:00 <NA>                      88 Republican Party of Bernalillo County
#>  5 new   2021-03-18 00:00:00 <NA>                      62 Republican Women's Club of Carlsbad  
#>  6 new   2020-10-28 00:00:00 <NA>                      30 Democratic Party of Socorro County   
#>  7 new   2020-10-28 00:00:00 <NA>                      40 Democratic Party of Socorro County   
#>  8 new   2020-10-28 00:00:00 <NA>                      60 Democratic Party of Socorro County   
#>  9 new   2020-12-03 00:00:00 <NA>                      87 Democratic Party of Sandoval County  
#> 10 new   2021-02-12 00:00:00 <NA>                      15 Luna County Democratic Party         
#> # … with 15,018 more rows
```
…
``` r
percent(mean(nmc$dupe_flag[nmc$na_flag]))
#> [1] "14%"
```

``` r
nmc %>% 
  filter(dupe_flag) %>% 
  select(age, all_of(key_vars)) %>% 
  arrange(committee_name)
#> # A tibble: 43,331 × 5
#>    age   transaction_date    last_name                             transaction_amount committee_name     
#>    <chr> <dttm>              <chr>                                              <dbl> <chr>              
#>  1 old   2017-10-27 00:00:00 Bargas                                           5500    579 PAC            
#>  2 old   2017-10-27 00:00:00 Bargas                                           5500    579 PAC            
#>  3 old   2017-12-05 00:00:00 Perry                                            5500    579 PAC            
#>  4 old   2017-12-05 00:00:00 Perry                                            5500    579 PAC            
#>  5 old   2017-05-13 00:00:00 Brenner                                           250    A Better Way For LA
#>  6 old   2017-05-13 00:00:00 Brenner                                           250    A Better Way For LA
#>  7 new   2020-11-30 00:00:00 US Eagle Federal Credit Union                       3.32 A New Day For NM   
#>  8 new   2020-12-31 00:00:00 US Eagle Federal Credit Union                       3.33 A New Day For NM   
#>  9 new   2020-10-31 00:00:00 US Eagle Federal Credit Union                       3.82 A New Day For NM   
#> 10 new   2020-10-29 00:00:00 Rio Grande Chapter of Sierra Club PAC               8.03 A New Day For NM   
#> # … with 43,321 more rows
```
…
``` r
nm_addr
#> # A tibble: 344,373 × 3
#>    contributor_address_line_1 contributor_address_line_2 address_norm         
#>    <chr>                      <chr>                      <chr>                
#>  1 <NA>                       <NA>                       <NA>                 
#>  2 chase.com                  <NA>                       CHASE COM            
#>  3 6007 PALM AVE SW           <NA>                       6007 PALM AVE SW     
#>  4 PO BOX 169                 <NA>                       PO BOX 169           
#>  5 13612 OLD MISSION CT       <NA>                       13612 OLD MISSION CT 
#>  6 481 MARIGOLD DR            <NA>                       481 MARIGOLD DR      
#>  7 2533 Villanova Dr          <NA>                       2533 VILLANOVA DR    
#>  8 3077 Evelyn St             <NA>                       3077 EVELYN ST       
#>  9 1251 Turk St               Apt 1118                   1251 TURK ST APT 1118
#> 10 7809 SHERWOOD DR NW        <NA>                       7809 SHERWOOD DR NW  
#> # … with 344,363 more rows
```
…
``` r
nmc %>% 
  filter(contributor_state != state_norm) %>% 
  count(contributor_state, state_norm, sort = TRUE)
#> # A tibble: 178 × 3
#>    contributor_state state_norm     n
#>    <chr>             <chr>      <int>
#>  1 New Mexico        NM         10420
#>  2 California        CA          1695
#>  3 Texas             TX           940
#>  4 New York          NY           687
#>  5 nm                NM           546
#>  6 Florida           FL           491
#>  7 Colorado          CO           450
#>  8 Massachusetts     MA           290
#>  9 Arizona           AZ           274
#> 10 Illinois          IL           271
#> # … with 168 more rows
```
…
      key_collision_merge() %>% 
      n_gram_merge(numgram = 1)
  ) %>% 
  filter(city_refine != city_swap) %>% 
  inner_join(
    y = zipcodes,
    by = c(
      "city_refine" = "city",
      "state_norm" = "state",
      "zip_norm" = "zip"
    )
  )
```

    #> # A tibble: 198 × 5
    #>    state_norm zip_norm city_swap     city_refine      n
    #>    <chr>      <chr>    <chr>         <chr>        <int>
    #>  1 NM         87010    LOS CERRILLOS CERRILLOS       46
    #>  2 NM         87801    SOCCORO       SOCORRO         45
    #>  3 NM         88310    ALMGORODO     ALAMOGORDO      11
    #>  4 CA         94583    SAN ROMAN     SAN RAMON       10
    #>  5 NM         87059    TIREJAS       TIJERAS         10
    #>  6 PA         19103    PHILLADEPHIA  PHILADELPHIA     8
    #>  7 NM         87004    BERNALLIO     BERNALILLO       7
    #>  8 NM         87048    CORALLES      CORRALES         6
    #>  9 NM         87375    YAH TA HEY    YATAHEY          6
    #> 10 OH         45236    CINCINATTI    CINCINNATI       5
    #> # … with 188 more rows
…
