…
## Join

The primary table of interest here is `Expenses`, which lists the
310,302 expenditures made to committees and reported to the state. This
table does not identify the spending committee or receiving entity. This
information is found in the `Groups` and `Contributors` tables,
respectively. We need to add variables identifying all parties to each
contribution.

``` r
nv$Expenses
#> # A tibble: 310,302 × 8
#>    expense_id report_id candidate_id group_id expense_date expense_amount expense_type     payee_id
#>         <int>     <int>        <int>    <int> <date>                <dbl> <chr>               <int>
#>  1          2      6980           NA     1220 2006-07-05           1688.  Monetary Expense        4
#>  2          3      6980           NA     1220 2006-07-31          52971.  Monetary Expense        5
#>  3          4      6980           NA     1220 2006-07-25            911.  Monetary Expense        6
#>  4          5      6980           NA     1220 2006-07-05           1764.  Monetary Expense        7
#>  5          6      6980           NA     1220 2006-06-23            108.  Monetary Expense        7
#>  6          7      6983           NA     1332 2006-01-01              0   Monetary Expense        9
#>  7          8      6983           NA     1332 2006-01-01              0   In Kind Expense         9
#>  8          9      6985         1165       NA 2006-06-20             50.6 Monetary Expense       10
#>  9         10      6985         1165       NA 2006-07-03             57.0 Monetary Expense       11
#> 10         11      6985         1165       NA 2006-07-12             68.1 Monetary Expense       12
#> # … with 310,292 more rows
```
…
``` r
addr_norm
#> # A tibble: 44,203 × 3
#>    address_1                 address_2   address_norm                
#>    <chr>                     <chr>       <chr>                       
#>  1 275 7th Ave.              <NA>        275 7TH AVE                 
#>  2 155 Yorba St              <NA>        155 YORBA ST                
#>  3 1630 S Commerce St        <NA>        1630 S COMMERCE ST          
#>  4 4395 Polaris Ave          <NA>        4395 POLARIS AVE            
#>  5 1224 Western Ave          <NA>        1224 WESTERN AVE            
#>  6 <NA>                      <NA>        <NA>                        
#>  7 4206 S. 108th St.         <NA>        4206 S 108TH ST             
#>  8 701 Great Basin Blvd.     <NA>        701 GREAT BASIN BLVD        
#>  9 7801 N. Lamar Blvd.       Suite D-106 7801 N LAMAR BLVD SUITE D106
#> 10 1689 E. Great Basin Hiway <NA>        1689 E GREAT BASIN HWY      
#> # … with 44,193 more rows
```
…
``` r
all_payees %>% 
  filter(state != state_norm) %>% 
  count(state, state_norm, sort = TRUE)
#> # A tibble: 71 × 3
#>    state state_norm     n
#>    <chr> <chr>      <int>
#>  1 Nv    NV           792
#>  2 nv    NV           695
#>  3 Ca    CA            45
#>  4 Ne    NE            43
#>  5 Ut    UT            23
#>  6 ca    CA            20
#>  7 Tx    TX            17
#>  8 Il    IL            15
#>  9 ut    UT            14
#> 10 Fl    FL            13
#> # … with 61 more rows
```
…
``` r
nve <- flag_dupes(nve, -expense_id)
sum(nve$dupe_flag)
#> [1] 12269
```

``` r
key_vars <- c("last_name", "expense_date", "expense_amount", "recipient_name")
```

``` r
nve %>% 
  filter(dupe_flag) %>% 
  select(expense_id, report_id, all_of(key_vars))
#> # A tibble: 12,269 × 6
#>    expense_id report_id last_name expense_date expense_amount recipient_name        
#>         <int>     <int> <chr>     <date>                <dbl> <chr>                 
#>  1         36      6991 Bonanza   2006-08-01             731. E Tiras               
#>  2         37      6991 Bonanza   2006-08-01             731. E Tiras               
#>  3         56      7062 NONE      2006-01-01               0  Patricia Herzog       
#>  4         56      7062 NONE      2006-01-01               0  ACME Enterprises PAC  
#>  5         57      7062 NONE      2006-01-01               0  Patricia Herzog       
#>  6         57      7062 NONE      2006-01-01               0  ACME Enterprises PAC  
#>  7        319      7577 McLeod    2006-09-21            -315. Lynette Boggs McDonald
#>  8        320      7577 McLeod    2006-09-21            -315. Lynette Boggs McDonald
#>  9        321      7577 McLeod    2006-09-21            -341  Lynette Boggs McDonald
#> 10        322      7577 McLeod    2006-09-21            -326. Lynette Boggs McDonald
#> # … with 12,259 more rows
```
…
