…
``` r
ilc %>% 
  count(vendor, sort = TRUE) %>% 
  add_prop(sum = FALSE) %>% 
  mutate(c = cumsum(p))
#> # A tibble: 7,506 x 4
#>    vendor                             n       p      c
#>    <chr>                          <int>   <dbl>  <dbl>
#>  1 M J KELLNER CO INC              2133 0.0731  0.0731
#>  2 UNIVERSITY OF ILLINOIS           438 0.0150  0.0881
#>  3 XEROX CORPORATION                330 0.0113  0.0994
#>  4 CHICAGO CITY OF                  313 0.0107  0.110 
#>  5 ADVANCED COMMODITIES  INC        298 0.0102  0.120 
#>  6 MIDLAND PAPER COMPANY            220 0.00754 0.128 
#>  7 D CONSTRUCTION INC               185 0.00634 0.134 
#>  8 UNITED CONTRACTORS MIDWEST INC   150 0.00514 0.139 
#>  9 CARBON SOLUTIONS GROUP LLC       138 0.00473 0.144 
#> 10 W W GRAINGER INC                 129 0.00442 0.148 
#> # … with 7,496 more rows
```
…
