…
``` r
vt %>% 
  select(starts_with("address")) %>% 
  distinct() %>% 
  sample_frac()
```

    #> # A tibble: 12,881 × 2
    #>    address_sep                        address_norm                     
    #>    <chr>                              <chr>                            
    #>  1 800 HASKELL AVENUE                 800 HASKELL AVE                  
    #>  2 30 COTTAGE RD                      30 COTTAGE RD                    
    #>  3 82 ECONOMOU RD                     82 ECONOMOU RD                   
    #>  4 37 PLEASANT STREET                 37 PLEASANT ST                   
    #>  5 319 RUBY ROAD                      319 RUBY RD                      
    #>  6 1 ARROW DRIVE                      1 ARROW DR                       
    #>  7 137 MAPLE ST                       137 MAPLE ST                     
    #>  8 PO BOX 85                          PO BOX 85                        
    #>  9 PATCHEN RD                         PATCHEN RD                       
    #> 10 O'ROURKE MEDIA GRIP MEDIA REPORTER OROURKE MEDIA GRIP MEDIA REPORTER
    #> # ℹ 12,871 more rows
…
``` r
many_city <- unique(c(valid_city, extra_city, vt_city))
```

``` r
vt %>% 
  filter(city_refine %out% many_city) %>% 
  count(state_norm, zip_norm, city_refine, city_match, sort = TRUE) %>% 
  drop_na(city_refine)
```

    #> # A tibble: 140 × 5
    #>    state_norm zip_norm city_refine        city_match       n
    #>    <chr>      <chr>    <chr>              <chr>        <int>
    #>  1 NJ         07726    "MANALAPAN"        ENGLISHTOWN     52
    #>  2 VT         05478    "GEORGIA"          SAINT ALBANS    44
    #>  3 MA         02144    "WEST SOMMERVILLE" SOMERVILLE      26
    #>  4 VT         05468    "GEORGIA"          MILTON          22
    #>  5 VT         05682    "NORTH MIDDLESEX"  WORCESTER       21
    #>  6 VT         05763    "NORTH CHITTENDEN" PITTSFORD       20
    #>  7 LA         70112    "SUITE "           NEW ORLEANS     16
    #>  8 VT         05602    "BELIN"            MONTPELIER      16
    #>  9 VT         05303    "WEST BRATTLEBORO" BRATTLEBORO     12
    #> 10 VT         05478    "ST ALBANS CITY"   SAINT ALBANS    11
    #> # ℹ 130 more rows
…
