…
``` r
key_vars <- c("receipt_date", "full_name", "amount", "organization_name")
ric <- flag_na(ric, all_of(key_vars))
sum(ric$na_flag)
#> [1] 23
```

While some rows are missing a `last_name`, very few are missing
`full_name`.

``` r
ric %>% 
  filter(na_flag) %>% 
  select(all_of(key_vars))
#> # A tibble: 23 × 4
#>    receipt_date full_name  amount organization_name
#>    <date>       <chr>       <dbl> <chr>            
#>  1 2003-02-06   <NA>      -64000  DONALD L CARCIERI
#>  2 2002-07-01   <NA>        -306. LEO T FONTAINE   
#>  3 2003-09-08   <NA>       -4890  DAVID N CICILLINE
#>  4 2002-11-21   <NA>         -60  ANDREW M LYON III
#>  5 2004-12-01   <NA>      -20000  CHARLENE LIMA    
#>  6 2004-12-01   <NA>       -2260. DAVID J SANTILLI 
#>  7 2005-01-13   <NA>       -2327. JOSEPH A WELLS   
#>  8 2004-12-04   <NA>      -20611. JOHN O MANCINI   
#>  9 2004-11-12   <NA>       -1025  ERNEST J CABRAL  
#> 10 2004-11-29   <NA>        -500  CASWELL COOKE JR.
#> # … with 13 more rows
```
…
``` r
ric <- flag_dupes(ric, -contribution_id)
mean(ric$dupe_flag)
#> [1] 0.01108992
sum(ric$dupe_flag)
#> [1] 7768
```

``` r
ric %>% 
  filter(dupe_flag) %>% 
  select(contribution_id, all_of(key_vars)) %>% 
  arrange(receipt_date)
#> # A tibble: 7,768 × 5
#>    contribution_id receipt_date full_name                     amount organization_name            
#>              <int> <date>       <chr>                          <dbl> <chr>                        
#>  1           32690 2002-01-04   RI LABORERS' STATE  EMPLOYEES    500 JOHN A  CELONA               
#>  2           32691 2002-01-04   RI LABORERS' STATE  EMPLOYEES    500 JOHN A  CELONA               
#>  3           14490 2002-01-08   TARRO, STEPHEN A                 500 Honorable EDWARD S  INMAN III
#>  4           14491 2002-01-08   TARRO, STEPHEN A                 500 Honorable EDWARD S  INMAN III
#>  5           32912 2002-02-12   GASBARRO, CHRISTOPHER            125 JOHN A  CELONA               
#>  6           32913 2002-02-12   GASBARRO, CHRISTOPHER            125 JOHN A  CELONA               
#>  7           53215 2002-02-27   HOLDEN, LORING S                 100 MATTHEW A  BROWN             
#>  8           53216 2002-02-27   HOLDEN, LORING S                 100 MATTHEW A  BROWN             
#>  9           70411 2002-03-01   W WARWICK TEACH ALLIANCE COPE     50 JOHN J  TASSONI JR           
#> 10           70412 2002-03-01   W WARWICK TEACH ALLIANCE COPE     50 JOHN J  TASSONI JR           
#> # … with 7,758 more rows
```
…
``` r
addr_norm <- ric %>% 
  distinct(address) %>% 
  mutate(
    address_norm = normal_address(
      address = address,
      abbs = usps_street,
      na_rep = TRUE
    )
  )
```

``` r
addr_norm
#> # A tibble: 177,520 × 2
#>    address                 address_norm           
#>    <chr>                   <chr>                  
#>  1 3550 BISCAYE BOULEVARD  3550 BISCAYE BLVD      
#>  2 132 EVERETT AVENUE      132 EVERETT AVE        
#>  3 61 YALE AVENUE          61 YALE AVE            
#>  4 32 THOMAS LEIGHTON BLVD 32 THOMAS LEIGHTON BLVD
#>  5 200 GLENWOOD AVENUE     200 GLENWOOD AVE       
#>  6 72 UPLAND ROAD          72 UPLAND RD           
#>  7 210 EDMOND DRIVE        210 EDMOND DR          
#>  8 10 HOWARD STREET        10 HOWARD ST           
#>  9 29 LAFAYETTE DRIVE      29 LAFAYETTE DR        
#> 10 81 S BAY DRIVE          81 S BAY DR            
#> # … with 177,510 more rows
```
…
``` r
ric %>% 
  filter(state_sep != state_norm) %>% 
  count(state_sep, state_norm, sort = TRUE)
#> # A tibble: 74 × 3
#>    state_sep state_norm     n
#>    <chr>     <chr>      <int>
#>  1 ri        RI          5511
#>  2 Ri        RI          2534
#>  3 Ma        MA           378
#>  4 ct        CT           259
#>  5 ma        MA            97
#>  6 Fl        FL            76
#>  7 ny        NY            49
#>  8 Ct        CT            46
#>  9 ca        CA            36
#> 10 fl        FL            35
#> # … with 64 more rows
```
…
      key_collision_merge() %>% 
      n_gram_merge(numgram = 1)
  ) %>% 
  filter(city_refine != city_swap) %>% 
  inner_join(
    y = zipcodes,
    by = c(
      "city_refine" = "city",
      "state_norm" = "state",
      "zip_norm" = "zip"
    )
  )
```

    #> # A tibble: 59 × 5
    #>    state_norm zip_norm city_swap     city_refine       n
    #>    <chr>      <chr>    <chr>         <chr>         <int>
    #>  1 RI         02904    NO PROVIDENCE PROVIDENCE      258
    #>  2 RI         02908    PROVIDENCECE  PROVIDENCE        8
    #>  3 RI         02904    NOPROVIDENCE  PROVIDENCE        7
    #>  4 CA         94116    SAN FRANSICO  SAN FRANCISCO     6
    #>  5 OH         45211    CINNCINATI    CINCINNATI        6
    #>  6 CT         06052    NEW BRITTAN   NEW BRITAIN       4
    #>  7 GA         30125    CEADERTOWN    CEDARTOWN         4
    #>  8 RI         02886    WARIWKC       WARWICK           4
    #>  9 MA         01060    NORTH HAMPTON NORTHAMPTON       3
    #> 10 OH         45208    CINCINATTI    CINCINNATI        3
    #> # … with 49 more rows
…
