…
``` r
fil_addr <- fil_addr %>% 
  select(filer_id, ends_with("norm")) %>% 
  rename_with(~str_c("fil", ., sep = "_"), .cols = -1)
```

This leaves us with clean table of normalized geographic variables by
`filer_id` which can then be added to a table of filer names. That table
of filer info can then be joined against each expenditure to identify
all parties for each transaction.

    #> # A tibble: 48,551 × 5
    #>    filer_id fil_addr_norm         fil_zip_norm fil_state_norm fil_city_norm
    #>       <int> <chr>                 <chr>        <chr>          <chr>        
    #>  1        1 1385 5TH AVE 11E      10029        NY             NEW YORK     
    #>  2       10 277 MARBLEDALE RD     10707        NY             TUCKAHOE     
    #>  3      100 PO BOX 101            10962        NY             ORANGEBURG   
    #>  4     1000 C/O LALLY + MISIR LLP 11501        NY             MINEOLA      
    #>  5    10000 735 E 165TH ST 8A     10456        NY             BRONX        
    #>  6    10001 6 LEESBURG CT         11766        NY             MOUNT SINAI  
    #>  7    10002 291 PECAN ST          11757        NY             LINDENHURST  
    #>  8    10003 MPO BOX 1584          14302        NY             NIAGARA FALLS
    #>  9    10004 3311 JACKSON RD       13903        NY             BINGHAMTON   
    #> 10    10005 69 CENTRAL PKWY       10552        NY             MOUNT VERNON 
    #> # … with 48,541 more rows
…
A little over 3.37% of records are missing either the transaction
`sched_date`, `org_amt` or a `flng_ent_name`.

``` r
nye %>% 
  filter(na_flag) %>% 
  select(all_of(key_vars))
#> # A tibble: 114,275 × 4
#>    sched_date          cand_comm_name     org_amt flng_ent_name
#>    <dttm>              <chr>                <dbl> <chr>        
#>  1 2021-04-12 00:00:00 Brett Alan Sitzman   36.9  <NA>         
#>  2 2021-05-09 00:00:00 Brett Alan Sitzman   22.8  <NA>         
#>  3 2021-06-30 00:00:00 Pearl A. Johnson     49.6  <NA>         
#>  4 2021-06-30 00:00:00 Pearl A. Johnson     45.3  <NA>         
#>  5 2021-04-14 00:00:00 Steven John Smith    30.5  <NA>         
#>  6 2013-09-30 00:00:00 James R.A. Wemette  136.   <NA>         
#>  7 2013-10-09 00:00:00 James R.A. Wemette    1.75 <NA>         
#>  8 2013-11-05 00:00:00 James R.A. Wemette    8.15 <NA>         
#>  9 2013-08-14 00:00:00 Sara K. Niccoli       2.3  <NA>         
#> 10 2013-09-11 00:00:00 Sara K. Niccoli       1.1  <NA>         
#> # … with 114,265 more rows
```
…
``` r
percent(mean(nye$dupe_flag), 0.1)
#> [1] "1.0%"
nye %>% 
  filter(dupe_flag) %>% 
  count(sched_date, cand_comm_name, org_amt, flng_ent_name, sort = TRUE)
#> # A tibble: 11,988 × 5
#>    sched_date          cand_comm_name                org_amt flng_ent_name                               n
#>    <dttm>              <chr>                           <dbl> <chr>                                   <int>
#>  1 2007-01-11 00:00:00 Spitzer Paterson 2006               0 Hampton Inn Suites                         89
#>  2 2013-09-10 00:00:00 People For Ydanis                   0 Kenny Bakery                               80
#>  3 2017-08-12 00:00:00 Tommy Torres 2017                   0 Jc Deli & Grill                            75
#>  4 2010-10-29 00:00:00 Paladino For The People             0 Jet Blue                                   74
#>  5 2017-09-21 00:00:00 Friends Of Alison Mclean Lane      20 <NA>                                       58
#>  6 2009-06-11 00:00:00 Working Families Party Inc.         0 Chase Small Business Financial Services    57
#>  7 2009-03-25 00:00:00 Working Families Party Inc.         0 Chase Small Business Financial Services    56
#>  8 2009-06-18 00:00:00 Working Families Party Inc.         0 Chase Small Business Financial Services    56
#>  9 2010-08-26 00:00:00 Lazio 2010 Inc.                     0 American Express Travel                    51
#> 10 2010-09-14 00:00:00 Lazio 2010 Inc.                     0 American Express Tkt Fee                   51
#> # … with 11,978 more rows
```
…
``` r
nye <- left_join(nye, st_norm, by = c("flng_ent_state", "zip_norm"))
```

``` r
nye %>% 
  filter(flng_ent_state != state_norm) %>% 
  count(flng_ent_state, state_norm, sort = TRUE)
#> # A tibble: 64 × 3
#>    flng_ent_state  state_norm          n
#>    <chr>           <chr>           <int>
#>  1 N.              N                 214
#>  2 ny              NY                182
#>  3 N/              N                 105
#>  4 Ny              NY                 89
#>  5 New South Wales NEW SOUTH WALES    18
#>  6 N7              N                  11
#>  7 Ne              NE                 11
#>  8 Ca              CA                  9
#>  9 Israel          ISRAEL              8
#> 10 Ma              MA                  7
#> # … with 54 more rows
```
…
      key_collision_merge() %>% 
      n_gram_merge(numgram = 1)
  ) %>% 
  filter(city_refine != city_swap) %>% 
  inner_join(
    y = zipcodes,
    by = c(
      "city_refine" = "city",
      "state_norm" = "state",
      "zip_norm" = "zip"
    )
  )
```

    #> # A tibble: 692 × 5
    #>    state_norm zip_norm city_swap           city_refine                n
    #>    <chr>      <chr>    <chr>               <chr>                  <int>
    #>  1 NY         11733    SETAUKET            EAST SETAUKET           1948
    #>  2 NY         12144    RENESSELAR          RENSSELAER               111
    #>  3 OH         45274    CINCINATTI          CINCINNATI                99
    #>  4 NY         11776    POINT JEFFERSON STA PORT JEFFERSON STATION    42
    #>  5 CA         94025    MELANO PARK         MENLO PARK                34
    #>  6 IL         60197    CORAL STREAM        CAROL STREAM              33
    #>  7 CA         94103    SAN FRANSICO        SAN FRANCISCO             26
    #>  8 NY         11791    SYOSETT             SYOSSET                   24
    #>  9 NY         11968    SOUTH HAMPTON       SOUTHAMPTON               19
    #> 10 NY         12866    SARATOGA SRPING     SARATOGA SPRINGS          19
    #> # … with 682 more rows
…
