…
``` r
raw_dir <- here("fl", "lobbying", "data", "raw")
dir_create(raw_dir)
```

``` r
if (!all_files_new(raw_dir, glob = "*.txt$")) {
  for (url in urls) {
    download.file(url, destfile = str_c(raw_dir, basename(url), sep = "/"))
  }
}
```

    #> # A tibble: 88 x 4
    #>    path                                                type         size birth_time         
    #>    <chr>                                               <fct> <fs::bytes> <dttm>             
    #>  1 /fl/lobbying/data/raw/2008_Quarter1_Executive.txt   file         653K 2019-10-08 17:26:36
    #>  2 /fl/lobbying/data/raw/2008_Quarter1_Legislative.txt file         789K 2019-10-08 17:26:44
    #>  3 /fl/lobbying/data/raw/2008_Quarter2_Executive.txt   file         667K 2019-10-08 17:26:37
    #>  4 /fl/lobbying/data/raw/2008_Quarter2_Legislative.txt file         801K 2019-10-08 17:26:45
    #>  5 /fl/lobbying/data/raw/2008_Quarter3_Executive.txt   file         694K 2019-10-08 17:26:39
    #>  6 /fl/lobbying/data/raw/2008_Quarter3_Legislative.txt file         815K 2019-10-08 17:26:46
    #>  7 /fl/lobbying/data/raw/2008_Quarter4_Executive.txt   file         713K 2019-10-08 17:26:40
    #>  8 /fl/lobbying/data/raw/2008_Quarter4_Legislative.txt file         830K 2019-10-08 17:26:50
    #>  9 /fl/lobbying/data/raw/2009_Quarter1_Executive.txt   file         684K 2019-10-08 17:26:51
    #> 10 /fl/lobbying/data/raw/2009_Quarter1_Legislative.txt file         813K 2019-10-08 17:26:56
    #> # … with 78 more rows
…
