…
``` r
vtv <- flag_dupes(vtv, -voter_id)
sum(vtv$dupe_flag)
#> [1] 26
```

Ignoring the supposedly unique `voter_id`, we do find a number of
duplicate voters (born in the same year, living at the same address).

``` r
vtv %>% 
  filter(dupe_flag) %>% 
  select(voter_id, last_name, first_name, address_1, birth_year)
#> # A tibble: 26 x 5
#>    voter_id  last_name first_name  address_1                birth_year
#>    <chr>     <chr>     <chr>       <chr>                         <int>
#>  1 000980887 BARRY     CHRISTOPHER 83 WEST END AVE                1997
#>  2 000980888 BARRY     CHRISTOPHER 83 WEST END AVE                1997
#>  3 000980621 BRYAN     JENNIFER    1349 COVENTRY ST               1972
#>  4 000980622 BRYAN     JENNIFER    1349 COVENTRY ST               1972
#>  5 000980855 CARON     CHARLOTTE   1693 DUBLIN RD                 2002
#>  6 000980856 CARON     CHARLOTTE   1693 DUBLIN RD                 2002
#>  7 000980889 CARPENTER JORDAN      74 FAIRVIEW ST                 2002
#>  8 000980890 CARPENTER JORDAN      74 FAIRVIEW ST                 2002
#>  9 000980785 DEZAFRA   DANIEL      1382 WELLWOOD ORCHARD RD       1986
#> 10 000980786 DEZAFRA   DANIEL      1382 WELLWOOD ORCHARD RD       1986
#> # … with 16 more rows
```
…
The cities that can’t be easily identified as valid are mostly legal
distinctions between the town, city, and village of a jurisdiction. For
[example](https://en.wikipedia.org/wiki/Barre_(city),_Vermont):

> Barre is the most populous city in Washington County, Vermont, United
> States. As of the 2010 census, the municipal population was 9,052.
> Popularly referred to as “Barre City”, it is almost completely
> surrounded by “Barre Town”, which is a separate municipality.

``` r
vtv %>% 
  filter(city %out% c(valid_city, extra_city)) %>% 
  count(city, sort = TRUE)
#> # A tibble: 165 x 2
#>    city                  n
#>    <chr>             <int>
#>  1 RUTLAND CITY      10653
#>  2 BARRE TOWN         6185
#>  3 BARRE CITY         5358
#>  4 SAINT ALBANS CITY  5239
#>  5 SAINT ALBANS TOWN  4285
#>  6 GEORGIA            3966
#>  7 NEWPORT CITY       3782
#>  8 RUTLAND TOWN       3118
#>  9 WEATHERSFIELD      2428
#> 10 HIGHGATE           2353
#> # … with 155 more rows
```
…
## Export

Now the file can be saved on disk for upload to the Accountability
server.

``` r
clean_dir <- dir_create(here("vt", "voters", "data", "clean"))
clean_path <- path(clean_dir, "vt_voters_2021-04-09.csv")
write_csv(vtv, clean_path, na = "")
(clean_size <- file_size(clean_path))
#> 104M
non_ascii(clean_path)
#> # A tibble: 68 x 2
#>       row line                                                                                                          
#>     <int> <chr>                                                                                                         
#>  1   4375 "000987940,ALDRICH,NOAH,JOS<c3><89>,,50 HUNTINGTON ST,,SAINT ALBANS CITY,VT,05478,50 HUNTINGTON ST,,SAINT ALB…
#>  2   8147 "000877372,ANDERSEN,MAXWELL,THOMAS,,1 UNIDENTIFIED ST,,MIDDLEBURY,VT,05753,385 CHAUSS<c3><89>E DE WATERLOO,IX…
#>  3  20093 "000950990,BARBOSA,JORGE,R,,60 MURRAY HILL RD,,MANCHESTER,VT,05255,227 OESTE DE LA CANDELARIA,MAYAG<c3><9c>EZ…
#>  4  37250 "000806598,BIRG<c3><89>,SARAH,H.,,11 FERAL MOUNTAIN RD,,MIDDLESEX,VT,05602,11 FERAL MOUNTAIN RD,,MIDDLESEX,VT…
#>  5  57728 "000989066,BROWN,MIYEL,NAJ<c3><89>,,38 MONROE ST,,BURLINGTON,VT,05401,38 MONROE ST,,BURLINGTON,VT,05401,1996,…
#>  6  80560 "000851588,CHAVES,JARED,SCOTT,,172 HEATH RD,,HYDE PARK,VT,05655,KL<c3><96>NNESTR. 53,,,,,1988,2016-02-01,,ACT…
#>  7  81152 "000924025,CHESNEY,T<c3><89>O,,,613 HIDDEN VALLEY RD,,POWNAL,VT,05261,613 HIDDEN VALLEY RD,,POWNAL,VT,05261,1…
#>  8  87077 "000006793,CLOUGH,GRETA,,,302 OLD GUILFORD RD,,BRATTLEBORO,VT,05301,H<c3><96>F<c3><90>ABRAUT 21,,,,,1982,2000…
#>  9  98030 "000689432,COT<c3><89>,JESSICA,M.,,18 MANNING RD,,HYDE PARK,VT,05655,18 MANNING RD,,HYDE PARK,VT,05655,1970,2…
#> 10 116488 "000879437,DENEEN,MATHIEU,,,115 HILLINGER LN,,SHARON,VT,05065,M<c3><96>JAV<c3><84>GEN 40,,,,,1980,2016-10-13,…
#> # … with 58 more rows
```
…
