…
sample_frac(ctlc)
#> # A tibble: 19,550 x 8
#>    communicator      client              selected_type  comp_amt sales_tax exp_reimb  total session
#>    <chr>             <chr>               <chr>             <dbl>     <dbl>     <dbl>  <dbl> <chr>  
#>  1 Camilliere, Clou… Hartford Distribut… ClientTotal      15000       952.       500 1.65e4 2019-2…
#>  2 Rome Smith & Lutz EPMJR, LLC          Administrative    8000       508        500 9.01e3 2013-2…
#>  3 Gallo & Robinson… Legal Assistance R… ClientTotal     112000.     7112.         0 1.19e5 2013-2…
#>  4 Diane Manning     United Services, I… Legislative       1597.        0          0 1.60e3 2019-2…
#>  5 Nome Associates   CT Food Assoc.      Legislative      90467.     5745.       250 9.65e4 2015-2…
#>  6 Ashley Bogle      Health New England… Legislative       1080.        0          0 1.08e3 2015-2…
#>  7 Jennifer Alexand… Connecticut Coalit… ClientTotal      14804.        0          0 1.48e4 2015-2…
#>  8 The Connecticut … The Carpet and Rug… Administrative       0         0          0 0.     2013-2…
#>  9 Gallo & Robinson… CT Coalition to En… ClientTotal      11000         0       1750 1.27e4 2013-2…
#> 10 Walkovich Associ… Connecticut Allian… Legislative      10000         0        500 1.05e4 2013-2…
#> # … with 19,540 more rows
```
…
