…
sample_frac(ct_join)
#> # A tibble: 15,982 × 38
#>    lobbyist_la…¹ lobby…² lobby…³ lobby…⁴ lobby…⁵ lobby…⁶ lobby…⁷ lobby…⁸ lobbyist…⁹ lobby…˟ lobby…˟
#>    <chr>         <chr>   <chr>   <chr>   <chr>   <chr>   <chr>   <chr>   <date>     <chr>   <chr>  
#>  1 SULLIVAN      PATRICK <NA>    <NA>    <NA>    <NA>    <NA>    <NA>    NA         <NA>    <NA>   
#>  2 ROSE          DAVID   <NA>    <NA>    <NA>    <NA>    <NA>    <NA>    NA         <NA>    <NA>   
#>  3 STONE         PATRICK 2440 R… <NA>    ROCKVI… MD      20850   PATRIC… 2021-01-07 IN-HOU… <NA>   
#>  4 ALBENZE       BRIAN   333 LO… <NA>    STRATF… CT      06615   BRIAN_… 2015-01-17 IN-HOU… <NA>   
#>  5 YI            SARAH   1400 1… SUITE … WASHIN… DC      20036   SYI@CT… 2017-09-21 IN-HOU… <NA>   
#>  6 <NA>          <NA>    <NA>    <NA>    <NA>    <NA>    <NA>    <NA>    NA         <NA>    <NA>   
#>  7 ROSE          DAVID   100 PE… 10TH F… HARTFO… CT      06103   DAVID.… 2013-01-03 BUS OR… <NA>   
#>  8 MONROY SMITH  AIMEE   600 MA… <NA>    BAR HA… ME      04609   AIMEE.… 2015-01-05 IN-HOU… <NA>   
#>  9 <NA>          <NA>    <NA>    <NA>    <NA>    <NA>    <NA>    <NA>    NA         <NA>    <NA>   
#> 10 CONWAY        FRITZ   ONE LI… <NA>    NEW BR… CT      06051   RCONWA… 2019-01-03 BUS OR… <NA>   
#> # … with 15,972 more rows, 27 more variables: lobbyist_organisation_name <chr>,
#> #   lobbyist_year <dbl>, lobbyist_address_clean <chr>, lobbyist_city_clean <chr>,
#> #   client_name <chr>, client_address_1 <chr>, client_address_2 <chr>, client_city <chr>,
#> #   client_state <chr>, client_zip <chr>, client_phone <chr>, client_email <chr>,
#> #   client_registration_date <date>, client_term_date <date>, client_communicator_type <chr>,
#> #   client_year <dbl>, client_dupe_flag <lgl>, client_phone_norm <chr>,
#> #   client_address_clean <chr>, client_city_clean <chr>, dupe_flag <lgl>, comm_type <chr>, …
```
…
