…
We can flag any record missing a key variable needed to identify a
transaction.

``` r
key_vars <- c("date", "last", "amount", "committee")
ake <- flag_na(ake, all_of(key_vars))
sum(ake$na_flag)
#> [1] 82
```

``` r
ake %>% 
  filter(na_flag) %>% 
  select(all_of(key_vars))
#> # A tibble: 82 × 4
#>    date       last  amount committee                                                                                    
#>    <date>     <chr>  <dbl> <chr>                                                                                        
#>  1 2019-07-19 <NA>   1673. Liz Snyder                                                                                   
#>  2 2017-02-22 <NA>      0  IUOE Local 302 PAC  (International Union of Operating Engineers Local 302 Political Action C…
#>  3 2017-02-22 <NA>      0  IUOE Local 302 PAC  (International Union of Operating Engineers Local 302 Political Action C…
#>  4 2017-02-22 <NA>      0  IUOE Local 302 PAC  (International Union of Operating Engineers Local 302 Political Action C…
#>  5 2017-02-22 <NA>      0  IUOE Local 302 PAC  (International Union of Operating Engineers Local 302 Political Action C…
#>  6 2017-02-22 <NA>      0  IUOE Local 302 PAC  (International Union of Operating Engineers Local 302 Political Action C…
#>  7 2017-02-22 <NA>      0  IUOE Local 302 PAC  (International Union of Operating Engineers Local 302 Political Action C…
#>  8 2017-02-22 <NA>      0  IUOE Local 302 PAC  (International Union of Operating Engineers Local 302 Political Action C…
#>  9 2017-02-22 <NA>      0  IUOE Local 302 PAC  (International Union of Operating Engineers Local 302 Political Action C…
#> 10 2017-02-22 <NA>      0  IUOE Local 302 PAC  (International Union of Operating Engineers Local 302 Political Action C…
#> # ℹ 72 more rows
```
### Duplicates

We can also flag any record completely duplicated across every column.

``` r
ake <- flag_dupes(ake, -txn)
sum(ake$dupe_flag)
#> [1] 41090
```

``` r
ake %>% 
  filter(dupe_flag) %>% 
  select(txn, all_of(key_vars))
#> # A tibble: 41,090 × 5
#>    txn   date       last                      amount committee        
#>    <chr> <date>     <chr>                      <dbl> <chr>            
#>  1 88    2023-01-17 eFundraising Connections    7.75 Kevin Scott Myers
#>  2 89    2023-01-17 eFundraising Connections    7.75 Kevin Scott Myers
#>  3 158   2023-01-12 KSRM                     7320    Peter A. Micciche
#>  4 159   2023-01-13 Empire Consulting          50    Peter A. Micciche
#>  5 160   2023-01-13 Hendrix                  1000    Peter A. Micciche
#>  6 161   2023-01-12 Kelley Connect             39.6  Peter A. Micciche
#>  7 162   2023-01-06 G. F. Sherman Signs      1473    Peter A. Micciche
#>  8 163   2023-01-06 G. F. Sherman Signs      1473    Peter A. Micciche
#>  9 164   2023-01-12 Kelley Connect             39.6  Peter A. Micciche
#> 10 165   2023-01-12 KSRM                     7320    Peter A. Micciche
#> # ℹ 41,080 more rows
```
…
``` r
ake %>% 
  filter(state != state_norm) %>% 
  count(state, state_norm, sort = TRUE)
#> # A tibble: 53 × 3
#>    state                state_norm      n
#>    <chr>                <chr>       <int>
#>  1 Alaska               AK         149437
#>  2 California           CA          33281
#>  3 Louisiana            LA          14608
#>  4 Massachusetts        MA           5171
#>  5 Washington           WA           3692
#>  6 New York             NY           2546
#>  7 Texas                TX           2236
#>  8 District of Columbia DC           1551
#>  9 Georgia              GA           1340
#> 10 Virginia             VA           1292
#> # ℹ 43 more rows
```
…
      key_collision_merge() %>% 
      n_gram_merge(numgram = 1)
  ) %>% 
  filter(city_refine != city_swap) %>% 
  inner_join(
    y = zipcodes,
    by = c(
      "city_refine" = "city",
      "state_norm" = "state",
      "zip_norm" = "zip"
    )
  )
```

    #> # A tibble: 32 × 5
    #>    state_norm zip_norm city_swap           city_refine           n
    #>    <chr>      <chr>    <chr>               <chr>             <int>
    #>  1 CA         94110    SAN FRANSICO        SAN FRANCISCO       180
    #>  2 CA         94107    SAN FRANSICO        SAN FRANCISCO        94
    #>  3 AK         99518    ANCHROGE            ANCHORAGE            46
    #>  4 WA         98110    B BAINBRIDGE ISLAND BAINBRIDGE ISLAND    24
    #>  5 AK         99654    WASSILA             WASILLA              23
    #>  6 CA         94043    MOUNTIANVIEW        MOUNTAIN VIEW        22
    #>  7 MA         02144    SOMMERSVILLE        SOMERVILLE           16
    #>  8 IL         60197    CORAL STREAM        CAROL STREAM         13
    #>  9 CA         94158    SAN FRANSICO        SAN FRANCISCO         9
    #> 10 CA         94103    SAN FRANSICO        SAN FRANCISCO         7
    #> # ℹ 22 more rows
…
