…
We can flag any record missing a key variable needed to identify a
transaction.

``` r
ctl <- flag_na(ctl, "name")
sum(ctl$na_flag)
#> [1] 67
```

``` r
ctl %>% 
  filter(na_flag) %>% 
  select(name, credential, effective_date, address)
#> # A tibble: 67 × 4
#>    name  credential             effective_date address                       
#>    <chr> <chr>                  <date>         <chr>                         
#>  1 <NA>  AIRLINE LIQUOR         2011-09-21     BRADLEY INT'L AIRPORT         
#>  2 <NA>  NON LEGEND DRUG PERMIT 2011-08-31     361 NEW PARK AVE              
#>  3 <NA>  LIQUOR BRAND LABEL     1998-06-22     CONNECTICUT BRAND REGISTRATION
#>  4 <NA>  LIQUOR BRAND LABEL     1997-12-11     CONNECTICUT BRAND REGISTRATION
#>  5 <NA>  LIQUOR BRAND LABEL     2000-08-30     CONNECTICUT BRAND REGISTRATION
#>  6 <NA>  LIQUOR BRAND LABEL     1998-05-14     CONNECTICUT BRAND REGISTRATION
#>  7 <NA>  LIQUOR BRAND LABEL     1998-04-22     CONNECTICUT BRAND REGISTRATION
#>  8 <NA>  LIQUOR BRAND LABEL     2001-02-13     CONNECTICUT BRAND REGISTRATION
#>  9 <NA>  LIQUOR BRAND LABEL     2001-02-05     CONNECTICUT BRAND REGISTRATION
#> 10 <NA>  LIQUOR BRAND LABEL     NA             CONNECTICUT BRAND REGISTRATION
#> # … with 57 more rows
```
…
We can also flag any record completely duplicated across every column.

``` r
ctl <- flag_dupes(ctl, -credential_id)
sum(ctl$dupe_flag)
#> [1] 194
```

``` r
ctl %>% 
  filter(dupe_flag) %>% 
  select(name, credential, effective_date, address) %>% 
  arrange(effective_date)
#> # A tibble: 194 × 4
#>    name                    credential                                       effective_date address                      
#>    <chr>                   <chr>                                            <date>         <chr>                        
#>  1 SONIA V MEHTA           Speech and Language Pathologist Temporary Permit 2015-02-23     230 MURRAY LN                
#>  2 SONIA V MEHTA           Speech and Language Pathologist Temporary Permit 2015-02-23     230 MURRAY LN                
#>  3 ALICIA A BERG           Hairdresser/Cosmetician                          NA             30 West Chestnut Street      
#>  4 ALICIA A BERG           Hairdresser/Cosmetician                          NA             30 West Chestnut Street      
#>  5 MARIA GARCIA            Hairdresser/Cosmetician                          NA             108 Hawthorne Dr North Apt 2f
#>  6 MARIA GARCIA            Hairdresser/Cosmetician                          NA             108 Hawthorne Dr North Apt 2f
#>  7 ANDREA MARTINEZ         Hairdresser/Cosmetician                          NA             54 HILLCREST PARK RD         
#>  8 ANDREA MARTINEZ         Hairdresser/Cosmetician                          NA             54 HILLCREST PARK RD         
#>  9 SHANNON M SMIRNOW CLARK Emergency Medical Technician                     NA             412 Allegheny Way, Apt. 102  
#> 10 SHANNON M SMIRNOW CLARK Emergency Medical Technician                     NA             412 Allegheny Way, Apt. 102  
#> # … with 184 more rows
```
…
``` r
addr_norm <- ctl %>% 
  distinct(address) %>% 
  mutate(
    address_norm = normal_address(
      address = address,
      abbs = usps_street,
      na_rep = TRUE
    )
  )
```

``` r
addr_norm
#> # A tibble: 1,153,015 × 2
#>    address                   address_norm           
#>    <chr>                     <chr>                  
#>  1 214 WEST 29TH ST          214 WEST 29TH ST       
#>  2 70 BRITANNIA ST           70 BRITANNIA ST        
#>  3 40 Birchwood Heights Road 40 BIRCHWOOD HEIGHTS RD
#>  4 34 SHERRY DR              34 SHERRY DR           
#>  5 84 BUDDINGTON RD #4       84 BUDDINGTON RD #4    
#>  6 2 ANDOVER TER             2 ANDOVER TER          
#>  7 18 LUDLOW MNR             18 LUDLOW MNR          
#>  8 1 CANDLEWOOD CT           1 CANDLEWOOD CT        
#>  9 88 RENNERT LN             88 RENNERT LN          
#> 10 722 TOWER AVE             722 TOWER AVE          
#> # … with 1,153,005 more rows
```
…
### State

All of the invalid `state` values seem to be foreign with a `zip` code
value not matching any US code with a similar corresponding state.

``` r
ctl |> 
  filter(state %out% valid_state) |> 
  count(state_raw = state, zip_norm, sort = TRUE) |> 
  add_prop(sum = TRUE) |> 
  left_join(
    y = zipcodes,
    by = c("zip_norm" = "zip")
  )
#> # A tibble: 5,386 × 6
#>    state_raw zip_norm     n     p city     state
#>    <chr>     <chr>    <int> <dbl> <chr>    <chr>
#>  1 <NA>      <NA>      7579 0.357 <NA>     <NA> 
#>  2 PH        1634       403 0.376 <NA>     <NA> 
#>  3 CH        <NA>       277 0.389 <NA>     <NA> 
#>  4 OC        <NA>       154 0.396 <NA>     <NA> 
#>  5 PH        1605       120 0.402 <NA>     <NA> 
#>  6 VN        <NA>       104 0.407 <NA>     <NA> 
#>  7 CY        <NA>        92 0.411 <NA>     <NA> 
#>  8 I2        20130       90 0.415 PARIS    VA   
#>  9 <NA>      010         90 0.419 <NA>     <NA> 
#> 10 I2        13210       75 0.423 SYRACUSE NY   
#> # … with 5,376 more rows
```
…
      key_collision_merge() %>% 
      n_gram_merge(numgram = 1)
  ) %>% 
  filter(city_refine != city_swap) %>% 
  inner_join(
    y = zipcodes,
    by = c(
      "city_refine" = "city",
      "state" = "state",
      "zip_norm" = "zip"
    )
  )
```

    #> # A tibble: 124 × 5
    #>    state zip_norm city_swap        city_refine          n
    #>    <chr> <chr>    <chr>            <chr>            <int>
    #>  1 WV    25303    SO CHARLESTON    CHARLESTON          56
    #>  2 NY    11733    SETAUKET         EAST SETAUKET       50
    #>  3 IL    60606    CHIGACO          CHICAGO             18
    #>  4 MA    01060    NORTH HAMPTON    NORTHAMPTON         16
    #>  5 CT    06081    TARRIFVILLE      TARIFFVILLE         11
    #>  6 SC    29406    NORTH CHARLESTON CHARLESTON          11
    #>  7 RI    02904    NO PROVIDENCE    PROVIDENCE           7
    #>  8 MA    01073    SOUTH HAMPTON    SOUTHAMPTON          6
    #>  9 CA    92879    CORONA CA        CORONA               4
    #> 10 NY    10520    CROTON/HUDSON    CROTON ON HUDSON     4
    #> # … with 114 more rows
…
