…
print(nv_candidates)
#> # A tibble: 6,684 x 6
#>    candidate_id first_name last_name  party         office                          jurisdiction   
#>    <chr>        <chr>      <chr>      <chr>         <chr>                           <chr>          
#>  1 28           Michael    Douglas    Nonpartisan   Supreme Court Justice, Seat F   NV SOS         
#>  2 30           Richard    Ziser      Republican P… U.S. Senate                     NV SOS         
#>  3 31           Carlo      Poliak     Unspecified   City Council, Las Vegas         CITY OF LAS VE…
#>  4 32           Lynn       Hettrick   Republican P… State Assembly, District 39     NV SOS         
#>  5 33           James      Gibbons    Republican P… Governor                        NV SOS         
#>  6 34           Bonnie     Parnell    Democratic P… State Assembly, District 40     NV SOS         
#>  7 35           Marcia     Washington Nonpartisan   State Senate, District 4        CLARK COUNTY   
#>  8 36           Harry      Reid       Democratic P… U.S. Senate                     NV SOS         
#>  9 37           Kenneth    Wegner     Republican P… U.S. Senate                     NV SOS         
#> 10 38           Cynthia    Steel      Nonpartisan   District Court Judge, District… CLARK COUNTY   
#> # … with 6,674 more rows
```
…
print(nv_groups)
#> # A tibble: 1,198 x 6
#>    group_id group_name                               group_type       contact_name  active city    
#>    <chr>    <chr>                                    <chr>            <chr>         <lgl>  <chr>   
#>  1 598      Allstate Insurance Company Political Ac… Political Actio… Shirlanda Wa… TRUE   Northbr…
#>  2 600      American Insurance Association PAC - Ne… Political Actio… James L. Wad… FALSE  Sacrame…
#>  3 601      Board of Realtors Political Action Comm… Political Actio… Wendy DiVecc… FALSE  Las Veg…
#>  4 603      Churchill County Education Association   Political Actio… Sue S Matuska TRUE   Fallon  
#>  5 607      Carriers Allied for Responsible Governm… Political Actio… Daryl E. Cap… FALSE  SPARKS  
#>  6 610      P.A.C. 357   (fka IBEW LOCAL 357 PAC)    Political Actio… James Halsey  TRUE   Las Veg…
#>  7 615      Southwest Regional Council of Carpenter… Political Actio… Frank Hawk    TRUE   Sacrame…
#>  8 616      Construction Industry Committee          Political Actio… Craig Madole  TRUE   Reno    
#>  9 617      Douglas County Professional Education A… Political Actio… Sue S Matuska TRUE   South L…
#> 10 621      International Union of Painters and All… Political Actio… Jason Lamber… TRUE   Hanover 
#> # … with 1,188 more rows
```
…
print(nv_reports)
#> # A tibble: 38,118 x 9
#>    report_id candidate_id group_id report_name election_cycle filing_due_date filed_date amended
#>    <chr>     <chr>        <chr>    <chr>                <dbl> <date>          <date>     <lgl>  
#>  1 6980      <NA>         1220     CE Report 1           2006 NA              2006-08-08 FALSE  
#>  2 6981      1988         <NA>     CE Report 1           2006 NA              2006-10-30 FALSE  
#>  3 6982      1988         <NA>     CE Report 1           2006 NA              2006-08-07 FALSE  
#>  4 6983      <NA>         1332     CE Report 1           2006 NA              2006-08-07 FALSE  
#>  5 6984      1992         <NA>     CE Report 1           2006 NA              2006-08-07 FALSE  
#>  6 6985      1165         <NA>     CE Report 1           2006 NA              2006-08-07 FALSE  
#>  7 6986      155          <NA>     CE Report 1           2006 NA              2006-08-07 FALSE  
#>  8 6987      <NA>         1364     CE Report 1           2006 NA              2006-08-08 FALSE  
#>  9 6990      2368         <NA>     CE Report 1           2006 NA              2006-08-08 FALSE  
#> 10 6991      2360         <NA>     CE Report 1           2006 NA              2006-08-08 FALSE  
#> # … with 38,108 more rows, and 1 more variable: superseded <lgl>
```
…
print(nv_payees)
#> # A tibble: 190,225 x 4
#>    contact_id first_name middle_name last_name               
#>    <chr>      <chr>      <chr>       <chr>                   
#>  1 3          <NA>       <NA>        UNITE HERE TIP          
#>  2 4          <NA>       <NA>        The Calvert Company     
#>  3 5          <NA>       <NA>        Paid Staff              
#>  4 6          <NA>       <NA>        Passkey Systems         
#>  5 7          <NA>       <NA>        Time Printing           
#>  6 8          Bonnie     B           Jacobs                  
#>  7 9          <NA>       <NA>        NONE                    
#>  8 10         <NA>       <NA>        Oriental Trading        
#>  9 11         <NA>       <NA>        V&S variety & True Value
#> 10 12         <NA>       <NA>        BuildASign.com          
#> # … with 190,215 more rows
```
…
``` r
nv %>% 
  filter(report_id == "6991") %>% 
  select(
    report_id, 
    filed_date, 
    payee_last, 
    candidate_last
  )
#> # A tibble: 22 x 4
#>    report_id filed_date payee_last                                   candidate_last
#>    <chr>     <date>     <chr>                                        <chr>         
#>  1 6991      2006-08-08 Bonanza                                      Tiras         
#>  2 6991      2006-08-08 Tiras                                        Tiras         
#>  3 6991      2006-08-08 Adventures in Advertising                    Tiras         
#>  4 6991      2006-08-08 Creative Marketing and Design                Tiras         
#>  5 6991      2006-08-08 Adventures in Advertising Corp               Tiras         
#>  6 6991      2006-08-08 Adventures in Advertising                    Tiras         
#>  7 6991      2006-08-08 Bonanza                                      Tiras         
#>  8 6991      2006-08-08 Sierra Nevada Media Group                    Tiras         
#>  9 6991      2006-08-08 Incline Village General Improvement District Tiras         
#> 10 6991      2006-08-08 Bonanza                                      Tiras         
#> # … with 12 more rows
```
…
