…
``` r
percent(mean(txe$na_flag), 0.01)
#> [1] "0.50%"
```

``` r
txe %>% 
  filter(na_flag) %>% 
  select(last, vendor, date, amount, filer) %>% 
  distinct() %>% 
  sample_frac()
#> # A tibble: 1,690 × 5
#>    last  vendor                               date     amount  filer                               
#>    <chr> <chr>                                <chr>    <chr>   <chr>                               
#>  1 <NA>  <NA>                                 <NA>     <NA>    Grimes County Republican Party      
#>  2 <NA>  <NA>                                 20080513 100.00  GREEN PARTY OF TEXAS                
#>  3 <NA>  <NA>                                 <NA>     <NA>    Corpus Christi Police Officers' Ass…
#>  4 <NA>  <NA>                                 <NA>     <NA>    Mitchell, Monte M. (Dr.)            
#>  5 <NA>  <NA>                                 <NA>     <NA>    Baytown Fire Fighters Political Act…
#>  6 <NA>  U--Haul Moving & Storage             <NA>     <NA>    Turner, Scott (The Honorable)       
#>  7 <NA>  Dewhurst Campaign Committee          20080929 1000.00 <NA>                                
#>  8 <NA>  JW Marriott San Antonio Hill Country <NA>     <NA>    Price IV, Walter T. (The Honorable) 
#>  9 <NA>  Starbucks                            <NA>     <NA>    Parker IV, Nathaniel W. (The Honora…
#> 10 <NA>  <NA>                                 <NA>     <NA>    Texas Vote Environment              
#> # … with 1,680 more rows
```
…
``` r
txe <- left_join(txe, dupes, by = "id")
txe <- mutate(txe, dupe_flag = !is.na(dupe_flag))
percent(mean(txe$dupe_flag), 0.01)
#> [1] "3.15%"
```

``` r
txe %>% 
  filter(dupe_flag) %>% 
  select(last, vendor, date, amount, filer)
#> # A tibble: 137,351 × 5
#>    last    vendor                                 date     amount  filer                       
#>    <chr>   <chr>                                  <chr>    <chr>   <chr>                       
#>  1 <NA>    Mike Ross for Congress                 20071018 5000.00 El Paso Corporation PAC     
#>  2 <NA>    Mike Ross for Congress                 20071018 5000.00 El Paso Corporation PAC     
#>  3 <NA>    Democratic Congressional Campaign Cmte 20061221 5000.00 El Paso Corporation PAC     
#>  4 <NA>    Democratic Congressional Campaign Cmte 20061221 5000.00 El Paso Corporation PAC     
#>  5 Patrick <NA>                                   20140520 5000.00 Texas Chiropractic Assn. PAC
#>  6 Patrick <NA>                                   20140520 5000.00 Texas Chiropractic Assn. PAC
#>  7 <NA>    Dell Financial Services                20090520 28.62   Texas Democratic Party      
#>  8 <NA>    Dell Financial Services                20090520 28.62   Texas Democratic Party      
#>  9 <NA>    IBEW Building                          20120906 3831.09 Texas Democratic Party      
#> 10 <NA>    IBEW Building                          20120906 3831.09 Texas Democratic Party      
#> # … with 137,341 more rows
```
…
We can see that the few expenditures in 1994 and 1999 seem to be
outliers, with the vast majority of expenditures coming from 2000
through 2019. We will flag these records.

``` r
count(txe, year, sort = FALSE) %>% print(n = 23)
#> # A tibble: 27 × 2
#>     year      n
#>    <dbl>  <int>
#>  1  1994     14
#>  2  1999     77
#>  3  2000  83695
#>  4  2001  80415
#>  5  2002 177322
#>  6  2003  86667
#>  7  2004 149801
#>  8  2005 150066
#>  9  2006 208488
#> 10  2007 132657
#> 11  2008 213552
#> 12  2009 154416
#> 13  2010 262524
#> 14  2011 154846
#> 15  2012 243062
#> 16  2013 182058
#> 17  2014 265936
#> 18  2015 159022
#> 19  2016 220335
#> 20  2017 182534
#> 21  2018 302818
#> 22  2019 190212
#> 23  2020 248693
#> # … with 4 more rows
```
…
``` r
txe %>% 
  filter(state != state_norm) %>% 
  count(state, state_norm, sort = TRUE)
#> # A tibble: 32 × 3
#>    state state_norm     n
#>    <chr> <chr>      <int>
#>  1 Tx    TX          6420
#>  2 tx    TX           213
#>  3 Ca    CA           113
#>  4 Il    IL            34
#>  5 Mo    MO            33
#>  6 Va    VA            21
#>  7 Fl    FL            13
#>  8 Ct    CT             8
#>  9 Wi    WI             8
#> 10 Oh    OH             7
#> # … with 22 more rows
```
…
      key_collision_merge() %>% 
      n_gram_merge(numgram = 1)
  ) %>% 
  filter(city_refine != city_swap) %>% 
  inner_join(
    y = zipcodes,
    by = c(
      "city_refine" = "city",
      "state_norm" = "state",
      "zip_norm" = "zip"
    )
  )
```

    #> # A tibble: 283 × 5
    #>    state_norm zip_norm city_swap     city_refine       n
    #>    <chr>      <chr>    <chr>         <chr>         <int>
    #>  1 AZ         85072    PHENIOX       PHOENIX         125
    #>  2 IL         60197    CORAL STREAM  CAROL STREAM     78
    #>  3 CA         94103    SAN FRANSCICO SAN FRANCISCO    74
    #>  4 CA         94105    SAN FRANSICO  SAN FRANCISCO    65
    #>  5 TX         75098    WILEY         WYLIE            63
    #>  6 NM         87190    ALBURQUEQUE   ALBUQUERQUE      52
    #>  7 TX         76844    GOLDWAITHE    GOLDTHWAITE      45
    #>  8 AZ         85072    PHENOIX       PHOENIX          43
    #>  9 CA         94128    SAN FRANSICO  SAN FRANCISCO    38
    #> 10 CA         94107    SAN FRANSICO  SAN FRANCISCO    33
    #> # … with 273 more rows
…
