…
``` r
key_vars <- c("tran_date", "name", "tran_amt", "entity_name")
utc <- flag_na(utc, all_of(key_vars))
sum(utc$na_flag)
#> [1] 107
```

Of the four key variables, only a few are missing the `name` of the
individual making the contribution.

``` r
utc %>% 
  filter(na_flag) %>% 
  select(all_of(key_vars))
#> # A tibble: 107 × 4
#>    tran_date  name  tran_amt entity_name                                          
#>    <date>     <chr>    <dbl> <chr>                                                
#>  1 2014-06-10 <NA>       0   Ensign Services Inc                                  
#>  2 2008-01-24 <NA>      25.0 Utah Apartment Association Political Action Committee
#>  3 2010-01-01 <NA>       0   Utah Building & Construction Trades Council          
#>  4 2010-01-01 <NA>       0   Utah Building & Construction Trades Council          
#>  5 2010-01-01 <NA>       0   Utah Building & Construction Trades Council          
#>  6 2011-12-29 <NA>       0   Laborers Political League                            
#>  7 2011-06-13 <NA>       0   Utah Bankers Association                             
#>  8 2011-05-14 <NA>       0   Utah Dental Association Political Action Committee   
#>  9 2012-08-17 <NA>       0   A.B.A.T.E. of Utah                                   
#> 10 2012-01-19 <NA>       0   Associated General Contractors                       
#> # … with 97 more rows
```
…
``` r
utc <- flag_dupes(utc, -tran_id)
sum(utc$dupe_flag)
#> [1] 26425
```

Despite unique `tran_id` values, there are 26,425 fully duplicated
values (same date, amount, names, etc.).

``` r
utc %>% 
  filter(dupe_flag) %>% 
  select(tran_id, all_of(key_vars)) %>% 
  arrange(tran_date)
#> # A tibble: 26,425 × 5
#>    tran_id tran_date  name                             tran_amt entity_name         
#>      <int> <date>     <chr>                               <dbl> <chr>               
#>  1    8987 2000-05-17 Magnesian Corporation Of America      100 doe, john           
#>  2    8988 2000-05-17 Magnesian Corporation Of America      100 doe, john           
#>  3    9091 2000-11-06 Aggregate Contributions                50 doe, john           
#>  4    9094 2000-11-06 Aggregate Contributions                50 doe, john           
#>  5    9095 2000-11-06 Aggregate Contributions                25 doe, john           
#>  6    9109 2000-11-06 Aggregate Contributions                25 doe, john           
#>  7   24431 2004-06-11 Cain, Camille T.                      500 Karras, Nolan E     
#>  8   24432 2004-06-11 Cain, Camille T.                      500 Karras, Nolan E     
#>  9   25794 2004-10-07 Aggregate Contributions                25 Aubrey, Johnathan M.
#> 10   25762 2004-10-07 Aggregate Contributions                25 Aubrey, Johnathan M.
#> # … with 26,415 more rows
```
…
    sep = " ",
    remove = FALSE,
    na.rm = TRUE
  ) %>% 
  mutate(
    address_norm = normal_address(
      address = address_full,
      abbs = usps_street,
      na_rep = TRUE
    )
  ) %>% 
  select(-address_full)
```

    #> # A tibble: 211,537 × 3
    #>    address1                           address2 address_norm                    
    #>    <chr>                              <chr>    <chr>                           
    #>  1 <NA>                               <NA>     <NA>                            
    #>  2 10440 N Central Expwy, Suite #1160 <NA>     10440 N CENTRAL EXPWY SUITE 1160
    #>  3 36 South State, Suite 900          <NA>     36 SOUTH STATE SUITE 900        
    #>  4 1014 University Circle             <NA>     1014 UNIVERSITY CIR             
    #>  5 300 N Hospital Drive               <NA>     300 N HOSPITAL DR               
    #>  6 5509 W Kinsington Circle           <NA>     5509 W KINSINGTON CIR           
    #>  7 10183 Loridan Lane                 <NA>     10183 LORIDAN LN                
    #>  8 6483 Canyon Cove Place             <NA>     6483 CANYON COVE PLACE          
    #>  9 14727 Woods Landing Ct             <NA>     14727 WOODS LANDING CT          
    #> 10 1252 Arlington Drive               <NA>     1252 ARLINGTON DR               
    #> # … with 211,527 more rows
…
      key_collision_merge() %>% 
      n_gram_merge(numgram = 1)
  ) %>% 
  filter(city_refine != city_swap) %>% 
  inner_join(
    y = zipcodes,
    by = c(
      "city_refine" = "city",
      "state_norm" = "state",
      "zip_norm" = "zip"
    )
  )
```

    #> # A tibble: 61 × 5
    #>    state_norm zip_norm city_swap                 city_refine         n
    #>    <chr>      <chr>    <chr>                     <chr>           <int>
    #>  1 UT         84105    SALT LAKE CITYSLC         SALT LAKE CITY     53
    #>  2 UT         84414    NO OGDEN                  OGDEN              29
    #>  3 UT         84108    SALT LAKE CITYSALT LAKE   SALT LAKE CITY      5
    #>  4 UT         84098    PARK CITYPARK CITY        PARK CITY           4
    #>  5 UT         84117    SALT LAKE CITYSLC         SALT LAKE CITY      4
    #>  6 UT         84124    SALT LAKE CITYSALT LAKE C SALT LAKE CITY      4
    #>  7 OH         45201    CINCINATTI                CINCINNATI          3
    #>  8 CO         80113    ENGLEWOOD CO              ENGLEWOOD           2
    #>  9 DE         19850    WILLIMNGTON               WILMINGTON          2
    #> 10 FL         33308    FORT LAUDERDALE FL        FORT LAUDERDALE     2
    #> # … with 51 more rows
…
#### Progress

Our goal for normalization was to increase the proportion of city values
known to be valid and reduce the total distinct values by correcting
misspellings.

Some misspellings and abbreviations remain than can be manually fixed.

``` r
many_city <- c(valid_city, extra_city)
utc %>% 
  count(city_refine, sort = TRUE) %>% 
  filter(city_refine %out% many_city)
#> # A tibble: 1,111 × 2
#>    city_refine         n
#>    <chr>           <int>
#>  1 <NA>             7443
#>  2 ST GEORGE         580
#>  3 NIBLEY            487
#>  4 SALT LAKE CIT     422
#>  5 WVC               417
#>  6 WEST VALLEY C     343
#>  7 SOUTH SALT LAKE   305
#>  8 FARR WEST         264
#>  9 SLC               249
#> 10 SALT LAKE CTY     223
#> # … with 1,101 more rows
```
…
