…
    col = "lob_phone_norm",
    sep = "x",
    remove = FALSE,
    na.rm = TRUE
  ) %>% 
  mutate(
    lob_phone_norm = normal_phone(
      number = lob_phone_norm,
      na_bad = FALSE,
      rm_ext = FALSE
    )
  )
```

    #> # A tibble: 267 x 3
    #>    lob_phone      lob_ext lob_phone_norm
    #>    <chr>          <chr>   <chr>         
    #>  1 3016952228     <NA>    (301) 695-2228
    #>  2 (808) 973-1690 <NA>    (808) 973-1690
    #>  3 (808) 521-2437 <NA>    (808) 521-2437
    #>  4 8085876625     <NA>    (808) 587-6625
    #>  5 (808) 544-1406 <NA>    (808) 544-1406
    #>  6 808-447-1840   <NA>    (808) 447-1840
    #>  7 (808) 531-4551 <NA>    (808) 531-4551
    #>  8 808-432-5224   <NA>    (808) 432-5224
    #>  9 8086770375     <NA>    (808) 677-0375
    #> 10 808 791-7830   <NA>    (808) 791-7830
    #> # … with 257 more rows
…
``` r
hilr <- hilr %>%
  mutate(
    lob_addr_split = str_remove(lob_geo, glue(",\\s{lob_city},\\s{lob_state}\\s{lob_zip}.*$")),
    lob_addr_norm = normal_address(
      address = lob_addr_split,
      abbs = usps_street,
      na_rep = TRUE
    )
  ) %>% 
  select(-lob_addr_split)
```

    #> # A tibble: 229 x 2
    #>    lob_geo                                                        lob_addr_norm                    
    #>    <chr>                                                          <chr>                            
    #>  1 835 Colchester Dr., Suite E, Port Orchard, Washington 94107 U… 835 COLCHESTER DRIVE SUITE EAST  
    #>  2 "Peters Communications\r\r\n3655 Kawelolani Place, Honolulu, … PETERS COMMUNICATIONS 3655 KAWEL…
    #>  3 733 Bishop Street, Suite 1900, Honolulu, Hawaii 96813 United … 733 BISHOP STREET SUITE 1900     
    #>  4 677 Ala Moana Blvd., Ste. 226, Honolulu, Hawaii 96813 United … 677 ALA MOANA BOULEVARD SUITE 226
    #>  5 1357 Kapiolani Blvd, Suite 1250, Honolulu, Hawaii 96814 Unite… 1357 KAPIOLANI BOULEVARD SUITE 1…
    #>  6 P.O. Box 327, Waianae, Hawaii 96792 United States              PO BOX 327                       
    #>  7 711 Kapiolani Blvd., Honolulu, Hawaii 96813 United States      711 KAPIOLANI BOULEVARD          
    #>  8 1775 Tysons Boulevard,  7th Floor, Tysons, Virginia 22102 Uni… 1775 TYSONS BOULEVARD 7TH FLOOR  
    #>  9 1018 Palm Drive, Honolulu, Hawaii 96814 United States          1018 PALM DRIVE                  
    #> 10 677 Ala Moana Blvd, Ste 705, Honolulu, Hawaii 96813 United St… 677 ALA MOANA BOULEVARD SUITE 705
    #> # … with 219 more rows
…
