…
We can flag any record missing a key variable needed to identify a
transaction.

``` r
key_vars <- c("license_type", "license_expiration_date", "name", "business_name")
txl <- flag_na(txl, all_of(key_vars))
sum(txl$na_flag)
#> [1] 24
```

``` r
txl %>% 
  filter(na_flag) %>% 
  select(all_of(key_vars))
#> # A tibble: 24 × 4
#>    license_type   license_expiration_date name                     business_name
#>    <chr>          <date>                  <chr>                    <chr>        
#>  1 A/C Contractor 2022-09-16              SYKES, ROBIN DAVID       <NA>         
#>  2 A/C Contractor 2023-02-14              REDDELL, ERMET WASHBURN  <NA>         
#>  3 A/C Contractor 2023-04-28              CANALITO, MICHAEL ANDREW <NA>         
#>  4 A/C Contractor 2021-03-23              SLOCUMB, AMELIA MILLIE   <NA>         
#>  5 A/C Contractor 2022-12-27              KIRCHNER, DONALD KEITH   <NA>         
#>  6 A/C Contractor 2023-05-07              MARTIN, CHRISTOPHER JON  <NA>         
#>  7 A/C Contractor 2022-07-26              YARBOROUGH, ROLAND JR    <NA>         
#>  8 A/C Contractor 2023-05-01              KEY, IRA CLAY            <NA>         
#>  9 A/C Contractor 2022-01-21              SEYMOUR, STEVEN J        <NA>         
#> 10 A/C Contractor 2023-03-06              PEREZ, MARTIN            <NA>         
#> # … with 14 more rows
```
…
We can also flag any record completely duplicated across every column.

``` r
txl <- flag_dupes(txl, -license_number)
sum(txl$dupe_flag)
#> [1] 130
```

``` r
txl %>% 
  filter(dupe_flag) %>% 
  select(all_of(key_vars)) %>% 
  arrange(license_expiration_date)
#> # A tibble: 130 × 4
#>    license_type           license_expiration_date name                    business_name          
#>    <chr>                  <date>                  <chr>                   <chr>                  
#>  1 Cos Mini Salon         2021-01-11              BROW AND WAX WIZARD LLC BROW AND WAX WIZARD LLC
#>  2 Cos Mini Salon         2021-01-11              BROW AND WAX WIZARD LLC BROW AND WAX WIZARD LLC
#>  3 Apprentice Electrician 2021-03-02              GONZALEZ, JOSE S        GONZALEZ, JOSE S       
#>  4 Apprentice Electrician 2021-03-02              GONZALEZ, JOSE S        GONZALEZ, JOSE S       
#>  5 Apprentice Electrician 2021-03-03              ACUNA, ALDO A           ACUNA, ALDO A          
#>  6 Apprentice Electrician 2021-03-03              ACUNA, ALDO A           ACUNA, ALDO A          
#>  7 Cos Mini Salon         2021-04-08              HERITAGE HAIR DESIGNS   HERITAGE HAIR DESIGNS  
#>  8 Cos Mini Salon         2021-04-08              HERITAGE HAIR DESIGNS   HERITAGE HAIR DESIGNS  
#>  9 Cos Mini Salon         2021-04-08              HERITAGE HAIR DESIGNS   HERITAGE HAIR DESIGNS  
#> 10 Cos Mini Salon         2021-04-08              HERITAGE HAIR DESIGNS   HERITAGE HAIR DESIGNS  
#> # … with 120 more rows
```
…
``` r
addr_norm
#> # A tibble: 78,945 × 3
#>    business_address_line1    business_address_line2 address_norm                              
#>    <chr>                     <chr>                  <chr>                                     
#>  1 <NA>                      <NA>                   <NA>                                      
#>  2 8705 DAWNRIDGE CIRCLE     <NA>                   8705 DAWNRIDGE CIR                        
#>  3 11506 WARD RD             <NA>                   11506 WARD RD                             
#>  4 9715 BURNET RD            SUITE 100              9715 BURNET RD STE 100                    
#>  5 2209 B RUTLAND DR STE 100 <NA>                   2209 B RUTLAND DR STE 100                 
#>  6 2455 PACES FERRY RD       C11 LICENSE MANAGEMENT 2455 PACES FERRY RD C11 LICENSE MANAGEMENT
#>  7 102 W MAIN STREET         <NA>                   102 W MAIN ST                             
#>  8 11123 N AVENUE D          <NA>                   11123 N AVENUE D                          
#>  9 956 LOCKHART DR           <NA>                   956 LOCKHART DR                           
#> 10 1023 WALNUT ST            <NA>                   1023 WALNUT ST                            
#> # … with 78,935 more rows
```
…
### State

``` r
prop_in(txl$business_state, valid_state)
#> [1] 1
```

``` r
txl %>% 
  count(business_state, sort = TRUE) %>% 
  add_prop(sum = TRUE)
#> # A tibble: 50 × 3
#>    business_state      n     p
#>    <chr>           <int> <dbl>
#>  1 <NA>           599646 0.830
#>  2 TX             120222 0.997
#>  3 FL                287 0.997
#>  4 LA                246 0.997
#>  5 CA                168 0.998
#>  6 OK                152 0.998
#>  7 NM                151 0.998
#>  8 AR                119 0.998
#>  9 IL                 95 0.998
#> 10 GA                 84 0.998
#> # … with 40 more rows
```
…
      key_collision_merge() %>% 
      n_gram_merge(numgram = 1)
  ) %>% 
  filter(city_refine != city_swap) %>% 
  inner_join(
    y = zipcodes,
    by = c(
      "city_refine" = "city",
      "business_state" = "state",
      "zip_norm" = "zip"
    )
  )
```

    #> # A tibble: 22 × 5
    #>    business_state zip_norm city_swap     city_refine       n
    #>    <chr>          <chr>    <chr>         <chr>         <int>
    #>  1 TX             78250    SAN ANTIONO   SAN ANTONIO       3
    #>  2 TX             75051    GRAND PRARIER GRAND PRAIRIE     1
    #>  3 TX             75052    GRAND PRIAIRE GRAND PRAIRIE     1
    #>  4 TX             75070    MCMCKINNEY    MCKINNEY          1
    #>  5 TX             75098    WILEY         WYLIE             1
    #>  6 TX             75454    MELLISA       MELISSA           1
    #>  7 TX             75965    NAGCODOCHES   NACOGDOCHES       1
    #>  8 TX             76010    ARLINGTONON   ARLINGTON         1
    #>  9 TX             76063    MANFIELDS     MANSFIELD         1
    #> 10 TX             76063    MANSFLIED     MANSFIELD         1
    #> # … with 12 more rows
…
