…
There are however a large number of duplicate records. We can flag every
record that has duplicate values across every column.

``` r
nhc <- flag_dupes(nhc, everything())
percent(mean(nhc$dupe_flag), 0.01)
#> [1] "53.46%"
```

``` r
nhc %>% 
  filter(dupe_flag) %>% 
  select(date, contributor, amount, recipient) %>% 
  arrange(date, contributor)
#> # A tibble: 39,409 x 4
#>    date       contributor           amount recipient                                               
#>    <date>     <chr>                  <dbl> <chr>                                                   
#>  1 2016-06-20 Archambault               20 REALTOR Political Action Committee                      
#>  2 2016-06-20 Archambault               20 REALTOR Political Action Committee                      
#>  3 2016-06-20 Balsama                   20 REALTOR Political Action Committee                      
#>  4 2016-06-20 Balsama                   20 REALTOR Political Action Committee                      
#>  5 2016-06-20 Balsama                   20 REALTOR Political Action Committee                      
#>  6 2016-06-20 Balsama                   20 REALTOR Political Action Committee                      
#>  7 2016-06-20 Bancewicz, Stephen        25 New Hampshire Credit Union League Political Action Comm…
#>  8 2016-06-20 Bancewicz, Stephen        25 New Hampshire Credit Union League Political Action Comm…
#>  9 2016-06-20 Bank of New Hampshire   2000 New Hampshire Bankers Association State BankPAC         
#> 10 2016-06-20 Bank of New Hampshire   2000 New Hampshire Bankers Association State BankPAC         
#> # … with 39,399 more rows
```

If we count the contributor and recipient names, we see most of these
duplicates are unitemized contributions handled through a PAC or service
like ActBlue.

``` r
nhc %>% 
  filter(dupe_flag) %>% 
  count(contributor, recipient, sort = TRUE) %>% 
  mutate(p = n/sum(n))
#> # A tibble: 2,046 x 4
#>    contributor recipient                                             n      p
#>    <chr>       <chr>                                             <int>  <dbl>
#>  1 Unitemized  DLCC New Hampshire                                 7002 0.178 
#>  2 UnItemized  EversourcePAC-NH                                   4927 0.125 
#>  3 UnItemized  REALTOR Political Action Committee                 3432 0.0871
#>  4 UnItemized  DLCC New Hampshire                                 2295 0.0582
#>  5 UnItemized  ActBlue New Hampshire                              2050 0.0520
#>  6 UnItemized  Opportunity & Renewal PAC Blue Wave                1228 0.0312
#>  7 UnItemized  Volinsky for Executive Council                     1225 0.0311
#>  8 UnItemized  EMILY's List NH                                    1060 0.0269
#>  9 UnItemized  Democrat, Republican, Independent Voter Education   916 0.0232
#> 10 UnItemized  MacKenzie, Mark S                                   431 0.0109
#> # … with 2,036 more rows
```
…
First, we notice that the vast majority of the existing `city_old` and
`state_old` variables are missing.

``` r
prop_na(nhc$city_old)
#> [1] 0.9965408
prop_na(nhc$state_old)
#> [1] 0.9965273
nhc %>% 
  select(geo_full, city_old, state_old) %>% 
  filter(!is.na(city_old) & !is.na(state_old))
#> # A tibble: 255 x 3
#>    geo_full                                    city_old   state_old
#>    <chr>                                       <chr>      <chr>    
#>  1 PO Box 3, Plainfield, NH 03781              Plainfield NH       
#>  2 14 Revolutionary Ln, Nottingham, NH 03290   Nottingham NH       
#>  3 216 Daniel Webster Hwy, Boscawen, NH 03303  Boscawen   NH       
#>  4 PO Box 911, Atkinson, NH 03811              Atkinson   NH       
#>  5 16 Tibbetts Rd, Fremont, NH 03044           Fremont    NH       
#>  6 14 Revolutionary Ln, Nottingham, NH 03290   Nottingham NH       
#>  7 14 Revolutionary Ln, Nottingham, NH 03290   Nottingham NH       
#>  8 UnItemized                                  Hollis     NH       
#>  9 158 Halls Hill Road, Gilmanton IW, NH 03837 Gilmanton  NH       
#> 10 757 Penaccok Rd, Hopkinton, NH 03229        Hopkinton  NH       
#> # … with 245 more rows
```
…
