…
We can flag any record missing a key variable needed to identify a
transaction.

``` r
moc <- moc %>% flag_na(date, last_name, amount, committee,address_1)
sum(moc$na_flag)
#> [1] 1193708
```

``` r
moc %>% 
  filter(na_flag) %>% 
  select(date, last_name, amount, committee,address_1)
#> # A tibble: 1,193,708 x 5
#>    date               last_name amount committee                                 address_1         
#>    <chr>              <chr>      <dbl> <chr>                                     <chr>             
#>  1 12/9/2010 12:00:0… <NA>        150  AT&T Missouri                             One AT&T Center   
#>  2 12/10/2010 12:00:… Allen       346. <NA>                                      13645 State Highw…
#>  3 12/19/2010 12:00:… Ethridge    120  <NA>                                      5246 S.Applecross 
#>  4 12/6/2010 12:00:0… <NA>        200  AT&T Missouri Employee PAC                One AT&T Center   
#>  5 12/8/2010 12:00:0… <NA>        250  <NA>                                      145 ARBOR CIRCLE  
#>  6 12/20/2010 12:00:… <NA>        500  <NA>                                      2500 LOU MENK DRI…
#>  7 12/23/2010 12:00:… <NA>        150  AT & T MISSOURI EMPLOYEE POLITICAL ACTIO… ONE AT&T CENTER   
#>  8 12/18/2010 12:00:… McNeese     200  <NA>                                      1 Golf Tee Lane   
#>  9 12/18/2010 12:00:… Hill         30  <NA>                                      157 NE Coal Ln    
#> 10 12/31/2010 12:00:… Sealine     100  <NA>                                      RR 3 Box 106A     
#> # … with 1,193,698 more rows
```
### Duplicates

We can also flag any record completely duplicated across every column.

``` r
moc <- flag_dupes(moc, -cd1_a_id)
sum(moc$dupe_flag)
#> [1] 9060
```

``` r
moc %>% 
  filter(dupe_flag) %>% 
  select(date, last_name, amount, committee,address_1)
#> # A tibble: 9,060 x 5
#>    date                   last_name amount committee address_1               
#>    <chr>                  <chr>      <dbl> <chr>     <chr>                   
#>  1 10/28/2010 12:00:00 AM <NA>         160 <NA>      300 S St Charles St     
#>  2 10/28/2010 12:00:00 AM <NA>         160 <NA>      300 S St Charles St     
#>  3 12/29/2010 12:00:00 AM McDonnell   3000 <NA>      4909 Sunset Dr.         
#>  4 12/29/2010 12:00:00 AM McDonnell   3000 <NA>      4909 Sunset Dr.         
#>  5 12/29/2010 12:00:00 AM McDonnell   3000 <NA>      4909 Sunset Dr.         
#>  6 12/29/2010 12:00:00 AM McDonnell   3000 <NA>      4909 Sunset Dr.         
#>  7 12/15/2010 12:00:00 AM Kubic        600 <NA>      4012 N Walrond Avenue   
#>  8 12/15/2010 12:00:00 AM Kubic        600 <NA>      4012 N Walrond Avenue   
#>  9 10/4/2010 12:00:00 AM  Palmer        50 <NA>      205 Park Central E. #511
#> 10 10/4/2010 12:00:00 AM  Palmer        50 <NA>      205 Park Central E. #511
#> # … with 9,050 more rows
```
…
``` r
moc %>% 
  filter(state != state_norm) %>% 
  count(state, state_norm, sort = TRUE)
#> # A tibble: 36 x 3
#>    state state_norm     n
#>    <chr> <chr>      <int>
#>  1 Mo    MO          3986
#>  2 mo    MO           523
#>  3 Il    IL            25
#>  4 Ks    KS            21
#>  5 Fl    FL            13
#>  6 ks    KS             9
#>  7 mO    MO             9
#>  8 Ca    CA             7
#>  9 Oh    OH             5
#> 10 Pa    PA             5
#> # … with 26 more rows
```
…
      key_collision_merge() %>% 
      n_gram_merge(numgram = 1)
  ) %>% 
  filter(city_refine != city_swap) %>% 
  inner_join(
    y = zipcodes,
    by = c(
      "city_refine" = "city",
      "state_norm" = "state",
      "zip_norm" = "zip"
    )
  )
```

    #> # A tibble: 279 x 5
    #>    state_norm zip_norm city_swap     city_refine      n
    #>    <chr>      <chr>    <chr>         <chr>        <int>
    #>  1 MO         63031    FLORRISANT    FLORISSANT      32
    #>  2 MA         01002    AMHERST MA    AMHERST         23
    #>  3 VA         22042    CHURCH FALLS  FALLS CHURCH    21
    #>  4 MO         65737    REED SPRINGS  REEDS SPRING    19
    #>  5 OH         45206    CINCINATTI    CINCINNATI      14
    #>  6 MO         63033    FLORRISANT    FLORISSANT      12
    #>  7 MO         63034    FLORRISANT    FLORISSANT      10
    #>  8 MO         65201    COLUMBIA `    COLUMBIA         6
    #>  9 MO         65807    SPRIRINGFIELD SPRINGFIELD      5
    #> 10 IA         50021    AKENKY        ANKENY           4
    #> # … with 269 more rows
…
