…
``` r
key_vars <- c("contribution_date", "contributor_name", 
              "contribution_amt", "filer_last_name")
lac <- flag_na(lac, all_of(key_vars))
sum(lac$na_flag)
#> [1] 111
```

``` r
lac %>% 
  filter(na_flag) %>% 
  select(all_of(key_vars))
#> # A tibble: 111 × 4
#>    contribution_date contributor_name   contribution_amt filer_last_name                                                
#>    <date>            <chr>                         <dbl> <chr>                                                          
#>  1 2000-08-17        <NA>                           200  Forestry Political Action Council (FORPAC)                     
#>  2 2003-09-17        MICHAEL G GAFFNEY               NA  Ieyoub                                                         
#>  3 2003-09-17        MICHAEL G GAFFNEY               NA  Ieyoub                                                         
#>  4 2004-12-31        <NA>                           249. Blanco                                                         
#>  5 2004-08-06        <NA>                           500. Blanco                                                         
#>  6 2004-10-12        <NA>                           250. Blanco                                                         
#>  7 2005-09-12        <NA>                            80  LA Democrats (formerly Democratic PAC of the Demo. St. Central…
#>  8 2005-09-12        <NA>                            80  LA Democrats (formerly Democratic PAC of the Demo. St. Central…
#>  9 2006-09-27        <NA>                          5000  LA Democrats (formerly Democratic PAC of the Demo. St. Central…
#> 10 2008-07-23        MR. DAVID W. LEEFE              NA  Steib                                                          
#> # … with 101 more rows
```
…
``` r
lac <- flag_dupes(lac, everything())
mean(lac$dupe_flag)
#> [1] 0.005262079
sum(lac$dupe_flag)
#> [1] 17796
```

``` r
lac %>% 
  filter(dupe_flag) %>% 
  select(all_of(key_vars)) %>% 
  arrange(contribution_date)
#> # A tibble: 17,796 × 4
#>    contribution_date contributor_name                contribution_amt filer_last_name
#>    <date>            <chr>                                      <dbl> <chr>          
#>  1 1998-02-28        COASTAL SUPERIOR SOLUTIONS INC.              200 Blanco         
#>  2 1998-02-28        COASTAL SUPERIOR SOLUTIONS INC.              200 Blanco         
#>  3 1998-03-09        MS MAXINE T ARCENEAUX                         50 Goss           
#>  4 1998-03-09        MS MAXINE T ARCENEAUX                         50 Goss           
#>  5 1998-03-14        TONY STEWART                                  50 Goss           
#>  6 1998-03-14        TONY STEWART                                  50 Goss           
#>  7 1998-03-24        TIPPY LEBLANC                                 50 Goss           
#>  8 1998-03-24        TIPPY LEBLANC                                 50 Goss           
#>  9 1998-03-28        MINOS BROUSSARD                               50 Goss           
#> 10 1998-03-28        MINOS BROUSSARD                               50 Goss           
#> # … with 17,786 more rows
```
…
``` r
addr_norm
#> # A tibble: 692,972 × 3
#>    contributor_addr1        contributor_addr2 addr_norm              
#>    <chr>                    <chr>             <chr>                  
#>  1 839 St. Charles Ave #300 <NA>              839 ST CHARLES AVE #300
#>  2 <NA>                     <NA>              <NA>                   
#>  3 1076 Veltore Circle      <NA>              1076 VELTORE CIR       
#>  4 7808 Airline Highway     <NA>              7808 AIRLINE HWY       
#>  5 P. O. Box 3026           <NA>              PO BOX 3026            
#>  6 P. O. Box 3928           <NA>              PO BOX 3928            
#>  7 P. O. Box 104            <NA>              PO BOX 104             
#>  8 P. O. Box 7053           <NA>              PO BOX 7053            
#>  9 P. O. Box 2500           <NA>              PO BOX 2500            
#> 10 P. O. Box 513            <NA>              PO BOX 513             
#> # … with 692,962 more rows
```
…
      key_collision_merge() %>% 
      n_gram_merge(numgram = 1)
  ) %>% 
  filter(city_refine != city_swap) %>% 
  inner_join(
    y = zipcodes,
    by = c(
      "city_refine" = "city",
      "state_norm" = "state",
      "zip_norm" = "zip"
    )
  )
```

    #> # A tibble: 256 × 5
    #>    state_norm zip_norm city_swap       city_refine      n
    #>    <chr>      <chr>    <chr>           <chr>        <int>
    #>  1 LA         70508    LAFAYETTE LA    LAFAYETTE      108
    #>  2 LA         70611    LAKE CHARLES LA LAKE CHARLES    96
    #>  3 LA         70448    MANDEVILLE LA   MANDEVILLE      87
    #>  4 LA         70427    BOGALUSA LA     BOGALUSA        86
    #>  5 LA         70068    LAPALCE         LA PLACE        34
    #>  6 LA         70506    LAFAYETTE LA    LAFAYETTE       30
    #>  7 LA         71325    CHEYNEVILLE     CHENEYVILLE     17
    #>  8 LA         70501    LAFAYETTE LA    LAFAYETTE       15
    #>  9 LA         70503    LAFAYETTE LA    LAFAYETTE       15
    #> 10 LA         70570    OPELOUSAS LA    OPELOUSAS       15
    #> # … with 246 more rows
…
