…
``` r
pac <- left_join(pac, dupes, by = "tx")
pac <- mutate(pac, dupe_flag = !is.na(dupe_flag))
percent(mean(pac$dupe_flag), 0.01)
#> [1] "2.17%"
```

``` r
pac %>% 
  filter(dupe_flag) %>% 
  select(tx, all_of(key_vars))
#> # A tibble: 472,908 × 5
#>       tx date       contributor        amount filer                            
#>    <dbl> <date>     <chr>               <dbl> <chr>                            
#>  1  1474 2000-07-31 RUSSELL L TOBIAS       25 PFEIFFER LAWRENCE LARRYS CAMPAIGN
#>  2  1475 2000-07-31 RUSSELL L TOBIAS       25 PFEIFFER LAWRENCE LARRYS CAMPAIGN
#>  3  1630 2000-03-04 AARON FINESTONE        25 WATSON D DEXTER                  
#>  4  1631 2000-03-04 AARON FINESTONE        25 WATSON D DEXTER                  
#>  5  2416 2000-09-25 PA ABC PAC            150 CAPPELLI STEVEN PEOPLE FOR       
#>  6  2417 2000-09-25 PA ABC PAC            150 CAPPELLI STEVEN PEOPLE FOR       
#>  7  3227 2000-02-29 GARY BRANDENBERGER     32 PA DUQUESNE LIGHT (PENNDUPAC)    
#>  8  3228 2000-01-31 IRA F CLIFFORD         15 PA DUQUESNE LIGHT (PENNDUPAC)    
#>  9  3229 2000-01-04 WILLIAM J DELEO        24 PA DUQUESNE LIGHT (PENNDUPAC)    
#> 10  3230 2000-01-04 JERRY E HOLTZER        17 PA DUQUESNE LIGHT (PENNDUPAC)    
#> # … with 472,898 more rows
```
…
``` r
norm_addr
#> # A tibble: 1,993,452 × 3
#>    con_addr1                 con_addr2 con_addr_norm        
#>    <chr>                     <chr>     <chr>                
#>  1 929 Long Bridge Drive     <NA>      929 LONG BRIDGE DR   
#>  2 1719 SPRING GARDEN STREET <NA>      1719 SPRING GARDEN ST
#>  3 1719 Spring Garden Street <NA>      1719 SPRING GARDEN ST
#>  4 Lilly Corporate Center    <NA>      LILLY CORPORATE CTR  
#>  5 1601 Chestnut St          <NA>      1601 CHESTNUT ST     
#>  6 One Amgen Center Drive    <NA>      ONE AMGEN CENTER DR  
#>  7 135 Easton Turnpike       <NA>      135 EASTON TPKE      
#>  8 PO Box 15437              <NA>      PO BOX 15437         
#>  9 100 N Riverside           <NA>      100 N RIVERSIDE      
#> 10 538 S MAIN ST             <NA>      538 S MAIN ST        
#> # … with 1,993,442 more rows
…
``` r
norm_addr
#> # A tibble: 9,760 × 3
#>    fil_addr1                 fil_addr2                      fil_addr_norm                          
#>    <chr>                     <chr>                          <chr>                                  
#>  1 <NA>                      <NA>                           <NA>                                   
#>  2 <NA>                      OTH                            OTH                                    
#>  3 929 Long Bridge Drive     <NA>                           929 LONG BRIDGE DR                     
#>  4 702 SW 8TH                <NA>                           702 SW 8TH                             
#>  5 501 Third Street NW       <NA>                           501 THIRD STREET NW                    
#>  6 101 Constitution Ave NW   Suite 400W                     101 CONSTITUTION AVE NW SUITE 400W     
#>  7 1719 Spring Garden Street <NA>                           1719 SPRING GARDEN ST                  
#>  8 539 S. Main Street        <NA>                           539 S MAIN ST                          
#>  9 1200 WILSON BLVD          <NA>                           1200 WILSON BLVD                       
#> 10 c/o Zeneca Inc.           1800 Concord Pike PO Box 15437 C/O ZENECA INC 1800 CONCORD PIKE PO BO…
#> # … with 9,750 more rows
…
      key_collision_merge() %>% 
      n_gram_merge(numgram = 1)
  ) %>% 
  filter(con_city_refine != con_city_swap) %>% 
  inner_join(
    y = zipcodes,
    by = c(
      "con_city_refine" = "city",
      "con_state" = "state",
      "con_zip_norm" = "zip"
    )
  )
```

    #> # A tibble: 543 × 5
    #>    con_state con_zip_norm con_city_swap     con_city_refine       n
    #>    <chr>     <chr>        <chr>             <chr>             <int>
    #>  1 SC        29406        NORTH CHARLESTON  CHARLESTON            4
    #>  2 PA        17702        SO WILLIAMSPORT   WILLIAMSPORT          3
    #>  3 CA        92563        MURIETTA          MURRIETA              2
    #>  4 FL        32082        PONTE VERDE BEACH PONTE VEDRA BEACH     2
    #>  5 IL        60429        EAST HAZEL CREST  HAZEL CREST           2
    #>  6 IN        46184        NEW WHITELAND     WHITELAND             2
    #>  7 MD        21078        HARV DE GRACE     HAVRE DE GRACE        2
    #>  8 MI        48094        WASHINGTON TW     WASHINGTON            2
    #>  9 MI        48095        WASHINGTON TN     WASHINGTON            2
    #> 10 MI        48304        BLOOMFIELDS H     BLOOMFIELD HILLS      2
    #> # … with 533 more rows
…
