…
ct_deduped <- ct_dedupe %>% plyr::ldply() %>% select(-c(row_sum,early_more_info,n))

ct_join<- ct_join %>% filter(n != 2) %>% 
  unite(remove = T, col = "communicator", lobbyist_first_name, lobbyist_last_name,sep = ",") %>% 
  rename(client = client_name)
```

``` r
ctlc <- ctlc %>% 
  left_join(ct_join, by = c("client", "communicator", "session")) 
         
sample_frac(ctlc)
#> # A tibble: 15,434 x 22
#>    communicator client selected_type comp_amt sales_tax exp_reimb  total session client_year
#>    <chr>        <chr>  <chr>            <dbl>     <dbl>     <dbl>  <dbl> <chr>   <chr>      
#>  1 Jennifer Wi… CT Co… Administrati…    2831.        0       193. 3.02e3 2013-2… <NA>       
#>  2 Sullivan & … Lyft,… Legislative     19200      1219.      375  2.08e4 2013-2… <NA>       
#>  3 Edwin Durso  ESPN,… Administrati…    9505.        0         0  9.50e3 2013-2… <NA>       
#>  4 Barry Fadem  Natio… Legislative         0         0     15496. 1.55e4 2013-2… <NA>       
#>  5 Gaffney, Be… Bridg… ClientTotal     33507.     2128.        0  3.56e4 2017-2… <NA>       
#>  6 Gaffney, Be… Wine … ClientTotal    240000     15240         0  2.55e5 2013-2… <NA>       
#>  7 Connecticut… Conne… ClientTotal    256132.    16264.     5766. 2.78e5 2015-2… <NA>       
#>  8 Lorelei Mot… Wakef… Administrati…       0         0         0  0.     2015-2… <NA>       
#>  9 Gloria Dimon Conne… Legislative      1718.        0         0  1.72e3 2015-2… <NA>       
#> 10 Brown Rudni… Boehr… ClientTotal    125000      7938.      500  1.33e5 2013-2… <NA>       
#> # … with 15,424 more rows, and 13 more variables: lobbyist_year <chr>, client_phone <chr>,
#> #   client_city_clean <chr>, client_email <chr>, client_zip <chr>, client_state <chr>,
#> #   lobbyist_city_clean <chr>, lobbyist_address_norm <chr>, lobbyist_state <chr>,
#> #   lobbyist_zip <chr>, lobbyist_email <chr>, dupe_flag <lgl>, n <int>
```
…
