…
``` r
ohlr %>% 
  select(starts_with("address")) %>% 
  distinct() %>% 
  sample_frac()
#> # A tibble: 1,275 x 3
#>    address                           address_line_2   address_norm                                 
#>    <chr>                             <chr>            <chr>                                        
#>  1 111 Liberty St., Suite 100        <NA>             111 LIBERTY STREET SUITE 100                 
#>  2 7777 Bainbridge Road              <NA>             7777 BAINBRIDGE ROAD                         
#>  3 41 South High Street, Suite 2240  <NA>             41 SOUTH HIGH STREET SUITE 2240              
#>  4 21 West Broad St., Ste. 800       <NA>             21 WEST BROAD STREET SUITE 800               
#>  5 400 East Campus View Boulevard (… INTEROFFICE - O… 400 EAST CAMPUS VIEW BOULEVARD 3AD INTEROFFI…
#>  6 2201 Townley Road                 <NA>             2201 TOWNLEY ROAD                            
#>  7 100 E. Broad St., 20th Floor      INTEROFFICE - C… 100 EAST BROAD STREET 20TH FLOOR INTEROFFICE…
#>  8 77 South High St., 2nd Flr.       <NA>             77 SOUTH HIGH STREET 2ND FLR                 
#>  9 801 Kingsmill Parkway             <NA>             801 KINGSMILL PARKWAY                        
#> 10 41 S. High St. #2245              <NA>             41 SOUTH HIGH STREET 2245                    
#> # … with 1,265 more rows
```
…
