…
Infuriatingly, the site only lets users export 65,000 records at a time.
We have manually exported 91 files.

``` r
raw_dir <- dir_create(here("wi", "contribs", "data", "raw"))
raw_files <- as_tibble(dir_info(raw_dir))
sum(raw_files$size)
#> 1.06G
raw_files %>% 
  select(path, size, modification_time) %>% 
  mutate(across(path, basename))
#> # A tibble: 91 x 3
#>    path                                    size modification_time  
#>    <chr>                            <fs::bytes> <dttm>             
#>  1 ReceiptsList_1-65000.csv               12.7M 2020-04-21 12:45:29
#>  2 ReceiptsList_1040001-1105000.csv       10.8M 2020-04-21 16:37:16
#>  3 ReceiptsList_1105001-1170000.csv       11.9M 2020-04-21 16:42:53
#>  4 ReceiptsList_1170001-1235000.csv         11M 2020-04-21 16:49:02
#>  5 ReceiptsList_1235001-1300000.csv       10.8M 2020-04-21 17:13:05
#>  6 ReceiptsList_1300001-1365000.csv       10.9M 2020-04-21 17:38:50
#>  7 ReceiptsList_130001-195000.csv         11.2M 2020-04-21 13:05:47
#>  8 ReceiptsList_1365001-1430000.csv       12.2M 2020-04-21 17:50:38
#>  9 ReceiptsList_1430001-1495000.csv       10.9M 2020-04-21 17:59:44
#> 10 ReceiptsList_1495001-1560000.csv       10.5M 2020-04-21 18:07:38
#> # … with 81 more rows
```
…
Quite a few more records are duplicated. While it’s possible for the
same person to make a contribution of the same amount on the same day,
we will still flag these records with `campfin::flag_dupes()`.

``` r
wic <- flag_dupes(wic, everything())
percent(mean(wic$dupe_flag), 0.01)
#> [1] "1.63%"
```

``` r
wic %>% 
  filter(dupe_flag) %>% 
  select(date, con_name, amount, rec_name)
#> # A tibble: 95,742 x 4
#>    date       con_name            amount rec_name
#>    <date>     <chr>                <dbl> <chr>   
#>  1 2020-03-23 MICHAUD  PETER J      6    WEAC PAC
#>  2 2020-03-23 MICHAUD  PETER J      6    WEAC PAC
#>  3 2020-03-23 LESSOR  LOUIS W       5.01 WEAC PAC
#>  4 2020-03-23 LESSOR  LOUIS W       5.01 WEAC PAC
#>  5 2020-03-23 GEORGESON  PAMELA L   5.01 WEAC PAC
#>  6 2020-03-23 GEORGESON  PAMELA L   5.01 WEAC PAC
#>  7 2020-03-23 BEHNKE  MICHELLE C    5.01 WEAC PAC
#>  8 2020-03-23 BEHNKE  MICHELLE C    5.01 WEAC PAC
#>  9 2020-03-23 DRESANG  GINA M       5.01 WEAC PAC
#> 10 2020-03-23 DRESANG  GINA M       5.01 WEAC PAC
#> # … with 95,732 more rows
```
…
    #> [1] 631
    #> # A tibble: 326 x 5
    #>    state_norm zip_norm city_swap        city_refine         n
    #>    <chr>      <chr>    <chr>            <chr>           <int>
    #>  1 WI         54873    SOLON SPRINGSSS  SOLON SPRINGS      35
    #>  2 WI         53051    MENONOMEE FALLS  MENOMONEE FALLS    23
    #>  3 WI         54751    MENOMINEE        MENOMONIE          22
    #>  4 CA         92625    CORONA DALE MAR  CORONA DEL MAR     13
    #>  5 IL         60030    GREYS LAKE       GRAYSLAKE          12
    #>  6 WI         54751    MENONOMIE        MENOMONIE          12
    #>  7 CA         90292    MARINA DALE REY  MARINA DEL REY     11
    #>  8 SC         29406    NORTH CHARLESTON CHARLESTON         10
    #>  9 WI         54956    NEEHAN           NEENAH             10
    #> 10 CA         95060    SANATA CRUZ CA   SANTA CRUZ          9
    #> # … with 316 more rows
…
