…
``` r
ohlr %>% 
  select(starts_with("address")) %>% 
  distinct() %>% 
  sample_frac()
#> # A tibble: 1,240 x 3
#>    address                      address_line_2             address_norm                            
#>    <chr>                        <chr>                      <chr>                                   
#>  1 600 Superior Avenue E., Ste… <NA>                       600 SUPERIOR AVE E STE 2100             
#>  2 213 W. Liberty St., Ste. 200 <NA>                       213 W LIBERTY ST STE 200                
#>  3 10 W Broad Street #1150      <NA>                       10 W BROAD ST 1150                      
#>  4 8591 Woodbury Rd             <NA>                       8591 WOODBURY RD                        
#>  5 545 East Town Street         <NA>                       545 E TOWN ST                           
#>  6 24000 Honda Parkway          <NA>                       24000 HONDA PKWY                        
#>  7 250 E. Broad St., #1400      INTEROFFICE - Public Defe… 250 E BROAD ST 1400 INTEROFFICE PUBLIC …
#>  8 37 W. Broad St., Ste. 325    <NA>                       37 W BROAD ST STE 325                   
#>  9 180 East Broad St. 12th Flo… INTEROFFICE - PUCO         180 E BROAD ST 12TH FL INTEROFFICE PUCO 
#> 10 36 East Seventh Street, Ste… <NA>                       36 E SEVENTH ST STE 1510                
#> # … with 1,230 more rows
```
…
