…
``` r
key_vars <- c("date", "payee_last", "amount", "cand_last")
aze <- flag_na(aze, all_of(key_vars))
sum(aze$na_flag)
#> [1] 61
```

``` r
aze %>% 
  filter(na_flag) %>% 
  select(all_of(key_vars)) %>% 
  sample_frac()
#> # A tibble: 61 x 4
#>    date       payee_last    amount cand_last        
#>    <date>     <chr>          <dbl> <chr>            
#>  1 2014-05-16 Eames          -15   <NA>             
#>  2 2014-10-16 QuickTrip      -34.4 <NA>             
#>  3 2014-11-06 COSTCO         -31.9 <NA>             
#>  4 2014-08-08 Eames         -996.  <NA>             
#>  5 2014-02-03 <NA>          -135   Elect Steve Smith
#>  6 2014-10-14 Eames          300   <NA>             
#>  7 2014-07-09 FRAZEE PAINT  -151.  <NA>             
#>  8 2014-08-29 Eames           25   <NA>             
#>  9 2014-05-20 Eames          100   <NA>             
#> 10 2014-08-11 Karl         -1000   <NA>             
#> # … with 51 more rows
```
…
``` r
aze %>% 
  filter(payee_state != payee_state_norm) %>% 
  count(payee_state, payee_state_norm, sort = TRUE)
#> # A tibble: 237 x 3
#>    payee_state payee_state_norm     n
#>    <chr>       <chr>            <int>
#>  1 "<miss"     MISS             26281
#>  2 "az"        AZ                4133
#>  3 "Az"        AZ                3630
#>  4 "Arizo"     ARIZO              467
#>  5 "AZ "       AZ                 416
#>  6 "Reque"     REQUE              204
#>  7 "Ariz"      ARIZ               184
#>  8 "Inter"     INTER              132
#>  9 "Texas"     TX                 131
#> 10 "Fla"       FLA                127
#> # … with 227 more rows
```
…
      key_collision_merge() %>% 
      n_gram_merge(numgram = 1)
  ) %>% 
  filter(payee_city_refine != payee_city_swap) %>% 
  inner_join(
    y = zipcodes,
    by = c(
      "payee_city_refine" = "city",
      "payee_state_norm" = "state",
      "payee_zip_norm" = "zip"
    )
  )
```

    #> # A tibble: 22 x 5
    #>    payee_state_norm payee_zip_norm payee_city_swap      payee_city_refine     n
    #>    <chr>            <chr>          <chr>                <chr>             <int>
    #>  1 FL               32084          AUGUSTINE            SAINT AUGUSTINE      12
    #>  2 MS               39530          BIXOLI               BILOXI                6
    #>  3 AZ               85251          SCOTTSDALESCOTTSDALE SCOTTSDALE            4
    #>  4 AZ               85616          CHACUCA CITY         HUACHUCA CITY         4
    #>  5 CT               06033          GLATONSBURY          GLASTONBURY           3
    #>  6 SC               29406          NORTH CHARLESTON     CHARLESTON            3
    #>  7 SC               29419          NORTH CHARLESTON     CHARLESTON            3
    #>  8 OR               97228          PORTLAND OR          PORTLAND              2
    #>  9 AZ               85015          PPHOENIXHOENIX       PHOENIX               1
    #> 10 AZ               85119          APACHIE JUNTION      APACHE JUNCTION       1
    #> # … with 12 more rows
…
``` r
aze <- aze %>% 
  left_join(good_refine, by = names(aze)) %>% 
  mutate(payee_city_refine = coalesce(payee_city_refine, payee_city_swap))
```

#### Progress

``` r
many_city <- c(valid_city, extra_city)
aze %>% 
  filter(payee_city_refine %out% many_city) %>% 
  count(payee_city_refine, payee_state_norm, payee_zip_norm, sort = TRUE) %>% 
  drop_na()
#> # A tibble: 1,304 x 4
#>    payee_city_refine payee_state_norm payee_zip_norm     n
#>    <chr>             <chr>            <chr>          <int>
#>  1 SHELBY TOWNSHIP   MI               48315           4212
#>  2 SHELBY TOWNSHIP   MI               48316           4130
#>  3 FARMINGTON HILLS  MI               48331           4069
#>  4 FARMINGTON HILLS  MI               48334           1713
#>  5 FARMINGTON HILLS  MI               48335           1564
#>  6 SADDLEBROOKE      AZ               85739           1155
#>  7 FARMINGTON HILLS  MI               48336           1086
#>  8 WAITING           AZ               85260            820
#>  9 DESERT HILLS      AZ               85086            751
#> 10 SHELBY TOWNSHIP   MI               48317            622
#> # … with 1,294 more rows
```
…
