…
``` r
raw_info <- dir_info(raw_dir)
sum(raw_info$size)
#> 174M
raw_info %>% 
  select(path, size, modification_time) %>% 
  mutate(across(path, basename))
#> # A tibble: 147 × 3
#>    path                       size modification_time  
#>    <chr>               <fs::bytes> <dttm>             
#>  1 ky-con_2011-Apr.csv        911K 2023-03-24 23:47:04
#>  2 ky-con_2011-Aug.csv        990K 2023-03-24 23:47:50
#>  3 ky-con_2011-Dec.csv        502K 2023-03-24 23:48:35
#>  4 ky-con_2011-Feb.csv        300K 2023-03-24 23:46:41
#>  5 ky-con_2011-Jan.csv        316K 2023-03-24 23:46:30
#>  6 ky-con_2011-Jul.csv        732K 2023-03-24 23:47:39
#>  7 ky-con_2011-Jun.csv        920K 2023-03-24 23:47:27
#>  8 ky-con_2011-Mar.csv        800K 2023-03-24 23:46:53
#>  9 ky-con_2011-May.csv        658K 2023-03-24 23:47:16
#> 10 ky-con_2011-Nov.csv        614K 2023-03-24 23:48:24
#> # … with 137 more rows
```
…
`percent(mean(kyc$dupe_flag))` of all records are duplicates.

``` r
kyc %>% 
  filter(dupe_flag) %>% 
  select(
    contributor_last_name, recipient_last_name, 
    amount, election_date, address1
  ) %>% 
  arrange(recipient_last_name, election_date, amount)
#> # A tibble: 54,093 × 5
#>    contributor_last_name recipient_last_name amount election_date address1
#>    <chr>                 <chr>                <dbl> <date>        <chr>   
#>  1 <NA>                  Abraham                100 2020-11-03    <NA>    
#>  2 <NA>                  Abraham                100 2020-11-03    <NA>    
#>  3 <NA>                  Ackerman                50 2022-05-17    <NA>    
#>  4 <NA>                  Ackerman                50 2022-05-17    <NA>    
#>  5 <NA>                  Ackerman                50 2022-05-17    <NA>    
#>  6 <NA>                  Ackerman               100 2022-05-17    <NA>    
#>  7 <NA>                  Ackerman               100 2022-05-17    <NA>    
#>  8 <NA>                  Ackerman               100 2022-05-17    <NA>    
#>  9 <NA>                  Ackerman               100 2022-05-17    <NA>    
#> 10 <NA>                  Ackerman               100 2022-05-17    <NA>    
#> # … with 54,083 more rows
```
…
      key_collision_merge() %>% 
      n_gram_merge(numgram = 1)
  ) %>% 
  filter(city_refine != city_swap) %>% 
  inner_join(
    y = zipcodes,
    by = c(
      "city_refine" = "city",
      "state_norm" = "state",
      "zip_norm" = "zip"
    )
  )
```

    #> # A tibble: 85 × 5
    #>    state_norm zip_norm city_swap          city_refine          n
    #>    <chr>      <chr>    <chr>              <chr>            <int>
    #>  1 KY         42301    OWENSOBOR          OWENSBORO           34
    #>  2 KY         41129    CATTLESBURG        CATLETTSBURG        14
    #>  3 OH         45202    CINCINATTI         CINCINNATI           9
    #>  4 KY         42003    PAUDUACH           PADUCAH              8
    #>  5 OH         45255    CINCINATTI         CINCINNATI           8
    #>  6 KY         42717    BURKESVVILE        BURKESVILLE          7
    #>  7 KY         41129    CATTLETSBURG       CATLETTSBURG         6
    #>  8 KY         40056    PEE WEE VALLEY     PEWEE VALLEY         5
    #>  9 KY         42001    PADACUAH           PADUCAH              4
    #> 10 OH         44251    WESTERFIELD CENTER WESTFIELD CENTER     4
    #> # … with 75 more rows
…
## Export

Now the file can be saved on disk for upload to the Accountability
server.

``` r
clean_dir <- dir_create(here("ky", "contribs", "data", "clean"))
clean_path <- path(clean_dir, "ky_contribs_clean.csv")
write_csv(kyc, clean_path, na = "")
(clean_size <- file_size(clean_path))
#> 157M
non_ascii(clean_path)
#> # A tibble: 340 × 2
#>       row line                                                                                                          
#>     <int> <chr>                                                                                                         
#>  1 342341 ",,PEACH,LEN<c3><89>E,BESHEAR,ANDREW,SLATE,STATEWIDE,2019-05-21,PRIMARY,FALSE,,4686 VERSAILLES RD,,FRANKFORT,…
#>  2 357740 "\"BUILDING INDUSTRY ASSOCIATION OF GREATER LOUISVILLE, PAC\",,NA<c3><8f>VE,JENNIFER,,,,,,,FALSE,,7803 ROLLIN…
#>  3 382204 ",,PEACH,LEN<c3><89>E,BESHEAR,ANDREW,SLATE,STATEWIDE,2019-11-05,GENERAL,FALSE,,4686 VERSAILLES RD,,FRANKFORT,…
#>  4 400359 "\"BUILDING INDUSTRY ASSOCIATION OF GREATER LOUISVILLE, PAC\",,NA<c3><8f>VE,JENNIFER,,,,,,,FALSE,,7803 ROLLIN…
#>  5 405377 ",,HAAS,ERIC,Bevin,Matt,SLATE,STATEWIDE,2019-11-05,GENERAL,FALSE,,42 STARDUST PT,,FORT THOMAS,KY,410750000,50…
#>  6 408293 "\"KENTUCKY LAND TITLE ASSOCIATION, PAC\",,Mitchell,Jeremy,,,,,,,FALSE,,5670 Old Richmond Rd<c2><a0>,,Lexingt…
#>  7 409113 ",,Laughlin,Joshua,REILLY,SHAWN,LEGISLATIVE COUNCIL - EVEN,JEFFERSON-DIST 8,2020-05-19,PRIMARY,FALSE,,1622 Ro…
#>  8 409979 ",Kentucky Distiller<e2><80><99>s Association Bourbon Trail,,,Westrom,Susan,STATE REPRESENTATIVE,79TH DISTRIC…
#>  9 410047 ",,O<e2><80><99>Bryan,Donna,Westrom,Susan,STATE REPRESENTATIVE,79TH DISTRICT,2020-11-03,GENERAL,FALSE,,3124 O…
#> 10 410052 ",The Women<e2><80><99>s Network,,,Westrom,Susan,STATE REPRESENTATIVE,79TH DISTRICT,2020-11-03,GENERAL,FALSE,…
#> # … with 330 more rows
```
…
