…
We will flag entries with missing `last_name`,`candidate_name`, `city`
and `date`

``` r
gac <- gac %>% flag_na(last_name, city,date,committee_name)
sum(gac$na_flag)
#> [1] 52369
```

``` r
gac %>% 
  filter(na_flag) %>% 
  select(last_name, city,date,committee_name)
#> # A tibble: 52,369 x 4
#>    last_name                         city          date       committee_name
#>    <chr>                             <chr>         <date>     <chr>         
#>  1 Giannasi                          Athens        2006-03-27 <NA>          
#>  2 Hathaway                          Athens        2006-03-27 <NA>          
#>  3 Kardos                            Athens        2006-03-24 <NA>          
#>  4 Ball                              Athens        2006-03-02 <NA>          
#>  5 Outdoor Advertising Assoc. of Ga. Duluth        2006-01-04 <NA>          
#>  6 Strange                           The Woodlands 2006-03-16 <NA>          
#>  7 Abdur-Rahim                       Atlanta       2006-03-31 <NA>          
#>  8 Bierema                           Athens        2006-03-30 <NA>          
#>  9 Hicks                             Riverdale     2006-03-31 <NA>          
#> 10 Burton                            Athens        2006-03-22 <NA>          
#> # … with 52,359 more rows
```

### Duplicates

``` r
gac <- flag_dupes(gac,dplyr::everything())
sum(gac$dupe_flag)
#> [1] 65738
```

``` r
gac %>% 
  filter(dupe_flag)
#> # A tibble: 65,738 x 24
#>    filer_id type  last_name first_name address city  state zip   pac   occupation employer
#>    <chr>    <chr> <chr>     <chr>      <chr>   <chr> <chr> <chr> <chr> <chr>      <chr>   
#>  1 NC20060… Mone… The Howa… <NA>       1948 O… Tift… GA    31794 <NA>  <NA>       <NA>    
#>  2 NC20060… Mone… North At… <NA>       11975 … Alph… GA    30005 <NA>  <NA>       <NA>    
#>  3 C200600… Mone… WellCare  <NA>       P.O. B… Tampa FL    33622 <NA>  <NA>       <NA>    
#>  4 NC20060… Mone… Ruthann … <NA>       2000 1… Colu… GA    31901 <NA>  <NA>       <NA>    
#>  5 NC20060… Mone… North At… <NA>       1121 J… Atla… GA    30068 <NA>  <NA>       <NA>    
#>  6 NC20060… Mone… West Aug… <NA>       1126 M… Augu… GA    30909 <NA>  <NA>       <NA>    
#>  7 NC20060… Mone… Women's … <NA>       107 Hi… Rive… GA    30296 <NA>  <NA>       <NA>    
#>  8 C200600… Mone… Powell    Rex        4485 Y… Doug… GA    30135 <NA>  Construct… Chick-f…
#>  9 NC20060… Mone… Georgia … <NA>       5445 M… Atla… GA    30342 <NA>  <NA>       <NA>    
#> 10 NC20060… Mone… Camille … <NA>       95 Col… Atla… GA    30309 <NA>  <NA>       <NA>    
#> # … with 65,728 more rows, and 13 more variables: date <date>, election <chr>,
#> #   election_year <chr>, cash_amount <dbl>, in_kind_amount <dbl>, in_kind_description <chr>,
#> #   candidate_first_name <chr>, candidate_middle_name <chr>, candidate_last_name <chr>,
#> #   candidate_suffix <chr>, committee_name <chr>, na_flag <lgl>, dupe_flag <lgl>
```
…
``` r
gac %>% 
  filter(state != state_norm) %>% 
  count(state, sort = TRUE)
#> # A tibble: 518 x 2
#>    state          n
#>    <chr>      <int>
#>  1 "Georgia"  25511
#>  2 "ga"       18507
#>  3 "Ga"       13949
#>  4 "georgia"   6013
#>  5 "GEORGIA"   5728
#>  6 "GA "       2197
#>  7 "gA"        1683
#>  8 "Georgia "  1131
#>  9 "Ga."        896
#> 10 "Florida"    437
#> # … with 508 more rows
```
…
      key_collision_merge() %>% 
      n_gram_merge(numgram = 1)
  ) %>% 
  filter(city_refine != city_swap) %>% 
  inner_join(
    y = zipcodes,
    by = c(
      "city_refine" = "city",
      "state_norm" = "state",
      "zip_norm" = "zip"
    )
  )
```

    #> # A tibble: 148 x 5
    #>    state_norm zip_norm city_swap        city_refine            n
    #>    <chr>      <chr>    <chr>            <chr>              <int>
    #>  1 OH         45206    CINCINATTI       CINCINNATI            36
    #>  2 IL         60010    NO BARRINGTON    BARRINGTON            24
    #>  3 IN         47119    FLOYD KNOBBS     FLOYDS KNOBS          15
    #>  4 OH         45209    CINCINATTI       CINCINNATI            13
    #>  5 NY         11746    HUNTINGTON SAINT HUNTINGTON STATION     9
    #>  6 WI         54702    EAU CLAIRE RI    EAU CLAIRE             9
    #>  7 GA         30080    SMRNYA           SMYRNA                 6
    #>  8 GA         30144    KENNNESSAW       KENNESAW               6
    #>  9 GA         31561    SEA ISLAND CO    SEA ISLAND             6
    #> 10 SC         29406    NORTH CHARLESTON CHARLESTON             5
    #> # … with 138 more rows
…
