…
``` r
wa <- wa %>% 
  mutate(
    phone_norm = normal_phone(
      number = lobbyist_phone,
      format = "(%a) %e-%l",
      na_bad = FALSE,
      convert = TRUE, 
      rm_ext = FALSE
    )
  )
```

    #> # A tibble: 4,326 x 2
    #>    lobbyist_phone phone_norm    
    #>    <chr>          <chr>         
    #>  1 202-529-3867   (202) 529-3867
    #>  2 (206) 987-2125 (206) 987-2125
    #>  3 4258060302     (425) 806-0302
    #>  4 206-575-7979   (206) 575-7979
    #>  5 206-340-4812   (206) 340-4812
    #>  6 3609519531     (360) 951-9531
    #>  7 2063240340     (206) 324-0340
    #>  8 915-497-6085   (915) 497-6085
    #>  9 2062298759     (206) 229-8759
    #> 10 3607911544     (360) 791-1544
    #> # … with 4,316 more rows
…
Then, we can remove this `city_sep` from the `other_sep` vector to leave
only the street address.

``` r
wa <- wa %>% 
  mutate(
    address_sep = other_sep %>% 
      str_remove(city_sep) %>% 
      str_trim("right")
  )
```

    #> # A tibble: 1,146 x 5
    #>    lobbyist_address                         address_sep             city_sep    state_sep zip_sep  
    #>    <chr>                                    <chr>                   <chr>       <chr>     <chr>    
    #>  1 4519 GRANDVIEW ROAD BLAINE WA 98230      4519 GRANDVIEW ROAD     BLAINE      WA        98230    
    #>  2 212 UNION AVE SE OLYMPIA WA 98501        212 UNION AVE SE        OLYMPIA     WA        98501    
    #>  3 1145 BROADWAY STE 300 TACOMA WA 98402    1145 BROADWAY STE 300   TACOMA      WA        98402    
    #>  4 13001 BRIDGEVIEW COURT INDIANAPOLIS IN … 13001 BRIDGEVIEW COURT  INDIANAPOL… IN        46055    
    #>  5 3429 FREMONT AVE N SEATTLE WA 98103      3429 FREMONT AVE N      SEATTLE     WA        98103    
    #>  6 1711 CAMDEN PARK DR. SW OLYMPIA WA 98512 1711 CAMDEN PARK DR. SW OLYMPIA     WA        98512    
    #>  7 349 SIXTEENTH AVE SEATTLE WA 98122-5614  349 SIXTEENTH AVE       SEATTLE     WA        98122-56…
    #>  8 1901 OAKESDALE AVENUE SW RENTON WA 98057 1901 OAKESDALE AVENUE … RENTON      WA        98057    
    #>  9 4135 SHARWOOD WAY CARMICHAEL CA 95608    4135 SHARWOOD WAY       CARMICHAEL  CA        95608    
    #> 10 1501 CAPITOL WAY STE 304 OLYMPIA WA 985… 1501 CAPITOL WAY STE 3… OLYMPIA     WA        98501    
    #> # … with 1,136 more rows
…
We can normalize the address with `campfin::normal_address()` to reduce
inconsistencies and expand USPS abbreviations.

``` r
wa <- wa %>% 
  mutate(
    address_norm = normal_address(
        address = address_sep,
        add_abbs = usps_street,
        na_rep = TRUE
      )
  )
```

    #> # A tibble: 1,096 x 2
    #>    address_sep                   address_norm                    
    #>    <chr>                         <chr>                           
    #>  1 PO BOX 815                    PO BOX 815                      
    #>  2 3000 LANDERHOLM CIRCLE SE     3000 LANDERHOLM CIRCLE SOUTHEAST
    #>  3 1500 4TH AVE #904             1500 4TH AVENUE 904             
    #>  4 1608 EAST REPUBLICAN ST. #303 1608 EAST REPUBLICAN STREET 303 
    #>  5 1325 FOURTH AVENUE            1325 FOURTH AVENUE              
    #>  6 19802 62ND AVE S              19802 62ND AVENUE SOUTH         
    #>  7 901 5TH AVE STE 2200          901 5TH AVENUE SUITE 2200       
    #>  8 13045 37TH AVENUE NE          13045 37TH AVENUE NORTHEAST     
    #>  9 2350 KERNER BLVD STE 250      2350 KERNER BOULEVARD SUITE 250 
    #> 10 167 NW 2ND AVE                167 NORTHWEST 2ND AVENUE        
    #> # … with 1,086 more rows
…
