…
``` r
raw_dir <- dir_create(here("nc", "contribs", "data", "raw"))
raw_files <- as_tibble(dir_info(raw_dir))
raw_files %>% 
  select(path, size, modification_time) %>% 
  mutate_at(vars(path), basename)
#> # A tibble: 21 x 3
#>    path                             size modification_time  
#>    <chr>                     <fs::bytes> <dttm>             
#>  1 transinq_results-2000.csv         51M 2020-04-23 18:35:36
#>  2 transinq_results-2001.csv       18.2M 2020-04-23 18:52:56
#>  3 transinq_results-2002.csv       55.5M 2020-04-23 18:54:33
#>  4 transinq_results-2003.csv         49M 2020-04-23 18:55:29
#>  5 transinq_results-2004.csv       86.7M 2020-04-23 18:59:23
#>  6 transinq_results-2005.csv       69.3M 2020-04-23 19:00:42
#>  7 transinq_results-2006.csv      101.3M 2020-04-23 19:02:29
#>  8 transinq_results-2007.csv       94.7M 2020-04-23 19:03:41
#>  9 transinq_results-2008.csv      141.2M 2020-04-23 19:05:51
#> 10 transinq_results-2009.csv       88.1M 2020-04-23 19:07:08
#> # … with 11 more rows
```
…
This is likely due to the lack of individual information for those
contributions reported as aggrigates.

``` r
ncc %>% 
  filter(is.na(con_state)) %>% 
  select(con_name, con_state) %>% 
  count(con_name, sort = TRUE) %>% 
  mutate(p = n/sum(n))
#> # A tibble: 15,857 x 3
#>    con_name                                 n         p
#>    <chr>                                <int>     <dbl>
#>  1 Aggregated Individual Contribution 3927685 0.959    
#>  2 Aggregated Non-Media Expenditure    133064 0.0325   
#>  3 <NA>                                  2969 0.000725 
#>  4 BB&T                                   380 0.0000928
#>  5 AGGREGATED NON-MEDIA EXPENDITURE       302 0.0000737
#>  6 AIC                                    203 0.0000496
#>  7 AGGREGATED NON-MEDIA EXPENDITURES      201 0.0000491
#>  8 PAYPAL                                 179 0.0000437
#>  9 US POSTAL SERVICE                      171 0.0000417
#> 10 BANK OF AMERICA                        164 0.0000400
#> # … with 15,847 more rows
```
…
A *huge* percentage of the overall records in this database are
duplicates. This stems from the use of aggregated records reported
millions of timnes by a handful of recipients.

``` r
percent(mean(ncc$dupe_flag))
#> [1] "41%"
ncc %>% 
  filter(dupe_flag) %>% 
  count(date, con_name, amount, rec_name, rec_id, report, sort = TRUE)
#> # A tibble: 254,633 x 7
#>    date       con_name             amount rec_name             rec_id     report                  n
#>    <date>     <chr>                 <dbl> <chr>                <chr>      <chr>               <int>
#>  1 2014-02-10 Aggregated Individu…      2 EMPLOYEES POLITICAL… STA-C3404… 2014 First Quarter   9238
#>  2 2014-01-07 Aggregated Individu…      2 EMPLOYEES POLITICAL… STA-C3404… 2014 First Quarter   9226
#>  3 2014-05-09 Aggregated Individu…      2 EMPLOYEES POLITICAL… STA-C3404… 2014 Second Quarter  9207
#>  4 2014-03-06 Aggregated Individu…      2 EMPLOYEES POLITICAL… STA-C3404… 2014 First Quarter   9204
#>  5 2014-06-04 Aggregated Individu…      2 EMPLOYEES POLITICAL… STA-C3404… 2014 Second Quarter  9182
#>  6 2014-04-04 Aggregated Individu…      2 EMPLOYEES POLITICAL… STA-C3404… 2014 First Quarter   9151
#>  7 2014-06-30 Aggregated Individu…      2 EMPLOYEES POLITICAL… STA-C3404… 2014 Second Quarter  9070
#>  8 2013-12-05 Aggregated Individu…      2 EMPLOYEES POLITICAL… STA-C3404… 2013 Year End Semi…  9005
#>  9 2014-08-05 Aggregated Individu…      2 EMPLOYEES POLITICAL… STA-C3404… 2014 Third Quarter   8932
#> 10 2013-11-05 Aggregated Individu…      2 EMPLOYEES POLITICAL… STA-C3404… 2013 Year End Semi…  8854
#> # … with 254,623 more rows
```
…
    #> [1] 760
    #> # A tibble: 312 x 5
    #>    con_state_norm con_zip_norm con_city_swap con_city_refine     n
    #>    <chr>          <chr>        <chr>         <chr>           <int>
    #>  1 NC             27526        FUQAUYVARINA  FUQUAY VARINA      49
    #>  2 NC             27214        BROWN SUMMITT BROWNS SUMMIT      33
    #>  3 NC             27522        CREEDMORE     CREEDMOOR          25
    #>  4 CA             95825        SACRAMANETO   SACRAMENTO         23
    #>  5 CA             94025        MANELO PARK   MENLO PARK         18
    #>  6 NC             28349        KEANESVILLE   KENANSVILLE        18
    #>  7 TX             76039        USLESS        EULESS             16
    #>  8 NC             28117        MORRISVILLE   MOORESVILLE        14
    #>  9 NC             28303        FAYETEVIILE   FAYETTEVILLE       13
    #> 10 IL             60197        CORAL STREAM  CAROL STREAM       11
    #> # … with 302 more rows
…
