…
``` r
count(aklr, state_region, state_region_norm, sort = TRUE)
#> # A tibble: 22 × 3
#>    state_region         state_region_norm     n
#>    <chr>                <chr>             <int>
#>  1 Alaska               AK                 6432
#>  2 Washington           WA                   91
#>  3 Oregon               OR                   85
#>  4 California           CA                   56
#>  5 <NA>                 <NA>                 45
#>  6 District of Columbia DC                   34
#>  7 Colorado             CO                   21
#>  8 Texas                TX                   14
#>  9 Utah                 UT                    9
#> 10 New York             NY                    6
#> # … with 12 more rows
```
…
