…
``` r
txl <- txl %>% flag_na(lob_name, pri_name)
percent(mean(txl$na_flag), 0.1)
#> [1] "1.4%"
```

``` r
txl %>% 
  filter(na_flag) %>% 
  select(lob_name, pri_name) %>% 
  sample_frac()
#> # A tibble: 561 x 2
#>    lob_name                 pri_name
#>    <chr>                    <chr>   
#>  1 Reed, Megan              <NA>    
#>  2 McMahon, Sukyi           <NA>    
#>  3 Chepkauskas, Dan         <NA>    
#>  4 Newton, Chris            <NA>    
#>  5 Levy, Richard            <NA>    
#>  6 Migliaro, Alyse          <NA>    
#>  7 Ballew, Joel D.          <NA>    
#>  8 Thompson III, John David <NA>    
#>  9 Rotkoff, Jeffre W.       <NA>    
#> 10 Colburn, Stuart          <NA>    
#> # … with 551 more rows
```
…
``` r
txl <- flag_dupes(txl, everything(), .check = TRUE)
percent(mean(txl$dupe_flag), 0.1)
#> [1] "4.0%"
```

``` r
txl %>% 
  filter(dupe_flag) %>% 
  select(lob_name, pri_name, begin, stop, na_flag) %>% 
  arrange(lob_name)
#> # A tibble: 1,561 x 5
#>    lob_name          pri_name begin      stop       na_flag
#>    <chr>             <chr>    <date>     <date>     <lgl>  
#>  1 Aguilar, Leonard  <NA>     NA         NA         TRUE   
#>  2 Aguilar, Leonard  <NA>     NA         NA         TRUE   
#>  3 Aleman, Steven R. <NA>     NA         NA         TRUE   
#>  4 Aleman, Steven R. <NA>     NA         NA         TRUE   
#>  5 Aleman, Steven R. <NA>     NA         NA         TRUE   
#>  6 Aleman, Steven R. <NA>     NA         NA         TRUE   
#>  7 Aleman, Steven R. <NA>     NA         NA         TRUE   
#>  8 Alvarado, Aidan   <NA>     NA         NA         TRUE   
#>  9 Alvarado, Aidan   <NA>     NA         NA         TRUE   
#> 10 Alvarado, Aidan   <NA>     NA         NA         TRUE   
#> # … with 1,551 more rows
```
…
