…
``` r
mac %>%
  filter(state != state_norm) %>%
  count(state, sort = TRUE)
#> # A tibble: 126 x 2
#>    state     n
#>    <chr> <int>
#>  1 ma     2047
#>  2 Ma     1674
#>  3 nh      211
#>  4 ri      165
#>  5 ct      163
#>  6 Fl      146
#>  7 ny      116
#>  8 ca      105
#>  9 Ca       89
#> 10 fl       78
#> # … with 116 more rows
```
…
    y = zipcodes,
    by = c(
      "city_refine" = "city",
      "state_norm" = "state",
      "zip_norm" = "zip"
    )
  ) %>% 
  select(
    id, 
    city_swap, 
    city_refine
  )
```

    #> # A tibble: 106 x 3
    #>    city_swap         city_refine         n
    #>    <chr>             <chr>           <int>
    #>  1 SO BOSTON         BOSTON            284
    #>  2 LITTLETON COMPTON LITTLE COMPTON     18
    #>  3 NO DARTHMOUTH     NORTH DARTMOUTH    17
    #>  4 CINCINATTI        CINCINNATI         15
    #>  5 NEW YORK NY       NEW YORK            8
    #>  6 NORTH HAMPTON     NORTHAMPTON         6
    #>  7 SAN FRANSICO      SAN FRANCISCO       6
    #>  8 CENTER FALLS      CENTRAL FALLS       4
    #>  9 MARRIETA          MARIETTA            4
    #> 10 MARSHFIELD HILLS  MARSHFIELD          4
    #> # … with 96 more rows
…
