…
We can use `campfin::flag_dupes()` to create a new `dupe_flag` logical
variable, identifying every duplicate row *after* the initial occurance.

``` r
ne_exp <- flag_dupes(ne_exp)
sum(ne_exp$dupe_flag)
#> [1] 648
```

``` r
filter(ne_exp, dupe_flag)
```

    #> # A tibble: 648 x 26
    #>    committee_id date_received payee_name payee_address expenditure_pur… expenditure_date amount
    #>    <chr>        <date>        <chr>      <chr>         <chr>            <date>           <chr> 
    #>  1 99BQC00032   1999-07-01    AMERICANS… 504 E. MADIS… <NA>             1999-06-01       <NA>  
    #>  2 99BQC00032   1999-07-01    AMERICANS… 504 E. MADIS… <NA>             1999-06-03       <NA>  
    #>  3 99BQC00032   1999-07-01    AMERICANS… 811 SOUTH 13… <NA>             1999-06-29       <NA>  
    #>  4 99BQC00032   1999-07-01    COALITION… BOX 587,      <NA>             1999-06-03       <NA>  
    #>  5 99BQC00032   1999-07-01    COALITION… BOX 587,      <NA>             1999-06-07       <NA>  
    #>  6 99BQC00032   1999-10-05    AMERICANS… 811 SOUTH 13… <NA>             1999-09-13       <NA>  
    #>  7 99BQC00038   2000-04-11    BARNHART … 2600 Farnam … <NA>             2000-03-20       <NA>  
    #>  8 99BQC00038   2000-04-11    BASS & AS… 2027 DODGE S… <NA>             2000-03-01       <NA>  
    #>  9 99BQC00038   2000-04-11    COX JOHNS… 440 REGENCY … <NA>             2000-03-23       <NA>  
    #> 10 99BQC00038   2000-04-11    DAYSPRING… 8982 J ST, O… <NA>             2000-03-16       <NA>  
    #> # … with 638 more rows, and 19 more variables: in_kind <chr>, committee_payee_id <chr>,
    #> #   support_oppose <chr>, nature_of_expenditure <chr>, description <chr>, line_id <chr>,
    #> #   committee_payee_name <chr>, committee_address <chr>, committee_city <chr>,
    #> #   committee_state <chr>, committee_zip <chr>, committee_type <chr>, expense_category <chr>,
    #> #   oppose_clean <lgl>, amount_clean <dbl>, inkind_clean <lgl>, payee_name_clean <chr>,
    #> #   na_flag <lgl>, dupe_flag <lgl>
…
