…
``` r
dupes <- read_lines(dupe_tar)
dupes[1] <- "0"
dupes <- as.logical(as.integer(dupes[-length(dupes)]))
if (sum(dupes, na.rm = TRUE) > 1) {
  percent(mean(dupes), 0.1)
  utc <- mutate(utc, dupe_flag = dupes)
  utc %>% 
    filter(dupe_flag) %>% 
    select(id, date, agency, amount, vendor_name)
} else {
  file_delete(dupe_file)
  message("no duplicates")
}
#> # A tibble: 3,583,984 x 5
#>    id        date       agency                           amount vendor_name                 
#>    <chr>     <date>     <chr>                             <dbl> <chr>                       
#>  1 556564233 2017-05-04 DOH Disease Control & Prevention   39.5 SUMMIT PHYSICIAN SPECIALISTS
#>  2 556564235 2017-05-04 DOH Disease Control & Prevention   39.5 SUMMIT PHYSICIAN SPECIALISTS
#>  3 556564237 2017-05-04 DOH Disease Control & Prevention   37.2 SUMMIT PHYSICIAN SPECIALISTS
#>  4 556564239 2017-05-04 DOH Disease Control & Prevention   37.2 SUMMIT PHYSICIAN SPECIALISTS
#>  5 556564264 2017-05-04 DOH Disease Control & Prevention   37.2 SUMMIT PHYSICIAN SPECIALISTS
#>  6 556564266 2017-05-04 DOH Disease Control & Prevention   34.4 SUMMIT PHYSICIAN SPECIALISTS
#>  7 556564268 2017-05-04 DOH Disease Control & Prevention   39.5 SUMMIT PHYSICIAN SPECIALISTS
#>  8 556564269 2017-05-04 DOH Disease Control & Prevention   49.0 SUMMIT PHYSICIAN SPECIALISTS
#>  9 556564271 2017-05-04 DOH Disease Control & Prevention   35.0 SUMMIT PHYSICIAN SPECIALISTS
#> 10 556564273 2017-05-04 DOH Disease Control & Prevention   49.0 SUMMIT PHYSICIAN SPECIALISTS
#> # … with 3,583,974 more rows
…
``` r
percent(mean(utc$amount < 0), 0.1)
#> [1] "7.6%"
```

Most of the negative values are from purchasing cards. Negative values
sometimes represent corrections or deletions. We will leave them as-is.

``` r
utc %>% 
  filter(amount < 0) %>%
  count(description, sort = TRUE) %>% 
  add_prop()
#> # A tibble: 555 x 3
#>    description                                                n      p
#>    <chr>                                                  <int>  <dbl>
#>  1 Purchasing Card Current Expenses                      814994 0.369 
#>  2 Payroll Cost Additive-Indirect Costs                   94919 0.0430
#>  3 Payroll Cost Additive-Paid Leave Used                  58938 0.0267
#>  4 Unemployment & Workers Compensation Insurance          48383 0.0219
#>  5 FICA/Medicare                                          48067 0.0218
#>  6 Health, Dental, Life & Long-Term Disability Insurance  46860 0.0212
#>  7 State Retirement                                       46379 0.0210
#>  8 Cancellation                                           42911 0.0194
#>  9 State Leave Pool                                       42299 0.0192
#> 10 Leave Paid                                             32392 0.0147
#> # … with 545 more rows
```
…
