…
``` r
ide <- ide %>% 
  mutate_at(.vars = vars(ends_with('address')),
            .funs = list(norm = ~ normal_address(address = .,
      abbs = usps_city,
      na_rep = TRUE)))
```

``` r
ide %>% 
  select(contains("address")) %>% 
  distinct() %>% 
  sample_frac()
#> # A tibble: 40,312 × 4
#>    from_address                        to_address             from_address_norm             to_ad…¹
#>    <chr>                               <chr>                  <chr>                         <chr>  
#>  1 1525 Big Salmon Rd                  410 Terry Avenue North 1525 BIG SALMON RD            410 TE…
#>  2 3313 W. Cherry Lane, #433           4224 W.Fairmont St.    3313 W CHERRY LANE #433       4224 W…
#>  3 1953 E Grandview Dr.                1601 Willow Road       1953 E GRANDVIEW DR           1601 W…
#>  4 9613 Lincoln Road                   133 N Citrus Ste.202   9613 LINCOLN ROAD             133 N …
#>  5 1235 Kinghorn Rd Pocatello ID 83201 123 N Main St.         1235 KINGHORN RD POCATELLO I… 123 N …
#>  6 105 Vermeer Dr Box 131              477181 N.Hwy 95        105 VERMEER DR BOX 131        477181…
#>  7 505 E Croy St                       410 Terry Ave N        505 E CROY ST                 410 TE…
#>  8 PO Box 131                          1 Facebook Way         PO BOX 131                    1 FACE…
#>  9 2111 2nd St S                       1115 W Grove St        2111 2ND ST SOUTH             1115 W…
#> 10 7609 Paddock Lane                   313 D St,Suite100      7609 PADDOCK LANE             313 D …
#> # … with 40,302 more rows, and abbreviated variable name ¹​to_address_norm
```
…
