…
We can flag any record completely duplicated across every column.

``` r
chis <- flag_dupes(chis, everything())
sum(chis$dupe_flag)
#> [1] 36
```

``` r
chis %>% 
  filter(dupe_flag) %>% 
  select(1:3) %>% 
  arrange(name)
#> # A tibble: 36 × 3
#>    name                 job_titles          department              
#>    <chr>                <chr>               <chr>                   
#>  1 ARREDONDO, TIMOTHY J ELECTRICAL MECHANIC DEPT OF WATER MANAGEMENT
#>  2 ARREDONDO, TIMOTHY J ELECTRICAL MECHANIC DEPT OF WATER MANAGEMENT
#>  3 FLORES, GABRIEL      SERGEANT            DEPARTMENT OF POLICE    
#>  4 FLORES, GABRIEL      SERGEANT            DEPARTMENT OF POLICE    
#>  5 GARCIA, DAVID        POLICE OFFICER      DEPARTMENT OF POLICE    
#>  6 GARCIA, DAVID        POLICE OFFICER      DEPARTMENT OF POLICE    
#>  7 GONZALEZ, JOEL       POLICE OFFICER      DEPARTMENT OF POLICE    
#>  8 GONZALEZ, JOEL       POLICE OFFICER      DEPARTMENT OF POLICE    
#>  9 GUTIERREZ, JOSE      POLICE OFFICER      DEPARTMENT OF POLICE    
#> 10 GUTIERREZ, JOSE      POLICE OFFICER      DEPARTMENT OF POLICE    
#> # … with 26 more rows
```
…
