…
## Wrangle

To improve the searchability and consistency of the database, we can
perform some very basic and confident text normalization.

### Phone

We can convert the phone numbers into a standard charatcer (i.e.,
non-numeric) format.

``` r
milr <- mutate(milr, phone_norm = normal_phone(phone))
```

    #> # A tibble: 3,787 x 2
    #>    phone      phone_norm    
    #>    <chr>      <chr>         
    #>  1 3177687078 (317) 768-7078
    #>  2 3126517932 (312) 651-7932
    #>  3 2486452000 (248) 645-2000
    #>  4 8109873101 (810) 987-3101
    #>  5 2123763112 (212) 376-3112
    #>  6 7038718500 (703) 871-8500
    #>  7 5174841525 (517) 484-1525
    #>  8 2485590840 (248) 559-0840
    #>  9 8006764065 (800) 676-4065
    #> 10 5187962769 (518) 796-2769
    #> # … with 3,777 more rows

### Address

We can use `campfin::normal_address()` to improve the consistency in the
`addr`
variable.

``` r
milr <- mutate(milr, addr_norm = normal_address(addr, abbs = usps_street))
```

    #> # A tibble: 4,553 x 2
    #>    addr                                            addr_norm                                       
    #>    <chr>                                           <chr>                                           
    #>  1 7031 ORCHARD LAKE RD STE 105                    7031 ORCHARD LAKE ROAD SUITE 105                
    #>  2 110 W MICHIGAN AVE SUITE 700                    110 WEST MICHIGAN AVENUE SUITE 700              
    #>  3 ONE KELLOGG SQUARE 5S                           ONE KELLOGG SQUARE 5S                           
    #>  4 2164 COMMONS PKWY %MI ACADEMY OF FMLY PHYSICIA… 2164 COMMONS PARKWAY MI ACADEMY OF FMLY PHYSICI…
    #>  5 1118 E CHAMBERS ST                              1118 EAST CHAMBERS STREET                       
    #>  6 11727 FRUEHAUF DR % DEANNA DUKE                 11727 FRUEHAUF DRIVE DEANNA DUKE                
    #>  7 8118 CUTLER RD                                  8118 CUTLER ROAD                                
    #>  8 110 W MICHIGAN AVE, STE 1200                    110 WEST MICHIGAN AVENUE SUITE 1200             
    #>  9 301 ARMSTRONG RD ATTN: JACK BRUSEWITZ           301 ARMSTRONG ROAD ATTN JACK BRUSEWITZ          
    #> 10 2591 ALDEN COURT                                2591 ALDEN COURT                                
    #> # … with 4,543 more rows

### ZIP

``` r
milr <- mutate(milr, zip_norm = normal_zip(zip, na_rep = TRUE))
```

    #> # A tibble: 1,361 x 2
    #>    zip       zip_norm
    #>    <chr>     <chr>   
    #>  1 33308     33308   
    #>  2 48179     48179   
    #>  3 97415     97415   
    #>  4 28217     28217   
    #>  5 48309     48309   
    #>  6 75201     75201   
    #>  7 49707     49707   
    #>  8 46410     46410   
    #>  9 488643986 48864   
    #> 10 33408     33408   
    #> # … with 1,351 more rows
…
