…
We can flag any record missing a key variable.

``` r
key_vars <- c("business_name", "lender", "date_approved", "loan_amount")
ppp <- flag_na(ppp, all_of(key_vars))
```

There are 86 records missing mostly the business name.

``` r
ppp %>% 
  filter(na_flag) %>% 
  select(all_of(key_vars))
#> # A tibble: 86 x 4
#>    business_name lender                          date_approved loan_amount
#>    <chr>         <chr>                           <date>              <dbl>
#>  1 <NA>          Kabbage, Inc.                   2020-06-03          6003 
#>  2 <NA>          Ameris Bank                     2020-07-23          5000 
#>  3 <NA>          Fresno First Bank               2020-04-28         70430 
#>  4 <NA>          NCMIC Finance Corporation       2020-08-04         20832 
#>  5 <NA>          U.S. Bank, National Association 2020-05-01         20832 
#>  6 <NA>          First Bank                      2020-07-23         16956.
#>  7 <NA>          Cross River Bank                2020-05-01         14720 
#>  8 <NA>          WebBank                         2020-05-01          8797 
#>  9 <NA>          Cross River Bank                2020-06-28          5587 
#> 10 <NA>          MBE Capital Partners            2020-08-03          5100 
#> # … with 76 more rows
```
…
We can see that, despite unique IDs, there are duplicate voters. All of
these apparent duplicates are missing many of the key values needed to
identify a record.

``` r
ppp %>% 
  filter(dupe_flag) %>% 
  select(all_of(key_vars), state)
#> # A tibble: 99 x 5
#>    business_name             lender                                 date_approved loan_amount state
#>    <chr>                     <chr>                                  <date>              <dbl> <chr>
#>  1 ADVANCED PODIATRY         Wells Fargo Bank, National Association 2020-05-01          24343 AZ   
#>  2 ADVANCED PODIATRY         Wells Fargo Bank, National Association 2020-05-01          24343 AZ   
#>  3 YOLANDAFOGLE              Glacier Bank                           2020-05-02          21700 AZ   
#>  4 YOLANDAFOGLE              Glacier Bank                           2020-05-02          21700 AZ   
#>  5 CENTRAL ENDODONTICS INC   Wells Fargo Bank, National Association 2020-05-01          56208 CA   
#>  6 CENTRAL ENDODONTICS INC   Wells Fargo Bank, National Association 2020-05-01          56208 CA   
#>  7 LA PRECIOSA MARKET        Customers Bank                         2020-04-30          21224 CA   
#>  8 LA PRECIOSA MARKET        Customers Bank                         2020-04-30          21224 CA   
#>  9 LAW OFFICE OF L AARON LEE Wells Fargo Bank, National Association 2020-05-01          10953 CA   
#> 10 LAW OFFICE OF L AARON LEE Wells Fargo Bank, National Association 2020-05-01          10953 CA   
#> # … with 89 more rows
```
…
### State

The `state` variable is also entirely clean, aside from two values.

For these values of “XX” with a valid `zip` variable, we can use the
matched state abbreviation instead.

``` r
ppp %>% 
  filter(state %out% valid_state) %>% 
  count(state, zip, city, sort = TRUE) %>% 
  left_join(zipcodes, by = "zip")
#> # A tibble: 29 x 6
#>    state.x zip   city.x            n city.y        state.y
#>    <chr>   <chr> <chr>         <int> <chr>         <chr>  
#>  1 <NA>    <NA>  <NA>            138 <NA>          <NA>   
#>  2 FI      33069 Pompano Beach     1 POMPANO BEACH FL     
#>  3 <NA>    01776 SUDBURY           1 SUDBURY       MA     
#>  4 <NA>    07005 BOONTON           1 BOONTON       NJ     
#>  5 <NA>    11501 MINEOLA           1 MINEOLA       NY     
#>  6 <NA>    11753 JERICHO           1 JERICHO       NY     
#>  7 <NA>    27410 GREENSBORO        1 GREENSBORO    NC     
#>  8 <NA>    29078 LUGOFF            1 LUGOFF        SC     
#>  9 <NA>    29102 Manning           1 MANNING       SC     
#> 10 <NA>    29150 Sumter            1 SUMTER        SC     
#> # … with 19 more rows
```
…
      key_collision_merge() %>% 
      n_gram_merge(numgram = 1)
  ) %>% 
  filter(city_refine != city_swap) %>% 
  inner_join(
    y = zipcodes,
    by = c(
      "city_refine" = "city",
      "state_norm" = "state",
      "zip" = "zip"
    )
  )
```

    #> # A tibble: 824 x 5
    #>    state_norm zip   city_swap              city_refine        n
    #>    <chr>      <chr> <chr>                  <chr>          <int>
    #>  1 SC         29406 NORTH CHARLESTON       CHARLESTON       416
    #>  2 NY         11733 SETAUKET               EAST SETAUKET     96
    #>  3 CA         90292 MARINA DALE REY        MARINA DEL REY    93
    #>  4 NY         11733 SETAUKET EAST SETAUKET EAST SETAUKET     32
    #>  5 CA         92625 CORONA DALE MAR        CORONA DEL MAR    29
    #>  6 IN         46184 NEW WHITELAND          WHITELAND         18
    #>  7 IL         60429 EAST HAZEL CREST       HAZEL CREST       15
    #>  8 HI         96813 HONOLULULULU           HONOLULU           6
    #>  9 IL         60067 PALENTINE              PALATINE           6
    #> 10 HI         96813 HONOLULUNOLULU         HONOLULU           5
    #> # … with 814 more rows
…
