…
If we ignore the supposedly (quasi) unique `id` variable, there are a
number of otherwise completely duplicated records. We can flag them with
`campfin::flag_na()`

``` r
mec <- flag_dupes(mec, -id)
percent(mean(mec$dupe_flag), 0.01)
#> [1] "2.45%"
```

``` r
mec %>% 
  filter(dupe_flag) %>% 
  select(date, contributor, amount, recipient)
#> # A tibble: 9,132 x 4
#>    date       contributor amount recipient                
#>    <date>     <chr>        <dbl> <chr>                    
#>  1 2008-01-11 <NA>            25 Ms. Denise Anne Tepler   
#>  2 2008-01-11 <NA>            50 Ms. Denise Anne Tepler   
#>  3 2008-01-11 <NA>            25 Ms. Denise Anne Tepler   
#>  4 2008-01-11 <NA>            50 Ms. Denise Anne Tepler   
#>  5 2008-01-11 <NA>            25 Ms. Denise Anne Tepler   
#>  6 2008-01-20 <NA>            50 Ms. Denise Anne Tepler   
#>  7 2008-01-20 <NA>            50 Ms. Denise Anne Tepler   
#>  8 2008-01-27 <NA>            25 Mr. Ronald J McAllister  
#>  9 2008-01-27 <NA>            25 Mr. Ronald J McAllister  
#> 10 2008-01-29 <NA>            50 Senator Philip L Bartlett
#> # … with 9,122 more rows
```
…
``` r
mec %>% 
  filter(state != state_norm) %>% 
  count(state, state_norm, sort = TRUE)
#> # A tibble: 35 x 3
#>    state state_norm     n
#>    <chr> <chr>      <int>
#>  1 Me    ME            41
#>  2 me    ME            21
#>  3 Ma    MA            17
#>  4 Va    VA            10
#>  5 Fl    FL             9
#>  6 ma    MA             7
#>  7 Ct    CT             6
#>  8 dC    DC             5
#>  9 Pa    PA             5
#> 10 Ca    CA             4
#> # … with 25 more rows
```
…
    #> [1] 126
    #> # A tibble: 68 x 5
    #>    state_norm zip_norm city_swap              city_refine       n
    #>    <chr>      <chr>    <chr>                  <chr>         <int>
    #>  1 AP         96319    APO AP                 APO              12
    #>  2 NY         11733    SETAUKET               EAST SETAUKET    11
    #>  3 NY         11201    BROOKLYN NY            BROOKLYN          8
    #>  4 ME         04928    CORRINA                CORINNA           6
    #>  5 OH         45206    CINCINATTI             CINCINNATI        6
    #>  6 ME         04046    KENNEBUNUNKPORT        KENNEBUNKPORT     5
    #>  7 ME         04074    SCAROBOURGH            SCARBOROUGH       4
    #>  8 MI         48640    MIDLAND MI             MIDLAND           3
    #>  9 NY         11733    SETAUKET EAST SETAUKET EAST SETAUKET     3
    #> 10 AZ         85027    PHONIEX                PHOENIX           2
    #> # … with 58 more rows
…
``` r
mec <- mec %>% 
  left_join(good_refine) %>% 
  mutate(city_refine = coalesce(city_refine, city_swap))
```

#### Progress

``` r
many_city <- c(valid_city, extra_city)
mec %>% 
  filter(city_refine %out% many_city) %>% 
  count(city_refine, state_norm, sort = TRUE)
#> # A tibble: 1,034 x 3
#>    city_refine         state_norm     n
#>    <chr>               <chr>      <int>
#>  1 <NA>                <NA>       13285
#>  2 <NA>                ME         13059
#>  3 ARROWSIC            ME           400
#>  4 WEST BATH           ME           285
#>  5 VEAZIE              ME           242
#>  6 WESTPORT ISLAND     ME           147
#>  7 CARRABASSETT VALLEY ME           106
#>  8 ABBOTT PARK         IL            91
#>  9 CHINA VILLAGE       ME            83
#> 10 OTISFIELD           ME            80
#> # … with 1,024 more rows
```
…
