…
``` r
key_vars <- c("date", "payee_name", "amount", "comm_name")
fle <- flag_na(fle, all_of(key_vars))
sum(fle$na_flag)
#> [1] 62
```

A few hundred records are missing a `payee_name`.

``` r
fle %>% 
  filter(na_flag) %>% 
  select(all_of(key_vars), city_state_zip) %>% 
  relocate(city_state_zip, .after = payee_name)
#> # A tibble: 62 × 5
#>    date       payee_name city_state_zip amount comm_name                                    
#>    <date>     <chr>      <chr>           <dbl> <chr>                                        
#>  1 2008-03-18 <NA>       ", FL 32302"        0 Lake County Education Association Tiger (CCE)
#>  2 2008-03-20 <NA>       ",  "               0 Florida Cattle PAC (CCE)                     
#>  3 2008-04-10 <NA>       ",  "               0 Greater Pinellas Democratic Club CCE (CCE)   
#>  4 2008-07-22 <NA>       ", FL 34748"        0 Lake County Education Association Tiger (CCE)
#>  5 2008-08-12 <NA>       ", FL 32778"        0 Lake County Education Association Tiger (CCE)
#>  6 2008-08-12 <NA>       ", FL 34788"        0 Lake County Education Association Tiger (CCE)
#>  7 2008-08-12 <NA>       ", ND 34731"        0 Lake County Education Association Tiger (CCE)
#>  8 2008-08-12 <NA>       ", FL 32778"        0 Lake County Education Association Tiger (CCE)
#>  9 2008-08-28 <NA>       ", FL 34731"        0 Lake County Education Association Tiger (CCE)
#> 10 2008-08-28 <NA>       ", FL 32778"        0 Lake County Education Association Tiger (CCE)
#> # ℹ 52 more rows
```
…
2.19% of records are duplicated at least once.

``` r
fle %>% 
  filter(dupe_flag) %>% 
  select(all_of(key_vars)) %>% 
  arrange(payee_name, amount)
#> # A tibble: 27,405 × 4
#>    date       payee_name     amount comm_name                       
#>    <date>     <chr>           <dbl> <chr>                           
#>  1 2021-09-15 .COM, AMAZON     16   Leadership in Action (PAC)      
#>  2 2021-09-15 .COM, AMAZON     16   Leadership in Action (PAC)      
#>  3 2022-02-11 .COM, AMAZON     64.2 Leadership in Action (PAC)      
#>  4 2022-02-11 .COM, AMAZON     64.2 Leadership in Action (PAC)      
#>  5 2021-09-07 .COM, BROADWAY  510.  Leadership in Action (PAC)      
#>  6 2021-09-07 .COM, BROADWAY  510.  Leadership in Action (PAC)      
#>  7 2018-07-23 .COM, CALLFIRE   75   Porter, Jeffrey Duane (DEM)(AGR)
#>  8 2018-07-23 .COM, CALLFIRE   75   Porter, Jeffrey Duane (DEM)(AGR)
#>  9 2018-07-23 .COM, CALLFIRE   75   Porter, Jeffrey Duane (DEM)(AGR)
#> 10 2018-07-27 .COM, CALLFIRE   75   Porter, Jeffrey Duane (DEM)(AGR)
#> # ℹ 27,395 more rows
```

``` r
fle %>% 
  filter(dupe_flag) %>% 
  select(all_of(key_vars)) %>% 
  count(payee_name, amount, comm_name, sort = TRUE)
#> # A tibble: 7,910 × 4
#>    payee_name                amount comm_name                                          n
#>    <chr>                      <dbl> <chr>                                          <int>
#>  1 HANCOCK BANK               20    Florida Democratic Legislative Campaign  (PAP)   612
#>  2 GOOGLE                    500    Crist, Charlie  (DEM)(GOV)                       370
#>  3 RAISE THE MONEY             1.25 Hardy, Omari  (DEM)(STR)                         314
#>  4 ANEDOT, INC.                4.3  Zhao, Mike  (REP)(STR)                           214
#>  5 VIP TRAVEL AND TOURS, INC  35    Crist, Charlie  (DEM)(GOV)                       184
#>  6 ANEDOT, INC.                2.3  Zhao, Mike  (REP)(STR)                           180
#>  7 RAISE THE MONEY             0.65 Hardy, Omari  (DEM)(STR)                         173
#>  8 HANCOCK BANK               30    Florida Democratic Legislative Campaign  (PAP)   155
#>  9 SUNTRUST BANK              10    Gillum, Andrew  (DEM)(GOV)                       136
#> 10 BANK OF AMERICA             3    Amendment 2 is for Everybody (PAC)               135
#> # ℹ 7,900 more rows
```
…
      key_collision_merge() %>% 
      n_gram_merge(numgram = 1)
  ) %>% 
  filter(city_refine != city_swap) %>% 
  inner_join(
    y = zipcodes,
    by = c(
      "city_refine" = "city",
      "state_norm" = "state",
      "zip_norm" = "zip"
    )
  )
```

    #> # A tibble: 253 × 5
    #>    state_norm zip_norm city_swap          city_refine            n
    #>    <chr>      <chr>    <chr>              <chr>              <int>
    #>  1 OH         45249    CINCINATTI         CINCINNATI            56
    #>  2 FL         32223    JACKONSVILLE       JACKSONVILLE          39
    #>  3 FL         32043    COVE SPRINGS       GREEN COVE SPRINGS    25
    #>  4 FL         33606    TAMPAPA            TAMPA                 22
    #>  5 OH         45274    CINCINATTI         CINCINNATI            18
    #>  6 CA         94103    SAN FRANSCISO      SAN FRANCISCO         13
    #>  7 FL         32082    PONTE VERDE BEACH  PONTE VEDRA BEACH     13
    #>  8 FL         33126    MIAMIMI            MIAMI                  9
    #>  9 FL         32082    PONTE VERDRE BEACH PONTE VEDRA BEACH      8
    #> 10 FL         33584    SNEFFER            SEFFNER                8
    #> # ℹ 243 more rows
…
