…
``` r
mic <- mic %>% flag_na(expire, agency, amount, vendor)
sum(mic$na_flag)
#> [1] 545
```

``` r
mic %>% 
  filter(na_flag) %>% 
  select(expire, agency, amount, vendor)
#> # A tibble: 545 x 4
#>    expire     agency                                          amount vendor
#>    <date>     <chr>                                            <dbl> <chr> 
#>  1 2022-07-31 Department Of State                              43348 <NA>  
#>  2 2022-05-31 Department Of State                              40998 <NA>  
#>  3 2023-04-20 Michigan Department of Transportation           225875 <NA>  
#>  4 2023-04-19 Michigan Department of Transportation           351765 <NA>  
#>  5 2023-04-19 Michigan Department of Transportation           170100 <NA>  
#>  6 2020-09-30 Michigan State Police                           134940 <NA>  
#>  7 2020-11-15 Department of Agriculture and Rural Development 204915 <NA>  
#>  8 2020-08-15 Michigan Department of Treasury                 200000 <NA>  
#>  9 2020-07-10 Department Technology, Management and Budget    490000 <NA>  
#> 10 2023-04-23 Department of Natural Resources                  50000 <NA>  
#> # … with 535 more rows
```
…
``` r
count(mic, agency, sort = TRUE)
#> # A tibble: 23 x 2
#>    agency                                               n
#>    <chr>                                            <int>
#>  1 Michigan Department of Transportation              207
#>  2 Department Technology, Management and Budget       156
#>  3 Michigan Department of Health and Human Services   144
#>  4 Michigan Department of Corrections                 134
#>  5 Department of Natural Resources                    130
#>  6 Statewide                                          118
#>  7 Multiple                                            91
#>  8 Department of Military and Veterans Affairs         86
#>  9 Department Of State                                 78
#> 10 Michigan Department of Education                    67
#> # … with 13 more rows
```
…
