…
For purchase orders, almost half the agency names are simply “STATEWIDE
CONTRACT” but the `po_agency_name` variable contains useful information.

``` r
arc %>% 
  filter(str_detect(file, "order")) %>% 
  count(agency, po_agency_name, sort = TRUE) %>% 
  mutate(p = n/sum(n))
#> # A tibble: 144 × 4
#>    agency                        po_agency_name     n      p
#>    <chr>                         <chr>          <int>  <dbl>
#>  1 AR DEPT OF TRANSPORTATION     <NA>            5623 0.151 
#>  2 AR DEPT OF HUMAN SERVICES     <NA>            5317 0.143 
#>  3 STATEWIDE CONTRACT            <NA>            4055 0.109 
#>  4 AR DEPARTMENT OF HEALTH       <NA>            2718 0.0732
#>  5 DEPARTMENT OF CORRECTION      <NA>            1570 0.0423
#>  6 AR GAME AND FISH COMMISSION   <NA>            1243 0.0335
#>  7 DEPT OF PARKS AND TOURISM     <NA>            1213 0.0326
#>  8 STATE MILITARY DEPARTMENT     <NA>             971 0.0261
#>  9 DEPT OF ARKANSAS STATE POLICE <NA>             924 0.0249
#> 10 DFA - REVENUE SERVICES DIV    <NA>             815 0.0219
#> # … with 134 more rows
```

The `po_agency_name` variable is not present for main contracts, so we
will have to merge these two columns in some kind of meaningful way.

``` r
arc %>% 
  filter(str_detect(file, "contract")) %>% 
  count(agency, po_agency_name, sort = TRUE) %>% 
  mutate(p = n/sum(n))
#> # A tibble: 246 × 4
#>    agency                       po_agency_name                    n      p
#>    <chr>                        <chr>                         <int>  <dbl>
#>  1 STATEWIDE CONTRACT           AR DEPT OF HUMAN SERVICES     84116 0.219 
#>  2 STATEWIDE CONTRACT           DEPT OF COMMUNITY CORRECTION  57117 0.149 
#>  3 AR DEPT OF TRANSPORTATION    AR DEPT OF TRANSPORTATION     55742 0.145 
#>  4 STATEWIDE CONTRACT           DEPARTMENT OF CORRECTION      24373 0.0636
#>  5 STATEWIDE CONTRACT           DEPT OF PARKS AND TOURISM     18733 0.0489
#>  6 STATEWIDE CONTRACT           AR DEPARTMENT OF HEALTH       13056 0.0341
#>  7 AR DEPT OF HUMAN SERVICES    AR DEPT OF HUMAN SERVICES     10850 0.0283
#>  8 DEPARTMENT OF CORRECTION     DEPARTMENT OF CORRECTION       8713 0.0227
#>  9 DEPT OF COMMUNITY CORRECTION DEPT OF COMMUNITY CORRECTION   8494 0.0222
#> 10 STATEWIDE CONTRACT           DEPT OF ARKANSAS STATE POLICE  7133 0.0186
#> # … with 236 more rows
```
…
Turns out there are quite a few records with enormous difference between
the amount ordered and spent.

``` r
arc %>% 
  mutate(amount_dif = amount_spent - amount_ordered) %>% 
  select(agency, contains("amount"), material_group) %>% 
  arrange(amount_dif)
#> # A tibble: 82,888 × 5
#>    agency                    amount_ordered amount_spent amount_dif material_group                 
#>    <chr>                              <dbl>        <dbl>      <dbl> <chr>                          
#>  1 AR DEPARTMENT OF HEALTH        32500000      1239929. -31260071. MEDICAL AND LABORATORY SERVICE…
#>  2 AR DEPARTMENT OF HEALTH        32500000      1239929. -31260071. MEDICAL AND LABORATORY SERVICE…
#>  3 AR DEPARTMENT OF HEALTH        32605048.    13631296. -18973752. LABORATORY EQUIPMENT AND ACCES…
#>  4 AR DEPARTMENT OF HEALTH        17236033.        2442. -17233591. LABORATORY EQUIPMENT AND ACCES…
#>  5 AR DEPARTMENT OF HEALTH        17229928.           0  -17229928. LABORATORY EQUIPMENT AND ACCES…
#>  6 AR DEPT OF HUMAN SERVICES      53995650.    39294705. -14700944. DATA PROCESSING, COMPUTER, AND…
#>  7 STATEWIDE SHARED SERVICES      97508282.    86170055. -11338226. INSURANCE MANAGEMENT SERVICES  
#>  8 STATEWIDE SHARED SERVICES      53208077.    41869851. -11338226. INSURANCE MANAGEMENT SERVICES  
#>  9 AR DEPARTMENT OF HEALTH        52688300     42333137. -10355163. MISCELLANEOUS SERVICES         
#> 10 AR DEPARTMENT OF HEALTH        52688300     42333137. -10355163. MISCELLANEOUS SERVICES         
#> # … with 82,878 more rows

arc %>% 
  mutate(amount_dif = amount_spent - amount_ordered) %>% 
  select(agency, contains("amount"), material_group) %>% 
  arrange(desc(amount_dif))
#> # A tibble: 82,888 × 5
#>    agency                         amount_ordered amount_spent amount_dif material_group            
#>    <chr>                                   <dbl>        <dbl>      <dbl> <chr>                     
#>  1 DEPT OF EMERGENCY MANAGEMENT         6753376.     6818758      65382. DATA PROCESSING, COMPUTER…
#>  2 AR DEPARTMENT OF HEALTH              2275459.     2313930.     38471. HOSPITAL, SURGICAL, AND R…
#>  3 DEPT OF EMERGENCY MANAGEMENT         3376688.     3410379      33691. DATA PROCESSING, COMPUTER…
#>  4 DEPT OF EMERGENCY MANAGEMENT         3376688.     3410379      33691. DATA PROCESSING, COMPUTER…
#>  5 DEPT OF EMERGENCY MANAGEMENT         3376688.     3410379      33691. DATA PROCESSING, COMPUTER…
#>  6 DEPT OF EMERGENCY MANAGEMENT         3376688.     3408379      31691. DATA PROCESSING, COMPUTER…
#>  7 AR DEPT OF HUMAN SERVICES            2217417.     2231400.     13982. REAL PROPERTY RENTAL OR L…
#>  8 AR DEPT OF HUMAN SERVICES             436075.      450057.     13982. REAL PROPERTY RENTAL OR L…
#>  9 DEPT OF TRANSFORM & SHARED SVC        142500       155325      12825  FIRST AID AND SAFETY EQUI…
#> 10 ADMIN OFFICE OF THE COURTS            147290       159994.     12704. FURNITURE: OFFICE         
#> # … with 82,878 more rows
```
…
