…
We can flag any record missing a key variable needed to identify a
transaction.

``` r
key_vars <- c("date", "donor", "amount", "candidate")
prc <- flag_na(prc, all_of(key_vars))
mean(prc$na_flag)
#> [1] 0.007511306
```

``` r
prc %>% 
  filter(na_flag) %>% 
  select(all_of(key_vars))
#> # A tibble: 1,244 × 4
#>    date       donor amount candidate                    
#>    <date>     <chr>  <dbl> <chr>                        
#>  1 2014-03-29 <NA>  1540   ALEJANDRO GARCIA PADILLA     
#>  2 2015-03-15 <NA>    40   JAIME IRIZARRY DELGADO       
#>  3 2015-03-15 <NA>    40   JAIME IRIZARRY DELGADO       
#>  4 2014-11-28 <NA>  4200   CARLOS RODRIGUEZ RIVERA      
#>  5 2015-04-11 <NA>    30.2 MARTIN VARGAS MORALES        
#>  6 2015-03-01 <NA>   301.  ROLANDO CRESPO ARROYO        
#>  7 2015-05-02 <NA>    17   COMITE MUNICIPAL VILLALBA PNP
#>  8 2014-03-29 <NA>  4020   NORMAN RAMIREZ RIVERA        
#>  9 2015-03-14 <NA>   170   ROBERTO FELICIANO ROSADO     
#> 10 2015-04-14 <NA>    30   LUIS SOTO MORALES            
#> # … with 1,234 more rows
```
…
We can also flag any record completely duplicated across every column.

``` r
prc <- flag_dupes(prc, everything())
mean(prc$dupe_flag)
#> [1] 0.08786538
```

``` r
prc %>% 
  filter(dupe_flag) %>% 
  select(all_of(key_vars)) %>% 
  arrange(date)
#> # A tibble: 14,552 × 4
#>    date       donor                     amount candidate           
#>    <date>     <chr>                      <dbl> <chr>               
#>  1 2011-01-01 MARIO CORSINO CRUZ        1000   THOMAS RIVERA SCHATZ
#>  2 2011-01-01 MARIO CORSINO CRUZ        1000   THOMAS RIVERA SCHATZ
#>  3 2011-01-05 MAX PEREZ PRESTON          200   JORGE NAVARRO SUAREZ
#>  4 2011-01-05 MAX PEREZ PRESTON          200   JORGE NAVARRO SUAREZ
#>  5 2011-01-06 JORGE SUAREZ PEREZ-GUERRA   83.3 RAMON TORRES MORALES
#>  6 2011-01-06 JORGE SUAREZ PEREZ-GUERRA   83.3 RAMON TORRES MORALES
#>  7 2011-01-06 WALDEMAR VELEZ SILVAGNOLI   80   RAMON TORRES MORALES
#>  8 2011-01-06 WALDEMAR VELEZ SILVAGNOLI   80   RAMON TORRES MORALES
#>  9 2011-01-13 JULIO BRAVO SOLER         1000   JOSE CHICO VEGA     
#> 10 2011-01-13 JULIO BRAVO SOLER         1000   JOSE CHICO VEGA     
#> # … with 14,542 more rows
```
…
There is no state information but we can add the state associated with
each normalized `zip_code` value.

``` r
prc <- left_join(
  x = prc,
  y = zipcodes[, 2:3],
  by = c("zip_norm" = "zip")
)
```

``` r
prc <- rename(prc, state_match = state)
count(prc, state_match, sort = TRUE)
#> # A tibble: 53 × 2
#>    state_match      n
#>    <chr>        <int>
#>  1 PR          159302
#>  2 <NA>          3421
#>  3 FL             700
#>  4 NY             463
#>  5 TX             193
#>  6 DC             178
#>  7 NJ             166
#>  8 VA             157
#>  9 MD             117
#> 10 PA              95
#> # … with 43 more rows
```
…
