…
Finally, remove the intermediary combined variables.

``` r
fllr <- select(fllr, -ends_with("address_full"))
```

From this, we can see the kind of normalization that was performed.

    #> # A tibble: 1,697 x 3
    #>    lobby_address1           lobby_address2          lobby_address_norm                             
    #>    <chr>                    <chr>                   <chr>                                          
    #>  1 315 S Calhoun St         Ste 830                 315 SOUTH CALHOUN STREET SUITE 830             
    #>  2 601 South Lake Destiny … suite 200               601 SOUTH LAKE DESTINY ROAD SUITE 200          
    #>  3 State Board of Administ… 1801 Hermitage Blvd St… STATE BOARD OF ADMINISTRATION 1801 HERMITAGE B…
    #>  4 4365 N Andromeda Loop    315 Millican Hall       4365 NORTH ANDROMEDA LOOP 315 MILLICAN HALL    
    #>  5 6850 SW 24th Street      403                     6850 SOUTHWEST 24TH STREET 403                 
    #>  6 401 North Main Street    <NA>                    401 NORTH MAIN STREET                          
    #>  7 150 W University Blvd    <NA>                    150 WEST UNIVERSITY BOULEVARD                  
    #>  8 215 South Monroe Street  Suite 601               215 SOUTH MONROE STREET SUITE 601              
    #>  9 1319 Airport Dr          Apt. F4                 1319 AIRPORT DRIVE APARTMENT F4                
    #> 10 400 South Monroe         The Capitol Building    400 SOUTH MONROE THE CAPITOL BUILDING          
    #> # … with 1,687 more rows
…
### States

Below, we can see the inconsistency in `*_state` variable format.

``` r
fllr %>% 
  select(ends_with("state")) %>% 
  distinct() %>% 
  sample_frac()
#> # A tibble: 312 x 3
#>    lobby_state client_state firm_state
#>    <chr>       <chr>        <chr>     
#>  1 FL          florida      FL        
#>  2 FL          CA           Florida   
#>  3 FL          CA           FL        
#>  4 Florida     MD           FL        
#>  5 Florida     OH           FL        
#>  6 SW1A 1DH    SW1A 1DH     <NA>      
#>  7 LA          IL           LA        
#>  8 Florida     Florida      FL        
#>  9 Florida     MA           FL        
#> 10 DC          Virginia     DC        
#> # … with 302 more rows
```
…
``` r
fllr %>% 
  filter(client_city_swap %out% valid_city) %>% 
  count(client_city_norm, sort = TRUE)
#> # A tibble: 163 x 2
#>    client_city_norm       n
#>    <chr>              <int>
#>  1 CORAL GABLES         216
#>  2 SUNRISE              133
#>  3 MIAMI LAKES           95
#>  4 DORAL                 83
#>  5 HALLANDALE BEACH      77
#>  6 LAKE BUENA VISTA      72
#>  7 PALM BEACH GARDENS    61
#>  8 DC                    59
#>  9 COCONUT CREEK         53
#> 10 PLANTATION            53
#> # … with 153 more rows
```
…
