…
``` r
azl %>% 
  arrange(
    lob_lastname,
    desc(rep_year),
    ppb_name
  )
#> # A tibble: 31,028 x 19
#>    lob_id lob_lastname lob_firstname lob_phone lob_addr1 lob_addr2 lob_city lob_state lob_zip
#>    <chr>  <chr>        <chr>         <chr>     <chr>     <chr>     <chr>    <chr>     <chr>  
#>  1 36099… 5THIRTY5     <NA>          480-389-… PO BOX 1… <NA>      PHOENIX  AZ        85064- 
#>  2 36099… 5THIRTY5     <NA>          480-389-… PO BOX 1… <NA>      PHOENIX  AZ        85064- 
#>  3 36099… 5THIRTY5     <NA>          480-389-… PO BOX 1… <NA>      PHOENIX  AZ        85064- 
#>  4 31001… AARONS       BARRY M.      602-315-… 4315 N 1… SUITE 200 PHOENIX  AZ        85014- 
#>  5 31001… AARONS       BARRY M.      602-315-… 4315 N 1… SUITE 200 PHOENIX  AZ        85014- 
#>  6 31001… AARONS       BARRY M.      602-315-… 4315 N 1… SUITE 200 PHOENIX  AZ        85014- 
#>  7 31001… AARONS       BARRY M.      602-315-… 4315 N 1… SUITE 200 PHOENIX  AZ        85014- 
#>  8 31001… AARONS       BARRY M.      602-315-… 4315 N 1… SUITE 200 PHOENIX  AZ        85014- 
#>  9 31001… AARONS       BARRY M.      602-315-… 4315 N 1… SUITE 200 PHOENIX  AZ        85014- 
#> 10 31001… AARONS       BARRY M.      602-315-… 4315 N 1… SUITE 200 PHOENIX  AZ        85014- 
#> # … with 31,018 more rows, and 10 more variables: ref_id <chr>, ppb_id <chr>, designated <lgl>,
#> #   started <date>, terminated <date>, compensated <lgl>, ppb_name <chr>, ppb_phone <chr>,
#> #   ppb_email <chr>, rep_year <int>
```
…
After these various joins, our new data frame contains one row per
client, per lobbyist, per year.

``` r
azl %>% 
  select(
    lob_id,
    lob_lastname,
    ppb_id,
    ppb_name,
    rep_year
  ) %>% 
  sample_frac()
#> # A tibble: 31,028 x 5
#>    lob_id  lob_lastname                   ppb_id ppb_name                                 rep_year
#>    <chr>   <chr>                          <chr>  <chr>                                       <int>
#>  1 3105660 BAIER                          107655 <NA>                                           NA
#>  2 3502155 JUSTICE                        100483 AZ SCHOOL BOARDS ASSOCIATION                 2017
#>  3 3107263 SIMON                          100567 <NA>                                           NA
#>  4 3606841 COOK                           105977 <NA>                                           NA
#>  5 3500603 SEVIGNY                        100362 <NA>                                           NA
#>  6 3606715 BEATTY                         105921 <NA>                                           NA
#>  7 3604427 FLORES                         900036 <NA>                                           NA
#>  8 3602871 HAMILTON CONSULTING, INC       106936 <NA>                                           NA
#>  9 3100743 COUGHLIN                       900164 REGIONAL PUBLIC TRANSPORTATION AUTHORITY     2017
#> 10 3100148 MEYER HENDRICKS BIVENS & MOYES 101232 <NA>                                           NA
#> # … with 31,018 more rows
…
``` r
select(azl, starts_with("lob_addr")) %>% distinct() %>% sample_frac()
#> # A tibble: 9,914 x 3
#>    lob_addr1                   lob_addr2              lob_addr_norm                                
#>    <chr>                       <chr>                  <chr>                                        
#>  1 PO BOX 53999 STA 9042       <NA>                   PO BOX 53999 STATION 9042                    
#>  2 8601 N SCOTTSDALE RD        SUITE 300              8601 NORTH SCOTTSDALE ROAD SUITE 300         
#>  3 ONE EAST CAMELBACK RD STE … <NA>                   ONE EAST CAMELBACK ROAD SUITE 660            
#>  4 2102 W ENCANTO BLVD, MD 10… <NA>                   2102 WEST ENCANTO BOULEVARD MD 1000          
#>  5 CHILDRENS ACTION ALLIANCE   15 N BULLMOOSE CIR     CHILDRENS ACTION ALLIANCE 15 NORTH BULLMOOSE…
#>  6 1300 W WASHINGTON ST        <NA>                   1300 WEST WASHINGTON STREET                  
#>  7 305 S SECOND AVE            COMMUNITY LEGAL SERVI… 305 SOUTH SECOND AVENUE COMMUNITY LEGAL SERV…
#>  8 100 N. 15TH AVENUE          SUITE 103              100 NORTH 15TH AVENUE SUITE 103              
#>  9 P O BOX 440                 <NA>                   PO BOX 440                                   
#> 10 P.O. BOX 33335              <NA>                   PO BOX 33335                                 
#> # … with 9,904 more rows
```
…
