…
### Duplicates

We can also flag any record completely duplicated across every column.

``` r
pb <- flag_dupes(pb, -id_number)
sum(pb$dupe_flag)
#> [1] 544
```

``` r
pb %>% 
  filter(dupe_flag) %>% 
  select(all_of(key_vars))
#> # A tibble: 544 x 3
#>    agcy_name                         title                                     name_of_incumbent
#>    <chr>                             <chr>                                     <chr>            
#>  1 Library Of Congress               Board Member                              Vacant           
#>  2 Library Of Congress               Board Member                              Vacant           
#>  3 Library Of Congress               Board Member                              Vacant           
#>  4 Library Of Congress               Board Member                              Vacant           
#>  5 Executive Office Of The President Senior Advisor                            Vacant           
#>  6 Executive Office Of The President Senior Advisor                            Vacant           
#>  7 Executive Office Of The President Deputy General Counsel                    Career Incumbent 
#>  8 Executive Office Of The President Member (Council on Environmental Quality) Vacant           
#>  9 Executive Office Of The President Member (Council on Environmental Quality) Vacant           
#> 10 Executive Office Of The President Senior Advisor                            Vacant           
#> # … with 534 more rows
```
…
