…
### Phone

We can use `campfin::normal_phone()` to convert the numeric phone
numbers into an unambiguous character format. This prevents the column
from being read as a numeric variable.

``` r
wylr <- mutate_at(
  .tbl  = wylr,
  .vars = vars(ends_with("phone")),
  .funs = list(norm = normal_phone)
)
```

    #> # A tibble: 275 x 4
    #>    lob_phone  org_phone  lob_phone_norm org_phone_norm
    #>    <chr>      <chr>      <chr>          <chr>         
    #>  1 8015242767 8015242767 (801) 524-2767 (801) 524-2767
    #>  2 4062564047 4062564047 (406) 256-4047 (406) 256-4047
    #>  3 3078514895 <NA>       (307) 851-4895 <NA>          
    #>  4 3076352424 3076308602 (307) 635-2424 (307) 630-8602
    #>  5 3076346484 3072348142 (307) 634-6484 (307) 234-8142
    #>  6 3075090538 3076303466 (307) 509-0538 (307) 630-3466
    #>  7 2066216205 <NA>       (206) 621-6205 <NA>          
    #>  8 3077782000 3078723351 (307) 778-2000 (307) 872-3351
    #>  9 3074325802 3074325814 (307) 432-5802 (307) 432-5814
    #> 10 3076346484 <NA>       (307) 634-6484 <NA>          
    #> # … with 265 more rows
…
``` r
wylr %>% 
  select(starts_with("lob_addr")) %>% 
  distinct() %>% 
  sample_frac()
#> # A tibble: 177 x 4
#>    lob_addr1                 lob_addr2            lob_addr3 lob_addr_norm                          
#>    <chr>                     <chr>                <chr>     <chr>                                  
#>  1 2323 Pioneer Ave          <NA>                 <NA>      2323 PIONEER AVENUE                    
#>  2 1007 HOY ROAD             <NA>                 <NA>      1007 HOY ROAD                          
#>  3 1501 Stampede Ave.        #9019                <NA>      1501 STAMPEDE AVENUE 9019              
#>  4 PO Box 1894               <NA>                 <NA>      PO BOX 1894                            
#>  5 5 Wild Rose Ln.           <NA>                 <NA>      5 WILD ROSE LANE                       
#>  6 1675 Broadway St.         Suite 1250           <NA>      1675 BROADWAY STREET SUITE 1250        
#>  7 1800 Glenarm Place        Suite 950            <NA>      1800 GLENARM PLACE SUITE 950           
#>  8 200 East 8th Ave Suite 2… <NA>                 <NA>      200 EAST 8TH AVENUE SUITE 203          
#>  9 The Burron Firm, P.C.     1695 Morningstar Ro… <NA>      THE BURRON FIRM P C 1695 MORNINGSTAR R…
#> 10 64 Summer Hill Rd.        <NA>                 <NA>      64 SUMMER HILL ROAD                    
#> # … with 167 more rows
```
…
wylr <- wylr %>% 
  mutate_at(
    .vars = vars(ends_with("state_norm")),
    .funs = str_replace, 
    "WY WY", "WY"
  )
```

    #> # A tibble: 59 x 4
    #>    lob_state    org_state    lob_state_norm org_state_norm
    #>    <chr>        <chr>        <chr>          <chr>         
    #>  1 WY           NC           WY             NC            
    #>  2 WY           WA           WY             WA            
    #>  3 WY           MD           WY             MD            
    #>  4 WY           WI           WY             WI            
    #>  5 WASHINGTON   Washington   WA             WA            
    #>  6 WY - Wyoming WY - Wyoming WY             WY            
    #>  7 WY           MA           WY             MA            
    #>  8 WY           IL           WY             IL            
    #>  9 MN           CA           MN             CA            
    #> 10 DC           DC           DC             DC            
    #> # … with 49 more rows
…
