…
``` r
data_dir <- "../nursing_home/data"
nursing <- read_csv(dir_ls(data_dir,regexp = "nursing_infection.*"))
covid <- read_csv((dir_ls(data_dir,regexp = "U.S."))) %>% 
  clean_names() %>% 
  rename(provname = provider_name,
         provnum = cms_provider_number)
```

We can take a glimpse of the COVID-19 dataset.

``` r
sample_frac(covid)
#> # A tibble: 2,747 x 6
#>       x1 provname                                       county   state ownership_type provnum
#>    <dbl> <chr>                                          <chr>    <chr> <chr>          <chr>  
#>  1   834 WESTWOOD HEALTHCARE AND REHABILITATION         Bulloch  GA    For profit     115601 
#>  2  2745 SUMMERSVILLE REGIONAL MEDICAL CENTER           Nicholas WV    Government     515029 
#>  3  2255 FOREST MANOR HCC                               Warren   NJ    For profit     315224 
#>  4   889 PRUITTHEALTH - BROOKHAVEN                      De Kalb  GA    For profit     115313 
#>  5  1833 RIVERVIEW HEALTH & REHAB CENTER                Wayne    MI    For profit     235659 
#>  6  1246 EDMONSON CENTER                                Edmonson KY    For profit     185401 
#>  7  1527 RECUPERATIVE SERVICES UNIT-HEBREW REHAB CENTER Suffolk  MA    Non profit     225759 
#>  8   387 JULIA TEMPLE HEALTHCARE CENTER                 Arapahoe CO    For profit     065322 
#>  9   826 ARCHWAY TRANSITIONAL CARE CENTER               Bibb     GA    Non profit     115728 
#> 10   943 LAUREL PARK AT HENRY MED CTR                   Henry    GA    For profit     115673 
#> # … with 2,737 more rows
…
There’re several data products from the above joining and analysis.

``` r
# Set up processed directory
proc_dir <- dir_create(path(data_dir,"processed"))
```

1.  Table 1: Table of all COVID-19-impacted nursing homes with one added
    column counting total numbers of disease control dificiencies

<!-- end list -->

``` r
infected_table %>% sample_frac()
#> # A tibble: 2,747 x 6
#>    provnum def_count provname                                    county        state ownership_type
#>    <chr>       <dbl> <chr>                                       <chr>         <chr> <chr>         
#>  1 315320          2 COMPLETE CARE AT HOLIDAY CITY               Ocean         NJ    For profit    
#>  2 115628          0 PRUITTHEALTH - PALMYRA                      Dougherty     GA    For profit    
#>  3 395628          1 RENAISSANCE HEALTHCARE & REHABILITATION CE… Philadelphia  PA    For profit    
#>  4 115711          0 MEMORIAL MANOR NURSING HOME                 Decatur       GA    Government    
#>  5 075201          2 REGALCARE AT WEST HAVEN                     New Haven     CT    For profit    
#>  6 055856          1 HIGH VALLEY LODGE                           Los Angeles   CA    For profit    
#>  7 335757          0 HARRIS HILL NURSING FACILITY, L L C         Erie          NY    For profit    
#>  8 105895          4 CONSULATE HEALTH CARE OF ST PETERSBURG      Pinellas      FL    For profit    
#>  9 395015          3 BRIGHTON REHABILITATION AND WELLNESS CENTER Beaver        PA    For profit    
#> 10 555476          3 APPLE VALLEY POST ACUTE CENTER              San Bernardi… CA    For profit    
#> # … with 2,737 more rows
infected_table %>% write_csv(path = path(proc_dir,"infected_counts.csv"), na = "")
```

2.  Table 2: Table of all COVID-19-impacted nursing homes and each of
    their disease-control related deficiencies detail table.

<!-- end list -->

``` r
infected_explore %>% sample_frac()
#> # A tibble: 4,497 x 27
#>       x1 provname county state ownership_type provnum address city_raw   zip survey_date_out…
#>    <dbl> <chr>    <chr>  <chr> <chr>          <chr>   <chr>   <chr>    <dbl> <date>          
#>  1  1892 THE EST… Wright MN    For profit     245336  433 CO… DELANO   55328 2018-08-16      
#>  2   297 CEDAR M… San B… CA    For profit     555494  11970 … YUCAIPA  92399 2018-12-21      
#>  3  1523 MATTAPA… Suffo… MA    For profit     225532  405 RI… MATTAPAN  2126 2019-01-16      
#>  4  1714 MEDILOD… Genes… MI    For profit     235226  11941 … GRAND B… 48439 2019-04-05      
#>  5  1490 ALLIANC… Plymo… MA    Non profit     225259  804 PL… BROCKTON  2301 2016-05-09      
#>  6   570 FOX HIL… Tolla… CT    For profit     075183  <NA>    <NA>        NA NA              
#>  7  2729 WILLOW … Yakima WA    For profit     505367  4007 T… YAKIMA   98908 2018-02-16      
#>  8  1184 TERRACE… Lake   IL    For profit     146159  1615 S… WAUKEGAN 60087 2019-01-30      
#>  9  2506 GLENDOR… Wayne  OH    For profit     366036  <NA>    <NA>        NA NA              
#> 10   839 PLEASAN… Candl… GA    For profit     115411  <NA>    <NA>        NA NA              
#> # … with 4,487 more rows, and 17 more variables: surveytype <chr>, defpref <lgl>, category <chr>,
#> #   tag <chr>, tag_desc <chr>, scope <chr>, defstat <chr>, statdate <date>, cycle <dbl>,
#> #   standard <chr>, complaint <chr>, filedate <date>, address_norm <chr>, zip5 <dbl>,
#> #   city_clean <chr>, year <dbl>, def_boolean <dbl>
infected_explore %>% write_csv(path = path(proc_dir,"infected_details.csv"), na = "")
```

3.  Table 3: This is essentially table 2, with additional owner
    information from the ownership data from CMS, including types,
    first\_association date, and etc. Note that if a nursing home has
    one deficiency but multiple owner rows, it will show up multiple
    times.

<!-- end list -->

``` r
infected_owner %>% sample_frac()
#> # A tibble: 48,909 x 32
#>       x1 provname county state ownership_type provnum address city_raw   zip survey_date_out…
#>    <dbl> <chr>    <chr>  <chr> <chr>          <chr>   <chr>   <chr>    <dbl> <date>          
#>  1   754 HEARTLA… Palm … FL    Non profit     105755  <NA>    <NA>        NA NA              
#>  2   179 PALAZZO… Los A… CA    For profit     056456  5400 F… LOS ANG… 90029 2019-01-25      
#>  3   616 GOLFCRE… Browa… FL    For profit     105009  600 NO… HOLLYWO… 33020 2017-07-13      
#>  4  2406 BUCKEYE… Frank… OH    For profit     365933  140 N … WESTERV… 43081 2018-07-23      
#>  5   629 SPRINGT… Browa… FL    For profit     105686  <NA>    <NA>        NA NA              
#>  6   767 STRATFO… Palm … FL    For profit     105851  6343 V… BOCA RA… 33433 2019-06-27      
#>  7  1300 ST ANTH… Jeffe… LA    For profit     195570  6001 A… METAIRIE 70003 2018-04-12      
#>  8   638 GOVERNO… Clay   FL    For profit     105663  803 OA… GREEN C… 32043 2017-03-02      
#>  9  1261 SIGNATU… Jacks… KY    For profit     185249  96 HIG… ANNVILLE 40402 2019-09-25      
#> 10  1589 HERITAG… Balti… MD    For profit     215135  7232 G… DUNDALK  21222 2019-01-22      
#> # … with 48,899 more rows, and 22 more variables: surveytype <chr>, defpref <lgl>, category <chr>,
#> #   tag <chr>, tag_desc <chr>, scope <chr>, defstat <chr>, statdate <date>, cycle <dbl>,
#> #   standard <chr>, complaint <chr>, filedate <date>, address_norm <chr>, zip5 <dbl>,
#> #   city_clean <chr>, year <dbl>, def_boolean <dbl>, owner_name <chr>, owner_type <chr>,
#> #   owner_percentage_clean <dbl>, role_desc <chr>, association_date_clean <date>
…
