…
It's not uncommon to get a handful of records spelling out the full state or
using a nine digit ZIP code. We make everything consistent using the tools
in IRW's `campfin` package.


```r
nm_contribs %>% 
  filter(zip_code %out% valid_zip) %>% 
  count(zip_code, sort = TRUE) %>% 
  mutate(new_zip = normal_zip(zip_code))
#> # A tibble: 1,909 x 3
#>    zip_code       n new_zip
#>    <chr>      <int> <chr>  
#>  1 <NA>        4498 <NA>   
#>  2 87547        255 87547  
#>  3 87114-1807    68 87114  
#>  4 87505-4009    36 87505  
#>  5 87111-8147    33 87111  
#>  6 20000         26 20000  
#>  7 87501-6173    26 87501  
#>  8 78723-1809    22 78723  
#>  9 87108-1106    18 87108  
#> 10 87107-1264    16 87107  
#> # … with 1,899 more rows
```
…
