…
| ethnicity | description                |
| :-------- | :------------------------- |
| HL        | HISPANIC or LATINO         |
| NL        | NOT HISPANIC or NOT LATINO |
| UN        | UNDESIGNATED               |

##### County

There are 100 counties in North Carolina, each with a numeric code.

    #> # A tibble: 100 x 2
    #>    county    county_id
    #>    <chr>         <int>
    #>  1 ALAMANCE          1
    #>  2 ALEXANDER         2
    #>  3 ALLEGHANY         3
    #>  4 ANSON             4
    #>  5 ASHE              5
    #>  6 AVERY             6
    #>  7 BEAUFORT          7
    #>  8 BERTIE            8
    #>  9 BLADEN            9
    #> 10 BRUNSWICK        10
    #> # … with 90 more rows
…
We can flag any record missing a key variable needed to identify a
transaction.

``` r
key_vars <- c("registr_dt", "first_name", "last_name", "birth_year")
ncv <- flag_na(ncv, all_of(key_vars))
sum(ncv$na_flag)
#> [1] 116
```

``` r
ncv %>% 
  filter(na_flag) %>% 
  select(all_of(key_vars))
#> # A tibble: 116 x 4
#>    registr_dt first_name last_name birth_year
#>    <date>     <chr>      <chr>          <int>
#>  1 1968-03-15 <NA>       RUFTY           1931
#>  2 2016-06-17 <NA>       ALDEN           1978
#>  3 2012-10-23 <NA>       BENNETT         1992
#>  4 2020-10-30 <NA>       DILLOW          1982
#>  5 2020-10-15 <NA>       GADDY           1983
#>  6 2020-10-16 <NA>       SHAVER          1981
#>  7 2008-09-16 <NA>       POWELL          1990
#>  8 2012-10-22 <NA>       SYKES           1990
#>  9 2020-11-05 <NA>       LEAKE           1965
#> 10 2020-11-05 <NA>       NIEVES          1984
#> # … with 106 more rows
```
…
We can see that, despite unique IDs, there *are* duplicate voters.

``` r
ncv %>% 
  filter(dupe_flag) %>% 
  select(ncid, all_of(key_vars), zip_code) %>% 
  arrange(last_name)
#> # A tibble: 183 x 6
#>    ncid     registr_dt first_name last_name birth_year zip_code
#>    <chr>    <date>     <chr>      <chr>          <int> <chr>   
#>  1 BZ71067  2019-12-10 HUNTER     ADAMS           2001 27870   
#>  2 BZ71068  2019-12-10 HUNTER     ADAMS           2001 27870   
#>  3 BY747745 2020-08-16 CYNTHIA    ALLEN           1969 27282   
#>  4 BY747746 2020-08-16 CYNTHIA    ALLEN           1969 27282   
#>  5 BE473943 2020-12-16 KATHERINE  ATHERTON        2002 28304   
#>  6 BE473944 2020-12-16 KATHERINE  ATHERTON        2002 28304   
#>  7 CN101111 2020-09-29 DAVID      BALOK           2000 28037   
#>  8 CN101112 2020-09-29 DAVID      BALOK           2000 28037   
#>  9 BY476570 2020-07-24 TIA        BARILE          1987 27455   
#> 10 BY746488 2020-07-24 TIA        BARILE          1987 27455   
#> # … with 173 more rows
```
…
All of these voters missing `state_cd` or `zip_code` are also missing
the city name and have the `res_street_address` of “REMOVED”.

``` r
geo_vars <- c("res_street_address", "res_city_desc", "state_cd", "zip_code")
```

``` r
ncv %>% 
  select(all_of(key_vars), all_of(geo_vars)) %>% 
  filter(is.na(state_cd))
#> # A tibble: 758,670 x 8
#>    registr_dt first_name last_name   birth_year res_street_address res_city_desc state_cd zip_code
#>    <date>     <chr>      <chr>            <int> <chr>              <chr>         <chr>    <chr>   
#>  1 2014-02-20 DEREK      ABBOTT            1968 REMOVED            <NA>          <NA>     <NA>    
#>  2 2002-11-05 GLADYS     ABBOTT            1952 REMOVED            <NA>          <NA>     <NA>    
#>  3 1990-09-24 JOYCE      ABBOTT            1947 REMOVED            <NA>          <NA>     <NA>    
#>  4 2012-03-26 KLAY       ABELE             1986 REMOVED            <NA>          <NA>     <NA>    
#>  5 1964-05-02 JACQUELINE ABERCROMBIE       1939 REMOVED            <NA>          <NA>     <NA>    
#>  6 1968-10-26 ALICE      ABERNATHY         1921 REMOVED            <NA>          <NA>     <NA>    
#>  7 1982-10-04 BARBARA    ABERNATHY         1947 REMOVED            <NA>          <NA>     <NA>    
#>  8 1972-01-15 PAUL       ABERNATHY         1944 REMOVED            <NA>          <NA>     <NA>    
#>  9 1964-10-24 NELL       ABERNETHY         1921 REMOVED            <NA>          <NA>     <NA>    
#> 10 1964-10-26 PAUL       ABERNETHY         1921 REMOVED            <NA>          <NA>     <NA>    
#> # … with 758,660 more rows
```
…
We can makes these values `NA`.

``` r
ncv <- mutate(ncv, across(res_street_address, na_if, "REMOVED"))
```

Aside from this, no additional normalization needs to be done. The
addresses are already in proper USPS format.

``` r
count(ncv, res_street_address, sort = TRUE)
#> # A tibble: 3,783,921 x 2
#>    res_street_address                 n
#>    <chr>                          <int>
#>  1 <NA>                          758380
#>  2 1 DUKE UNIVERSITY WEST CAMPUS   3883
#>  3 1801 FAYETTEVILLE ST            3483
#>  4 1 DUKE UNIVERSITY EAST CAMPUS   2191
#>  5 0 WFU                           1965
#>  6 0 WSSU                          1939
#>  7 209 RIDGE RD                    1850
#>  8 9201 UNIVERSITY CITY BLVD       1742
#>  9 701 W MONROE ST                 1581
#> 10 1 A ST                          1266
#> # … with 3,783,911 more rows
```
…
