…
``` r
raw_dir <- dir_create(here("ok", "salary", "data", "raw"))
raw_zip <- path(raw_dir,"Oklahoma_salaries.zip")
```

The ZIP archive itself contains a number of subsequent ZIP archives.

``` r
(zip_files <- raw_zip %>% 
  unzip(list = TRUE) %>% 
  as_tibble(.name_repair = tolower) %>% 
  mutate(across(length, as_fs_bytes)) %>% 
  mutate(across(name, as_fs_path)))
#> # A tibble: 34 x 3
#>    name                                                       length date               
#>    <fs::path>                                            <fs::bytes> <dttm>             
#>  1 State of Oklahoma PY - Jul 2019 2.csv                       18.1M 2020-08-06 21:41:00
#>  2 __MACOSX/._State of Oklahoma PY - Jul 2019 2.csv              313 2020-08-06 21:41:00
#>  3 State of Oklahoma Payroll - Feb 2019 2.csv                  20.5M 2020-08-06 21:55:00
#>  4 __MACOSX/._State of Oklahoma Payroll - Feb 2019 2.csv         313 2020-08-06 21:55:00
#>  5 State of Oklahoma Payroll - Jan 2019 2.csv                  18.8M 2020-08-06 21:27:00
#>  6 __MACOSX/._State of Oklahoma Payroll - Jan 2019 2.csv         313 2020-08-06 21:27:00
#>  7 State of Oklahoma Payroll - Mar 2019 2.csv                  22.3M 2020-08-06 21:46:00
#>  8 __MACOSX/._State of Oklahoma Payroll - Mar 2019 2.csv         313 2020-08-06 21:46:00
#>  9 State of Oklahoma Payroll - Apr 2019 2.csv                  19.9M 2020-08-06 21:34:00
#> 10 __MACOSX/._State of Oklahoma Payroll - Apr 2019 2.csv         313 2020-08-06 21:34:00
#> # … with 24 more rows
```
…
``` r
summary(oks$gross_pay)
#>    Min. 1st Qu.  Median    Mean 3rd Qu.    Max. 
#>  -44431     360    1396    2062    2732 1058333
mean(oks$gross_pay <= 1, na.rm = TRUE)
#> [1] 0.02719676
```

``` r
#take the data and filter 
oks %>% 
  filter(gross_pay <= 1) %>%
  count(agency_name, sort = T) %>%
  add_prop()
#> # A tibble: 115 x 3
#>    agency_name                                 n      p
#>    <chr>                                   <int>  <dbl>
#>  1 DEPARTMENT OF CORRECTIONS               21026 0.472 
#>  2 DEPARTMENT OF PUBLIC SAFETY              4593 0.103 
#>  3 DEPARTMENT OF HUMAN SERVICES             4588 0.103 
#>  4 OKLAHOMA TURNPIKE AUTHORITY              2138 0.0480
#>  5 MENTAL HEALTH AND SUBSTANCE ABUSE SERV.  2034 0.0457
#>  6 J.D. MCCARTY CENTER                      1367 0.0307
#>  7 DEPARTMENT OF REHABILITATION SERVICES    1010 0.0227
#>  8 OKLA. BUREAU OF NARCOTICS AND DANGEROUS   782 0.0176
#>  9 DEPT OF AGRICULTURE FOOD & FORESTRY       697 0.0156
#> 10 DEPARTMENT OF VETERANS AFFAIRS            559 0.0125
#> # … with 105 more rows
```
…
