…
We can count a discrete categorical variable to ensure the file was read
properly. If there was an error reading one of the text files, the
columns will likely shift.

``` r
count(hhs, business_types_code, sort = TRUE)
#> # A tibble: 37 x 2
#>    business_types_code      n
#>    <chr>                <int>
#>  1 06                  309562
#>  2 12                  268970
#>  3 00                  254220
#>  4 20                  210730
#>  5 H                   112083
#>  6 X                   103252
#>  7 O                    91433
#>  8 M                    84469
#>  9 11                   78124
#> 10 A                    70395
#> # … with 27 more rows
```
…
These duplicate values are found in the full data, not just changed
delta files.

``` r
hhs %>% 
  filter(dupe_flag) %>% 
  select(date, agency, amount, recipient, source)
#> # A tibble: 10,422 x 5
#>    date       agency                               amount recipient                          source
#>    <date>     <chr>                                 <dbl> <chr>                              <chr> 
#>  1 2015-09-22 DEPARTMENT OF HEALTH AND HUMAN SER…   25000 WORLD HEALTH ORGANIZATION          full  
#>  2 2015-09-22 DEPARTMENT OF HEALTH AND HUMAN SER…   25000 WORLD HEALTH ORGANIZATION          full  
#>  3 2012-09-25 DEPARTMENT OF HEALTH AND HUMAN SER… -734199 VERMONT DEPARTMENT OF MENTAL HEAL… full  
#>  4 2012-09-25 DEPARTMENT OF HEALTH AND HUMAN SER… -734199 VERMONT DEPARTMENT OF MENTAL HEAL… full  
#>  5 2012-09-26 DEPARTMENT OF HEALTH AND HUMAN SER…  734199 VERMONT AGENCY OF HUMAN SERVICES   full  
#>  6 2012-09-26 DEPARTMENT OF HEALTH AND HUMAN SER…  734199 VERMONT AGENCY OF HUMAN SERVICES   full  
#>  7 2013-11-25 DEPARTMENT OF HEALTH AND HUMAN SER… -999837 NH ST DIV OF MENTAL HEALTH/DEV SV… full  
#>  8 2013-11-27 DEPARTMENT OF HEALTH AND HUMAN SER…  999837 NH ST DEPARTMENT OF HEALTH & HUMA… full  
#>  9 2013-11-25 DEPARTMENT OF HEALTH AND HUMAN SER… -999837 NH ST DIV OF MENTAL HEALTH/DEV SV… full  
#> 10 2013-11-27 DEPARTMENT OF HEALTH AND HUMAN SER…  999837 NH ST DEPARTMENT OF HEALTH & HUMA… full  
#> # … with 10,412 more rows
```
…
