…
``` r
select(tx, payee_street_addr_comb, address_norm)
```

    #> # A tibble: 2,415,267 x 2
    #>    payee_street_addr_comb          address_norm                   
    #>    <chr>                           <chr>                          
    #>  1 228 S Washington St Ste B-20    228 S WASHINGTON ST STE B 20   
    #>  2 900 19th Street N.W. 8th Floor  900 19TH STREET NW 8TH FLOOR   
    #>  3 1420 West Canal Court Ste 10    1420 WEST CANAL COURT STE 10   
    #>  4 201 Massachusetts Ave NE Ste C3 201 MASSACHUSETTS AVE NE STE C3
    #>  5 213 Ashby ST                    213 ASHBY ST                   
    #>  6 900 19th Street NW_8th Floor    900 19TH STREET NW 8TH FLOOR   
    #>  7 PO Box 8166                     PO BOX 8166                    
    #>  8 104 Hume Avenue                 104 HUME AVENUE                
    #>  9 104 Hume Ave                    104 HUME AVE                   
    #> 10 12535 Cedar Key Trail           12535 CEDAR KEY TRAIL          
    #> # … with 2,415,257 more rows
…
