Using R to Reach One Billion Records
…
You may have noticed the unusual number of 138 year old voters currently registered in the state of Ohio. In fact, all the voters registered in that year were supposedly registered on January 1. Its pretty obvious this date is being used as the default when no actual date is used. In a case like this, we would create a copy column with those dates removed. This fixed date is the one users would see on our site when searching the data. Dates arent the only types of weird data we sometimes have to improve.

Improving data

Users on the Accountability Project search for transactions using a name and/or address. To make this easier for the user, we typically standardize addresses using USPS standards. That way, when they search an address, ZIP code, or city name, they get the results they are looking for.

Its not uncommon to get a handful of records spelling out the full state or using a nine digit ZIP code. We make everything consistent using the tools in IRWs campfin package.

nm_contribs %>% 
  filter(zip_code %out% valid_zip) %>% 
  count(zip_code, sort = TRUE) %>% 
  mutate(new_zip = normal_zip(zip_code))
#> # A tibble: 1,909 x 3
#>    zip_code       n new_zip
#>    <chr>      <int> <chr>  
#>  1 <NA>        4498 <NA>   
#>  2 87547        255 87547  
#>  3 87114-1807    68 87114  
#>  4 87505-4009    36 87505  
#>  5 87111-8147    33 87111  
#>  6 20000         26 20000  
#>  7 87501-6173    26 87501  
#>  8 78723-1809    22 78723  
#>  9 87108-1106    18 87108  
#> 10 87107-1264    16 87107  
#> #  with 1,899 more rows
…
