…
``` r
nh %>% 
  select(payee_address_sep, payee_address_norm)
```

    #> # A tibble: 12,278 x 2
    #>    payee_address_sep         payee_address_norm               
    #>    <chr>                     <chr>                            
    #>  1 817 CROSS COUNTRY ROAD    817 CROSS COUNTRY ROAD           
    #>  2 193 SOUTH MAIN ST. APT. 6 193 SOUTH MAIN STREET APARTMENT 6
    #>  3 130 SOUTH CYPRESS ST.     130 SOUTH CYPRESS STREET         
    #>  4 13 HARTSHORN ROAD         13 HARTSHORN ROAD                
    #>  5 24 OAK ISLAND ROAD        24 OAK ISLAND ROAD               
    #>  6 PO BOX 632                PO BOX 632                       
    #>  7 PO BOX 1107               PO BOX 1107                      
    #>  8 332 ST. JAMES AVENUE      332 STREET JAMES AVENUE          
    #>  9 195 PLYMOUTH ST SUITE 204 195 PLYMOUTH STREET SUITE 204    
    #> 10 PO BOX 1292               PO BOX 1292                      
    #> # … with 12,268 more rows
…
