…
``` r
lac <- flag_dupes(lac, -id)
sum(lac$dupe_flag)
#> [1] 432
```

``` r
lac %>% 
  filter(dupe_flag) %>% 
  select(id, year, vendor_name, department_name, total_amount)
#> # A tibble: 432 × 5
#>    id          year vendor_name                        department_name                      total…¹
#>    <chr>      <int> <chr>                              <chr>                                  <dbl>
#>  1 2000114252  2020 GRTR LAFAYETTE CHMBR OF CMMRCE     DEPT OF ECONOMIC DEVELOPMENT               0
#>  2 2000119708  2020 GREATER BATON ROUGE                DEPT OF ECONOMIC DEVELOPMENT               0
#>  3 2000149142  2020 WESTED                             DEPT OF EDUCATION                          0
#>  4 2000149667  2020 WESTED                             DEPT OF EDUCATION                          0
#>  5 2000236313  2020 DELOITTE CONSULTING LLP            ANCILLARY APPROPRIATIONS                   0
#>  6 2000253505  2020 SHOWS, CALI & BURNS                EXECUTIVE DEPT                             0
#>  7 2000261954  2020 POSTLETHWAITE AND NETTERVILLE APAC DEPT OF PUBLIC SAFETY AND CORRECTIO…       0
#>  8 2000262487  2020 IEM INC                            EXECUTIVE DEPT                             0
#>  9 2000265762  2020 LOUISIANA PUBLIC HEALTH            DEPT OF HEALTH AND HOSPITALS               0
#> 10 2000283813  2020 TULANE UNIVERSITY                  DEPT OF HEALTH AND HOSPITALS               0
#> # … with 422 more rows, and abbreviated variable name ¹​total_amount
```
…
