…
``` r
prc <- prc %>% flag_na(date, donor, amount, cand)
mean(prc$na_flag)
#> [1] 0.007511306
```

``` r
prc %>% 
  filter(na_flag) %>% 
  select(date, donor, amount, cand) %>% 
  sample_frac()
#> # A tibble: 1,244 x 4
#>    date       donor amount cand                                
#>    <date>     <chr>  <dbl> <chr>                               
#>  1 2015-02-13 <NA>    160  "JONATHAN TOSSAS ORTIZ"             
#>  2 2015-05-09 <NA>    960  "ROLANDO CRESPO ARROYO"             
#>  3 2015-02-28 <NA>    219  "COMITE MUNICIPAL MAYAGUEZ PNP"     
#>  4 2015-03-22 <NA>    967. "LUIS \"ROLAN\" MALDONADO RODRIGUEZ"
#>  5 2015-03-01 <NA>   2914  "MARTIN VARGAS MORALES"             
#>  6 2015-05-01 <NA>    345  "ISANDER LOIZ DE LEON"              
#>  7 2015-04-06 <NA>    725  "PEDRO TORRES RIVERA"               
#>  8 2014-10-04 <NA>   3000  "RAMON CRUZ BURGOS"                 
#>  9 2015-03-22 <NA>      5  "COMITE MUNICIPAL JUNCOS PNP"       
#> 10 2014-11-13 <NA>    300  "REINALDO VARGAS RODRIGUEZ"         
#> # … with 1,234 more rows
```

### Duplicates

``` r
prc <- flag_dupes(prc, everything())
mean(prc$dupe_flag)
#> [1] 0.08786538
```

``` r
prc %>% 
  filter(dupe_flag) %>% 
  select(date, donor, amount, cand)
#> # A tibble: 14,552 x 4
#>    date       donor                   amount cand                       
#>    <date>     <chr>                    <dbl> <chr>                      
#>  1 2016-04-02 WILLIAM MORALES PENA       100 YARAMARY TORRES REYES      
#>  2 2016-08-30 RICARDO SOLA RODRIGUEZ     500 PARTIDO POPULAR DEMOCRATICO
#>  3 2015-09-24 RAFAEL DUENO PALMER       1000 ALEJANDRO GARCIA PADILLA   
#>  4 2016-11-01 CELESTE BENITEZ RIVERA     200 PARTIDO POPULAR DEMOCRATICO
#>  5 2016-08-05 SANDRA TORRES MARRERO     2500 PARTIDO POPULAR DEMOCRATICO
#>  6 2017-03-06 CESAR VARGAS VELAZQUEZ     500 THOMAS RIVERA SCHATZ       
#>  7 2016-07-02 JOSE MEDINA TOLLINCHE     1000 MARIA CHARBONIER LAUREANO  
#>  8 2018-03-18 JUDITH HERNANDEZ ARROYO     10 VICTOR PARES OTERO         
#>  9 2018-03-18 JUDITH HERNANDEZ ARROYO     10 VICTOR PARES OTERO         
#> 10 2018-03-18 MILAGROS LUGO NAZARIO       10 VICTOR PARES OTERO         
#> # … with 14,542 more rows
```
…
