…
### Districts

``` r
wa_dist <- read_excel(
  path = raw_paths[1],
  .name_repair = make_clean_names
)
```

    #> # A tibble: 214,735 x 9
    #>    county_code county district_type district_id district_code district_name precinct_code
    #>    <chr>       <chr>  <chr>         <chr>       <chr>         <chr>         <chr>        
    #>  1 AD          Adams  Cemetery      67045       CEM010001     CEMETERY DIS… 0212         
    #>  2 AD          Adams  Cemetery      67045       CEM010001     CEMETERY DIS… 0221         
    #>  3 AD          Adams  Cemetery      67045       CEM010001     CEMETERY DIS… 0221         
    #>  4 AD          Adams  Cemetery      67045       CEM010001     CEMETERY DIS… 0322         
    #>  5 AD          Adams  Cemetery      67046       CEM010002     CEMETERY DIS… 0411         
    #>  6 AD          Adams  Cemetery      67046       CEM010002     CEMETERY DIS… 0412         
    #>  7 AD          Adams  Cemetery      67046       CEM010002     CEMETERY DIS… 0413         
    #>  8 AD          Adams  Cemetery      67046       CEM010002     CEMETERY DIS… 0414         
    #>  9 AD          Adams  Cemetery      67046       CEM010002     CEMETERY DIS… 0415         
    #> 10 AD          Adams  Cemetery      67046       CEM010002     CEMETERY DIS… 0416         
    #> # … with 214,725 more rows, and 2 more variables: precinct_name <chr>, precinct_part <chr>
…
``` r
key_vars <- c("voter_id", "name_last", "name_first", "reg_date", "birth_date")
wav <- flag_na(wav, all_of(key_vars))
sum(wav$na_flag)
#> [1] 386
```

There are a small number of voters missing either a first or last name.

``` r
wav %>% 
  filter(na_flag) %>% 
  select(all_of(key_vars))
#> # A tibble: 386 x 5
#>    voter_id name_last    name_first reg_date   birth_date
#>    <chr>    <chr>        <chr>      <date>     <date>    
#>  1 1439677  <NA>         ALISA      2004-10-01 1969-11-14
#>  2 1731756  MOONWATER    <NA>       2011-09-13 1976-05-03
#>  3 1809910  LOTUS        <NA>       2008-04-29 1951-07-28
#>  4 1891779  DEAN         <NA>       2001-06-27 1958-09-13
#>  5 1894200  CHINMAYO     <NA>       1984-10-02 1950-08-27
#>  6 2080373  KOKENGE      <NA>       1984-09-17 1957-06-12
#>  7 2228051  <NA>         CANDACE    2004-06-18 1956-01-18
#>  8 2338731  LINDAMARLENE <NA>       1986-05-17 1955-10-30
#>  9 2401190  KHAMHEUANG   <NA>       1992-10-03 1942-09-30
#> 10 2618092  ARTIS        <NA>       2012-06-20 1948-10-03
#> # … with 376 more rows
```
…
We can see that there are duplicate voters in the database.

``` r
wav %>% 
  filter(dupe_flag) %>% 
  select(voter_id, all_of(key_vars), gender, source_file) %>% 
  arrange(reg_date)
#> # A tibble: 28 x 7
#>    voter_id name_last name_first reg_date   birth_date gender source_file
#>    <chr>    <chr>     <chr>      <date>     <date>     <chr>  <chr>      
#>  1 1529179  BROWNE    STEVEN     1992-06-28 1959-09-20 M      old        
#>  2 1529179  BROWNE    STEVEN     1992-06-28 1959-09-20 M      old        
#>  3 1847895  ELLER     PAMELA     2000-02-25 1955-01-02 F      old        
#>  4 1847895  ELLER     PAMELA     2000-02-25 1955-01-02 F      old        
#>  5 255511   O'HARVEY  ASHLEY     2003-08-09 1978-11-06 M      old        
#>  6 255511   O'HARVEY  ASHLEY     2003-08-09 1978-11-06 M      old        
#>  7 366342   MACKLEIT  DUANE      2004-07-30 1968-05-31 M      old        
#>  8 366342   MACKLEIT  DUANE      2004-07-30 1968-05-31 M      old        
#>  9 10485022 YOUNG     STEPHANIE  2014-02-26 1986-10-05 F      old        
#> 10 10485022 YOUNG     STEPHANIE  2014-02-26 1986-10-05 F      old        
#> # … with 18 more rows
```
…
``` r
min(wav$reg_date, na.rm = TRUE)
#> [1] "1900-01-01"
sum(wav$reg_date == "1900-01-01", na.rm = TRUE)
#> [1] 7
max(wav$reg_date, na.rm = TRUE)
#> [1] "2020-11-04"
```

``` r
wav %>% 
  select(all_of(key_vars)) %>% 
  filter(reg_date < birth_date)
#> # A tibble: 430 x 5
#>    voter_id name_last  name_first reg_date   birth_date
#>    <chr>    <chr>      <chr>      <date>     <date>    
#>  1 1139012  SHEEHAN    DOROTHY    1919-07-14 1946-08-29
#>  2 1167555  DAVEY      BEVERLY    1919-07-13 1950-05-02
#>  3 1194440  BUNTTING   JANET      1960-12-26 1960-12-27
#>  4 1242214  MCALLISTER ROBERT     1906-09-21 1950-07-11
#>  5 1244025  KAMIHARA   VICTORIA   1919-07-13 1963-11-27
#>  6 1245220  QUINN      GERALD     1962-10-03 1965-04-26
#>  7 1248570  BRUSCAS    VINCENT    1979-06-11 1994-06-16
#>  8 1249208  VAUGHN     ROBERT     1952-07-24 1979-02-22
#>  9 1251461  DUNHAM     KEVIN      1919-07-14 1981-06-22
#> 10 1287699  KINCAID    KYLEIGH    1986-02-28 1986-10-04
#> # … with 420 more rows
```
…
### Address

The various address component variables are already almost entirely in
valid USPS format, so it’s easiest to just map each component variable,
rather than combine them into a single string and try to use
`normal_address()`.

``` r
wav %>% 
  select(st_num, st_frac, st_pre, st_name, st_type, st_post, st_unit)
#> # A tibble: 8,656,602 x 7
#>    st_num st_frac st_pre st_name       st_type st_post st_unit
#>    <chr>  <chr>   <chr>  <chr>         <chr>   <chr>   <chr>  
#>  1 16204  <NA>    SE     179TH         ST      <NA>    <NA>   
#>  2 5325   <NA>    <NA>   LONE STAR     LN      NW      <NA>   
#>  3 18124  <NA>    SE     247TH         ST      <NA>    <NA>   
#>  4 4354   <NA>    <NA>   TROUT         CIR     <NA>    <NA>   
#>  5 24620  <NA>    <NA>   RUSSELL       RD      <NA>    F 107  
#>  6 2445   <NA>    S      222ND         ST      <NA>    F203   
#>  7 572    <NA>    SW     LITTLETREE    CIR     <NA>    <NA>   
#>  8 24928  <NA>    <NA>   103RD         AVE     SE      D-201  
#>  9 2356   <NA>    <NA>   ERLANDS POINT RD      NW      <NA>   
#> 10 133    <NA>    N      50TH          ST      <NA>    <NA>   
#> # … with 8,656,592 more rows
```

``` r
count(wav, st_type, sort = TRUE) %>% add_prop(sum = TRUE)
#> # A tibble: 171 x 3
#>    st_type       n     p
#>    <chr>     <int> <dbl>
#>  1 AVE     2431690 0.281
#>  2 ST      2211148 0.536
#>  3 RD      1039654 0.656
#>  4 DR       734993 0.741
#>  5 PL       677247 0.820
#>  6 CT       480439 0.875
#>  7 LN       386810 0.920
#>  8 WAY      241762 0.948
#>  9 <NA>     127994 0.962
#> 10 BLVD      93561 0.973
#> # … with 161 more rows
```
…
### City

The `city` values are already quite normal, with the only unknown cities
being perfectly valid shorthands for neighborhoods and undesignated
places

``` r
many_city <- c(valid_city, extra_city)
wav %>% 
  count(city, sort = TRUE) %>% 
  filter(city %out% many_city)
#> # A tibble: 116 x 2
#>    city              n
#>    <chr>         <int>
#>  1 SPOKANE VLY   46792
#>  2 CAMANO ISLAND 26370
#>  3 SEATAC        25713
#>  4 SEDRO-WOOLLEY 24721
#>  5 UNIVERSITY PL 17443
#>  6 BAINBRIDGE IS 15300
#>  7 EAST WENATCHE 13964
#>  8 TULALIP       13851
#>  9 MOUNTLAKE TER 10247
#> 10 LAKE FOREST P  8340
#> # … with 106 more rows
```
…
