…
``` r
d1 <- duplicated(eidl, fromLast = FALSE)
d2 <- duplicated(eidl, fromLast = TRUE)
eidl <- mutate(eidl, dupe_flag = d1 | d2)
sum(eidl$dupe_flag)
#> [1] 1841
rm(d1, d2); flush_memory()
```

``` r
eidl %>% 
  filter(dupe_flag) %>% 
  select(date, borrower, amount, diaster_id) %>% 
  arrange(date)
#> # A tibble: 1,841 x 4
#>    date       borrower                       amount diaster_id
#>    <date>     <chr>                           <dbl> <chr>     
#>  1 1987-11-04 GREEN GABLES RESTAURANT         14000 633500    
#>  2 1987-11-04 GREEN GABLES RESTAURANT         14000 633500    
#>  3 1987-11-10 JOSEPH RODRIQUEZ                 6700 229202    
#>  4 1987-11-10 JOSEPH RODRIQUEZ                 6700 229202    
#>  5 1988-05-11 ANDREW W AND PATRICIA I MILLER  11600 230506    
#>  6 1988-05-11 ANDREW W AND PATRICIA I MILLER  11600 230506    
#>  7 1989-09-06 JAMES & ANNA HALBOHM             9400 235706    
#>  8 1989-09-06 JAMES & ANNA HALBOHM             9400 235706    
#>  9 1989-11-30 HERBERT L AND ALICE PARNELL     40000 238702    
#> 10 1989-11-30 HERBERT L AND ALICE PARNELL     40000 238702    
#> # … with 1,831 more rows
```
…
      key_collision_merge() %>% 
      n_gram_merge(numgram = 1)
  ) %>% 
  filter(city_refine != city_swap) %>% 
  inner_join(
    y = zipcodes,
    by = c(
      "city_refine" = "city",
      "state_norm" = "state",
      "zip_norm" = "zip"
    )
  )
```

    #> # A tibble: 233 x 5
    #>    state_norm zip_norm city_swap             city_refine        n
    #>    <chr>      <chr>    <chr>                 <chr>          <int>
    #>  1 SC         29406    NORTH CHARLESTON      CHARLESTON        85
    #>  2 SC         29419    NORTH CHARLESTON      CHARLESTON        23
    #>  3 NY         11733    SETAUKET              EAST SETAUKET      8
    #>  4 PR         00745    RIO GRANDE RIO GRANDE RIO GRANDE         6
    #>  5 SC         29415    NORTH CHARLESTON      CHARLESTON         6
    #>  6 CA         90292    MARINA DALE REY       MARINA DEL REY     5
    #>  7 SC         29423    NORTH CHARLESTON      CHARLESTON         5
    #>  8 NJ         08008    HAVEN BEACH           BEACH HAVEN        4
    #>  9 NY         11968    SOUTH HAMPTON         SOUTHAMPTON        4
    #> 10 AL         35754    LACEY SPRINGS         LACEYS SPRING      3
    #> # … with 223 more rows
…
#### Progress

Almost all of the remaining unknown cities are in Guam, the Virgin
Islands, or similar territories whose cities are not in our list. These
are places often affected by natural disasters.

``` r
many_city <- c(valid_city, extra_city)
eidl %>% 
  filter(city_refine %out% many_city) %>% 
  count(city_refine, state_norm, sort = TRUE) %>% 
  add_prop(sum = TRUE)
#> # A tibble: 5,096 x 4
#>    city_refine               state_norm     n      p
#>    <chr>                     <chr>      <int>  <dbl>
#>  1 AGANA                     GU          1796 0.0816
#>  2 GMF                       GU          1237 0.138 
#>  3 CHRISTIANSTED SAINT CROIX VI          1176 0.191 
#>  4 RIO PIEDRAS               PR           703 0.223 
#>  5 KINGSHILL SAINT CROIX     VI           656 0.253 
#>  6 FREDERIKSTED SAINT CROIX  VI           596 0.280 
#>  7 SANTURCE                  PR           356 0.296 
#>  8 SEPULVEDA                 CA           333 0.311 
#>  9 TALOFOFO                  GU           285 0.324 
#> 10 SINAJANA                  GU           277 0.337 
#> # … with 5,086 more rows
```
…
