…
``` r
vtc <- flag_dupes(vtc, everything())
sum(vtc$dupe_flag)
#> [1] 1199
```

These may be legitimate contracts/payments made on the same day for the
same amount, but they are flagged nonetheless.

``` r
vtc %>% 
  filter(dupe_flag) %>% 
  select(quarter_ending, vendor, amount, department)
#> # A tibble: 1,199 x 4
#>    quarter_ending vendor                   amount department                 
#>    <date>         <chr>                     <dbl> <chr>                      
#>  1 2017-06-30     Konstantin,Gladys             7 Vermont Health Access      
#>  2 2017-06-30     Konstantin,Gladys             7 Vermont Health Access      
#>  3 2017-06-30     Perkin Elmer Genetics        50 Health                     
#>  4 2017-06-30     Perkin Elmer Genetics        50 Health                     
#>  5 2017-06-30     National Law Enforcement   4000 Public Safety              
#>  6 2017-06-30     National Law Enforcement   4000 Public Safety              
#>  7 2017-06-30     Loring,Dawn E.                6 Secretary of State's Office
#>  8 2017-06-30     Loring,Dawn E.                6 Secretary of State's Office
#>  9 2017-06-30     Pitney Bowes Inc            500 Children and Families      
#> 10 2017-06-30     Pitney Bowes Inc            500 Children and Families      
#> # … with 1,189 more rows
```
…
