…
flag duplicate values

``` r
tnc <- flag_dupes(tnc, everything())
mean(tnc$dupe_flag)
#> [1] 0.1756049
tnc %>%
  filter(dupe_flag) %>%
  select(all_of(key_vars)) %>%
  arrange(recipient_name)
#> # A tibble: 2,816 × 4
#>    date   contributor_name   amount recipient_name                                
#>    <date> <chr>               <dbl> <chr>                                         
#>  1 NA     LIVINGSTON, MARSHA    300 ANDERSON COUNTY DEMOCRATIC EXECUTIVE COMMITTEE
#>  2 NA     LIVINGSTON, MARSHA    300 ANDERSON COUNTY DEMOCRATIC EXECUTIVE COMMITTEE
#>  3 NA     ARTERBURY, JAMES       30 ASSOCIATIONS INC. PAC/ASSOCIA PAC             
#>  4 NA     BLACKBURN, MARK        55 ASSOCIATIONS INC. PAC/ASSOCIA PAC             
#>  5 NA     BOREK, SARA            20 ASSOCIATIONS INC. PAC/ASSOCIA PAC             
#>  6 NA     CORCORAN, KIM          33 ASSOCIATIONS INC. PAC/ASSOCIA PAC             
#>  7 NA     DESSAINTS, TIFFANY     20 ASSOCIATIONS INC. PAC/ASSOCIA PAC             
#>  8 NA     DUPREY, RONALD         52 ASSOCIATIONS INC. PAC/ASSOCIA PAC             
#>  9 NA     GREENWOOD, LEE         20 ASSOCIATIONS INC. PAC/ASSOCIA PAC             
#> 10 NA     GUNN, RUTH             20 ASSOCIATIONS INC. PAC/ASSOCIA PAC             
#> # … with 2,806 more rows
```
…
