…
Quite a few records are entirely duplicated. We will not remove these
records, as they may very well be valid repetitions, but we can flag
them with `campfin::flag_dupes()`.

``` r
akc <- flag_dupes(akc, -id, .check = TRUE)
percent(mean(akc$dupe_flag), 0.1)
#> [1] "8.2%"
```

``` r
akc %>% 
  filter(dupe_flag) %>% 
  select(date, last, amount, filer)
#> # A tibble: 35,176 x 4
#>    date       last         amount filer                  
#>    <date>     <chr>         <dbl> <chr>                  
#>  1 2020-01-30 "Hacker"         25 Forrest Dunbar         
#>  2 2020-01-30 "Hacker"         25 Forrest Dunbar         
#>  3 2019-12-21 "Ristenpart"   1000 Austin A Quinn-Davidson
#>  4 2019-12-21 "Ristenpart"   1000 Austin A Quinn-Davidson
#>  5 2019-12-23 "Noble"          50 Sharon Jackson         
#>  6 2019-12-23 "Noble"          50 Sharon Jackson         
#>  7 2019-08-12 "Hallden"        25 Janice L Park          
#>  8 2019-08-12 "Hallden"        25 Janice L Park          
#>  9 2019-11-06 "Spohnholz "     50 Janice L Park          
#> 10 2019-11-06 "Spohnholz "     50 Janice L Park          
#> # … with 35,166 more rows
```
…
``` r
akc %>% 
  filter(state != state_norm) %>% 
  count(state, state_norm, sort = TRUE)
#> # A tibble: 53 x 3
#>    state        state_norm      n
#>    <chr>        <chr>       <int>
#>  1 Alaska       AK         408929
#>  2 Washington   WA           2645
#>  3 California   CA           2523
#>  4 New York     NY           1051
#>  5 Texas        TX           1046
#>  6 Oregon       OR            948
#>  7 Florida      FL            855
#>  8 Arizona      AZ            835
#>  9 Pennsylvania PA            588
#> 10 Colorado     CO            521
#> # … with 43 more rows
```
…
