…
``` r
urls <- 
  expand_grid(
    year = 2008:2019,
    quarter = 1:4,
    branch = c("Executive", "Legislative")
  ) %>% 
  mutate(
    url = glue("https://floridalobbyist.gov/reports/{year}_Quarter{quarter}_{branch}.txt")
  )
```

    #> # A tibble: 96 x 4
    #>     year quarter branch      url                                                              
    #>    <int>   <int> <chr>       <glue>                                                           
    #>  1  2008       1 Executive   https://floridalobbyist.gov/reports/2008_Quarter1_Executive.txt  
    #>  2  2008       1 Legislative https://floridalobbyist.gov/reports/2008_Quarter1_Legislative.txt
    #>  3  2008       2 Executive   https://floridalobbyist.gov/reports/2008_Quarter2_Executive.txt  
    #>  4  2008       2 Legislative https://floridalobbyist.gov/reports/2008_Quarter2_Legislative.txt
    #>  5  2008       3 Executive   https://floridalobbyist.gov/reports/2008_Quarter3_Executive.txt  
    #>  6  2008       3 Legislative https://floridalobbyist.gov/reports/2008_Quarter3_Legislative.txt
    #>  7  2008       4 Executive   https://floridalobbyist.gov/reports/2008_Quarter4_Executive.txt  
    #>  8  2008       4 Legislative https://floridalobbyist.gov/reports/2008_Quarter4_Legislative.txt
    #>  9  2009       1 Executive   https://floridalobbyist.gov/reports/2009_Quarter1_Executive.txt  
    #> 10  2009       1 Legislative https://floridalobbyist.gov/reports/2009_Quarter1_Legislative.txt
    #> # … with 86 more rows
…
``` r
raw_dir <- here("fl", "lobbying", "data", "raw")
dir_create(raw_dir)
```

``` r
if (!all_files_new(raw_dir, glob = "*.txt$")) {
  for (url in urls) {
    download.file(url, destfile = str_c(raw_dir, basename(url), sep = "/"))
  }
}
```

    #> # A tibble: 88 x 4
    #>    path                                                type         size birth_time         
    #>    <chr>                                               <fct> <fs::bytes> <dttm>             
    #>  1 /fl/lobbying/data/raw/2008_Quarter1_Executive.txt   file         653K 2019-10-08 17:26:36
    #>  2 /fl/lobbying/data/raw/2008_Quarter1_Legislative.txt file         789K 2019-10-08 17:26:44
    #>  3 /fl/lobbying/data/raw/2008_Quarter2_Executive.txt   file         667K 2019-10-08 17:26:37
    #>  4 /fl/lobbying/data/raw/2008_Quarter2_Legislative.txt file         801K 2019-10-08 17:26:45
    #>  5 /fl/lobbying/data/raw/2008_Quarter3_Executive.txt   file         694K 2019-10-08 17:26:39
    #>  6 /fl/lobbying/data/raw/2008_Quarter3_Legislative.txt file         815K 2019-10-08 17:26:46
    #>  7 /fl/lobbying/data/raw/2008_Quarter4_Executive.txt   file         713K 2019-10-08 17:26:40
    #>  8 /fl/lobbying/data/raw/2008_Quarter4_Legislative.txt file         830K 2019-10-08 17:26:50
    #>  9 /fl/lobbying/data/raw/2009_Quarter1_Executive.txt   file         684K 2019-10-08 17:26:51
    #> 10 /fl/lobbying/data/raw/2009_Quarter1_Legislative.txt file         813K 2019-10-08 17:26:56
    #> # … with 78 more rows
…
    sep = " ",
    remove = FALSE,
    na.rm = TRUE
  ) %>% 
  mutate(
    address_norm = normal_address(
      address = address_full,
      add_abbs = usps_street,
      na_rep = TRUE
    )
  ) %>% 
  select(-address_full)
```

    #> # A tibble: 2,699 x 3
    #>    address_line_1              address_line_2 address_norm                      
    #>    <chr>                       <chr>          <chr>                             
    #>  1 1450 Brickell Avenue        Suite 2300     1450 BRICKELL AVENUE SUITE 2300   
    #>  2 3600 Maclay Boulevard       Suite 101      3600 MACLAY BOULEVARD SUITE 101   
    #>  3 Po Box 98                   <NA>           PO BOX 98                         
    #>  4 633 Sunflower Rd            <NA>           633 SUNFLOWER ROAD                
    #>  5 PO Box 1231                 <NA>           PO BOX 1231                       
    #>  6 2822 Remington Green Circle <NA>           2822 REMINGTON GREEN CIRCLE       
    #>  7 PRINCIPAL                   Wendy Bitner   PRINCIPAL WENDY BITNER            
    #>  8 1101 West Swann Avenue      <NA>           1101 WEST SWANN AVENUE            
    #>  9 693 Forest Lair             <NA>           693 FOREST LAIR                   
    #> 10 200 S Orange Ave Ste 2300   <NA>           200 SOUTH ORANGE AVENUE SUITE 2300
    #> # … with 2,689 more rows
…
#### Phone

``` r
fll %>%
  filter(phone_number != phone_norm) %>% 
  select(
    phone_number,
    phone_norm
  ) %>% 
  drop_na() %>% 
  distinct() %>% 
  sample_frac()
#> # A tibble: 1,174 x 2
#>    phone_number  phone_norm    
#>    <chr>         <chr>         
#>  1 (813)831-1500 (813) 831-1500
#>  2 (904)612-3589 (904) 612-3589
#>  3 (305)698-7992 (305) 698-7992
#>  4 (305)342-6111 (305) 342-6111
#>  5 (850)421-9100 (850) 421-9100
#>  6 (813)421-3797 (813) 421-3797
#>  7 (850)212-8870 (850) 212-8870
#>  8 (850)222-7718 (850) 222-7718
#>  9 (850)561-3503 (850) 561-3503
#> 10 (850)222-5155 (850) 222-5155
#> # … with 1,164 more rows
```
…
    sep = " ",
    remove = FALSE,
    na.rm = TRUE
  ) %>% 
  mutate(
    principal_address_norm = normal_address(
      address = principal_address_full,
      add_abbs = usps_street,
      na_rep = TRUE
    )
  ) %>% 
  select(-principal_address_full)
```

    #> # A tibble: 15,931 x 3
    #>    principal_address_line_1         principal_address_line… principal_address_norm                 
    #>    <chr>                            <chr>                   <chr>                                  
    #>  1 1 N Ft Lauderdale Beach Blvd #1… <NA>                    1 NORTH FORT LAUDERDALE BEACH BOULEVAR…
    #>  2 3250 Lacey Road                  <NA>                    3250 LACEY ROAD                        
    #>  3 c/o 110 Paces Run                <NA>                    CO 110 PACES RUN                       
    #>  4 204 S Monroe St ste 105          <NA>                    204 SOUTH MONROE STREET SUITE 105      
    #>  5 631 US Hwy One Ste 304           <NA>                    631 US HIGHWAY ONE SUITE 304           
    #>  6 6 City Place Dr 10th Floor       <NA>                    6 CITY PLACE DRIVE 10TH FLOOR          
    #>  7 341 North Matiland Avenue        Suite 115               341 NORTH MATILAND AVENUE SUITE 115    
    #>  8 4209 Baymeadows Rd               <NA>                    4209 BAYMEADOWS ROAD                   
    #>  9 1990 Central Ave                 <NA>                    1990 CENTRAL AVENUE                    
    #> 10 7777 NW 72 Avenue                <NA>                    7777 NORTHWEST 72 AVENUE               
    #> # … with 15,921 more rows
…
#### Phone

``` r
fll <- fll %>% 
  mutate(
    principal_phone_norm = normal_phone(
      number = principal_phone_number,
      format = "(%a) %e-%l",
      na_bad = FALSE,
      rm_ext = TRUE
    )
  )
```

    #> # A tibble: 13,629 x 2
    #>    principal_phone_number principal_phone_norm
    #>    <chr>                  <chr>               
    #>  1 (650)859-5548          (650) 859-5548      
    #>  2 (909)483-2444          (909) 483-2444      
    #>  3 (305)593-6100          (305) 593-6100      
    #>  4 (215)299-6000          (215) 299-6000      
    #>  5 (202)223-8204          (202) 223-8204      
    #>  6 (863)938-8121          (863) 938-8121      
    #>  7 (302)674-4089          (302) 674-4089      
    #>  8 (954)382-8229          (954) 382-8229      
    #>  9 (800)241-1853          (800) 241-1853      
    #> 10 (305)222-1212          (305) 222-1212      
    #> # … with 13,619 more rows
…
    sep = " ",
    remove = FALSE,
    na.rm = TRUE
  ) %>% 
  mutate(
    prime_firm_address_norm = normal_address(
      address = prime_firm_address_full,
      add_abbs = usps_street,
      na_rep = TRUE
    )
  ) %>% 
  select(-prime_firm_address_full)
```

    #> # A tibble: 2,055 x 3
    #>    prime_firm_address_line_1 prime_firm_address_line_2 prime_firm_address_norm              
    #>    <chr>                     <chr>                     <chr>                                
    #>  1 215 South Monroe          Suite 200                 215 SOUTH MONROE SUITE 200           
    #>  2 713 E Park Ave            <NA>                      713 EAST PARK AVENUE                 
    #>  3 215 S. Monroe Street      2nd Floor                 215 SOUTH MONROE STREET 2ND FLOOR    
    #>  4 108 S. Monroe St., #200   <NA>                      108 SOUTH MONROE STREET 200          
    #>  5 519 E. Park Ave.          <NA>                      519 EAST PARK AVENUE                 
    #>  6 301 E. Pine Street        <NA>                      301 EAST PINE STREET                 
    #>  7 110 E. Broward Blvd.      Suite 1700                110 EAST BROWARD BOULEVARD SUITE 1700
    #>  8 301 East Pine Street      Suite 1400                301 EAST PINE STREET SUITE 1400      
    #>  9 US                        (305) 569-0015            US 305 569 0015                      
    #> 10 123 S> Calhoun St         <NA>                      123 SOUTH> CALHOUN STREET            
    #> # … with 2,045 more rows
…
#### Phone

``` r
fll <- fll %>% 
  mutate(
    prime_firm_phone_norm = normal_phone(
      number = prime_firm_phone_number,
      format = "(%a) %e-%l",
      na_bad = FALSE,
      rm_ext = TRUE
    )
  )
```

    #> # A tibble: 344 x 2
    #>    prime_firm_phone_number prime_firm_phone_norm
    #>    <chr>                   <chr>                
    #>  1 (813)527-0172           (813) 527-0172       
    #>  2 (850)841-1726           (850) 841-1726       
    #>  3 (305)529-9492           (305) 529-9492       
    #>  4 (202)783-6800           (202) 783-6800       
    #>  5 (850)224-9634           (850) 224-9634       
    #>  6 (305)433-6300           (305) 433-6300       
    #>  7 (850)509-6999           (850) 509-6999       
    #>  8 (866)330-1355           (866) 330-1355       
    #>  9 (850)570-2778           (850) 570-2778       
    #> 10 (850)205-9000           (850) 205-9000       
    #> # … with 334 more rows
