…
``` r
ms_geo <- ms_ppp %>% 
  select(all_of(id_vars)) %>% 
  group_by(address_clean, city_clean, state_clean, zip) %>% 
  mutate(num_loans = n(), group = cur_group_id(), .before = 1) %>% 
  arrange(desc(num_loans)) %>% 
  filter(num_loans > 1)
```

``` r
ms_geo %>% 
  group_by(group, num_loans) %>% 
  summarise(mil_loan = sum(loan_amount)/1e6) %>% 
  arrange(desc(mil_loan))
#> # A tibble: 3,393 x 3
#>    group num_loans mil_loan
#>    <int>     <int>    <dbl>
#>  1 29323         7    17.6 
#>  2 11555        10    10.2 
#>  3  6931         4    10.1 
#>  4  1515         2     8.80
#>  5 22496         2     8.57
#>  6 34299         3     7.89
#>  7 29042        30     5.98
#>  8 41871         3     5.60
#>  9 31759         2     5.45
#> 10 34612         3     5.44
#> # … with 3,383 more rows
```

``` r
ms_geo %>% 
  group_by(group, num_loans) %>% 
  summarise(mil_loan = sum(loan_amount)/1e6) %>% 
  arrange(desc(num_loans))
#> # A tibble: 3,393 x 3
#>    group num_loans mil_loan
#>    <int>     <int>    <dbl>
#>  1 19583        51    2.60 
#>  2 11711        38    1.73 
#>  3 29042        30    5.98 
#>  4 19576        26    2.16 
#>  5   465        22    2.94 
#>  6 22917        20    1.42 
#>  7 23746        20    0.595
#>  8 30184        20    0.708
#>  9 36023        19    2.79 
#> 10   913        18    0.903
#> # … with 3,383 more rows
```

``` r
ms_geo %>% 
  group_by(group, num_loans) %>% 
  arrange(desc(num_loans)) %>% 
  select(id_vars)
#> # A tibble: 8,558 x 11
#>    group num_loans lender loan_amount date_approved jobs_reported business_name address_clean
#>    <int>     <int> <chr>        <dbl> <date>                <dbl> <chr>         <chr>        
#>  1 19583        51 Trust…     389165  2020-04-08               49 CATHOLIC DIO… 237 E AMITE …
#>  2 19583        51 Trust…      73880  2020-04-10               21 ST FRANCIS O… 237 E AMITE …
#>  3 19583        51 Trust…      45520  2020-04-10                6 THE CATHEDRA… 237 E AMITE …
#>  4 19583        51 Trust…      21480  2020-04-10                4 CHRIST THE K… 237 E AMITE …
#>  5 19583        51 Trust…       6080  2020-04-10                4 HOLY CROSS C… 237 E AMITE …
#>  6 19583        51 Trust…      12757  2020-04-11                4 ST JAMES THE… 237 E AMITE …
#>  7 19583        51 Trust…       1546. 2020-04-11                2 SACRED HEART… 237 E AMITE …
#>  8 19583        51 Trust…       1250  2020-04-11                1 ST MICHAEL C… 237 E AMITE …
#>  9 19583        51 Trust…     124633  2020-04-14               32 ST. PATRICK … 237 E AMITE …
#> 10 19583        51 Trust…      75517  2020-04-14               13 ST JAMES THE… 237 E AMITE …
#> # … with 8,548 more rows, and 3 more variables: city_clean <chr>, state_clean <chr>, zip <chr>
```
