…
Loan data is divided into one `foia_150k_plus.csv` file and 57
`foia_up_to_150k_*.csv` files for each state and territory.

``` r
raw_dir %>% 
  dir_info(regexp = "csv$") %>% 
  select(path, size, modification_time) %>% 
  mutate(across(path, basename)) %>% 
  as_tibble()
#> # A tibble: 58 x 3
#>    path                          size modification_time  
#>    <chr>                  <fs::bytes> <dttm>             
#>  1 foia_150k_plus.csv         124.95M 2020-07-09 17:50:10
#>  2 foia_up_to_150k_AK.csv        1.2M 2020-07-09 17:50:08
#>  3 foia_up_to_150k_AL.csv       7.22M 2020-07-09 17:50:08
#>  4 foia_up_to_150k_AR.csv       4.75M 2020-07-09 17:50:08
#>  5 foia_up_to_150k_AS.csv      25.43K 2020-07-09 17:50:08
#>  6 foia_up_to_150k_AZ.csv       9.35M 2020-07-09 17:50:09
#>  7 foia_up_to_150k_CA.csv      64.38M 2020-07-09 17:50:10
#>  8 foia_up_to_150k_CO.csv      11.73M 2020-07-09 17:50:08
#>  9 foia_up_to_150k_CT.csv       7.15M 2020-07-09 17:50:08
#> 10 foia_up_to_150k_DC.csv        1.3M 2020-07-09 17:50:08
#> # … with 48 more rows
```
…
``` r
d1 <- duplicated(ppp, fromLast = FALSE)
d2 <- duplicated(ppp, fromLast = TRUE)
ppp <- mutate(ppp, dupe_flag = d1 | d2)
percent(mean(ppp$dupe_flag), 0.01)
#> [1] "0.16%"
rm(d1, d2); flush_memory()
```

``` r
ppp %>% 
  filter(dupe_flag) %>% 
  select(loan_range, business_name, lender, date_approved)
#> # A tibble: 7,805 x 4
#>    loan_range         business_name                     lender                        date_approved
#>    <fct>              <chr>                             <chr>                         <date>       
#>  1 d $350,000-1 mill… CREATIVE COMPOUNDS INC            Wells Fargo Bank, National A… 2020-04-29   
#>  2 d $350,000-1 mill… CREATIVE COMPOUNDS INC            Wells Fargo Bank, National A… 2020-04-29   
#>  3 e $150,000-350,000 JOHNS INCREDIBLE PIZZA            Citizens Bank, National Asso… 2020-04-15   
#>  4 e $150,000-350,000 JOHNS INCREDIBLE PIZZA            Citizens Bank, National Asso… 2020-04-15   
#>  5 e $150,000-350,000 TAHOE KEYS RESORT INC             Greater Nevada CU             2020-04-16   
#>  6 e $150,000-350,000 TAHOE KEYS RESORT INC             Greater Nevada CU             2020-04-16   
#>  7 e $150,000-350,000 POU LLC                           Radius Bank                   2020-06-30   
#>  8 e $150,000-350,000 POU LLC                           Radius Bank                   2020-06-30   
#>  9 e $150,000-350,000 THE LEARNING TREE CHILD CARE CEN… TCF National Bank             2020-04-14   
#> 10 e $150,000-350,000 THE LEARNING TREE CHILD CARE CEN… TCF National Bank             2020-04-14   
#> # … with 7,795 more rows
```
…
### State

The `state` variable is also entirely clean, aside from two values.

For these values of “XX” with a valid `zip` variable, we can use the
matched state abbreviation instead.

``` r
ppp %>% 
  filter(state %out% valid_state) %>% 
  count(state, zip, city, sort = TRUE) %>% 
  left_join(zipcodes, by = "zip")
#> # A tibble: 45 x 6
#>    state.x zip   city.x            n city.y        state.y
#>    <chr>   <chr> <chr>         <int> <chr>         <chr>  
#>  1 XX      <NA>  <NA>            166 <NA>          <NA>   
#>  2 XX      03800 <NA>              2 <NA>          <NA>   
#>  3 FI      33069 POMPANO BEACH     1 POMPANO BEACH FL     
#>  4 XX      01423 <NA>              1 <NA>          <NA>   
#>  5 XX      01776 SUDBURY           1 SUDBURY       MA     
#>  6 XX      01812 <NA>              1 ANDOVER       MA     
#>  7 XX      02006 <NA>              1 <NA>          <NA>   
#>  8 XX      02414 <NA>              1 <NA>          <NA>   
#>  9 XX      02744 <NA>              1 NEW BEDFORD   MA     
#> 10 XX      02910 <NA>              1 CRANSTON      RI     
#> # … with 35 more rows
```
…
      key_collision_merge() %>% 
      n_gram_merge(numgram = 1)
  ) %>% 
  filter(city_refine != city_swap) %>% 
  inner_join(
    y = zipcodes,
    by = c(
      "city_refine" = "city",
      "state_norm" = "state",
      "zip" = "zip"
    )
  )
```

    #> # A tibble: 686 x 5
    #>    state_norm zip   city_swap              city_refine        n
    #>    <chr>      <chr> <chr>                  <chr>          <int>
    #>  1 SC         29406 NORTH CHARLESTON       CHARLESTON       393
    #>  2 NY         11733 SETAUKET               EAST SETAUKET     92
    #>  3 CA         90292 MARINA DALE REY        MARINA DEL REY    90
    #>  4 NY         11733 SETAUKET EAST SETAUKET EAST SETAUKET     30
    #>  5 CA         92625 CORONA DALE MAR        CORONA DEL MAR    28
    #>  6 IN         46184 NEW WHITELAND          WHITELAND         18
    #>  7 IL         60429 EAST HAZEL CREST       HAZEL CREST       15
    #>  8 HI         96813 HONOLULULULU           HONOLULU           6
    #>  9 IL         60067 PALENTINE              PALATINE           6
    #> 10 HI         96813 HONOLULUNOLULU         HONOLULU           5
    #> # … with 676 more rows
…
