…
``` r
data_dir <- "../nursing_home/data"
nursing <- read_csv(dir_ls(data_dir,regexp = "nursing_infection.*"))
covid <- read_csv((dir_ls(data_dir,regexp = "U.S."))) %>% 
  clean_names() %>% 
  rename(provname = provider_name,
         provnum = cms_provider_number)
```

We can take a glimpse of the COVID-19 dataset.

``` r
sample_frac(covid)
#> # A tibble: 2,747 x 6
#>       x1 provname                                       county   state ownership_type provnum
#>    <dbl> <chr>                                          <chr>    <chr> <chr>          <chr>  
#>  1   834 WESTWOOD HEALTHCARE AND REHABILITATION         Bulloch  GA    For profit     115601 
#>  2  2745 SUMMERSVILLE REGIONAL MEDICAL CENTER           Nicholas WV    Government     515029 
#>  3  2255 FOREST MANOR HCC                               Warren   NJ    For profit     315224 
#>  4   889 PRUITTHEALTH - BROOKHAVEN                      De Kalb  GA    For profit     115313 
#>  5  1833 RIVERVIEW HEALTH & REHAB CENTER                Wayne    MI    For profit     235659 
#>  6  1246 EDMONSON CENTER                                Edmonson KY    For profit     185401 
#>  7  1527 RECUPERATIVE SERVICES UNIT-HEBREW REHAB CENTER Suffolk  MA    Non profit     225759 
#>  8   387 JULIA TEMPLE HEALTHCARE CENTER                 Arapahoe CO    For profit     065322 
#>  9   826 ARCHWAY TRANSITIONAL CARE CENTER               Bibb     GA    Non profit     115728 
#> 10   943 LAUREL PARK AT HENRY MED CTR                   Henry    GA    For profit     115673 
#> # … with 2,737 more rows
…
