…
Only the recipient name is missing for these few values.

``` r
hhs %>% 
  filter(na_flag) %>% 
  select(date, agency, amount, recipient, parent) %>% 
  sample_frac()
#> # A tibble: 39 x 5
#>    date       agency                                         amount recipient parent
#>    <date>     <chr>                                           <dbl> <chr>     <chr> 
#>  1 2008-04-03 DEPARTMENT OF HEALTH AND HUMAN SERVICES (HHS)   -110  <NA>      <NA>  
#>  2 2008-04-25 DEPARTMENT OF HEALTH AND HUMAN SERVICES (HHS)  -1326  <NA>      <NA>  
#>  3 2011-09-28 DEPARTMENT OF HEALTH AND HUMAN SERVICES (HHS) -25753. <NA>      <NA>  
#>  4 2008-04-07 DEPARTMENT OF HEALTH AND HUMAN SERVICES (HHS)  -3000  <NA>      <NA>  
#>  5 2008-04-03 DEPARTMENT OF HEALTH AND HUMAN SERVICES (HHS)  -2500  <NA>      <NA>  
#>  6 2010-04-23 DEPARTMENT OF HEALTH AND HUMAN SERVICES (HHS)      0  <NA>      <NA>  
#>  7 2015-07-30 DEPARTMENT OF HEALTH AND HUMAN SERVICES (HHS)   -144  <NA>      <NA>  
#>  8 2012-08-24 DEPARTMENT OF HEALTH AND HUMAN SERVICES (HHS)  10176. <NA>      <NA>  
#>  9 2013-09-09 DEPARTMENT OF HEALTH AND HUMAN SERVICES (HHS)      0  <NA>      <NA>  
#> 10 2008-05-02 DEPARTMENT OF HEALTH AND HUMAN SERVICES (HHS)  -6684. <NA>      <NA>  
#> # … with 29 more rows
```
…
There are a number of records that could potentially be duplicates of
one another. Much of them have an `amount` value of zero, so they might
not be true duplicates. We can flag them nonetheless.

``` r
hhs <- flag_dupes(hhs, -key)
sum(hhs$dupe_flag)
#> [1] 2269
```

``` r
hhs %>% 
  filter(dupe_flag) %>% 
  select(date, agency, amount, recipient)
#> # A tibble: 2,269 x 4
#>    date       agency                            amount recipient                                   
#>    <date>     <chr>                              <dbl> <chr>                                       
#>  1 2008-08-12 DEPARTMENT OF HEALTH AND HUMAN S…  65000 SIEMENS HEALTHCARE DIAGNOSTICS INC          
#>  2 2008-08-12 DEPARTMENT OF HEALTH AND HUMAN S…  65000 SIEMENS HEALTHCARE DIAGNOSTICS INC          
#>  3 2010-03-19 DEPARTMENT OF HEALTH AND HUMAN S… 100000 JOINT COMMISSION ON ACCREDITATION OF HEALTH…
#>  4 2010-03-19 DEPARTMENT OF HEALTH AND HUMAN S… 100000 JOINT COMMISSION ON ACCREDITATION OF HEALTH…
#>  5 2008-07-28 DEPARTMENT OF HEALTH AND HUMAN S…      0 DELMARVA FOUNDATION FOR MEDICAL CARE INCORP…
#>  6 2010-06-17 DEPARTMENT OF HEALTH AND HUMAN S…      0 HEALTHCARE MANAGEMENT SOLUTIONS, L.L.C.     
#>  7 2010-06-17 DEPARTMENT OF HEALTH AND HUMAN S…      0 HEALTHCARE MANAGEMENT SOLUTIONS, L.L.C.     
#>  8 2008-12-24 DEPARTMENT OF HEALTH AND HUMAN S…      0 MATHEMATICA POLICY RESEARCH INCORPORATED    
#>  9 2008-12-24 DEPARTMENT OF HEALTH AND HUMAN S…      0 MATHEMATICA POLICY RESEARCH INCORPORATED    
#> 10 2012-01-17 DEPARTMENT OF HEALTH AND HUMAN S…      0 CANGENE CORPORATION                         
#> # … with 2,259 more rows
```
…
