…
3.5% of records are missing some value.

``` r
mean(coc$na_flag)
#> [1] 0.03526525
```

All of these records are missing the contributor `last` name.

``` r
coc %>% 
  filter(na_flag) %>% 
  select(date, contributor, amount, committee)
#> # A tibble: 100,602 x 4
#>    date       contributor                              amount committee                            
#>    <date>     <chr>                                     <dbl> <chr>                                
#>  1 NA         JERROLD GLICK                            1000   A SMARTER COLORADO                   
#>  2 NA         REALTOR ISSUES POLITICAL ACTION COMMIT…  4050   CITIZENS FOR EXCELLENCE (YSVVSC)     
#>  3 2018-06-13 <NA>                                     1000   COMMITTEE TO ELECT DANEYA ESGAR      
#>  4 2018-06-13 <NA>                                    -1000   COMMITTEE TO ELECT DANEYA ESGAR      
#>  5 2006-09-20 <NA>                                     2353.  FRIENDS OF JEFF CHOSTNER             
#>  6 2006-09-29 <NA>                                       98.3 COMMITTEE TO ELECT GILBERT ORTIZ     
#>  7 2006-10-21 <NA>                                    48076.  DAN L. CORSENTINO FOR SHERIFF        
#>  8 2016-06-23 <NA>                                     4020.  YES FOR HEALTH AND SAFETY OVER FRACK…
#>  9 2016-06-23 <NA>                                    -4020.  YES FOR HEALTH AND SAFETY OVER FRACK…
#> 10 NA         LUND, OLEN AND DEBRA                     -791.  FRIENDS THAT SUPPORT OLEN LUND       
#> # … with 100,592 more rows
```
…
``` r
percent(mean(coc$dupe_flag), 0.01)
#> [1] "3.97%"
```

``` r
coc %>% 
  filter(dupe_flag) %>% 
  arrange(date) %>% 
  select(date, last, amount, committee) %>% 
  arrange(desc(date))
#> # A tibble: 113,262 x 4
#>    date       last                                              amount committee                   
#>    <date>     <chr>                                              <dbl> <chr>                       
#>  1 2020-09-20 <NA>                                                 360 POLITICAL COMMITTEE L 4056 …
#>  2 2020-09-20 <NA>                                                 360 POLITICAL COMMITTEE L 4056 …
#>  3 2020-09-19 <NA>                                                 365 POLITICAL COMMITTEE L 4056 …
#>  4 2020-09-19 <NA>                                                 365 POLITICAL COMMITTEE L 4056 …
#>  5 2020-09-19 <NA>                                                 365 POLITICAL COMMITTEE L 4056 …
#>  6 2020-09-16 ANTHEM, INC. POLITICAL ACTION COMMITTEE (ANTHEM …    200 CHAMPION4COLORADO           
#>  7 2020-09-16 ANTHEM, INC. POLITICAL ACTION COMMITTEE (ANTHEM …    200 CHAMPION4COLORADO           
#>  8 2020-09-16 OCCIDENTAL PETROLEUM CORPORATION POLITICAL ACTIO…    200 COMMITTEE TO ELECT HUGH MCK…
#>  9 2020-09-16 OCCIDENTAL PETROLEUM CORPORATION POLITICAL ACTIO…    200 COMMITTEE TO ELECT HUGH MCK…
#> 10 2020-09-16 STATE FARM FEDERAL PAC                               200 COMMITTEE TO ELECT HUGH MCK…
#> # … with 113,252 more rows
```
…
``` r
coc %>% 
  filter(state_norm %out% valid_state) %>% 
  count(state, state_norm, sort = TRUE)
#> # A tibble: 120 x 3
#>    state state_norm      n
#>    <chr> <chr>       <int>
#>  1 <NA>  <NA>       104608
#>  2 AA    <NA>          422
#>  3 (N    N             141
#>  4 D.    D              99
#>  5 UN    UN             80
#>  6 TE    TE             55
#>  7 ON    ON             49
#>  8 NO    NO             46
#>  9 80    <NA>           42
#> 10 BC    BC             36
#> # … with 110 more rows
```
…
      key_collision_merge() %>% 
      n_gram_merge(numgram = 1)
  ) %>% 
  filter(city_refine != city_swap) %>% 
  inner_join(
    y = zipcodes,
    by = c(
      "city_refine" = "city",
      "state_norm" = "state",
      "zip_norm" = "zip"
    )
  )
```

    #> # A tibble: 271 x 5
    #>    state_norm zip_norm city_swap          city_refine           n
    #>    <chr>      <chr>    <chr>              <chr>             <int>
    #>  1 CO         80816    FLORRISANT         FLORISSANT           65
    #>  2 NY         11733    SETAUKET           EAST SETAUKET        19
    #>  3 CO         80545    RED FEATHERS LAKE  RED FEATHER LAKES    17
    #>  4 IL         60010    NO BARRINGTON      BARRINGTON           17
    #>  5 CO         80521    FORT COLLINS CO    FORT COLLINS         12
    #>  6 OH         45206    CINCINATTI         CINCINNATI           11
    #>  7 OH         45232    CINCINATTI         CINCINNATI           10
    #>  8 CO         80526    FORT COLLINS CO    FORT COLLINS          9
    #>  9 CO         80905    COLORADO SPRINGSGS COLORADO SPRINGS      9
    #> 10 CO         80202    DENVERDENVER       DENVER                5
    #> # … with 261 more rows
…
``` r
coc <- coc %>% 
  left_join(good_refine, by = names(.)) %>% 
  mutate(city_refine = coalesce(city_refine, city_swap))
```

#### Progress

``` r
many_city <- c(valid_city, extra_city, "PUEBLO WEST", "CASTLE PINES")
coc$city_refine <- na_if(coc$city_refine, "UNKNOWNCITY")
coc %>% 
  filter(city_refine %out% many_city) %>% 
  count(city_refine, state_norm, sort = TRUE)
#> # A tibble: 3,219 x 3
#>    city_refine      state_norm      n
#>    <chr>            <chr>       <int>
#>  1 <NA>             <NA>       104299
#>  2 <NA>             CO          10383
#>  3 BLACK FOREST     CO            427
#>  4 SAN MARCOS PASS  <NA>          404
#>  5 WHEATRIDGE       CO            348
#>  6 WESTMINISTER     CO            332
#>  7 CHERRY HILLS     CO            308
#>  8 GREENWOODVILLAGE CO            299
#>  9 LONETREE         CO            292
#> 10 FOXFIELD         CO            279
#> # … with 3,209 more rows
```
…
