…
13.7% of records are missing a key variable.

``` r
ale %>% 
  filter(na_flag) %>% 
  select(all_of(key_vars))
#> # A tibble: 47,045 × 4
#>    date       last_name amount committee                                              
#>    <date>     <chr>      <dbl> <chr>                                                  
#>  1 2013-01-01 <NA>       235   JAMES EDWARD BUSKEY                                    
#>  2 2013-01-01 <NA>        10   GULF PAC                                               
#>  3 2013-01-01 <NA>         1   STORMING THE STATE HOUSE POLITICAL ACTION COMMITTEE    
#>  4 2013-01-02 <NA>        45   MICHAEL G. HUBBARD                                     
#>  5 2013-01-02 <NA>        10.4 TALLADEGA COUNTY REPUBLICAN PARTY                      
#>  6 2013-01-03 <NA>        10   MIKE BALL                                              
#>  7 2013-01-03 <NA>        95.6 ALABAMA HOSPITAL ASSOCIATION POLITICAL ACTION COMMITTEE
#>  8 2013-01-03 <NA>        50   TALLADEGA COUNTY REPUBLICAN PARTY                      
#>  9 2013-01-05 <NA>        42   JOHNNY MACK MORROW                                     
#> 10 2013-01-08 <NA>        36.0 UNITED TRANSPORTATION UNION                            
#> # … with 47,035 more rows
```
…
``` r
ale$na_flag[str_which(ale$type, "Non-Itemized")] <- FALSE
sum(ale$na_flag)
#> [1] 48
```

This leaves us with very few records.

``` r
ale %>% 
  filter(na_flag) %>% 
  select(all_of(key_vars), type)
#> # A tibble: 48 × 5
#>    date       last_name                                                                             amount commi…¹ type 
#>    <date>     <chr>                                                                                  <dbl> <chr>   <chr>
#>  1 2013-03-19  <NA>                                                                                 1   e2 TALLAD… Item…
#>  2 2013-11-08  <NA>                                                                                 9.37e1 SUZELL… Item…
#>  3 2013-11-12  <NA>                                                                                 2.44e1 SUZELL… Item…
#>  4 2014-09-04 "LOWTHER"                                                                             8.49e2 <NA>    <NA> 
#>  5 2015-01-09 "Other"                                                                               6.71e4 <NA>    <NA> 
#>  6 2015-02-09  <NA>                                                                                 5   e3 ALABAM… Item…
#>  7 2016-06-01  <NA>                                                                                 1   e2 MERCER… Item…
#>  8 2016-07-13 "COLVERT"                                                                             5   e2 <NA>    <NA> 
#>  9 2015-07-17 "LOWTHER"                                                                             3.94e2 <NA>    <NA> 
#> 10 2016-10-26 "SPORTS RADIO 93.9 'THE SCORE\"\",\"\",\"\",\"\",\"P. O. BOX 146\",\"FLORENCE\",\"AL… 6.2 e2 <NA>    <NA> 
#> # … with 38 more rows, and abbreviated variable name ¹​committee
```
…
We can also flag any record completely duplicated across every column.

``` r
ale <- flag_dupes(ale, -id)
sum(ale$dupe_flag)
#> [1] 4165
```

1.2% of records are duplicates.

``` r
ale %>% 
  filter(dupe_flag) %>% 
  select(id, all_of(key_vars))
#> # A tibble: 4,165 × 5
#>    id    date       last_name amount committee                      
#>    <chr> <date>     <chr>      <dbl> <chr>                          
#>  1 2908  2013-01-28 BARTON      1000 ENPAC                          
#>  2 2916  2013-01-28 BARTON      1000 ENPAC                          
#>  3 11601 2013-02-08 <NA>          17 CULLMAN COUNTY REPUBLICAN WOMEN
#>  4 11602 2013-02-08 <NA>          17 CULLMAN COUNTY REPUBLICAN WOMEN
#>  5 11603 2013-02-08 <NA>          17 CULLMAN COUNTY REPUBLICAN WOMEN
#>  6 11604 2013-02-08 <NA>          17 CULLMAN COUNTY REPUBLICAN WOMEN
#>  7 11605 2013-02-08 <NA>          17 CULLMAN COUNTY REPUBLICAN WOMEN
#>  8 11590 2013-02-11 <NA>          17 CULLMAN COUNTY REPUBLICAN WOMEN
#>  9 11591 2013-02-11 <NA>          17 CULLMAN COUNTY REPUBLICAN WOMEN
#> 10 11592 2013-02-11 <NA>          17 CULLMAN COUNTY REPUBLICAN WOMEN
#> # … with 4,155 more rows
```
…
``` r
ale$dupe_flag[str_which(ale$type, "Non-Itemized")] <- FALSE
sum(ale$dupe_flag)
#> [1] 1979
```

This removes most, but not all, duplicate records.

``` r
ale %>% 
  filter(dupe_flag) %>% 
  select(id, all_of(key_vars), type)
#> # A tibble: 1,979 × 6
#>    id    date       last_name        amount committee             type    
#>    <chr> <date>     <chr>             <dbl> <chr>                 <chr>   
#>  1 2908  2013-01-28 BARTON            1000  ENPAC                 Itemized
#>  2 2916  2013-01-28 BARTON            1000  ENPAC                 Itemized
#>  3 3366  2013-02-27 FASTSPRING         180. BRYAN MCDANIEL TAYLOR Itemized
#>  4 3367  2013-02-27 CONSTANT CONTACT    35  BRYAN MCDANIEL TAYLOR Itemized
#>  5 3373  2013-02-27 CONSTANT CONTACT    35  BRYAN MCDANIEL TAYLOR Itemized
#>  6 3376  2013-02-27 FASTSPRING         180. BRYAN MCDANIEL TAYLOR Itemized
#>  7 220   2013-05-08 SAHR GROUP        2000  ALABAMA 2014 PAC      Itemized
#>  8 221   2013-05-08 SAHR GROUP        2000  ALABAMA 2014 PAC      Itemized
#>  9 222   2013-05-08 SAHR GROUP        2000  ALABAMA 2014 PAC      Itemized
#> 10 4308  2013-08-01 WHALEY             200  RAY BRYAN             Itemized
#> # … with 1,969 more rows
```
…
``` r
addr_norm <- ale %>% 
  distinct(address1) %>% 
  mutate(
    address_norm = normal_address(
      address = address1,
      abbs = usps_street,
      na_rep = TRUE
    )
  )
```

``` r
addr_norm
#> # A tibble: 71,813 × 2
#>    address1                       address_norm                 
#>    <chr>                          <chr>                        
#>  1 510 5TH ST SW                  510 5TH ST SW                
#>  2 3050 LANARK ROAD               3050 LANARK RD               
#>  3 <NA>                           <NA>                         
#>  4 6001 MONTICELLO DRIVE          6001 MONTICELLO DR           
#>  5 P.O. BOX 2663                  PO BOX 2663                  
#>  6 60 COMMERCE STREET, SUITE 1400 60 COMMERCE STREET SUITE 1400
#>  7 201 TALLAPOOSA STREET          201 TALLAPOOSA ST            
#>  8 PO BOX 2080                    PO BOX 2080                  
#>  9 PO BOX 536126                  PO BOX 536126                
#> 10 101 TALLAPOOSA STREET          101 TALLAPOOSA ST            
#> # … with 71,803 more rows
```
…
      key_collision_merge() %>% 
      n_gram_merge(numgram = 1)
  ) %>% 
  filter(city_refine != city_swap) %>% 
  inner_join(
    y = zipcodes,
    by = c(
      "city_refine" = "city",
      "state_norm" = "state",
      "zip_norm" = "zip"
    )
  )
```

    #> # A tibble: 61 × 5
    #>    state_norm zip_norm city_swap      city_refine       n
    #>    <chr>      <chr>    <chr>          <chr>         <int>
    #>  1 AL         36104    MONTOMGERY     MONTGOMERY       79
    #>  2 IL         60197    CARROLL STREAM CAROL STREAM     28
    #>  3 CA         94107    SAN FRANSICO   SAN FRANCISCO    20
    #>  4 OH         45249    CINNCINATI     CINCINNATI       13
    #>  5 AL         35121    OENOTA         ONEONTA           8
    #>  6 AL         35768    SCOTTSOBOR     SCOTTSBORO        6
    #>  7 AL         35769    SCOTTSOBOR     SCOTTSBORO        6
    #>  8 OH         45249    CINNICINATI    CINCINNATI        6
    #>  9 AL         35234    BMINGHAMIR     BIRMINGHAM        5
    #> 10 OH         45274    CINCINATTI     CINCINNATI        3
    #> # … with 51 more rows
…
