…
As you can see, the clients of each lobbyist are not listed as a
separate column, but are instead listed as in the first `name` *under*
each lobbyist.

``` r
kslr
#> # A tibble: 2,655 x 8
#>    name     addr_1_addr_2   city_state_zip   phone   fax     email_address  registration_da… client
#>    <chr>    <chr>           <chr>            <chr>   <chr>   <chr>          <date>           <chr> 
#>  1 ALDERSO… 2101 S.W. 21ST… TOPEKA, KS 66604 (785) … (785) … boba@alderson… 2018-11-02       ""    
#>  2 * CASEY… * CASEY'S GENE… * CASEY'S GENER… * CASE… * CASE… * CASEY'S GEN… NA               ""    
#>  3 * KANSA… * KANSAS MANUF… * KANSAS MANUFA… * KANS… * KANS… * KANSAS MANU… NA               ""    
#>  4 * ONE C… * ONE CALL CON… * ONE CALL CONC… * ONE … * ONE … * ONE CALL CO… NA               ""    
#>  5 <NA>     <NA>            <NA>             <NA>    <NA>    <NA>           NA               ""    
#>  6 ALLEN, … 5317 SW 11TH T… TOPEKA, KS 66604 (785) … <NA>    sallen5948@ou… 2018-12-27       ""    
#>  7 * KRITC  * KRITC         * KRITC          * KRITC * KRITC * KRITC        NA               ""    
#>  8 <NA>     <NA>            <NA>             <NA>    <NA>    <NA>           NA               ""    
#>  9 ANDERSO… 2910 SW TOPEKA… TOPEKA, KS 66611 (778) … (785) … leslie@k4ad.o… 2019-06-18       ""    
#> 10 * KANSA… * KANSAS ASSOC… * KANSAS ASSOCI… * KANS… * KANS… * KANSAS ASSO… NA               ""    
#> # … with 2,645 more rows
```
…
