…
``` r
vtc <- flag_dupes(vtc, everything())
sum(vtc$dupe_flag)
#> [1] 1464
```

1.6% of rows are duplicated at once.

``` r
vtc %>% 
  filter(dupe_flag) %>% 
  select(all_of(key_vars)) %>% 
  arrange(transaction_date)
#> # A tibble: 1,464 × 4
#>    transaction_date contributor_name  amount receiving_registrant                              
#>    <date>           <chr>              <dbl> <chr>                                             
#>  1 2014-08-13       Fletcher, Darcy       20 Vermont-NEA Fund for Children and Public Education
#>  2 2014-08-13       Fletcher, Darcy       20 Vermont-NEA Fund for Children and Public Education
#>  3 2014-08-13       Fletcher, Darcy       20 Vermont-NEA Fund for Children and Public Education
#>  4 2014-08-13       Fletcher, Darcy       20 Vermont-NEA Fund for Children and Public Education
#>  5 2014-08-13       Fletcher, Darcy       20 Vermont-NEA Fund for Children and Public Education
#>  6 2014-08-13       Fletcher, Darcy       20 Vermont-NEA Fund for Children and Public Education
#>  7 2014-08-19       Wamble, Louis        100 Morris, Kiah                                      
#>  8 2014-08-19       Wamble, Louis        100 Morris, Kiah                                      
#>  9 2014-09-29       Richmond, Douglas    100 Feliciano, Dan                                    
#> 10 2014-09-29       Richmond, Douglas    100 Feliciano, Dan                                    
#> # … with 1,454 more rows
```
…
First, we notice that the vast majority of the existing `town_city` and
`town_state` variables are missing.

``` r
prop_na(vtc$town_city)
#> [1] 0.2841192
prop_na(vtc$town_state)
#> [1] 0.2296559
vtc %>% 
  select(contributor_address, town_city, town_state) %>% 
  filter(!is.na(town_city) & !is.na(town_state))
#> # A tibble: 63,945 × 3
#>    contributor_address                               town_city        town_state
#>    <chr>                                             <chr>            <chr>     
#>  1 Anonymous                                         South Burlington VT        
#>  2 37 Old Schoolhouse Rd, South Burlington, VT 05403 South Burlington VT        
#>  3 670 Nowland Farm Rd, South Burlington, VT 05403   South Burlington VT        
#>  4 36 Pheasant Way, S. Burlington, VT 05403          S. Burlington    VT        
#>  5 PO Box 1724, El Granada, CA 94018                 El Granada       CA        
#>  6 64 Shea Dr, S. BURLINGTON, VT 05403               S. BURLINGTON    VT        
#>  7 Anonymous                                         Burlington       VT        
#>  8 Anonymous                                         MILTON           VT        
#>  9 Anonymous                                         Providence       RI        
#> 10 Anonymous                                         Brooklyn         NY        
#> # … with 63,935 more rows
```
…
``` r
vtc <- vtc %>% 
  left_join(good_refine, by = names(.)) %>% 
  mutate(city_refine = coalesce(city_refine, city_swap))
```

#### Manual

``` r
many_city <- c(valid_city, extra_city)
vtc %>% 
  count(state_norm, city_refine, sort = TRUE) %>% 
  filter(city_refine %out% many_city)
#> # A tibble: 286 × 3
#>    state_norm city_refine          n
#>    <chr>      <chr>            <int>
#>  1 VT         <NA>               849
#>  2 <NA>       <NA>               836
#>  3 VT         WEYBRIDGE          221
#>  4 VT         GEORGIA            145
#>  5 VT         PANTON             102
#>  6 MA         NEEDHAM HEIGHTS     92
#>  7 VT         ST ALBANS           89
#>  8 VT         BARRE TOWN          81
#>  9 VT         WEST BRATTLEBORO    78
#> 10 VT         FERRISBURGH         76
#> # … with 276 more rows
```
…
