…
### Phone

We can use `campfin::normal_phone()` to convert the numeric phone
numbers into an unambiguous character format. This prevents the column
from being read as a numeric variable.

``` r
wylr <- mutate_at(
  .tbl  = wylr,
  .vars = vars(ends_with("phone")),
  .funs = list(norm = normal_phone)
)
```

    #> # A tibble: 269 × 4
    #>    lob_phone  org_phone    lob_phone_norm org_phone_norm  
    #>    <chr>      <chr>        <chr>          <chr>           
    #>  1 3074136464 "3077333932" (307) 413-6464 "(307) 733-3932"
    #>  2 3077514488 "3077514488" (307) 751-4488 "(307) 751-4488"
    #>  3 3076401913 "3076401913" (307) 640-1913 "(307) 640-1913"
    #>  4 3036404267 ""           (303) 640-4267 ""              
    #>  5 3076311601 "4153896800" (307) 631-1601 "(415) 389-6800"
    #>  6 3072676218 "3074214094" (307) 267-6218 "(307) 421-4094"
    #>  7 3074325814 "3074325814" (307) 432-5814 "(307) 432-5814"
    #>  8 3076358761 "3076358761" (307) 635-8761 "(307) 635-8761"
    #>  9 3077784200 "3077332292" (307) 778-4200 "(307) 733-2292"
    #> 10 3076346484 ""           (307) 634-6484 ""              
    #> # … with 259 more rows
…
``` r
wylr %>% 
  select(starts_with("lob_addr")) %>% 
  distinct() %>% 
  sample_frac()
#> # A tibble: 149 × 4
#>    lob_addr1                   lob_addr2  lob_addr3 lob_addr_norm                
#>    <chr>                       <chr>      <chr>     <chr>                        
#>  1 P.O. Box 206                <NA>       <NA>      PO BOX 206                   
#>  2 419 S. 5th St.              Suite 1    <NA>      419 S 5TH ST SUITE 1         
#>  3 822 W. 23rd Street          <NA>       <NA>      822 W 23RD ST                
#>  4 410 West 3rd Avenue         <NA>       <NA>      410 WEST 3RD AVE             
#>  5 12811 NW Lorraine Drive     <NA>       <NA>      12811 NW LORRAINE DR         
#>  6 2776 S. Arlington Mill Dr   #803       <NA>      2776 S ARLINGTON MILL DR #803
#>  7 P.O. Box 4838               <NA>       <NA>      PO BOX 4838                  
#>  8 4000 House Ave.             <NA>       <NA>      4000 HOUSE AVE               
#>  9 7670 S Chester St 3rd Floor <NA>       <NA>      7670 S CHESTER ST 3RD FL     
#> 10 41 S. High Street           Suite 1800 <NA>      41 S HIGH STREET SUITE 1800  
#> # … with 139 more rows
```
…
wylr <- wylr %>% 
  mutate_at(
    .vars = vars(ends_with("state_norm")),
    .funs = str_replace, 
    "WY WY", "WY"
  )
```

    #> # A tibble: 69 × 4
    #>    lob_state    org_state lob_state_norm org_state_norm
    #>    <chr>        <chr>     <chr>          <chr>         
    #>  1 WY           FL        WY             FL            
    #>  2 WY           Utah      WY             UT            
    #>  3 WY           NE        WY             NE            
    #>  4 Colorado     CO        CO             CO            
    #>  5 WY           DC        WY             DC            
    #>  6 CO           MA        CO             MA            
    #>  7 MT - Montana DC        MT MT          DC            
    #>  8 NY           MA        NY             MA            
    #>  9 Utah         UT        UT             UT            
    #> 10 Wyoming      TN        WY             TN            
    #> # … with 59 more rows
…
