…
``` r
percent(mean(mov$dupe_flag), 0.001)
#> [1] "0.001%"
mov %>% 
  filter(dupe_flag) %>% 
  select(voter_id, first_name, last_name, birth_date, reg_date)
#> # A tibble: 63 x 5
#>    voter_id  first_name last_name birth_date reg_date  
#>    <chr>     <chr>      <chr>     <date>     <date>    
#>  1 750534633 TREISHA    STRINGER  1990-12-06 2020-02-18
#>  2 752044678 TREISHA    STRINGER  1990-12-06 2020-02-18
#>  3 752173868 ETINOSA    OMOROGBE  1998-10-21 2020-09-21
#>  4 752173869 ETINOSA    OMOROGBE  1998-10-21 2020-09-21
#>  5 752033376 TERI       TURNBULL  1961-01-11 2020-02-10
#>  6 752033377 TERI       TURNBULL  1961-01-11 2020-02-10
#>  7 752125335 JANESSA    STEWART   1999-10-10 2020-08-07
#>  8 752125334 JANESSA    STEWART   1999-10-10 2020-08-07
#>  9 752140371 NATHANIEL  SKOW      1977-11-03 2020-08-21
#> 10 752140368 NATHANIEL  SKOW      1977-11-03 2020-08-21
#> # … with 53 more rows
```
…
