…
``` r
problems(wvc)
#> # A tibble: 42 × 5
#>      row   col expected                       actual     file                                      
#>    <int> <int> <chr>                          <chr>      <chr>                                     
#>  1 21326    15 date like %m/%d/%Y %H:%M:%S %p Individual /private/var/folders/kn/rwt3lmvn7gs3vl38b…
#>  2 21326    29 30 columns                     29 columns /private/var/folders/kn/rwt3lmvn7gs3vl38b…
#>  3 23094    29 30 columns                     29 columns /private/var/folders/kn/rwt3lmvn7gs3vl38b…
#>  4 27816    29 30 columns                     29 columns /private/var/folders/kn/rwt3lmvn7gs3vl38b…
#>  5 29495    29 30 columns                     29 columns /private/var/folders/kn/rwt3lmvn7gs3vl38b…
#>  6 30378    29 30 columns                     29 columns /private/var/folders/kn/rwt3lmvn7gs3vl38b…
#>  7 31904    29 30 columns                     29 columns /private/var/folders/kn/rwt3lmvn7gs3vl38b…
#>  8 32469    29 30 columns                     29 columns /private/var/folders/kn/rwt3lmvn7gs3vl38b…
#>  9 33466    29 30 columns                     29 columns /private/var/folders/kn/rwt3lmvn7gs3vl38b…
#> 10 33475    29 30 columns                     29 columns /private/var/folders/kn/rwt3lmvn7gs3vl38b…
#> # … with 32 more rows
```
…
We can also flag records that are entirely duplicated across every row,
save for the supposedly unique `id`.

``` r
wvc <- flag_dupes(wvc, -receipt_id)
percent(mean(wvc$dupe_flag), 0.01)
#> [1] "3.96%"
```

``` r
wvc %>% 
  filter(dupe_flag) %>% 
  select(all_of(key_vars)) %>% 
  arrange(receipt_date)
#> # A tibble: 7,459 × 4
#>    receipt_date last_name         receipt_amount candidate_name
#>    <date>       <chr>                      <dbl> <chr>         
#>  1 2017-04-04   Douglas  McKinney            100 <NA>          
#>  2 2017-04-04   Douglas  McKinney            100 <NA>          
#>  3 2017-04-10   Trickett                     100 <NA>          
#>  4 2017-04-10   Trickett                     100 <NA>          
#>  5 2017-04-23   Totten                        25 <NA>          
#>  6 2017-04-23   Totten                        25 <NA>          
#>  7 2017-07-18   Floyd                          5 <NA>          
#>  8 2017-07-18   Floyd                          5 <NA>          
#>  9 2017-08-21   Tarr                        1000 Ryan Ferns    
#> 10 2017-08-21   Tarr                        1000 Ryan Ferns    
#> # … with 7,449 more rows
```
…
