…
``` r
ia %>% 
  select(
    starts_with("address")
  ) %>% 
  sample_frac()
```

    #> # A tibble: 531,314 × 4
    #>    address_comb            address_line_1          address_line_2 address_norm          
    #>    <chr>                   <chr>                   <chr>          <chr>                 
    #>  1 2600 Renaissance Dr. #3 2600 Renaissance Dr. #3 <NA>           2600 RENAISSANCE DR #3
    #>  2 6 W. Main St            6 W. Main St            <NA>           6 W MAIN ST           
    #>  3 366 Summer St           366 Summer St           <NA>           366 SUMMER ST         
    #>  4 PO Box 611              PO Box 611              <NA>           PO BOX 611            
    #>  5 1169 Rainbow Dr         1169 Rainbow Dr         <NA>           1169 RAINBOW DR       
    #>  6 PO Box 75214            PO Box 75214            <NA>           PO BOX 75214          
    #>  7 859 Guthrie Street      859 Guthrie Street      <NA>           859 GUTHRIE ST        
    #>  8 4028 98th Street        4028 98th Street        <NA>           4028 98TH ST          
    #>  9 429 5th Street, NE      429 5th Street, NE      <NA>           429 5TH STREET NE     
    #> 10 1739 E Grand Ave        1739 E Grand Ave        <NA>           1739 E GRAND AVE      
    #> # … with 531,304 more rows
…
``` r
ia %>% 
  filter(city_norm %out% valid_city) %>% 
  count(state_norm, city, city_norm, sort = TRUE)
```

    #> # A tibble: 1,427 × 4
    #>    state_norm city            city_norm           n
    #>    <chr>      <chr>           <chr>           <int>
    #>  1 IA         N/A             NORTH/A          3685
    #>  2 <NA>       <NA>            <NA>             1020
    #>  3 MA         Sommerville     SOMMERVILLE      1000
    #>  4 IA         <NA>            <NA>              763
    #>  5 IA         LeMars          LEMARS            695
    #>  6 IA         Hiawtha         HIAWTHA           496
    #>  7 MA         West Somerville WEST SOMERVILLE   475
    #>  8 IA         n/a             NORTH/A           451
    #>  9 IA         WestDes Moines  WESTDES MOINES    322
    #> 10 IA         anywhere        ANYWHERE          228
    #> # … with 1,417 more rows
…
