…
``` r
dc <- mutate(dc, transactionyear = year(transactiondate))
```

## Separate

We will have to break the `address` variable into distinct variables for
each component (address, city, state, ZIP).

``` r
select(sample_frac(dc), address)
```

    #> # A tibble: 101,437 x 1
    #>    address                                    
    #>    <chr>                                      
    #>  1 PO BOX 11496 , WASHINGTON, DC 20008        
    #>  2 4512 CURTIS AVE., BALTIMORE, MD 21226      
    #>  3 7815 WOODMONT AVE, BETHESDA, MD 20814      
    #>  4 816 E STREET NE, WASHINGTON, DC 20002      
    #>  5 555 MARKET  STREET, SAN FRANCISCO, CA 94104
    #>  6 2411 18TH STREET, SE, WASHINGTON, DC 20003 
    #>  7 3903 MEADOWHILL ROAD, SPRINGDALE, MD 20774 
    #>  8 9930 LOGAN DRIVE, POTOMAC, MD 20854        
    #>  9 3717 GEORGIA AVE NW, WASHINGTON, DC 20010  
    #> 10 184 BERRY ST, SAN FRACISCO, CA 94107       
    #> # … with 101,427 more rows
…
Finally, the state and ZIP code portion of the string is not separated
by a comma, so we will have to separate this into two strings based on
the space before the ZIP code digits.

``` r
dc %>% separate(
  col = state_zip,
  into = c("state_sep", "zip_sep"),  
  sep = "\\s{1,}(?=\\d)",
  remove = TRUE
) -> dc
```

    #> # A tibble: 101,437 x 5
    #>    address                                     address_sep        city_sep        state_sep zip_sep
    #>    <chr>                                       <chr>              <chr>           <chr>     <chr>  
    #>  1 2441 LINDEN LANE, SILVER SPRING, MD 20910   2441 LINDEN LANE   SILVER SPRING   MD        20910  
    #>  2 MAIN CITY ADDRESS, WASHINGTON, DC 20000     MAIN CITY ADDRESS  WASHINGTON      DC        20000  
    #>  3 1512 14TH STREET NW, WASHINGTON, DC 20010   1512 14TH STREET … WASHINGTON      DC        20010  
    #>  4 1653 BENNING RD., NE, WASHINGTON, DC 20002  1653 BENNING RD. … WASHINGTON      DC        20002  
    #>  5 1612 K STREET NW, WASHINGTON, DC 20006      1612 K STREET NW   WASHINGTON      DC        20006  
    #>  6 6115 MARLBORO PIKE, DISTRICT HEIGHTS, MD 2… 6115 MARLBORO PIKE DISTRICT HEIGH… MD        20747  
    #>  7 335 O STREET, SW, WASHINGTON, DC 20024      335 O STREET SW    WASHINGTON      DC        20024  
    #>  8 PO BOX 62401, WASHINGTON, DC 20019          PO BOX 62401       WASHINGTON      DC        20019  
    #>  9 1625 16TH STREET NW, WASHINGTON, DC 20009   1625 16TH STREET … WASHINGTON      DC        20009  
    #> 10 601 EDGEWOOD ST NE, WASHINGTON, DC 20017    601 EDGEWOOD ST NE WASHINGTON      DC        20017  
    #> # … with 101,427 more rows

There are a number of columns where the lack of a component in the
original `address` has caused the separation to incorrectly shift
content.

    #> # A tibble: 83 x 5
    #>    address                                address_sep        city_sep           state_sep   zip_sep
    #>    <chr>                                  <chr>              <chr>              <chr>       <chr>  
    #>  1 1712 SURREY LANE NW, WASHINGTON 20007  ""                 1712 SURREY LANE … WASHINGTON  20007  
    #>  2 P.O. BOX 64468, ST PAUL, MINNESOTA 55… P.O. BOX 64468     ST PAUL            MINNESOTA   55164  
    #>  3 2211 NORTH FIRST STREET , SAN JOSE 94… ""                 "2211 NORTH FIRST… SAN JOSE    94043  
    #>  4 22505 4TH ST NW, WASHINGTON 22059      ""                 22505 4TH ST NW    WASHINGTON  22059  
    #>  5 1514 SHIPPEN LN SE, WASHINGTON 20020   ""                 1514 SHIPPEN LN SE WASHINGTON  20020  
    #>  6 ONE WEST FOURTH STREET, WINSTON-SALEM… ONE WEST FOURTH S… WINSTON-SALEM      NORTH CARO… 27101  
    #>  7 URELL ST. NW, WASHINGTON 00000         ""                 URELL ST. NW       WASHINGTON  00000  
    #>  8 1200 H STREET NE, WASHINGTON  20014    ""                 1200 H STREET NE   WASHINGTON  20014  
    #>  9 2100 19TH ST NW APT 402, WASHINGTON 2… ""                 2100 19TH ST NW A… WASHINGTON  20009  
    #> 10 P.O. BOX 2308, OMAHA, NEBRASKA 68103   P.O. BOX 2308      OMAHA              NEBRASKA    68103  
    #> # … with 73 more rows
…
The remaining invalid separations are simply long-form state names,
which can be fixed in the normalization stage.

    #> # A tibble: 28 x 5
    #>    address                                address_sep            city_sep         state_sep zip_sep
    #>    <chr>                                  <chr>                  <chr>            <chr>     <chr>  
    #>  1 1914 WINDHAM LANE, SILVER SPRING, MAR… 1914 WINDHAM LANE      SILVER SPRING    MARYLAND  20902  
    #>  2 2 LACEY STREET LEVEL 2 SURRY HILLS, N… 2 LACEY STREET LEVEL … NEW SOUTH WALES… NA        02010  
    #>  3 2021 E. LAKE MARY BLVD, SANFORD, FLOR… 2021 E. LAKE MARY BLVD SANFORD          FLORIDA   32773  
    #>  4 270 18TH STREET, BRANDON, MANITOBA, C… 270 18TH STREET BRAND… MANITOBA         CANADA    70609  
    #>  5 6150 OXON HILL ROAD, OXON HILL, MARYL… 6150 OXON HILL ROAD    OXON HILL        MARYLAND  20745  
    #>  6 P.O. BOX 64468, ST PAUL, MINNESOTA 55… P.O. BOX 64468         ST PAUL          MINNESOTA 55164  
    #>  7 829 QUINCY STREET NW, WASHINGTON,  20… 829 QUINCY STREET NW   WASHINGTON       ""        20011  
    #>  8 6422 GEORGIA AVENUE, N.W., WASHINGTON… 6422 GEORGIA AVENUE    N.W.             WASHINGT… 20011  
    #>  9 1715 MINNESOTA AVE, SE SUITE 307, WAS… 1715 MINNESOTA AVE SE… WASHINGTON       ""        20020  
    #> 10 11400 W.OLYMPIC BLVD. SUITE 200, LOS … 11400 W.OLYMPIC BLVD.… LOS ANGELES      CALIFORN… 90064  
    #> # … with 18 more rows
…
The `campfin::normal_address()` function can be used to improve
consistency by removing punctuation and expanding abbreviations.

``` r
dc <- dc %>% 
  mutate(
    address_norm = normal_address(
      address = address_sep,
      add_abbs = usps_street,
      na_rep = TRUE
    )
  )
```

    #> # A tibble: 33,344 x 2
    #>    address_sep                      address_norm                               
    #>    <chr>                            <chr>                                      
    #>  1 901 RI AVE. NE.                  901 RI AVENUE NORTHEAST                    
    #>  2 1130 CONNECTICUT AVE. NW STE 200 1130 CONNECTICUT AVENUE NORTHWEST SUITE 200
    #>  3 900 SECOND ST. NE #206           900 SECOND STREET NORTHEAST 206            
    #>  4 "15955 LA CANTERA PARKWAY "      15955 LA CANTERA PARKWAY                   
    #>  5 "5911 APPLEGATE PL "             5911 APPLEGATE PLACE                       
    #>  6 4809 COLONEL ASHTON PL           4809 COLONEL ASHTON PLACE                  
    #>  7 2725 DUMBARTON STREET NW         2725 DUMBARTON STREET NORTHWEST            
    #>  8 2537 18TH STREET SE              2537 18TH STREET SOUTHEAST                 
    #>  9 2500 MINNESOTA AVE SE            2500 MINNESOTA AVENUE SOUTHEAST            
    #> 10 716 QUACKENBOS STREET N.W.       716 QUACKENBOS STREET NORTHWEST            
    #> # … with 33,334 more rows
…
Similarly, the `campfin::normal_zip()` function can be used to form
valid 5-digit US ZIP codes.

``` r
dc <- dc %>% 
  mutate(
    zip_norm = normal_zip(
      zip = zip_sep,
      na_rep = TRUE
    )
  )
```

    #> # A tibble: 124 x 2
    #>    zip_sep    zip_norm
    #>    <chr>      <chr>   
    #>  1 027252525  02725   
    #>  2 084016621  08401   
    #>  3 20010-2619 20010   
    #>  4 20002-4406 20002   
    #>  5 8530974350 85309   
    #>  6 201513229  20151   
    #>  7 372305183  37230   
    #>  8 20010-2002 20010   
    #>  9 45274-2572 45274   
    #> 10 482363758  48236   
    #> # … with 114 more rows
…
``` r
dc <- dc %>% 
  mutate(
    city_norm = normal_city(
      city = str_replace(city_sep, "DC", "WASHINGTON"),
      geo_abbs = usps_city,
      st_abbs = c("DC", "D C"),
      na = invalid_city,
      na_rep = TRUE
    ),
    city_norm = expand_abbrev(city_norm, c("HTS" = "HEIGHTS"))
  )
```

    #> # A tibble: 159 x 4
    #>    city_sep       city_norm       state_norm     n
    #>    <chr>          <chr>           <chr>      <int>
    #>  1 DC             WASHINGTON      DC            57
    #>  2 FT. WASHINGTON FORT WASHINGTON MD            43
    #>  3 WINSTON-SALEM  WINSTON SALEM   NC            40
    #>  4 FT. LAUDERDALE FORT LAUDERDALE FL            39
    #>  5 "DC "          WASHINGTON      DC            33
    #>  6 FT WASHINGTON  FORT WASHINGTON MD            29
    #>  7 FT LAUDERDALE  FORT LAUDERDALE FL            28
    #>  8 ROCHESTER,     ROCHESTER       NY            23
    #>  9 MT. RAINIER    MOUNT RAINIER   MD            21
    #> 10 ST. LOUIS      SAINT LOUIS     MO            17
    #> # … with 149 more rows
…
Here we can see the 112 records where `city_norm` appears to be an
abbreviation of `city_match`, so the later was used in `city_swap`.

``` r
dc %>% 
  filter(match_abb) %>% 
  count(state_norm, zip_norm, city_norm, city_match, match_abb, sort = TRUE)
```

    #> # A tibble: 55 x 6
    #>    state_norm zip_norm city_norm    city_match       match_abb     n
    #>    <chr>      <chr>    <chr>        <chr>            <lgl>     <int>
    #>  1 NJ         07646    NEWFORD      NEW MILFORD      TRUE         13
    #>  2 CA         90013    LA           LOS ANGELES      TRUE          9
    #>  3 IL         60611    CHI          CHICAGO          TRUE          8
    #>  4 VA         22305    ALEX         ALEXANDRIA       TRUE          6
    #>  5 MD         20769    GLENDALE     GLENN DALE       TRUE          5
    #>  6 MD         21152    SPARKS       SPARKS GLENCOE   TRUE          5
    #>  7 CA         94025    MENLO        MENLO PARK       TRUE          4
    #>  8 DC         20005    WASHIN       WASHINGTON       TRUE          3
    #>  9 CA         94103    SAN          SAN FRANCISCO    TRUE          2
    #> 10 CT         06250    MANSFIELD CT MANSFIELD CENTER TRUE          2
    #> # … with 45 more rows

Furthermore, 985 records has a string distance of only 1, meaning only 1
character was different between `city_norm` and `city_match`, so again
the later was used in `city_swap`.

``` r
dc %>% 
  filter(match_dist == 1) %>% 
  count(state_norm, zip_norm, city_norm, city_match, match_abb, sort = TRUE)
```

    #> # A tibble: 330 x 6
    #>    state_norm zip_norm city_norm       city_match      match_abb     n
    #>    <chr>      <chr>    <chr>           <chr>           <lgl>     <int>
    #>  1 MD         20743    CAPITAL HEIGHTS CAPITOL HEIGHTS FALSE        84
    #>  2 PA         15230    PITTSBURG       PITTSBURGH      FALSE        47
    #>  3 CA         94107    SAN FRACISCO    SAN FRANCISCO   FALSE        39
    #>  4 CA         94103    SAN FRACISCO    SAN FRANCISCO   FALSE        33
    #>  5 MA         02144    SOMMERVILLE     SOMERVILLE      FALSE        33
    #>  6 AZ         85260    SCOTTESDALE     SCOTTSDALE      FALSE        28
    #>  7 CA         94043    MOUNTAINVIEW    MOUNTAIN VIEW   FALSE        28
    #>  8 MD         20646    LAPLATA         LA PLATA        FALSE        27
    #>  9 MD         20712    MOUNT RANIER    MOUNT RAINIER   FALSE        19
    #> 10 CA         94107    SAN FRANSISCO   SAN FRANCISCO   FALSE        18
    #> # … with 320 more rows
…
#### City Progress

``` r
dc %>% 
  filter(city_refine %out% valid_city) %>% 
  count(state_norm, zip_norm, city_refine, sort = TRUE) %>% 
  drop_na()
```

    #> # A tibble: 236 x 4
    #>    state_norm zip_norm city_refine           n
    #>    <chr>      <chr>    <chr>             <int>
    #>  1 MD         20785    LANDOVER            353
    #>  2 MD         20785    CHEVERLY             77
    #>  3 MD         20781    CHEVERLY             56
    #>  4 MN         55126    SHOREVIEW            28
    #>  5 MD         20784    LANDOVER             20
    #>  6 DC         20009    ISRAEL               18
    #>  7 MD         20743    SEAT PLEASANT        15
    #>  8 DC         20009    ADAMS MORGAN         14
    #>  9 MD         20852    NORTH BETHESDA       14
    #> 10 CO         80111    GREENWOOD VILLAGE    13
    #> # … with 226 more rows
…
