…
``` r
raw_info <- dir_info(raw_dir)
raw_info %>% 
  select(path, size, modification_time) %>% 
  mutate(across(path, path.abbrev))
#> # A tibble: 28 x 3
#>    path                                                     size modification_time  
#>    <fs::path>                                        <fs::bytes> <dttm>             
#>  1 ~/md/contribs/data/raw/ContributionsList-1994.csv         196 2020-11-20 16:42:30
#>  2 ~/md/contribs/data/raw/ContributionsList-1995.csv         196 2020-11-20 16:42:29
#>  3 ~/md/contribs/data/raw/ContributionsList-1996.csv         196 2020-11-20 16:42:29
#>  4 ~/md/contribs/data/raw/ContributionsList-1997.csv         196 2020-11-20 16:42:29
#>  5 ~/md/contribs/data/raw/ContributionsList-1998.csv         196 2020-11-20 16:42:29
#>  6 ~/md/contribs/data/raw/ContributionsList-1999.csv         196 2020-11-20 16:42:28
#>  7 ~/md/contribs/data/raw/ContributionsList-2000.csv         196 2020-11-20 16:42:28
#>  8 ~/md/contribs/data/raw/ContributionsList-2001.csv       1.07K 2020-11-20 16:42:28
#>  9 ~/md/contribs/data/raw/ContributionsList-2002.csv       7.99K 2020-11-20 16:42:28
#> 10 ~/md/contribs/data/raw/ContributionsList-2003.csv       4.97K 2020-11-20 16:42:27
#> # … with 18 more rows
```
…
``` r
file_info(fix_paths) %>% 
  select(path, size, modification_time) %>% 
  arrange(desc(path))
#> # A tibble: 28 x 3
#>    path                                              size modification_time  
#>    <fs::path>                                 <fs::bytes> <dttm>             
#>  1 /tmp/RtmpyXD3Md/ContributionsList-2021.csv       13.3K 2020-11-23 12:12:03
#>  2 /tmp/RtmpyXD3Md/ContributionsList-2020.csv       96.6M 2020-11-23 12:12:03
#>  3 /tmp/RtmpyXD3Md/ContributionsList-2019.csv       16.1M 2020-11-23 12:11:59
#>  4 /tmp/RtmpyXD3Md/ContributionsList-2018.csv      209.2M 2020-11-23 12:11:58
#>  5 /tmp/RtmpyXD3Md/ContributionsList-2017.csv       61.7M 2020-11-23 12:11:49
#>  6 /tmp/RtmpyXD3Md/ContributionsList-2016.csv       98.6M 2020-11-23 12:11:47
#>  7 /tmp/RtmpyXD3Md/ContributionsList-2015.csv       15.8M 2020-11-23 12:11:42
#>  8 /tmp/RtmpyXD3Md/ContributionsList-2014.csv      172.3M 2020-11-23 12:11:41
#>  9 /tmp/RtmpyXD3Md/ContributionsList-2013.csv         46M 2020-11-23 12:11:34
#> 10 /tmp/RtmpyXD3Md/ContributionsList-2012.csv       47.6M 2020-11-23 12:11:32
#> # … with 18 more rows
```
…
This process does not work for the few addresses missing a state
abbreviation or some other geographic variable within the string. We can
identify any extracted ZIP codes in the new `state` column and adjust
their position appropriately.

``` r
mdc %>% 
  select("address", ends_with("_sep")) %>% 
  filter(state_sep %out% valid_state, !is.na(state_sep)) %>% 
  sample_frac()
#> # A tibble: 2,193 x 5
#>    address                            address_sep           city_sep          state_sep zip_sep
#>    <chr>                              <chr>                 <chr>             <chr>     <chr>  
#>  1 22202                              <NA>                  <NA>              22202     <NA>   
#>  2 25419                              <NA>                  <NA>              25419     <NA>   
#>  3 109 Front St E  935 Toronto  Onta… 109 Front St E 935 T… Ontario           M5A       4S5 CA 
#>  4 19953                              <NA>                  <NA>              19953     <NA>   
#>  5 12 gaither manor drive  md 21784   <NA>                  12 gaither manor… md        21784  
#>  6 906 ROSE ANNE RD  21060            <NA>                  906 ROSE ANNE RD  21060     <NA>   
#>  7 24422                              <NA>                  <NA>              24422     <NA>   
#>  8 20678                              <NA>                  <NA>              20678     <NA>   
#>  9 20764                              <NA>                  <NA>              20764     <NA>   
#> 10 20685                              <NA>                  <NA>              20685     <NA>   
#> # … with 2,183 more rows
```

``` r
mdc <- mutate(mdc, across(where(is_character), na_if, "Null Zip Code"))
```

``` r
# identify zips in state
zip_states <- str_which(mdc$state_sep, "\\d+(?:-\\d+|\\s+)?$")
# shift those cols left
mdc[zip_states, ] %>% select("address", ends_with("_sep"))
#> # A tibble: 1,138 x 5
#>    address                            address_sep             city_sep        state_sep zip_sep
#>    <chr>                              <chr>                   <chr>           <chr>     <chr>  
#>  1 "B-dul Unirii nr. 74  Bucharest  … B-dul Unirii nr. 74 Bu… Romania         75103     <NA>   
#>  2 "408 16TH STREET  SE  WASHINGTON … 408 16TH STREET SE      WASHINGTON      DC -2424  <NA>   
#>  3 "1100 Terrace Glen  21210-    "    <NA>                    1100 Terrace G… 21210     <NA>   
#>  4 "12202 Devilwood Dr.  Potomac  20… 12202 Devilwood Dr.     Potomac         20854     <NA>   
#>  5 "5877 Union Ridge Drive  21710-  … <NA>                    5877 Union Rid… 21710     <NA>   
#>  6 "1138 Langley Lane  McLean  22101… 1138 Langley Lane       McLean          22101     <NA>   
#>  7 "8902 Fort Foot Rd.  Fort Washing… 8902 Fort Foot Rd.      Fort Washington 20744     <NA>   
#>  8 "10302 Duke of Wellington Ct.  Up… 10302 Duke of Wellingt… Upper Marlboro  20772     <NA>   
#>  9 "3822 Albemarle Street  NW  20016… <NA>                    3822 Albemarle… 20016     <NA>   
#> 10 "P.O. Box 457  Arecibo  00613-   … P.O. Box 457            Arecibo         00613     <NA>   
#> # … with 1,128 more rows
mdc$zip_sep[zip_states] <- mdc$state_sep[zip_states]
mdc$state_sep[zip_states] %>% 
  str_remove_all("\\d+") %>% 
  str_remove_all("[:punct:]") %>% 
  str_trim() %>% 
  na_if("") -> mdc$state_sep[zip_states]
mdc[zip_states, ] %>% select("address", ends_with("_sep"))
#> # A tibble: 1,138 x 5
#>    address                           address_sep              city_sep        state_sep zip_sep
#>    <chr>                             <chr>                    <chr>           <chr>     <chr>  
#>  1 "B-dul Unirii nr. 74  Bucharest … B-dul Unirii nr. 74 Buc… Romania         <NA>      75103  
#>  2 "408 16TH STREET  SE  WASHINGTON… 408 16TH STREET SE       WASHINGTON      DC        DC -24…
#>  3 "1100 Terrace Glen  21210-    "   <NA>                     1100 Terrace G… <NA>      21210  
#>  4 "12202 Devilwood Dr.  Potomac  2… 12202 Devilwood Dr.      Potomac         <NA>      20854  
#>  5 "5877 Union Ridge Drive  21710- … <NA>                     5877 Union Rid… <NA>      21710  
#>  6 "1138 Langley Lane  McLean  2210… 1138 Langley Lane        McLean          <NA>      22101  
#>  7 "8902 Fort Foot Rd.  Fort Washin… 8902 Fort Foot Rd.       Fort Washington <NA>      20744  
#>  8 "10302 Duke of Wellington Ct.  U… 10302 Duke of Wellingto… Upper Marlboro  <NA>      20772  
#>  9 "3822 Albemarle Street  NW  2001… <NA>                     3822 Albemarle… <NA>      20016  
#> 10 "P.O. Box 457  Arecibo  00613-  … P.O. Box 457             Arecibo         <NA>      00613  
#> # … with 1,128 more rows
```

``` r
addr_city <- which(str_starts(mdc$city_sep, "\\d") & is.na(mdc$address_sep))
mdc[addr_city, ] %>% select("address", ends_with("_sep"))
#> # A tibble: 10,329 x 5
#>    address                                address_sep city_sep                state_sep zip_sep
#>    <chr>                                  <chr>       <chr>                   <chr>     <chr>  
#>  1 "3400 Wolford Drive       -    "       <NA>        3400 Wolford Drive      <NA>      <NA>   
#>  2 "1100 Terrace Glen  21210-    "        <NA>        1100 Terrace Glen       <NA>      21210  
#>  3 "119 Hammonds Lane   MD 21225-    "    <NA>        119 Hammonds Lane       MD        21225  
#>  4 "119 Hammonds Lane   MD 21225-    "    <NA>        119 Hammonds Lane       MD        21225  
#>  5 "5877 Union Ridge Drive  21710-    "   <NA>        5877 Union Ridge Drive  <NA>      21710  
#>  6 "718 12TH Street N.W.  DC 20002-    "  <NA>        718 12TH Street N.W.    DC        20002  
#>  7 "3822 Albemarle Street  NW  20016-183… <NA>        3822 Albemarle Street … <NA>      20016  
#>  8 "15861 Union Chapel Road  21797-    "  <NA>        15861 Union Chapel Road <NA>      21797  
#>  9 "531 WINSTON AVE  MD 21212-    "       <NA>        531 WINSTON AVE         MD        21212  
#> 10 "7722 Trappe Road  MD 21222-    "      <NA>        7722 Trappe Road        MD        21222  
#> # … with 10,319 more rows
mdc$address_sep[addr_city] <- mdc$city_sep[addr_city]
mdc$city_sep[addr_city] <- NA
```

``` r
addr_state <- which(str_starts(mdc$state_sep, "\\d") & is.na(mdc$address_sep))
mdc[addr_state, ] %>% select("address", ends_with("_sep"))
#> # A tibble: 268 x 5
#>    address                    address_sep city_sep state_sep                  zip_sep
#>    <chr>                      <chr>       <chr>    <chr>                      <chr>  
#>  1 3024 N Calvert             <NA>        <NA>     3024 N Calvert             <NA>   
#>  2 17508 LEXINGTON AVE        <NA>        <NA>     17508 LEXINGTON AVE        <NA>   
#>  3 16251 Dallas Parkway       <NA>        <NA>     16251 Dallas Parkway       <NA>   
#>  4 4725 Silver Hill Rd        <NA>        <NA>     4725 Silver Hill Rd        <NA>   
#>  5 65 Meremere St.            <NA>        <NA>     65 Meremere St.            <NA>   
#>  6 828 E.A. St.               <NA>        <NA>     828 E.A. St.               <NA>   
#>  7 82 Ellen Street            <NA>        <NA>     82 Ellen Street            <NA>   
#>  8 1359 Miller Road           <NA>        <NA>     1359 Miller Road           <NA>   
#>  9 1006 TALISMAN DR           <NA>        <NA>     1006 TALISMAN DR           <NA>   
#> 10 39797 Persimmon Creek Road <NA>        <NA>     39797 Persimmon Creek Road <NA>   
#> # … with 258 more rows
mdc$address_sep[addr_state] <- mdc$state_sep[addr_state]
mdc$state_sep[addr_state] <- NA
```

``` r
city_state <- which(nchar(mdc$state_sep) > 2 & is.na(mdc$city_sep))
mdc[city_state, ] %>% select("address", ends_with("_sep"))
#> # A tibble: 246 x 5
#>    address                                address_sep              city_sep state_sep   zip_sep
#>    <chr>                                  <chr>                    <chr>    <chr>       <chr>  
#>  1 "56LL NEW HAMPSHIRE AVE  N.E.  WA HIN… 56LL NEW HAMPSHIRE AVE … <NA>     WA HINGT    <NA>   
#>  2 "56LL NEW HAMPSHIRE AVE  N.E.  WA HIN… 56LL NEW HAMPSHIRE AVE … <NA>     WA HINGT    <NA>   
#>  3 "56LL NEW HAMPSHIRE AVE  N.E.  WA HIN… 56LL NEW HAMPSHIRE AVE … <NA>     WA HINGT    <NA>   
#>  4 "56LL NEW HAMPSHIRE AVE  N.E.  WA HIN… 56LL NEW HAMPSHIRE AVE … <NA>     WA HINGT    <NA>   
#>  5 "56LL NEW HAMPSHIRE AVE  N.E.  WA HIN… 56LL NEW HAMPSHIRE AVE … <NA>     WA HINGT    <NA>   
#>  6 "Severna Park"                         <NA>                     <NA>     Severna Pa… <NA>   
#>  7 "Severna Park"                         <NA>                     <NA>     Severna Pa… <NA>   
#>  8 "2295 North Ridge Trail  Oakville"     2295 North Ridge Trail   <NA>     Oakville    <NA>   
#>  9 "2295 North Ridge Trail  Oakville"     2295 North Ridge Trail   <NA>     Oakville    <NA>   
#> 10 "2295 North Ridge Trail  Oakville"     2295 North Ridge Trail   <NA>     Oakville    <NA>   
#> # … with 236 more rows
…
``` r
mdc %>% 
  filter(
    str_to_upper(state_sep) %out% valid_state,
    !is.na(state_sep)
  ) %>% 
  select("address", ends_with("_sep"))
#> # A tibble: 86 x 5
#>    address                          address_sep                city_sep     state_sep  zip_sep 
#>    <chr>                            <chr>                      <chr>        <chr>      <chr>   
#>  1 Not Given  Not Given  MD Not G-… Not Given                  Not Given    MD Not G-… <NA>    
#>  2 21 Tennyson Road  Shepperton  A… 21 Tennyson Road Sheppert… Surrey TW15… UK         <NA>    
#>  3 Flat 2  121 Trinity Road  Londo… Flat 2 121 Trinity Road    London       UK SW      UK SW17 
#>  4 229 Phoenix Way  Portishead  Br… 229 Phoenix Way Portishead Bristol      NS BS      NS BS20 
#>  5 7020-21 Ave  Edmonton  Ab T6K 2… 7020-21 Ave                Edmonton     Ab T6K     2H4 Alb…
#>  6 7020-21 Ave  Edmonton  Alberta   7020-21 Ave                Edmonton     Alberta    <NA>    
#>  7 3333 Netherby Rd. RR#2  Stevens… 3333 Netherby Rd. RR#2 St… Ontario      L0S        1S0     
#>  8 Psje Las Magnolias Mz J1 Lt 26 … Psje Las Magnolias Mz J1 … Lima         ZZ         <NA>    
#>  9 122 Finborough Road  London  En… 122 Finborough Road Londo… London       England    <NA>    
#> 10 257 Balham High Rd  London  Eng… 257 Balham High Rd London… London       England    <NA>    
#> # … with 76 more rows
```
…
``` r
key_vars <- c("date", "name", "amount", "committee")
mdc <- flag_na(mdc, all_of(key_vars))
percent(mean(mdc$na_flag), 0.01)
#> [1] "0.18%"
sum(mdc$na_flag)
#> [1] 9893
```

``` r
mdc %>% 
  filter(na_flag) %>% 
  select(all_of(key_vars))
#> # A tibble: 9,893 x 4
#>    date       name  amount committee                 
#>    <date>     <chr>  <dbl> <chr>                     
#>  1 2006-09-11 <NA>   156.  Forehand Jennie Friends Of
#>  2 2006-09-25 <NA>     1.1 Forehand Jennie Friends Of
#>  3 2006-08-05 <NA>    25.5 Forehand Jennie Friends Of
#>  4 2006-11-20 <NA>    50   Forehand Jennie Friends Of
#>  5 2006-10-10 <NA>   145   Forehand Jennie Friends Of
#>  6 2006-08-05 <NA>   150   Forehand Jennie Friends Of
#>  7 2006-11-10 <NA>   163.  Forehand Jennie Friends Of
#>  8 2006-07-11 <NA>   469.  Forehand Jennie Friends Of
#>  9 2006-04-02 <NA>   314.  Forehand Jennie Friends Of
#> 10 2006-10-11 <NA>   154.  Forehand Jennie Friends Of
#> # … with 9,883 more rows
```
…
``` r
nrow(mdc)
#> [1] 5548638
mdc <- left_join(mdc, dupes, by = "tx")
mdc <- mutate(mdc, dupe_flag = !is.na(dupe_flag))
percent(mean(mdc$dupe_flag), 0.1)
#> [1] "5.5%"
```

``` r
mdc %>% 
  filter(dupe_flag) %>% 
  select(all_of(key_vars)) %>% 
  arrange(desc(date))
#> # A tibble: 304,461 x 4
#>    date       name             amount committee                  
#>    <date>     <chr>             <dbl> <chr>                      
#>  1 2020-11-10 Rappaport Stacey     30 Rappaport Andrew Keep Judge
#>  2 2020-11-10 Rappaport Stacey     30 Rappaport Andrew Keep Judge
#>  3 2020-11-10 Rappaport Stacey     30 Rappaport Andrew Keep Judge
#>  4 2020-11-10 Rappaport Stacey     30 Rappaport Andrew Keep Judge
#>  5 2020-11-10 Rappaport Stacey     30 Rappaport Andrew Keep Judge
#>  6 2020-11-10 Rappaport Stacey     60 Rappaport Andrew Keep Judge
#>  7 2020-11-10 Rappaport Stacey    150 Rappaport Andrew Keep Judge
#>  8 2020-11-10 Rappaport Stacey    185 Rappaport Andrew Keep Judge
#>  9 2020-11-10 Rappaport Stacey     30 Rappaport Andrew Keep Judge
#> 10 2020-11-10 Rappaport Stacey     85 Rappaport Andrew Keep Judge
#> # … with 304,451 more rows
```
…
``` r
norm_addr
#> # A tibble: 831,804 x 2
#>    address_sep                         address_norm                     
#>    <chr>                               <chr>                            
#>  1 3920 Buena Vista Ave                3920 BUENA VIS AVE               
#>  2 9304 Harford Road                   9304 HARFORD RD                  
#>  3 <NA>                                <NA>                             
#>  4 3920 Buena Vista Ave Baltimore City 3920 BUENA VIS AVE BALTIMORE CITY
#>  5 52 Scott Adam Road                  52 SCOTT ADAM RD                 
#>  6 5397 Twin Knolls Road Suite 16      5397 TWIN KNLS RD STE 16         
#>  7 750 E. Pratt St. 5th Floor          750 E PRATT ST 5 TH FL           
#>  8 101 Constitution Ave. NW 3rd Fl     101 CONSTITUTION AVE NW 3 RD FL  
#>  9 3525 Ellicott Mills Drive Suite I   3525 ELLICOTT MLS DR STE I       
#> 10 25 W. Chesapeake Ave. Suite 208     25 W CHESAPEAKE AVE STE 208      
#> # … with 831,794 more rows
```
…
### State

Valid two digit state abbreviations can be made using the
`campfin::normal_state()` function.

``` r
mdc %>% 
  count(state_sep, sort = TRUE) %>% 
  filter(state_sep %out% valid_state)
#> # A tibble: 75 x 2
#>    state_sep        n
#>    <chr>        <int>
#>  1 <NA>         78464
#>  2 Md             294
#>  3 md             113
#>  4 Va               8
#>  5 Ca               6
#>  6 0626 NZ          5
#>  7 Annapolis MD     5
#>  8 Fl               5
#>  9 073-0 JA         4
#> 10 MD MD            4
#> # … with 65 more rows
```
…
``` r
mdc <- left_join(mdc, norm_city)
```

#### Progress

``` r
many_city <- c(valid_city, extra_city)
mdc %>% 
  filter(city_swap %out% many_city) %>% 
  count(city_swap, sort = TRUE)
#> # A tibble: 3,336 x 2
#>    city_swap           n
#>    <chr>           <int>
#>  1 <NA>            77556
#>  2 MD              11004
#>  3 CRESAPTOWN       1602
#>  4 RUXTON           1350
#>  5 BERWYN HEIGHTS   1234
#>  6 MOUNT LAKE PARK   819
#>  7 STE               774
#>  8 BALTO             740
#>  9 RIVERDALE PARK    524
#> 10 DC                440
#> # … with 3,326 more rows
```
…
