…
We can flag any record missing a key variable needed to identify a
transaction.

``` r
key_vars <- c("first_name", "last_name", "birth_date", "reg_date")
nvv <- flag_na(nvv, all_of(key_vars))
sum(nvv$na_flag)
#> [1] 36
```

``` r
nvv %>% 
  filter(na_flag) %>% 
  select(all_of(key_vars), middle_name)
#> # A tibble: 36 x 5
#>    first_name last_name birth_date reg_date   middle_name
#>    <chr>      <chr>     <date>     <date>     <chr>      
#>  1 <NA>       KIM       1956-12-23 2000-04-22 <NA>       
#>  2 <NA>       DOAN      1954-08-02 2004-08-07 VAN        
#>  3 CHUNG      <NA>      1945-06-04 2001-05-15 MING       
#>  4 HAEOK      <NA>      1960-09-03 2008-10-04 <NA>       
#>  5 ANDREW     <NA>      1991-11-09 2011-11-09 DAESEOK    
#>  6 GEORGE     <NA>      1947-03-23 2015-04-16 C          
#>  7 <NA>       TRACY     1942-07-22 2016-02-23 <NA>       
#>  8 KUM        <NA>      1951-01-30 2016-09-08 SOOK       
#>  9 <NA>       HUANG     1980-10-06 2016-10-07 <NA>       
#> 10 ANDREA     <NA>      1986-02-27 2016-10-14 <NA>       
#> # … with 26 more rows
```
…
