…
14.1% of records are missing a key variable.

``` r
ale %>% 
  filter(na_flag) %>% 
  select(all_of(key_vars))
#> # A tibble: 36,239 x 4
#>    date       last_name amount committee                                              
#>    <date>     <chr>      <dbl> <chr>                                                  
#>  1 2013-01-01 <NA>       235   JAMES EDWARD BUSKEY                                    
#>  2 2013-01-01 <NA>        10   GULF PAC                                               
#>  3 2013-01-01 <NA>         1   STORMING THE STATE HOUSE POLITICAL ACTION COMMITTEE    
#>  4 2013-01-02 <NA>        45   MICHAEL G. HUBBARD                                     
#>  5 2013-01-02 <NA>        10.4 TALLADEGA COUNTY REPUBLICAN PARTY                      
#>  6 2013-01-03 <NA>        10   MIKE BALL                                              
#>  7 2013-01-03 <NA>        95.6 ALABAMA HOSPITAL ASSOCIATION POLITICAL ACTION COMMITTEE
#>  8 2013-01-03 <NA>        50   TALLADEGA COUNTY REPUBLICAN PARTY                      
#>  9 2013-01-05 <NA>        42   JOHNNY MACK MORROW                                     
#> 10 2013-01-08 <NA>        36.0 UNITED TRANSPORTATION UNION                            
#> # … with 36,229 more rows
```
…
``` r
ale$na_flag[str_which(ale$type, "Non-Itemized")] <- FALSE
sum(ale$na_flag)
#> [1] 30
```

This leaves us with very few records.

``` r
ale %>% 
  filter(na_flag) %>% 
  select(all_of(key_vars), type)
#> # A tibble: 30 x 5
#>    date       last_name   amount committee                                                                type    
#>    <date>     <chr>        <dbl> <chr>                                                                    <chr>   
#>  1 2013-03-19 <NA>        100    TALLADEGA COUNTY REPUBLICAN PARTY                                        Itemized
#>  2 2013-11-08 <NA>         93.7  SUZELLE MARIE JOSEY                                                      Itemized
#>  3 2013-11-12 <NA>         24.4  SUZELLE MARIE JOSEY                                                      Itemized
#>  4 2015-02-09 <NA>       5000    ALABAMA AMERICAN PHYSICAL THERAPY ASSOCIATION POLITICAL ACTION COMMITTEE Itemized
#>  5 2016-06-01 <NA>        100    MERCERIA LAVONNE LUDGOOD                                                 Itemized
#>  6 2014-07-15 <NA>        180    LAWRENCE CONAWAY                                                         Itemized
#>  7 2016-08-22 <NA>       1174.   MICHAEL MILLICAN                                                         Itemized
#>  8 2017-09-08 <NA>          7.73 JOSEPH BARLOW                                                            Itemized
#>  9 2018-02-28 <NA>       1500    ALABAMA PHARMACY ASSOCIATION POLITICAL ACTION COMMITTEE                  Itemized
#> 10 2018-02-28 <NA>      -1500    ALABAMA PHARMACY ASSOCIATION POLITICAL ACTION COMMITTEE                  Itemized
#> # … with 20 more rows
```
…
We can also flag any record completely duplicated across every column.

``` r
ale <- flag_dupes(ale, -id)
sum(ale$dupe_flag)
#> [1] 3111
```

1.2% of records are duplicates.

``` r
ale %>% 
  filter(dupe_flag) %>% 
  select(id, all_of(key_vars))
#> # A tibble: 3,111 x 5
#>    id    date       last_name amount committee                      
#>    <chr> <date>     <chr>      <dbl> <chr>                          
#>  1 2908  2013-01-28 BARTON      1000 ENPAC                          
#>  2 2916  2013-01-28 BARTON      1000 ENPAC                          
#>  3 11601 2013-02-08 <NA>          17 CULLMAN COUNTY REPUBLICAN WOMEN
#>  4 11602 2013-02-08 <NA>          17 CULLMAN COUNTY REPUBLICAN WOMEN
#>  5 11603 2013-02-08 <NA>          17 CULLMAN COUNTY REPUBLICAN WOMEN
#>  6 11604 2013-02-08 <NA>          17 CULLMAN COUNTY REPUBLICAN WOMEN
#>  7 11605 2013-02-08 <NA>          17 CULLMAN COUNTY REPUBLICAN WOMEN
#>  8 11590 2013-02-11 <NA>          17 CULLMAN COUNTY REPUBLICAN WOMEN
#>  9 11591 2013-02-11 <NA>          17 CULLMAN COUNTY REPUBLICAN WOMEN
#> 10 11592 2013-02-11 <NA>          17 CULLMAN COUNTY REPUBLICAN WOMEN
#> # … with 3,101 more rows
```
…
``` r
ale$dupe_flag[str_which(ale$type, "Non-Itemized")] <- FALSE
sum(ale$dupe_flag)
#> [1] 1303
```

This removes most, but not all, duplicate records.

``` r
ale %>% 
  filter(dupe_flag) %>% 
  select(id, all_of(key_vars), type)
#> # A tibble: 1,303 x 6
#>    id    date       last_name        amount committee             type    
#>    <chr> <date>     <chr>             <dbl> <chr>                 <chr>   
#>  1 2908  2013-01-28 BARTON            1000  ENPAC                 Itemized
#>  2 2916  2013-01-28 BARTON            1000  ENPAC                 Itemized
#>  3 3366  2013-02-27 FASTSPRING         180. BRYAN MCDANIEL TAYLOR Itemized
#>  4 3367  2013-02-27 CONSTANT CONTACT    35  BRYAN MCDANIEL TAYLOR Itemized
#>  5 3373  2013-02-27 CONSTANT CONTACT    35  BRYAN MCDANIEL TAYLOR Itemized
#>  6 3376  2013-02-27 FASTSPRING         180. BRYAN MCDANIEL TAYLOR Itemized
#>  7 220   2013-05-08 SAHR GROUP        2000  ALABAMA 2014 PAC      Itemized
#>  8 221   2013-05-08 SAHR GROUP        2000  ALABAMA 2014 PAC      Itemized
#>  9 222   2013-05-08 SAHR GROUP        2000  ALABAMA 2014 PAC      Itemized
#> 10 4308  2013-08-01 WHALEY             200  RAY BRYAN             Itemized
#> # … with 1,293 more rows
```
…
``` r
addr_norm <- ale %>% 
  distinct(address1) %>% 
  mutate(
    address_norm = normal_address(
      address = address1,
      abbs = usps_street,
      na_rep = TRUE
    )
  )
```

``` r
addr_norm
#> # A tibble: 57,511 x 2
#>    address1                       address_norm           
#>    <chr>                          <chr>                  
#>  1 510 5TH ST SW                  510 5TH ST SW          
#>  2 3050 LANARK ROAD               3050 LANARK RD         
#>  3 <NA>                           <NA>                   
#>  4 6001 MONTICELLO DRIVE          6001 MONTICELLO DR     
#>  5 P.O. BOX 2663                  PO BOX 2663            
#>  6 60 COMMERCE STREET, SUITE 1400 60 COMMERCE ST STE 1400
#>  7 201 TALLAPOOSA STREET          201 TALLAPOOSA ST      
#>  8 PO BOX 2080                    PO BOX 2080            
#>  9 PO BOX 536126                  PO BOX 536126          
#> 10 101 TALLAPOOSA STREET          101 TALLAPOOSA ST      
#> # … with 57,501 more rows
```
…
      key_collision_merge() %>% 
      n_gram_merge(numgram = 1)
  ) %>% 
  filter(city_refine != city_swap) %>% 
  inner_join(
    y = zipcodes,
    by = c(
      "city_refine" = "city",
      "state_norm" = "state",
      "zip_norm" = "zip"
    )
  )
```

    #> # A tibble: 47 x 5
    #>    state_norm zip_norm city_swap      city_refine       n
    #>    <chr>      <chr>    <chr>          <chr>         <int>
    #>  1 AL         36104    MONTOMGERY     MONTGOMERY       63
    #>  2 CA         94107    SAN FRANSICO   SAN FRANCISCO    20
    #>  3 IL         60197    CARROLL STREAM CAROL STREAM     17
    #>  4 OH         45249    CINNCINATI     CINCINNATI       13
    #>  5 AL         35121    OENOTA         ONEONTA           8
    #>  6 AL         35234    BMINGHAMIR     BIRMINGHAM        5
    #>  7 OH         45274    CINCINATTI     CINCINNATI        3
    #>  8 OH         45274    CINNCINATA     CINCINNATI        3
    #>  9 AL         35208    BIMINGHAMR     BIRMINGHAM        2
    #> 10 AL         35565    HAYLEVILLE     HALEYVILLE        2
    #> # … with 37 more rows
…
