…
This process does not work for the few addresses missing a state
abbreviation or some other geographic variable within the string. We can
identify any extracted ZIP codes in the new `state` column and adjust
their position appropriately.

``` r
mdc %>% 
  select("address", ends_with("_sep")) %>% 
  filter(state_sep %out% valid_state, !is.na(state_sep)) %>% 
  sample_frac()
#> # A tibble: 469 × 5
#>    address                                             address_sep      city_…¹ state…² zip_sep
#>    <chr>                                               <chr>            <chr>   <chr>   <chr>  
#>  1 521 Caledonian Road                                 <NA>             <NA>    521 Ca… <NA>   
#>  2 2 rue de la grande haie Bussy-le-Château FR         <NA>             <NA>    2 rue … <NA>   
#>  3 3120 Old Washington Road  20602                     <NA>             3120 O… 20602   <NA>   
#>  4 8508 16th St Montgomery  Silver spring  Md 20910    8508 16th St Mo… Silver… Md      20910  
#>  5 12 rue des Portes Blanches 75018 Paris FR           <NA>             <NA>    12 rue… 75018 …
#>  6 10000 New Hampshire Avenue  Silver Spring  Md 20903 10000 New Hamps… Silver… Md      20903  
#>  7 P O Box 282  Frederick  Md 21705                    P O Box 282      Freder… Md      21705  
#>  8 5350 Queens Chapel Road  20782                      <NA>             5350 Q… 20782   <NA>   
#>  9 4 Broadbridge Rd  Rosedale  Md 21237                4 Broadbridge Rd Roseda… Md      21237  
#> 10 1101 Mercantile Lane Suite 200  MD  20774           1101 Mercantile… MD      20774   <NA>   
#> # … with 459 more rows, and abbreviated variable names ¹​city_sep, ²​state_sep
```

``` r
mdc <- mutate(mdc, across(where(is_character), na_if, "Null Zip Code"))
```

``` r
# identify zips in state
zip_states <- str_which(mdc$state_sep, "\\d+(?:-\\d+|\\s+)?$")
# shift those cols left
mdc[zip_states, ] %>% select("address", ends_with("_sep"))
#> # A tibble: 214 × 5
#>    address                               address_sep                city_sep    state…¹ zip_sep
#>    <chr>                                 <chr>                      <chr>       <chr>   <chr>  
#>  1 2600 Brightseat Road  20785           <NA>                       2600 Brigh… 20785   <NA>   
#>  2 7619 Marlboro Pike  20747             <NA>                       7619 Marlb… 20747   <NA>   
#>  3 67 Crookston Road  SE9 1YQ London UK  <NA>                       67 Crookst… SE9     1YQ Lo…
#>  4 370 Front Street  #216                <NA>                       370 Front … #216    <NA>   
#>  5 4640 Forbes Blvd Suite 201  MD  20706 4640 Forbes Blvd Suite 201 MD          20706   <NA>   
#>  6 11703 Silvercreek Court  MD  20720    11703 Silvercreek Court    MD          20720   <NA>   
#>  7 635 Ivy Lane Suite 720  MD  20770     635 Ivy Lane Suite 720     MD          20770   <NA>   
#>  8 6213 Kilmer Street  MD  20785         6213 Kilmer Street         MD          20785   <NA>   
#>  9 4203 Enterprise Rd  MD  20720         4203 Enterprise Rd         MD          20720   <NA>   
#> 10 6007 Inwood Street  MD  20785         6007 Inwood Street         MD          20785   <NA>   
#> # … with 204 more rows, and abbreviated variable name ¹​state_sep
mdc$zip_sep[zip_states] <- mdc$state_sep[zip_states]
mdc$state_sep[zip_states] %>% 
  str_remove_all("\\d+") %>% 
  str_remove_all("[:punct:]") %>% 
  str_trim() %>% 
  na_if("") -> mdc$state_sep[zip_states]
mdc[zip_states, ] %>% select("address", ends_with("_sep"))
#> # A tibble: 214 × 5
#>    address                               address_sep                city_sep    state…¹ zip_sep
#>    <chr>                                 <chr>                      <chr>       <chr>   <chr>  
#>  1 2600 Brightseat Road  20785           <NA>                       2600 Brigh… <NA>    20785  
#>  2 7619 Marlboro Pike  20747             <NA>                       7619 Marlb… <NA>    20747  
#>  3 67 Crookston Road  SE9 1YQ London UK  <NA>                       67 Crookst… SE      SE9    
#>  4 370 Front Street  #216                <NA>                       370 Front … <NA>    #216   
#>  5 4640 Forbes Blvd Suite 201  MD  20706 4640 Forbes Blvd Suite 201 MD          <NA>    20706  
#>  6 11703 Silvercreek Court  MD  20720    11703 Silvercreek Court    MD          <NA>    20720  
#>  7 635 Ivy Lane Suite 720  MD  20770     635 Ivy Lane Suite 720     MD          <NA>    20770  
#>  8 6213 Kilmer Street  MD  20785         6213 Kilmer Street         MD          <NA>    20785  
#>  9 4203 Enterprise Rd  MD  20720         4203 Enterprise Rd         MD          <NA>    20720  
#> 10 6007 Inwood Street  MD  20785         6007 Inwood Street         MD          <NA>    20785  
#> # … with 204 more rows, and abbreviated variable name ¹​state_sep
```

``` r
addr_city <- which(str_starts(mdc$city_sep, "\\d") & is.na(mdc$address_sep))
mdc[addr_city, ] %>% select("address", ends_with("_sep"))
#> # A tibble: 504 × 5
#>    address                                   address_sep city_sep               state…¹ zip_sep
#>    <chr>                                     <chr>       <chr>                  <chr>   <chr>  
#>  1 2800 S. High Street Columbus  OH 43207 US <NA>        2800 S. High Street C… OH      43207 …
#>  2 2800 S High Street Columbus  OH 43207 US  <NA>        2800 S High Street Co… OH      43207 …
#>  3 2800 S High Street Columbus  OH 43207 US  <NA>        2800 S High Street Co… OH      43207 …
#>  4 2800 S. High Street Columbus  OH 43207 US <NA>        2800 S. High Street C… OH      43207 …
#>  5 2800 S High Street Columbus  OH 43207 US  <NA>        2800 S High Street Co… OH      43207 …
#>  6 2800 S. High Street Columbus  OH 43207 US <NA>        2800 S. High Street C… OH      43207 …
#>  7 2800 S High Street Columbus  OH 43207 US  <NA>        2800 S High Street Co… OH      43207 …
#>  8 2800 S High Street Columbus  OH 43207 US  <NA>        2800 S High Street Co… OH      43207 …
#>  9 2800 S. High Street Columbus  OH 43207 US <NA>        2800 S. High Street C… OH      43207 …
#> 10 2800 S. High Street Columbus  OH 43207 US <NA>        2800 S. High Street C… OH      43207 …
#> # … with 494 more rows, and abbreviated variable name ¹​state_sep
mdc$address_sep[addr_city] <- mdc$city_sep[addr_city]
mdc$city_sep[addr_city] <- NA
```

``` r
addr_state <- which(str_starts(mdc$state_sep, "\\d") & is.na(mdc$address_sep))
mdc[addr_state, ] %>% select("address", ends_with("_sep"))
#> # A tibble: 49 × 5
#>    address                                   address_sep city_sep        state_sep      zip_sep
#>    <chr>                                     <chr>       <chr>           <chr>          <chr>  
#>  1 1447 York Road Lutherville US             <NA>        <NA>            1447 York Roa… <NA>   
#>  2 509-18 Sommerset Way Toronto M2N6X5 CA    <NA>        <NA>            509-18 Sommer… <NA>   
#>  3 95 Lower Way Thatcham UK                  <NA>        <NA>            95 Lower Way … <NA>   
#>  4 14 Stockwell St Cambridge CB13ND UK       <NA>        <NA>            14 Stockwell … <NA>   
#>  5 Herengracht 597  1017 CE                  <NA>        Herengracht 597 1017 CE        <NA>   
#>  6 12 rue des Portes Blanches 75018 Paris FR <NA>        <NA>            12 rue des Po… 75018 …
#>  7 521 Caledonian Road                       <NA>        <NA>            521 Caledonia… <NA>   
#>  8 521 Caledonian Road                       <NA>        <NA>            521 Caledonia… <NA>   
#>  9 11 Tanza Road N/A                         <NA>        <NA>            11 Tanza Road… <NA>   
#> 10 5 Regent Dr Queanbeyan AS                 <NA>        <NA>            5 Regent Dr Q… <NA>   
#> # … with 39 more rows
mdc$address_sep[addr_state] <- mdc$state_sep[addr_state]
mdc$state_sep[addr_state] <- NA
```

``` r
city_state <- which(nchar(mdc$state_sep) > 2 & is.na(mdc$city_sep))
mdc[city_state, ] %>% select("address", ends_with("_sep"))
#> # A tibble: 31 × 5
#>    address                                        address_sep           city_…¹ state…² zip_sep
#>    <chr>                                          <chr>                 <chr>   <chr>   <chr>  
#>  1 304-6200Tasxhereau Brossard  Quebec J4W 3J8 CA 304-6200Tasxhereau B… <NA>    Quebec… 3J8 CA 
#>  2 PSC 802 BOX 268 09608 AE                       <NA>                  <NA>    PSC     802 BO…
#>  3 CMR 480 Box 716 APO GM                         <NA>                  <NA>    CMR     480 Bo…
#>  4 11A Friigatan  Apt 1403 214 21 Malmo SW        11A Friigatan         <NA>    Apt     1403 2…
#>  5 222 Prince George St  Suite 110                222 Prince George St  <NA>    Suite   110    
#>  6 Schlagvorder Str 9 Osnabruck GM                <NA>                  <NA>    Schlag… 9 Osna…
#>  7 20 Boylett Road Ajax  Ontario L1ZOM7 CA        20 Boylett Road Ajax  <NA>    Ontari… <NA>   
#>  8 208-6100 6th Avenue Whitehorse  YT CA          208-6100 6th Avenue … <NA>    YT CA   <NA>   
#>  9 208-6100 6th Avenue Whitehorse  YT CA          208-6100 6th Avenue … <NA>    YT CA   <NA>   
#> 10 Margaretenstrasse 56/2/11 Vienna AU            <NA>                  <NA>    Margar… 56/2/1…
#> # … with 21 more rows, and abbreviated variable names ¹​city_sep, ²​state_sep
…
``` r
mdc %>% 
  filter(
    str_to_upper(state_sep) %out% valid_state,
    !is.na(state_sep)
  ) %>% 
  select("address", ends_with("_sep"))
#> # A tibble: 22 × 5
#>    address                                                      addre…¹ city_…² state…³ zip_sep
#>    <chr>                                                        <chr>   <chr>   <chr>   <chr>  
#>  1 "6501 Redhook Plaza  suite 201  #190 St. Thomas VQ"          6501 R… #190 S… VQ      <NA>   
#>  2 "67 Crookston Road  SE9 1YQ London UK"                       67 Cro… <NA>    SE      SE9    
#>  3 "Cmr 469 Box 302 Apo  AE GM"                                 <NA>    Cmr 46… AE GM   <NA>   
#>  4 "25 Trailwood Drive  Apt #2308 Mississauga \tOntario  L4Z 3… 25 Tra… Ontario L4Z     3-K9 CA
#>  5 "327 Warren Avenue  Apt. 3H  Baltimore  MD Balti"            327 Wa… Baltim… MD Bal… <NA>   
#>  6 "1318 E. Fort Avenue  Baltimore  MD Balti"                   1318 E… Baltim… MD Bal… <NA>   
#>  7 "Declined (N/A)  Declined (N/A)  MD Decli"                   Declin… Declin… MD Dec… <NA>   
#>  8 "Declined (N/A)  Declined (N/A)  MD Decli"                   Declin… Declin… MD Dec… <NA>   
#>  9 "Declined (N/A)  Declined (N/A)  MD Decli"                   Declin… Declin… MD Dec… <NA>   
#> 10 "Sketquoy  Wasbister Road Rousay UK"                         <NA>    Sketqu… Wasbis… <NA>   
#> # … with 12 more rows, and abbreviated variable names ¹​address_sep, ²​city_sep, ³​state_sep
```
…
``` r
nrow(mdc)
#> [1] 1216189
mdc <- left_join(mdc, dupes, by = "tx")
mdc <- mutate(mdc, dupe_flag = !is.na(dupe_flag))
percent(mean(mdc$dupe_flag), 0.1)
#> [1] "2.2%"
```

``` r
mdc %>% 
  filter(dupe_flag) %>% 
  select(all_of(key_vars)) %>% 
  arrange(desc(date))
#> # A tibble: 26,544 × 4
#>    date       name             amount committee                       
#>    <date>     <chr>             <dbl> <chr>                           
#>  1 2023-01-18 Massey Joshua     134.  Moore Miller Inaugural Committee
#>  2 2023-01-18 Lewis Jason       134.  Moore Miller Inaugural Committee
#>  3 2023-01-18 Hudgens Nakeya    134.  Moore Miller Inaugural Committee
#>  4 2023-01-18 Woodfork Shirley  134.  Moore Miller Inaugural Committee
#>  5 2023-01-18 Holt Janelle       81.1 Moore Miller Inaugural Committee
#>  6 2023-01-18 Williams Randi    134.  Moore Miller Inaugural Committee
#>  7 2023-01-18 Dixon Symphony    134.  Moore Miller Inaugural Committee
#>  8 2023-01-18 Rainey Cerella    134.  Moore Miller Inaugural Committee
#>  9 2023-01-18 Nicholas paul      81.1 Moore Miller Inaugural Committee
#> 10 2023-01-18 Grier Darragh     134.  Moore Miller Inaugural Committee
#> # … with 26,534 more rows
```
…
``` r
norm_addr
#> # A tibble: 244,757 × 2
#>    address_sep                         address_norm                       
#>    <chr>                               <chr>                              
#>  1 3920 Buena Vista Ave Baltimore City 3920 BUENA VISTA AVE BALTIMORE CITY
#>  2 9304 Harford Road                   9304 HARFORD RD                    
#>  3 5397 Twin Knolls Road Suite 16      5397 TWIN KNOLLS ROAD SUITE 16     
#>  4 52 Scott Adam Road                  52 SCOTT ADAM RD                   
#>  5 3525 Ellicott Mills Drive Suite I   3525 ELLICOTT MILLS DRIVE SUITE I  
#>  6 PO BOX 3217                         PO BOX 3217                        
#>  7 100 Edison Park Drive               100 EDISON PARK DR                 
#>  8 5397 Twin Knolls Rd Suite 16        5397 TWIN KNOLLS RD SUITE 16       
#>  9 6600 Main Street Harford            6600 MAIN STREET HARFORD           
#> 10 1 Johnson And Johnson Plaza         1 JOHNSON AND JOHNSON PLZ          
#> # … with 244,747 more rows
```
…
### State

Valid two digit state abbreviations can be made using the
`campfin::normal_state()` function.

``` r
mdc %>% 
  count(state_sep, sort = TRUE) %>% 
  filter(state_sep %out% valid_state)
#> # A tibble: 26 × 2
#>    state_sep     n
#>    <chr>     <int>
#>  1 <NA>       1186
#>  2 Md           90
#>  3 md           33
#>  4 mD           20
#>  5 Co            5
#>  6 MD Balti      3
#>  7 MD Decli      3
#>  8 3066 AS       2
#>  9 L9W7L9 CA     2
#> 10 Ny            2
#> # … with 16 more rows
```
…
``` r
mdc <- left_join(mdc, norm_city)
```

#### Progress

``` r
many_city <- c(valid_city, extra_city)
mdc %>% 
  filter(city_swap %out% many_city) %>% 
  count(city_swap, sort = TRUE)
#> # A tibble: 911 × 2
#>    city_swap           n
#>    <chr>           <int>
#>  1 <NA>             1511
#>  2 BERWYN HEIGHTS    366
#>  3 CRESAPTOWN        285
#>  4 RIVERDALE PARK    191
#>  5 MD                176
#>  6 LUTH/TTIMONUM     121
#>  7 RUXTON             99
#>  8 DC                 87
#>  9 COTTAGE CITY       78
#> 10 MOUNT LAKE PARK    77
#> # … with 901 more rows
```
…
