…
## Import

To import the file for processing, we will simply download the ZIP
archive, extract the appropriate files, and read them into R.

### Download

``` r
raw_dir <- dir_create(here("ne", "contribs", "data", "raw"))
raw_url <- "http://www.nebraska.gov/nadc_data/nadc_data.zip"
raw_zip <- path(raw_dir, basename(raw_url))
download.file(raw_url, raw_zip)
as_tibble(unzip(raw_zip, list = TRUE))
#> # A tibble: 64 x 3
#>    Name                       Length Date               
#>    <chr>                       <dbl> <dttm>             
#>  1 nadc_data/                      0 2015-10-22 11:43:00
#>  2 nadc_data/forma1cand.txt   167181 2020-02-10 03:00:00
#>  3 nadc_data/nadc_tables.rtf  315630 2015-10-22 11:42:00
#>  4 nadc_data/forma1.txt       488286 2020-02-10 03:00:00
#>  5 nadc_data/formcfla4.txt     18748 2020-02-10 03:00:00
#>  6 nadc_data/formb73.txt     1057441 2020-02-10 03:00:00
#>  7 nadc_data/formb1c.txt      254660 2020-02-10 03:00:00
#>  8 nadc_data/formb4a.txt     3450066 2020-02-10 03:00:00
#>  9 nadc_data/loblatefile.txt  327179 2020-02-10 03:00:00
#> 10 nadc_data/formb7.txt      2781626 2020-02-10 03:00:00
#> # … with 54 more rows
```
…
