…
Even from the main variables, quite a few are missing values.

``` r
ctc <- flag_na(ctc, all_of(key_vars))
percent(mean(ctc$na_flag), 0.1)
#> [1] "5.2%"
```

``` r
ctc %>% 
  filter(na_flag) %>% 
  select(all_of(key_vars)) %>% 
  sample_frac()
#> # A tibble: 83,450 × 4
#>    contributor        date_clean amount committee                                 
#>    <chr>              <date>      <dbl> <chr>                                     
#>  1 SUSAN WINKEL       NA           29.2 UI POWER PAC                              
#>  2 MICHAEL DESCOTEAUX NA           30   Connecticut Health Care District 1199 PAC 
#>  3 <NA>               2014-09-19   25   East Hartford Democratic Town Committee   
#>  4 JAMES MERITHEW     NA            8   Connecticut Chapter 1150                  
#>  5 <NA>               2003-06-03 1000   Connecticut Citizen Action Group State PAC
#>  6 <NA>               2016-07-01   20   Chester Republican Town Committee         
#>  7 Tammy Mesita       NA            5   Miller For 36Th                           
#>  8 MARIA PACHECO      NA           35   Connecticut Health Care District 1199 PAC 
#>  9 <NA>               2017-07-01 1825   Shelton Democratic Town Committee         
#> 10 Jeffrey Capeci     NA           50   Newtown Republican Town Committee         
#> # ℹ 83,440 more rows
```
…
## Duplicates

``` r
ctc <- flag_dupes(ctc, everything())
percent(mean(ctc$dupe_flag), 0.1)
#> [1] "1.9%"
```

``` r
ctc %>% 
  filter(dupe_flag) %>% 
  select(all_of(key_vars))
#> # A tibble: 29,675 × 4
#>    contributor      date_clean amount committee                              
#>    <chr>            <date>      <dbl> <chr>                                  
#>  1 India Liddell    2022-07-12     50 Anastasia Yopp for State Representative
#>  2 India Liddell    2022-07-12     50 Anastasia Yopp for State Representative
#>  3 Jeffrey Weissman 2022-07-18     15 Andy 2022                              
#>  4 Jeffrey Weissman 2022-07-18     15 Andy 2022                              
#>  5 Audra Veach      2022-05-18      5 ARATA 2022                             
#>  6 Audra Veach      2022-05-18      5 ARATA 2022                             
#>  7 Margaret Dadakis 2022-03-30     25 Arora For CT                           
#>  8 Margaret Dadakis 2022-03-30     25 Arora For CT                           
#>  9 Jason Lebel      2022-05-19      5 Ashley Gillece For the 43rd            
#> 10 Jason Lebel      2022-05-19      5 Ashley Gillece For the 43rd            
#> # ℹ 29,665 more rows
```
…
``` r
ctc %>% 
  count(cents = amount %% 1, sort = TRUE) %>% 
  add_prop()
#> # A tibble: 1,008 × 3
#>     cents       n        p
#>     <dbl>   <int>    <dbl>
#>  1  0     1519068 0.955   
#>  2  0.5      9548 0.00601 
#>  3  0.300    2078 0.00131 
#>  4  0.25     2074 0.00130 
#>  5 NA        1188 0.000747
#>  6  0.75     1067 0.000671
#>  7  0.03      752 0.000473
#>  8  0.02      728 0.000458
#>  9  0.700     676 0.000425
#> 10  0.200     653 0.000411
#> # ℹ 998 more rows
```
…
``` r
ctc %>% 
  filter(state != state_norm) %>% 
  count(state, state_norm, sort = TRUE)
#> # A tibble: 34 × 3
#>    state state_norm     n
#>    <chr> <chr>      <int>
#>  1 Ct    CT          8207
#>  2 ct    CT          1019
#>  3 cT    CT           137
#>  4 CT.   CT            72
#>  5 Va    VA            18
#>  6 ny    NY            18
#>  7 nc    NC            16
#>  8 Fl    FL             7
#>  9 CT5   CT             6
#> 10 Ma    MA             6
#> # ℹ 24 more rows
```
…
      key_collision_merge() %>% 
      n_gram_merge(numgram = 1)
  ) %>% 
  filter(city_refine != city_swap) %>% 
  inner_join(
    y = zipcodes,
    by = c(
      "city_refine" = "city",
      "state_norm" = "state",
      "zip_norm" = "zip"
    )
  )
```

    #> # A tibble: 54 × 5
    #>    state_norm zip_norm city_swap                  city_refine          n
    #>    <chr>      <chr>    <chr>                      <chr>            <int>
    #>  1 CT         06896    REDDING RIDGE              REDDING             23
    #>  2 MA         01073    SOUTH HAMPTON              SOUTHAMPTON         11
    #>  3 CT         06066    ROCKVILLE VERNON           VERNON ROCKVILLE     4
    #>  4 NY         11733    SETAUKET                   EAST SETAUKET        4
    #>  5 SC         29406    NORTH CHARLESTON           CHARLESTON           4
    #>  6 CA         94103    SAN FRANSICO               SAN FRANCISCO        2
    #>  7 CT         06074    SOUTH WINDSORSOUTH WINDSOR SOUTH WINDSOR        2
    #>  8 MA         01060    NORTH HAMPTON              NORTHAMPTON          2
    #>  9 CA         94102    SAN FRANCISCOSAN FRANCISO  SAN FRANCISCO        1
    #> 10 CA         94109    SAN FRANSICO               SAN FRANCISCO        1
    #> # ℹ 44 more rows
…
