…
23.4% of rows are duplicates.

``` r
wie %>% 
  filter(dupe_flag) %>% 
  select(key_vars) %>% 
  arrange(transaction_date)
#> # A tibble: 155,710 × 4
#>    transaction_date registrant_name                    payee_name             amount 
#>    <date>           <chr>                              <chr>                  <chr>  
#>  1 2004-03-30       Committee to Retain Judge Yamahiro "Yamahiro   Glenn H"   37.00  
#>  2 2004-03-30       Committee to Retain Judge Yamahiro "Yamahiro   Glenn H"   37.00  
#>  3 2004-04-22       Jardine for Wisconsin              "Jardine   Daniel G. " 100.00 
#>  4 2004-04-22       Jardine for Wisconsin              "Jardine   Daniel G. " 100.00 
#>  5 2005-09-15       Priebus for State Senate           "Priebus   Reince "    1000.00
#>  6 2005-09-15       Priebus for State Senate           "Priebus   Reince "    1000.00
#>  7 2006-12-27       Citizens for Zipperer              "Zipperer   Rich "     100.00 
#>  8 2006-12-27       Citizens for Zipperer              "Zipperer   Rich "     100.00 
#>  9 2006-12-27       Citizens for Zipperer              "Zipperer   Rich "     100.00 
#> 10 2008-07-01       Doyle for Wisconsin                "GMMB"                 2500.00
#> # … with 155,700 more rows
```

``` r
wie %>% 
  filter(dupe_flag) %>% 
  count(registrant_name, payee_name, transaction_date,
        sort = TRUE)
#> # A tibble: 59,820 × 4
#>    registrant_name              payee_name      transaction_date     n
#>    <chr>                        <chr>           <date>           <int>
#>  1 Emily Siegrist for Wisconsin ActBlue         2020-10-15         673
#>  2 Emily Siegrist for Wisconsin ActBlue         2020-10-26         462
#>  3 Emily Siegrist for Wisconsin ActBlue         2020-10-27         452
#>  4 Emily Siegrist for Wisconsin ActBlue         2020-10-22         390
#>  5 Emily Siegrist for Wisconsin ActBlue         2020-10-17         371
#>  6 Emily Siegrist for Wisconsin ActBlue         2020-10-21         360
#>  7 Emily Siegrist for Wisconsin ActBlue         2020-10-16         331
#>  8 Friends of Scott Walker      BMO Harris Bank 2015-03-16         312
#>  9 Emily Siegrist for Wisconsin ActBlue         2020-10-24         298
#> 10 Emily Siegrist for Wisconsin ActBlue         2020-10-25         286
#> # … with 59,810 more rows
```
…
``` r
addr_norm
#> # A tibble: 107,559 × 3
#>    payee_address_line1 payee_address_line2 address_norm       
#>    <chr>               <chr>               <chr>              
#>  1 7545 Tree Lane #315 <NA>                7545 TREE LANE #315
#>  2 W1566A County rd S  <NA>                W1566A COUNTY RD S 
#>  3 9269 N Waverly Dr   <NA>                9269 N WAVERLY DR  
#>  4 2608 Main Street    <NA>                2608 MAIN ST       
#>  5 4903 Roigan Terrace <NA>                4903 ROIGAN TER    
#>  6 PO Box 101          <NA>                PO BOX 101         
#>  7 425 W Mohawk Trl    <NA>                425 W MOHAWK TRL   
#>  8 23604 75th St       <NA>                23604 75TH ST      
#>  9 PO Box 117          <NA>                PO BOX 117         
#> 10 1130 Ave H East     <NA>                1130 AVE H E       
#> # … with 107,549 more rows
```
…
      key_collision_merge() %>% 
      n_gram_merge(numgram = 1)
  ) %>% 
  filter(city_refine != city_swap) %>% 
  inner_join(
    y = zipcodes,
    by = c(
      "city_refine" = "city",
      "payee_state" = "state",
      "zip_norm" = "zip"
    )
  )
```

    #> # A tibble: 74 × 5
    #>    payee_state zip_norm city_swap    city_refine       n
    #>    <chr>       <chr>    <chr>        <chr>         <int>
    #>  1 IL          60074    PALENTINE    PALATINE         17
    #>  2 IL          60094    PALENTINE    PALATINE         17
    #>  3 OH          45263    CINCINATTI   CINCINNATI       16
    #>  4 MA          02144    SOMMERSVILLE SOMERVILLE       14
    #>  5 IL          60055    PALENTINE    PALATINE         13
    #>  6 MA          02144    SOMMERVILE   SOMERVILLE       10
    #>  7 CA          94025    MENOLA PARK  MENLO PARK        9
    #>  8 CA          94104    SAN FRANSICO SAN FRANCISCO     9
    #>  9 OH          45999    CINCINATTI   CINCINNATI        8
    #> 10 WI          54751    MENOMINEE    MENOMONIE         6
    #> # … with 64 more rows
…
