…
``` r
ksc <- mutate(ksc, dupe_flag = as.logical(read_lines(dupe_file)))
sum(ksc$dupe_flag)
#> [1] 144
```

``` r
ksc %>% 
  filter(dupe_flag) %>% 
  select(date, vendor, amount, agency)
#> # A tibble: 144 x 4
#>    date       vendor                                amount agency                 
#>    <date>     <chr>                                  <dbl> <chr>                  
#>  1 2013-07-24 CHARLSON WILSON INSURANCE AGENCY INC   124   Kansas State University
#>  2 2013-07-24 CHARLSON WILSON INSURANCE AGENCY INC   124   Kansas State University
#>  3 2013-07-30 OPAL RT TECHNOLOGIES INC              8774   Kansas State University
#>  4 2013-07-30 OPAL RT TECHNOLOGIES INC              8774   Kansas State University
#>  5 2013-08-19 PB CRC LIMITED                       18750   Kansas State University
#>  6 2013-08-19 PB CRC LIMITED                       18750   Kansas State University
#>  7 2013-08-26 SANTA CRUZ BIOTECHNOLOGY INC           304.  Kansas State University
#>  8 2013-08-26 SANTA CRUZ BIOTECHNOLOGY INC           304.  Kansas State University
#>  9 2013-09-09 VERIZON WIRELESS SERVICES LLC           65.2 Kansas State University
#> 10 2013-09-09 VERIZON WIRELESS SERVICES LLC           65.2 Kansas State University
#> # … with 134 more rows
```
…
