…
We can flag any record missing a key variable needed to identify a
transaction.

``` r
key_vars <- c("real_flv", "year", "addrgl1", "owner1")
vtp <- flag_na(vtp, all_of(key_vars))
mean(vtp$na_flag)
#> [1] 0.05605192
```

``` r
vtp %>% 
  filter(na_flag) %>% 
  select(all_of(key_vars))
#> # A tibble: 18,846 × 4
#>    real_flv  year addrgl1 owner1                       
#>       <dbl> <dbl> <chr>   <chr>                        
#>  1       NA  2021 <NA>    <NA>                         
#>  2       NA  2021 <NA>    <NA>                         
#>  3   306700  2021 <NA>    RICHTER LUKE                 
#>  4       NA  2021 <NA>    <NA>                         
#>  5       NA  2021 <NA>    <NA>                         
#>  6    46300  2021 <NA>    ROBEAR JASON                 
#>  7       NA  2021 <NA>    <NA>                         
#>  8    43200  2021 <NA>    BARNET FIRE DISTRICT #2      
#>  9   195400  2021 <NA>    GRACE UNITED METHODIST CHURCH
#> 10   322200  2021 <NA>    GRACE UNITED METHODIST CHURCH
#> # … with 18,836 more rows
```
### Duplicates

We can also flag any record completely duplicated across every column.

``` r
vtp <- flag_dupes(vtp, -objectid)
sum(vtp$dupe_flag)
#> [1] 161
```

``` r
vtp %>% 
  filter(dupe_flag) %>% 
  select(objectid, all_of(key_vars))
#> # A tibble: 161 × 5
#>    objectid real_flv  year addrgl1              owner1                          
#>       <dbl>    <dbl> <dbl> <chr>                <chr>                           
#>  1    43928   100000  2021 636 WEST JACKSON AVE WYNTER STEPHON & HODGES FRANSICA
#>  2    43929   100000  2021 636 WEST JACKSON AVE WYNTER STEPHON & HODGES FRANSICA
#>  3    43930   100000  2021 636 WEST JACKSON AVE WYNTER STEPHON & HODGES FRANSICA
#>  4    43931   100000  2021 636 WEST JACKSON AVE WYNTER STEPHON & HODGES FRANSICA
#>  5    44989   577500  2021 28 CATAMOUNT DR      RNK ENTERPRISES LLC             
#>  6    44990   577500  2021 28 CATAMOUNT DR      RNK ENTERPRISES LLC             
#>  7    44991   611800  2021 32 CATAMOUNT DR      PEJ LLC                         
#>  8    44992   611800  2021 32 CATAMOUNT DR      PEJ LLC                         
#>  9    62291   299200  2021 900 HARBOR VIEW DR   WALSH ANDREW R & CHANDRA L      
#> 10    62292   299200  2021 900 HARBOR VIEW DR   WALSH ANDREW R & CHANDRA L      
#> # … with 151 more rows
```
…
``` r
vtp %>% 
  filter(stgl != state_norm) %>% 
  count(stgl, state_norm, sort = TRUE)
#> # A tibble: 99 × 3
#>    stgl       state_norm     n
#>    <chr>      <chr>      <int>
#>  1 CANADA     CN           553
#>  2 QC CANADA  QC           155
#>  3 QUEBEC     QC            35
#>  4 QUECANADA  QC            27
#>  5 ON CANADA  ON            22
#>  6 PQ CANADA  PQ            22
#>  7 QC  CANADA QC            22
#>  8 NEW YORK   NY            21
#>  9 N Y        NY            19
#> 10 FLORIDA    FL            16
#> # … with 89 more rows
```
…
      key_collision_merge() %>% 
      n_gram_merge(numgram = 1)
  ) %>% 
  filter(city_refine != city_swap) %>% 
  inner_join(
    y = zipcodes,
    by = c(
      "city_refine" = "city",
      "state_norm" = "state",
      "zip_norm" = "zip"
    )
  )
```

    #> # A tibble: 51 × 5
    #>    state_norm zip_norm city_swap           city_refine             n
    #>    <chr>      <chr>    <chr>               <chr>               <int>
    #>  1 MA         01060    NORTH HAMPTON       NORTHAMPTON             7
    #>  2 NY         11968    SOUTH HAMPTON       SOUTHAMPTON             5
    #>  3 MA         02127    SO BOSTON           BOSTON                  4
    #>  4 ME         03903    ELLOIT              ELIOT                   3
    #>  5 VT         05255    MANCHESTER CTN      MANCHESTER CENTER       3
    #>  6 MA         01073    SOUTH HAMPTON       SOUTHAMPTON             2
    #>  7 CA         90210    BERVELY HILLS       BEVERLY HILLS           1
    #>  8 CT         06238    NO COVENTRY         COVENTRY                1
    #>  9 CT         06255    NORTH GROVESNORDALE NORTH GROSVENORDALE     1
    #> 10 CT         06437    UILFORDG            GUILFORD                1
    #> # … with 41 more rows
…
