…
``` r
inc <- inc %>% flag_na(start_date, agency, amount, vendor_name)
sum(inc$na_flag)
#> [1] 58
```

``` r
inc %>% 
  filter(na_flag) %>% 
  select(start_date, agency, amount, vendor_name)
#> # A tibble: 58 x 4
#>    start_date agency                         amount vendor_name                   
#>    <date>     <chr>                           <dbl> <chr>                         
#>  1 2015-01-01 FSSA, DDARS, DIRECTORS OFFICE      NA ARC OF NORTHEAST INDIANA INC  
#>  2 2015-01-05 2 N. MERIDIAN - 2ND FL/SELIG/L     NA CHRISTEL HOUSE ACADEMY        
#>  3 2015-04-30 INDOT - Contract Administratio     NA CITY OF TERRE HAUTE           
#>  4 2015-04-01 2 N. MERIDIAN - 2ND FL/SELIG/L     NA EVANSVILLE CHRISTIAN LIFE CTR 
#>  5 2015-04-01 2 N. MERIDIAN - 1ST FL-STREET      NA NEW HOPE SERVICES INC         
#>  6 2015-03-13 INDOT - Contract Administratio     NA PIKE COUNTY                   
#>  7 2015-04-01 DNR, F & W Operations 8AE          NA PURDUE UNIV                   
#>  8 2015-05-01 IDOA/Procurement                   NA SPEAR CORPORATION             
#>  9 2015-04-01 2 N. MERIDIAN - 2ND FL/SELIG/L     NA ST VINCENT FRANKFORT HOSP, INC
#> 10 2015-07-07 INDOT - Contract Administratio     NA AMERICAN ELECTRIC POWER       
#> # … with 48 more rows
```

### Duplicates

``` r
inc <- flag_dupes(inc, everything())
sum(inc$dupe_flag)
#> [1] 75
```

``` r
inc %>% 
  filter(dupe_flag) %>% 
  select(start_date, agency, amount, vendor_name)
#> # A tibble: 75 x 4
#>    start_date agency                             amount vendor_name                  
#>    <date>     <chr>                               <dbl> <chr>                        
#>  1 2027-01-01 "FSSA-Claims Management"          622032  CENTER FOR MENTAL HEALTH INC 
#>  2 2015-11-19 "DNR, Land Acquisition 160"         2500  DAVID F WAGNER               
#>  3 2015-12-26 "SDA\\ ISDA Business Office"         975  DENNIS LAMBRIGHT             
#>  4 2015-07-01 "DOC, Central Office IGCS"       1205400  MADISON COUNTY               
#>  5 2016-02-17 "IN School f/t Deaf/Administrat"   81000  R E DIMOND AND ASSOC INC     
#>  6 2015-10-01 "Traffic Safety"                    1010. SOUTHERN INDIANA PHYSICIANS  
#>  7 2049-07-01 "INDOT - Contract Administratio" 3192500  ST JOSEPH COUNTY             
#>  8 2015-12-08 "DNR, Land Acquisition 160"       837695. THE NATURE CONSERVANCY       
#>  9 2104-04-15 "INDOT - Contract Administratio"   22642. TIME WARNER CABLE MEDIA SALES
#> 10 2020-03-31 "IOT Contracts"                   405909. UNISYS CORPORATION           
#> # … with 65 more rows
```
…
