…
``` r
key_vars <- c("license_no", "full_name")
mal <- flag_na(mal, all_of(key_vars))
mean(mal$na_flag)
#> [1] 0.000826206
sum(mal$na_flag)
#> [1] 773
```

``` r
mal %>% 
  filter(na_flag) %>% 
  select(all_of(key_vars), source_file)
#> # A tibble: 773 × 3
#>    license_no full_name                           source_file          
#>    <chr>      <chr>                               <chr>                
#>  1 <NA>       Berkshire Pharmacy Services Inc.    FACILITY_PHARMACY.txt
#>  2 <NA>       Berkshire Pharmacy Services Inc.    FACILITY_PHARMACY.txt
#>  3 <NA>       Berkshire Pharmacy Services Inc.    FACILITY_PHARMACY.txt
#>  4 <NA>       CarePro Pharmacy                    FACILITY_PHARMACY.txt
#>  5 <NA>       CarePro Pharmacy                    FACILITY_PHARMACY.txt
#>  6 <NA>       CarePro Pharmacy                    FACILITY_PHARMACY.txt
#>  7 <NA>       Medical Essentials                  FACILITY_PHARMACY.txt
#>  8 <NA>       Medical Essentials                  FACILITY_PHARMACY.txt
#>  9 <NA>       Northern General Distributors, Inc. FACILITY_PHARMACY.txt
#> 10 <NA>       Northern General Distributors, Inc. FACILITY_PHARMACY.txt
#> # … with 763 more rows
```
…
### Duplicates

We can also flag any record completely duplicated across every column.

``` r
mal <- flag_dupes(mal, -license_no)
sum(mal$dupe_flag)
#> [1] 74
```

``` r
mal %>% 
  filter(dupe_flag) %>% 
  select(license_no, all_of(key_vars))
#> # A tibble: 74 × 2
#>    license_no  full_name                    
#>    <chr>       <chr>                        
#>  1 CS90330-A02 Long Term Pharmacy Solutions 
#>  2 CS90330-A01 Long Term Pharmacy Solutions 
#>  3 CS3419-A02  Partners of Massachusetts LLC
#>  4 CS3419-A03  Partners of Massachusetts LLC
#>  5 CS3419-A04  Partners of Massachusetts LLC
#>  6 CS3419-A    Partners of Massachusetts LLC
#>  7 CS3419-A    Partners of Massachusetts LLC
#>  8 DN0007PDO   Gregory Wu                   
#>  9 DN0008PDO   Gregory Wu                   
#> 10 DN0009PDO   Gregory Wu                   
#> # … with 64 more rows
```
…
``` r
addr_norm
#> # A tibble: 741,281 × 3
#>    addr_line_1            addr_line_2 address_norm      
#>    <chr>                  <chr>       <chr>             
#>  1 61 Harvard Street      <NA>        61 HARVARD ST     
#>  2 1934 Lakeview Avenue   <NA>        1934 LAKEVIEW AVE 
#>  3 153B Main Street       <NA>        153B MAIN ST      
#>  4 42 Union Street        <NA>        42 UNION ST       
#>  5 77 Salem Street        <NA>        77 SALEM ST       
#>  6 1234 Columbus Ave.     <NA>        1234 COLUMBUS AVE 
#>  7 459 Broadway           <NA>        459 BROADWAY      
#>  8 180 Main Street        <NA>        180 MAIN ST       
#>  9 85 Beaumont Drive      <NA>        85 BEAUMONT DR    
#> 10 703D Washington Street <NA>        703D WASHINGTON ST
#> # … with 741,271 more rows
```
…
      key_collision_merge() %>% 
      n_gram_merge(numgram = 1)
  ) %>% 
  filter(city_refine != city_swap) %>% 
  inner_join(
    y = zipcodes,
    by = c(
      "city_refine" = "city",
      "addr_state" = "state",
      "zip_norm" = "zip"
    )
  )
```

    #> # A tibble: 68 × 5
    #>    addr_state zip_norm city_swap             city_refine           n
    #>    <chr>      <chr>    <chr>                 <chr>             <int>
    #>  1 NY         11733    SETAUKET              EAST SETAUKET         6
    #>  2 NJ         07093    WEST NEWEST YORK      WEST NEW YORK         4
    #>  3 MA         01523    LANCASTER RT          LANCASTER             3
    #>  4 SC         29406    NORTH CHARLESTON      CHARLESTON            3
    #>  5 FL         33435    BOYATEN BEACH         BOYNTON BEACH         2
    #>  6 MA         01469    WEST TOWNSEND         TOWNSEND              2
    #>  7 MA         02346    MIDDLEBORO RD         MIDDLEBORO            2
    #>  8 NY         12803    SOUTH GLENSOUTH FALLS SOUTH GLENS FALLS     2
    #>  9 RI         02904    NO PROVIDENCE         PROVIDENCE            2
    #> 10 AL         36111    MONTGNERY             MONTGOMERY            1
    #> # … with 58 more rows
…
