…
``` r
raw_info <- dir_info(raw_dir)
nrow(raw_info)
#> [1] 27
sum(raw_info$size)
#> 250M
as_tibble(raw_info) %>% 
  select(path, size, modification_time) %>% 
  mutate(across(path, path.abbrev))
#> # A tibble: 27 x 3
#>    path                                                size modification_time  
#>    <chr>                                        <fs::bytes> <dttm>             
#>  1 ~/la/expends/data/raw/SearchResults-2000.csv       3.56M 2020-07-02 12:27:13
#>  2 ~/la/expends/data/raw/SearchResults-2001.csv       3.18M 2020-07-02 12:30:16
#>  3 ~/la/expends/data/raw/SearchResults-2002.csv       7.69M 2020-07-02 12:31:06
#>  4 ~/la/expends/data/raw/SearchResults-2003.csv      19.79M 2020-07-02 12:33:02
#>  5 ~/la/expends/data/raw/SearchResults-2004.csv       6.76M 2020-07-02 12:33:47
#>  6 ~/la/expends/data/raw/SearchResults-2005.csv       4.07M 2020-07-02 12:34:42
#>  7 ~/la/expends/data/raw/SearchResults-2006.csv       7.99M 2020-07-02 12:35:27
#>  8 ~/la/expends/data/raw/SearchResults-2007.csv      18.98M 2020-07-02 12:36:55
#>  9 ~/la/expends/data/raw/SearchResults-2008.csv        9.1M 2020-07-02 12:38:10
#> 10 ~/la/expends/data/raw/SearchResults-2009.csv      12.57M 2020-07-02 12:39:00
#> # … with 17 more rows
```
…
We can flag any record missing a key variable like a name or date.

``` r
lae <- lae %>% flag_na(date, last, amount, recipient)
sum(lae$na_flag)
#> [1] 248
```

All such records are missing a beneficiary.

``` r
lae %>% 
  filter(na_flag) %>% 
  select(date, last, amount, recipient)
#> # A tibble: 248 x 4
#>    date       last                      amount recipient
#>    <date>     <chr>                      <dbl> <chr>    
#>  1 2002-04-22 Entergy Corp. PAC (ENPAC)  3000  <NA>     
#>  2 2003-12-29 Blanco                     1500  <NA>     
#>  3 2003-12-19 Blanco                     1473. <NA>     
#>  4 2003-12-27 Blanco                      647. <NA>     
#>  5 2003-12-26 Blanco                      579. <NA>     
#>  6 2003-12-26 Blanco                      297. <NA>     
#>  7 2003-12-26 Blanco                      279. <NA>     
#>  8 2003-12-31 Blanco                      185. <NA>     
#>  9 2003-01-08 Entergy Corp. PAC (ENPAC)   100  <NA>     
#> 10 2004-08-23 Blanco                    25000  <NA>     
#> # … with 238 more rows
```
…
Over 1% of records are such duplicates

``` r
percent(mean(lae$dupe_flag), 0.01)
#> [1] "1.07%"
```

``` r
lae %>% 
  filter(dupe_flag) %>% 
  select(date, last, amount, recipient, number)
#> # A tibble: 13,459 x 5
#>    date       last         amount recipient           number 
#>    <date>     <chr>         <dbl> <chr>               <chr>  
#>  1 2000-11-07 Addison, Jr.    150 STERLING COLLINS    LA-1619
#>  2 2000-11-07 Addison, Jr.    150 STERLING COLLINS    LA-1619
#>  3 2000-11-07 Addison, Jr.     75 MR DON KELLY        LA-1619
#>  4 2000-11-07 Addison, Jr.     75 MR DON KELLY        LA-1619
#>  5 2000-11-07 Addison, Jr.     75 TAREN MACK          LA-1619
#>  6 2000-11-07 Addison, Jr.     75 TAREN MACK          LA-1619
#>  7 2000-11-07 Addison, Jr.     75 ASHLEY SPOTSVILLE   LA-1619
#>  8 2000-11-07 Addison, Jr.     75 ASHLEY SPOTSVILLE   LA-1619
#>  9 2000-11-07 Addison, Jr.     75 MR ALLEN S MERCHANT LA-1619
#> 10 2000-11-07 Addison, Jr.     75 MR ALLEN S MERCHANT LA-1619
#> # … with 13,449 more rows
```
…
      key_collision_merge() %>% 
      n_gram_merge(numgram = 1)
  ) %>% 
  filter(city_refine != city_swap) %>% 
  inner_join(
    y = zipcodes,
    by = c(
      "city_refine" = "city",
      "state_norm" = "state",
      "zip_norm" = "zip"
    )
  )
```

    #> # A tibble: 104 x 5
    #>    state_norm zip_norm city_swap       city_refine       n
    #>    <chr>      <chr>    <chr>           <chr>         <int>
    #>  1 CA         94103    SAN FRANSICO    SAN FRANCISCO    22
    #>  2 OH         45202    CINCINATTI      CINCINNATI       22
    #>  3 LA         70068    LAPALCE         LA PLACE         18
    #>  4 LA         71110    BARKSDALE A F B BARKSDALE AFB    14
    #>  5 LA         71457    NACTITOCHES     NATCHITOCHES     12
    #>  6 LA         70001    METIAIRE        METAIRIE          8
    #>  7 LA         70119    NEW ORLEANSLA   NEW ORLEANS       8
    #>  8 OH         45274    CINCINATTI      CINCINNATI        8
    #>  9 LA         70390    NOPOLEANVILLE   NAPOLEONVILLE     6
    #> 10 CA         94102    SAN FRANSICO    SAN FRANCISCO     5
    #> # … with 94 more rows
…
