…
### Unzip

There are 84 CSV files inside the ZIP archive. We can list the content
and extract only those pertaining to contributions.

``` r
(zip_contents <- 
  unzip(zip_path, list = TRUE) %>% 
  as_tibble() %>% 
  clean_names() %>% 
  mutate(
    length = as_fs_bytes(length),
    date = as_date(date)
  ))
#> # A tibble: 84 × 3
#>    name                 length date      
#>    <chr>           <fs::bytes> <date>    
#>  1 ReadMe.txt          130.01K 2021-09-02
#>  2 assets.csv          378.54K 2021-09-02
#>  3 cand.csv             40.43M 2021-09-02
#>  4 cont_ss.csv          16.54M 2021-09-02
#>  5 cont_t.csv            5.19M 2021-09-02
#>  6 contribs_01.csv      98.67M 2021-09-02
#>  7 contribs_02.csv     106.78M 2021-09-02
#>  8 contribs_03.csv     114.16M 2021-09-02
#>  9 contribs_04.csv     107.83M 2021-09-02
#> 10 contribs_05.csv      98.69M 2021-09-02
#> # … with 74 more rows
…
sum(txc$na_flag)
#> [1] 28734
```

``` r
txc %>% 
  filter(na_flag) %>% 
  select(all_of(key_vars))
#> # A tibble: 28,734 × 5
#>    contribution_dt contributor_name_first contributor_name_last contribution_amount filer_name
#>    <date>          <chr>                  <chr>                               <dbl> <chr>     
#>  1 2007-04-01      <NA>                   <NA>                                 75   <NA>      
#>  2 2007-03-29      Chad R                 Shaw                                 58   <NA>      
#>  3 2007-04-12      Craig V                Richardson                           83.3 <NA>      
#>  4 2007-04-12      Thomas L               Price                                40   <NA>      
#>  5 2007-04-12      Oney D                 Temple                               50   <NA>      
#>  6 2007-04-12      Bryan W                Neskora                              65.2 <NA>      
#>  7 2007-04-12      Susan B                Ortenstone                           62.5 <NA>      
#>  8 2007-04-12      Kym N                  Olson                                75   <NA>      
#>  9 2007-04-12      Gene T                 Waguespack                           80   <NA>      
#> 10 2007-04-12      Thomas P               Morgan                              110   <NA>      
#> # … with 28,724 more rows
```
…
``` r
mean(txc$dupe_flag)
#> [1] 0.02335182
```

``` r
txc %>% 
  filter(dupe_flag) %>% 
  select(contribution_info_id, all_of(key_vars)) %>% 
  arrange(contribution_dt)
#> # A tibble: 504,783 × 6
#>    contribution_inf… contribution_dt contributor_nam… contributor_nam… contribution_am… filer_name 
#>                <int> <date>          <chr>            <chr>                       <dbl> <chr>      
#>  1         107024322 2000-01-28      Jim              Karr                           40 United Ser…
#>  2         107024324 2000-01-28      Jim              Karr                           40 United Ser…
#>  3         107024336 2000-01-28      Ted              Smith                          40 United Ser…
#>  4         107024338 2000-01-28      Ted              Smith                          40 United Ser…
#>  5         107024376 2000-01-28      Don              Davidson                       40 United Ser…
#>  6         107024378 2000-01-28      Don              Davidson                       40 United Ser…
#>  7         107024633 2000-01-28      Emile            Peroyea                        40 United Ser…
#>  8         107024635 2000-01-28      Emile            Peroyea                        40 United Ser…
#>  9         107024655 2000-01-28      James S.         Agostini                       40 United Ser…
#> 10         107024657 2000-01-28      James S.         Agostini                       40 United Ser…
#> # … with 504,773 more rows
```
…
``` r
txc <- left_join(txc, st_norm, by = "contributor_street_state_cd")
rm(st_norm)
```

``` r
txc %>% 
  filter(contributor_street_state_cd != state_norm) %>% 
  count(contributor_street_state_cd, state_norm, sort = TRUE)
#> # A tibble: 79 × 3
#>    contributor_street_state_cd state_norm     n
#>    <chr>                       <chr>      <int>
#>  1 Tx                          TX         11984
#>  2 tx                          TX           367
#>  3 Te                          TE           102
#>  4 Fl                          FL            94
#>  5 Ok                          OK            61
#>  6 ca                          CA            35
#>  7 tX                          TX            33
#>  8 Ca                          CA            30
#>  9 ny                          NY            26
#> 10 va                          VA            24
#> # … with 69 more rows
```
…
      key_collision_merge() %>% 
      n_gram_merge(numgram = 1)
  ) %>% 
  filter(city_refine != city_swap) %>% 
  inner_join(
    y = zipcodes,
    by = c(
      "city_refine" = "city",
      "state_norm" = "state",
      "zip_norm" = "zip"
    )
  )
```

    #> # A tibble: 487 × 5
    #>    state_norm zip_norm city_swap           city_refine              n
    #>    <chr>      <chr>    <chr>               <chr>                <int>
    #>  1 SC         29406    NORTH CHARLESTON    CHARLESTON             223
    #>  2 SC         29419    NORTH CHARLESTON    CHARLESTON              92
    #>  3 GA         31405    SAVAHHAN            SAVANNAH                64
    #>  4 TX         78259    SAN ANONTIO         SAN ANTONIO             47
    #>  5 TX         77008    HOUSTONHOUSTON      HOUSTON                 39
    #>  6 CA         94583    SAN ROMAN           SAN RAMON               35
    #>  7 TX         77720    BEAMOUNT            BEAUMONT                28
    #>  8 TX         76180    NORTH RICHARD HILLS NORTH RICHLAND HILLS    25
    #>  9 TX         75243    DALLAS DALLAS       DALLAS                  24
    #> 10 TX         76844    GOLDWAITHE          GOLDTHWAITE             24
    #> # … with 477 more rows
…
