…
We can also flag records that are entirely duplicated across every row,
save for the supposedly unique `id`.

``` r
wvc <- flag_dupes(wvc, -receipt_id)
percent(mean(wvc$dupe_flag), 0.01)
#> [1] "1.40%"
```

``` r
wvc %>% 
  filter(dupe_flag) %>% 
  select(all_of(key_vars)) %>% 
  arrange(receipt_date)
#> # A tibble: 1,827 × 4
#>    receipt_date last_name         receipt_amount candidate_name
#>    <date>       <chr>                      <dbl> <chr>         
#>  1 2017-04-04   Douglas  McKinney            100 <NA>          
#>  2 2017-04-04   Douglas  McKinney            100 <NA>          
#>  3 2017-04-10   Trickett                     100 <NA>          
#>  4 2017-04-10   Trickett                     100 <NA>          
#>  5 2017-04-23   Totten                        25 <NA>          
#>  6 2017-04-23   Totten                        25 <NA>          
#>  7 2017-07-18   Floyd                          5 <NA>          
#>  8 2017-07-18   Floyd                          5 <NA>          
#>  9 2017-08-21   Tarr                        1000 Ryan Ferns    
#> 10 2017-08-21   Tarr                        1000 Ryan Ferns    
#> # … with 1,817 more rows
```
…
