…
## Join

The primary table of interest here is `Contributions`, which lists the
528,199 contributions made to committees and reported to the state. This
table does not identify the receiving committee or contributing entity.
This information is found in the `Groups` and `Contributors` tables,
respectively. We need to add variables identifying all parties to each
contribution.

``` r
nv$Contributions
#> # A tibble: 528,199 × 8
#>    contribution_id report_id candidate_id group_id contribution_date contribution_amo… contribution_type  contributor_id
#>              <int>     <int>        <int>    <int> <date>                        <dbl> <chr>                       <int>
#>  1               2      6980           NA     1220 2006-06-28                    35000 Monetary Contribu…              3
#>  2               3      6983           NA     1332 2006-03-29                        2 Monetary Contribu…              8
#>  3               4      6983           NA     1332 2006-03-31                        1 Monetary Contribu…              8
#>  4               5      6983           NA     1332 2006-04-10                      200 Monetary Contribu…              8
#>  5               6      6983           NA     1332 2006-01-01                        0 Written Commitment              9
#>  6               7      6983           NA     1332 2006-01-01                        0 In Kind Contribut…              9
#>  7               8      6983           NA     1332 2006-01-01                        0 In Kind Written C…              9
#>  8               9      6987           NA     1364 2006-01-13                     1000 Monetary Contribu…             15
#>  9              10      6991         2360       NA 2006-02-07                      100 Monetary Contribu…             17
#> 10              11      6991         2360       NA 2006-02-08                      500 Monetary Contribu…             18
#> # … with 528,189 more rows
```
…
``` r
key_vars <- c("contributor_name", "contribution_date", 
              "contribution_amount", "recipient_name")
```

``` r
nvc %>% 
  filter(dupe_flag) %>% 
  select(contribution_id, report_id, all_of(key_vars))
#> # A tibble: 14,527 × 6
#>    contribution_id report_id contributor_name            contribution_date contribution_amount recipient_name           
#>              <int>     <int> <chr>                       <date>                          <dbl> <chr>                    
#>  1              18      6991 Howard H & Phyllis S Hengst 2006-02-15                        200 E Tiras                  
#>  2              19      6991 Howard H & Phyllis S Hengst 2006-02-15                        200 E Tiras                  
#>  3             103      7034 member dues                 2006-07-15                         11 Mineral County Classroom…
#>  4             105      7034 member dues                 2006-07-15                         11 Mineral County Classroom…
#>  5             106      7062 NONE                        2006-01-01                          0 Patricia Herzog          
#>  6             107      7062 NONE                        2006-01-01                          0 Patricia Herzog          
#>  7             504     13743 Harrah's Operating Company  2006-10-05                       5000 Susan Brager             
#>  8             505     13743 Harrah's Operating Company  2006-10-05                       5000 Susan Brager             
#>  9             536     13756 NONE                        2006-10-26                          0 Patricia Herzog          
#> 10             537     13756 NONE                        2006-10-26                          0 Patricia Herzog          
#> # … with 14,517 more rows
```
…
