Data Diary
…
print(nv_candidates)

#> # A tibble: 6,665 x 6
#>    candidate_id first_name last_name  party         office                          jurisdiction   
#>    <chr>        <chr>      <chr>      <chr>         <chr>                           <chr>          
#>  1 28           Michael    Douglas    Nonpartisan   Supreme Court Justice, Seat F   NV SOS         
#>  2 30           Richard    Ziser      Republican P U.S. Senate                     NV SOS         
#>  3 31           Carlo      Poliak     Unspecified   City Council, Las Vegas         CITY OF LAS VE
#>  4 32           Lynn       Hettrick   Republican P State Assembly, District 39     NV SOS         
#>  5 33           James      Gibbons    Republican P Governor                        NV SOS         
#>  6 34           Bonnie     Parnell    Democratic P State Assembly, District 40     NV SOS         
#>  7 35           Marcia     Washington Nonpartisan   State Senate, District 4        CLARK COUNTY   
#>  8 36           Harry      Reid       Democratic P U.S. Senate                     NV SOS         
#>  9 37           Kenneth    Wegner     Republican P U.S. Senate                     NV SOS         
#> 10 38           Cynthia    Steel      Nonpartisan   District Court Judge, District CLARK COUNTY   
#> #  with 6,655 more rows
…
print(nv_groups)

#> # A tibble: 1,196 x 6
#>    group_id group_name                               group_type       contact_name  active city    
#>    <chr>    <chr>                                    <chr>            <chr>         <lgl>  <chr>   
#>  1 598      Allstate Insurance Company Political Ac Political Actio Shirlanda Wa TRUE   Northbr
#>  2 600      American Insurance Association PAC - Ne Political Actio James L. Wad FALSE  Sacrame
#>  3 601      Board of Realtors Political Action Comm Political Actio Wendy DiVecc TRUE   Las Veg
#>  4 603      Churchill County Education Association   Political Actio Sue S Matuska TRUE   Fallon  
#>  5 607      Carriers Allied for Responsible Governm Political Actio Daryl E. Cap FALSE  SPARKS  
#>  6 610      P.A.C. 357   (fka IBEW LOCAL 357 PAC)    Political Actio James Halsey  TRUE   Las Veg
#>  7 615      Southwest Regional Council of Carpenter Political Actio Frank Hawk    TRUE   Sacrame
#>  8 616      Construction Industry Committee          Political Actio Craig Madole  TRUE   Reno    
#>  9 617      Douglas County Professional Education A Political Actio Sue S Matuska TRUE   South L
#> 10 621      International Union of Painters and All Political Actio Jason Lamber TRUE   Hanover 
#> #  with 1,186 more rows
…
print(nv_reports)

#> # A tibble: 37,625 x 9
#>    report_id candidate_id group_id report_name election_cycle filing_due_date filed_date amended
#>    <chr>     <chr>        <chr>    <chr>                <dbl> <date>          <date>     <lgl>  
#>  1 6980      <NA>         1220     CE Report 1           2006 NA              2006-08-08 FALSE  
#>  2 6981      1988         <NA>     CE Report 1           2006 NA              2006-10-30 FALSE  
#>  3 6982      1988         <NA>     CE Report 1           2006 NA              2006-08-07 FALSE  
#>  4 6983      <NA>         1332     CE Report 1           2006 NA              2006-08-07 FALSE  
#>  5 6984      1992         <NA>     CE Report 1           2006 NA              2006-08-07 FALSE  
#>  6 6985      1165         <NA>     CE Report 1           2006 NA              2006-08-07 FALSE  
#>  7 6986      155          <NA>     CE Report 1           2006 NA              2006-08-07 FALSE  
#>  8 6987      <NA>         1364     CE Report 1           2006 NA              2006-08-08 FALSE  
#>  9 6990      2368         <NA>     CE Report 1           2006 NA              2006-08-08 FALSE  
#> 10 6991      2360         <NA>     CE Report 1           2006 NA              2006-08-08 FALSE  
#> #  with 37,615 more rows, and 1 more variable: superseded <lgl>
…
print(nv_payees)

#> # A tibble: 189,055 x 4
#>    contact_id first_name middle_name last_name               
#>    <chr>      <chr>      <chr>       <chr>                   
#>  1 3          <NA>       <NA>        UNITE HERE TIP          
#>  2 4          <NA>       <NA>        The Calvert Company     
#>  3 5          <NA>       <NA>        Paid Staff              
#>  4 6          <NA>       <NA>        Passkey Systems         
#>  5 7          <NA>       <NA>        Time Printing           
#>  6 8          Bonnie     B           Jacobs                  
#>  7 9          <NA>       <NA>        NONE                    
#>  8 10         <NA>       <NA>        Oriental Trading        
#>  9 11         <NA>       <NA>        V&S variety & True Value
#> 10 12         <NA>       <NA>        BuildASign.com          
#> #  with 189,045 more rows
…
print(nv_contributions)

#> # A tibble: 457,012 x 8
#>    contribution_id report_id candidate_id group_id contribution_da contribution_am
#>    <chr>           <chr>     <chr>        <chr>    <date>                      <dbl>
#>  1 2               6980      <NA>         1220     2006-06-28                  35000
#>  2 3               6983      <NA>         1332     2006-03-29                      2
#>  3 4               6983      <NA>         1332     2006-03-31                      1
#>  4 5               6983      <NA>         1332     2006-04-10                    200
#>  5 6               6983      <NA>         1332     2006-01-01                      0
#>  6 7               6983      <NA>         1332     2006-01-01                      0
#>  7 8               6983      <NA>         1332     2006-01-01                      0
#>  8 9               6987      <NA>         1364     2006-01-13                   1000
#>  9 10              6991      2360         <NA>     2006-02-07                    100
#> 10 11              6991      2360         <NA>     2006-02-08                    500
#> #  with 457,002 more rows, and 2 more variables: contribution_type <chr>, contributor_id <chr>
…
This information is submitted by the filer of the report and can be found using the NVSOS AURORA search portal, so we know the data exists.

For example, in report #6991, contributor #17 (John Mueller) gave money to candidate #2360 (E Tiras). Searching for Mr.Tiras report from 2006-08-08 on the AURORA portal, we can see that Mr.Mueller lives at 308 Laura Court, Incline Village, NV 89451 (see nv_contribs/docs/nv_example_report).

nv %>% 
  filter(report_id == "6991") %>% 
  select(
    report_id, 
    filed_date, 
    payee_last, 
    candidate_last
  )

#> # A tibble: 47 x 4
#>    report_id filed_date payee_last candidate_last
#>    <chr>     <date>     <chr>      <chr>         
#>  1 6991      2006-08-08 Mueller    Tiras         
#>  2 6991      2006-08-08 Paganelli  Tiras         
#>  3 6991      2006-08-08 Tiras      Tiras         
#>  4 6991      2006-08-08 Clark      Tiras         
#>  5 6991      2006-08-08 Elias      Tiras         
#>  6 6991      2006-08-08 Offerdahl  Tiras         
#>  7 6991      2006-08-08 Hengst     Tiras         
#>  8 6991      2006-08-08 Hengst     Tiras         
#>  9 6991      2006-08-08 Hengst     Tiras         
#> 10 6991      2006-08-08 Hubbard    Tiras         
#> #  with 37 more rows
…
print_tabyl(nv, seeking_office)

#> # A tibble: 537 x 4
#>    seeking_office                       n percent valid_percent
#>    <chr>                            <dbl>   <dbl>         <dbl>
#>  1 <NA>                            197476 0.432         NA     
#>  2 Governor                         41600 0.0910         0.160 
#>  3 Lieutenant Governor              18143 0.0397         0.0699
#>  4 Attorney General                  8523 0.0186         0.0328
#>  5 City Council, Las Vegas           6897 0.0151         0.0266
#>  6 Secretary Of State                4416 0.00966        0.0170
#>  7 Sheriff, Clark County             4082 0.00893        0.0157
#>  8 County Commissioner, District F   3888 0.00851        0.0150
#>  9 State Assembly, District 21       3239 0.00709        0.0125
#> 10 State Assembly, District 8        3072 0.00672        0.0118
#> #  with 527 more rows

print_tabyl(nv, jurisdiction)

#> # A tibble: 36 x 4
#>    jurisdiction                 n percent valid_percent
#>    <chr>                    <dbl>   <dbl>         <dbl>
#>  1 <NA>                    197476 0.432        NA      
#>  2 NV SOS                   96253 0.211         0.371  
#>  3 CLARK COUNTY             94893 0.208         0.366  
#>  4 WASHOE COUNTY            26706 0.0584        0.103  
#>  5 CITY OF LAS VEGAS        11971 0.0262        0.0461 
#>  6 CITY OF RENO              7589 0.0166        0.0292 
#>  7 CITY OF HENDERSON         3255 0.00712       0.0125 
#>  8 CARSON CITY               3188 0.00698       0.0123 
#>  9 CITY OF NORTH LAS VEGAS   3180 0.00696       0.0123 
#> 10 UNKNOWN                   2489 0.00545       0.00959
#> #  with 26 more rows
…
print_tabyl(nv, group_active)

#> # A tibble: 3 x 4
#>   group_active      n percent valid_percent
#>   <lgl>         <dbl>   <dbl>         <dbl>
#> 1 NA           259536  0.568         NA    
#> 2 TRUE         168372  0.368          0.853
#> 3 FALSE         29104  0.0637         0.147

print_tabyl(nv, group_city)

#> # A tibble: 89 x 4
#>    group_city       n percent valid_percent
#>    <chr>        <dbl>   <dbl>         <dbl>
#>  1 <NA>        259536 0.568         NA     
#>  2 Washington   57513 0.126          0.291 
#>  3 Las Vegas    46687 0.102          0.236 
#>  4 Reno         43778 0.0958         0.222 
#>  5 Wilmington   12815 0.0280         0.0649
#>  6 Hartford     11433 0.0250         0.0579
#>  7 Northbrook    8521 0.0186         0.0431
#>  8 Carson City   5381 0.0118         0.0272
#>  9 Henderson     3018 0.00660        0.0153
#> 10 New York      2019 0.00442        0.0102
#> #  with 79 more rows
…
# percent change
n_distinct(payee_fix$payee_last) %>% 
  subtract(n_distinct(payee_fix$payee_fix)) %>% 
  divide_by(n_distinct(payee_fix$payee_last))
#> [1] 0.184767

# number of each fix
payee_fix %>% 
  filter(fixed) %>% 
  count(payee_last, payee_fix) %>% 
  arrange(desc(n))

#> # A tibble: 5,294 x 3
#>    payee_last                         payee_fix                          n
#>    <chr>                              <chr>                          <int>
#>  1 BOYD GAMING CORPORATION            BOYD GAMING                      348
#>  2 SOUTHWEST GAS                      SOUTHWEST GAS CORPORATION        213
#>  3 CITIZENS FOR JUSTICE TRUST         CITIZENS FOR JUSTICE, TRUST      176
#>  4 NEVADA HEALTHPAC                   NEVADA HEALTH PAC                175
#>  5 NEVADA POWER                       NEVADA POWER COMPANY             167
#>  6 SOUTH POINT HOTEL AND CASINO       SOUTH POINT HOTEL & CASINO       156
#>  7 LAS VEGAS CHAMBER OF COMERCE       LAS VEGAS CHAMBER OF COMMERCE    154
#>  8 CENTURYLINK                        CENTURY LINK                     122
#>  9 LEWIS AND ROCA                     LEWIS & ROCA                     117
#> 10 REPUBLIC SILVER STATE DISPOSAL INC REPUBLIC SILVER STATE DISPOSAL   113
#> #  with 5,284 more rows
…
