…
    #> # A tibble: 2 x 2
    #>   ABSENTEE_FLAG ABSENTEE_DESC               
    #>   <chr>         <chr>                       
    #> 1 Y             VOTING USING ABSENTEE BALLOT
    #> 2 N             VOTING IN PERSON

### Towns

The `town.txt` file contains the town names and corresponding numeric
codes.

    #> # A tibble: 169 x 2
    #>    ID_TOWN NM_NAME     
    #>    <chr>   <chr>       
    #>  1 001     Andover     
    #>  2 002     Ansonia     
    #>  3 003     Ashford     
    #>  4 004     Avon        
    #>  5 005     Barkhamsted 
    #>  6 006     Beacon Falls
    #>  7 007     Berlin      
    #>  8 008     Bethany     
    #>  9 009     Bethel      
    #> 10 010     Bethlehem   
    #> # … with 159 more rows
…
These numbers can be converted to the data frame expected by a fixed
width file.

``` r
raw_fwf <- fwf_positions(
  start = col_start,
  end = col_end,
  col_names = raw_cols$column
)
```

    #> # A tibble: 103 x 3
    #>    begin   end col_names     
    #>    <dbl> <dbl> <chr>         
    #>  1     0     3 town_id       
    #>  2     4    13 id_voter      
    #>  3    14    49 nm_last       
    #>  4    50    70 nm_first      
    #>  5    71    86 nm_mid        
    #>  6    87    92 nm_prefix     
    #>  7    93    98 nm_suff       
    #>  8    99   100 cd_status     
    #>  9   101   102 cd_spec_status
    #> 10   103   104 cd_off_reason 
    #> # … with 93 more rows
…
We can flag any record missing a key variable needed to identify a
transaction.

``` r
key_vars <- c("nm_last", "dt_birth", "dt_accept")
ctv <- flag_na(ctv, all_of(key_vars))
sum(ctv$na_flag)
#> [1] 2235
```

``` r
ctv %>% 
  filter(na_flag) %>% 
  select(all_of(key_vars))
#> # A tibble: 2,235 x 3
#>    nm_last  dt_birth   dt_accept 
#>    <chr>    <date>     <date>    
#>  1 Clark    NA         1987-03-04
#>  2 Cassens  NA         1988-08-17
#>  3 Gould    NA         1996-08-28
#>  4 Gould    NA         1996-08-28
#>  5 Hallden  NA         2012-05-01
#>  6 Mc Keon  NA         1956-10-13
#>  7 Hilliker NA         1988-10-24
#>  8 Montros  NA         1996-07-03
#>  9 Morris   NA         1971-09-01
#> 10 Lefebvre NA         1990-05-15
#> # … with 2,225 more rows
```
…
We can see that, despite unique IDs, there are duplicate voters.

``` r
ctv %>% 
  filter(dupe_flag) %>% 
  select(id_voter, all_of(key_vars), town_name) %>% 
  arrange(nm_last)
#> # A tibble: 104 x 5
#>    id_voter  nm_last dt_birth   dt_accept  town_name 
#>    <chr>     <chr>   <date>     <date>     <chr>     
#>  1 005186873 Abrams  1952-12-08 2020-09-06 Brooklyn  
#>  2 005186874 Abrams  1952-12-08 2020-09-06 Brooklyn  
#>  3 005123988 Angle   2001-12-21 2020-03-03 Brooklyn  
#>  4 005123994 Angle   2001-12-21 2020-03-03 Brooklyn  
#>  5 005191714 Arevalo 1986-05-18 2020-09-11 Bridgeport
#>  6 005191727 Arevalo 1986-05-18 2020-09-11 Bridgeport
#>  7 005165329 Barker  2000-02-18 2020-08-13 New Canaan
#>  8 005165330 Barker  2000-02-18 2020-08-13 New Canaan
#>  9 005161329 Barton  1952-04-05 2020-08-04 Putnam    
#> 10 005161331 Barton  1952-04-05 2020-08-04 Putnam    
#> # … with 94 more rows
```
…
### Dates

It looks like January 1st, 1800 is the default year for voters missing a
birth date. We can remove these values.

``` r
count(ctv, dt_accept, sort = TRUE)
#> # A tibble: 21,541 x 2
#>    dt_accept       n
#>    <date>      <int>
#>  1 1800-01-01 136318
#>  2 2016-11-08  25634
#>  3 2016-11-01  17805
#>  4 2018-11-06  15964
#>  5 1980-01-01  11446
#>  6 1992-10-20  11419
#>  7 2008-10-28   8786
#>  8 1990-01-01   8155
#>  9 2014-11-04   7568
#> 10 2018-10-30   7306
#> # … with 21,531 more rows
…
