…
We can flag any record missing a key variable needed to identify a
transaction.

``` r
key_vars <- c("first_name", "last_name", "birth_date")
okv <- flag_na(okv, all_of(key_vars))
sum(okv$na_flag)
#> [1] 4299
```

``` r
okv %>% 
  filter(na_flag) %>% 
  select(all_of(key_vars))
#> # A tibble: 4,299 x 3
#>    first_name last_name birth_date
#>    <chr>      <chr>     <date>    
#>  1 JOHNEY     JOHNSON   NA        
#>  2 LUCILLE    BAYLES    NA        
#>  3 LENA       BRADEN    NA        
#>  4 JIMMIE     VARNELL   NA        
#>  5 COLLEEN    WORLEY    NA        
#>  6 L.         BRANNON   NA        
#>  7 ANDREW     CAIN      NA        
#>  8 J.         EUBANKS   NA        
#>  9 PEARL      BOSTER    NA        
#> 10 MARY       THOMPSON  NA        
#> # … with 4,289 more rows
```
…
