…
We are left with 84 CSV files with data.

``` r
raw_info <- dir_info(raw_dir)
nrow(raw_info)
#> [1] 84
sum(raw_info$size)
#> 136M
as_tibble(raw_info) %>% 
  select(path, size, modification_time) %>% 
  mutate(across(path, path.abbrev))
#> # A tibble: 84 x 3
#>    path                                       size modification_time  
#>    <chr>                               <fs::bytes> <dttm>             
#>  1 ~/ut/expends/data/raw/CORP-2007.csv         440 2020-07-14 14:50:11
#>  2 ~/ut/expends/data/raw/CORP-2008.csv        451K 2020-07-14 14:49:06
#>  3 ~/ut/expends/data/raw/CORP-2009.csv        181K 2020-07-14 14:47:34
#>  4 ~/ut/expends/data/raw/CORP-2010.csv        377K 2020-07-14 14:46:18
#>  5 ~/ut/expends/data/raw/CORP-2011.csv        217K 2020-07-14 14:44:48
#>  6 ~/ut/expends/data/raw/CORP-2012.csv        466K 2020-07-14 14:43:19
#>  7 ~/ut/expends/data/raw/CORP-2013.csv        241K 2020-07-14 14:41:44
#>  8 ~/ut/expends/data/raw/CORP-2014.csv        531K 2020-07-14 14:40:15
#>  9 ~/ut/expends/data/raw/CORP-2015.csv        235K 2020-07-14 14:38:41
#> 10 ~/ut/expends/data/raw/CORP-2016.csv        332K 2020-07-14 14:37:10
#> # … with 74 more rows
```
…
``` r
ute <- ute %>% flag_na(date, name, amount, committee)
sum(ute$na_flag)
#> [1] 512
```

``` r
ute %>% 
  filter(na_flag) %>% 
  select(date, name, amount, committee)
#> # A tibble: 512 x 4
#>    date       name  amount committee                                                   
#>    <date>     <chr>  <dbl> <chr>                                                       
#>  1 2012-02-09 <NA>       0 Bank Of American Fork                                       
#>  2 2012-09-26 <NA>       0 Bennett Tueller Johnson and Deere                           
#>  3 2012-01-06 <NA>       0 Central Utah Clinic                                         
#>  4 2012-04-11 <NA>       0 Deseret Power Electronic Cooperative                        
#>  5 2012-05-04 <NA>   -5000 Dolphin Capital Group                                       
#>  6 2012-03-20 <NA>       0 Incentive Capital LLC                                       
#>  7 2012-01-17 <NA>       0 Regence BlueCross BlueShield Of Utah/Cambia Health Solutions
#>  8 2012-06-25 <NA>       0 Takeda Pharmaceuticals America                              
#>  9 2012-05-15 <NA>       0 US Magnesium, LLC                                           
#> 10 2013-11-12 <NA>       0 Eli Lilly and Company                                       
#> # … with 502 more rows
```

### Duplicates

``` r
ute <- flag_dupes(ute, -id)
percent(mean(ute$dupe_flag), 0.01)
#> [1] "3.41%"
```

``` r
ute %>% 
  filter(dupe_flag) %>% 
  select(date, name, amount, committee)
#> # A tibble: 28,776 x 4
#>    date       name                  amount committee        
#>    <date>     <chr>                  <dbl> <chr>            
#>  1 2008-01-18 Steven  Mascaro         -250 EnergySolutions  
#>  2 2008-01-18 Steven  Mascaro         -250 EnergySolutions  
#>  3 2008-01-18 Mark Wheatley           -250 EnergySolutions  
#>  4 2008-01-18 Mark Wheatley           -250 EnergySolutions  
#>  5 2008-08-22 Utah Republican Party   -250 EnergySolutions  
#>  6 2008-08-22 Utah Republican Party   -500 EnergySolutions  
#>  7 2008-08-22 Utah Republican Party   -250 EnergySolutions  
#>  8 2008-08-22 Utah Republican Party   -500 EnergySolutions  
#>  9 2008-10-29 Curtis, Greg            -500 Johnson & Johnson
#> 10 2008-10-29 Curtis, Greg            -500 Johnson & Johnson
#> # … with 28,766 more rows
```
…
      key_collision_merge() %>% 
      n_gram_merge(numgram = 1)
  ) %>% 
  filter(city_refine != city_swap) %>% 
  inner_join(
    y = zipcodes,
    by = c(
      "city_refine" = "city",
      "state_norm" = "state",
      "zip_norm" = "zip"
    )
  )
```

    #> # A tibble: 65 x 5
    #>    state_norm zip_norm city_swap                 city_refine         n
    #>    <chr>      <chr>    <chr>                     <chr>           <int>
    #>  1 UT         84105    SALT LAKE CITYSLC         SALT LAKE CITY     40
    #>  2 UT         84414    NO OGDEN                  OGDEN              29
    #>  3 UT         84108    SALT LAKE CITYSALT LAKE   SALT LAKE CITY      5
    #>  4 UT         84098    PARK CITYPARK CITY        PARK CITY           4
    #>  5 UT         84117    SALT LAKE CITYSLC         SALT LAKE CITY      4
    #>  6 UT         84124    SALT LAKE CITYSALT LAKE C SALT LAKE CITY      4
    #>  7 OH         45201    CINCINATTI                CINCINNATI          3
    #>  8 CO         80113    ENGLEWOOD CO              ENGLEWOOD           2
    #>  9 DE         19850    WILLIMNGTON               WILMINGTON          2
    #> 10 FL         33308    FORT LAUDERDALE FL        FORT LAUDERDALE     2
    #> # … with 55 more rows
…
