…
As you can see, the clients of each lobbyist are not listed as a
separate column, but are instead listed as in the first `name` *under*
each lobbyist.

``` r
kslr
#> # A tibble: 2,648 x 7
#>    name        addr_1_addr_2      city_state_zip     phone      fax        email_address     client
#>    <chr>       <chr>              <chr>              <chr>      <chr>      <chr>             <chr> 
#>  1 ALDERSON, … 2101 S.W. 21ST ST… TOPEKA, KS 66604   (785) 232… (785) 232… boba@aldersonlaw… ""    
#>  2 * CASEY'S … * CASEY'S GENERAL… * CASEY'S GENERAL… * CASEY'S… * CASEY'S… * CASEY'S GENERA… ""    
#>  3 * KANSAS M… * KANSAS MANUFACT… * KANSAS MANUFACT… * KANSAS … * KANSAS … * KANSAS MANUFAC… ""    
#>  4 * ONE CALL… * ONE CALL CONCEP… * ONE CALL CONCEP… * ONE CAL… * ONE CAL… * ONE CALL CONCE… ""    
#>  5 <NA>        <NA>               <NA>               <NA>       <NA>       <NA>              ""    
#>  6 ALLEN, SHI… 5317 SW 11TH TER.  TOPEKA, KS 66604   (785) 633… <NA>       sallen5948@outlo… ""    
#>  7 * KRITC     * KRITC            * KRITC            * KRITC    * KRITC    * KRITC           ""    
#>  8 <NA>        <NA>               <NA>               <NA>       <NA>       <NA>              ""    
#>  9 ANDERSON, … 2910 SW TOPEKA BO… TOPEKA, KS 66611   (778) 267… (785) 267… leslie@k4ad.org   ""    
#> 10 * KANSAS A… * KANSAS ASSOCIAT… * KANSAS ASSOCIAT… * KANSAS … * KANSAS … * KANSAS ASSOCIA… ""    
#> # … with 2,638 more rows
```
…
