…
We can flag any record missing a key variable needed to identify a
transaction.

``` r
key_vars <- c("effective_date", "agency_name", "cumulative_value", "vendor_name")
mic <- flag_na(mic, all_of(key_vars))
sum(mic$na_flag)
#> [1] 32
```

``` r
mic %>% 
  filter(na_flag) %>% 
  select(all_of(key_vars))
#> # A tibble: 32 × 4
#>    effective_date agency_name                                      cumulative_value vendor_name                         
#>    <date>         <chr>                                                       <dbl> <chr>                               
#>  1 2022-08-12     Michigan Department of Corrections                            NA  CHANCE FOR LIFE ORGANIZATION        
#>  2 2021-05-24     Department of Natural Resources                               NA  Litchfield Field Mowing Brush Trimm…
#>  3 2012-02-08     Department Technology, Management and Budget             4352161. <NA>                                
#>  4 2021-06-30     Michigan Department of Health and Human Services              NA  Advocates for Human Potential, Inc. 
#>  5 2022-04-22     Department of Natural Resources                               NA  OPERATIONS SERVICES INC             
#>  6 2023-02-01     Department of Military and Veterans Affairs                   NA  ENERCO CORPORATION                  
#>  7 2021-01-11     Department of Military and Veterans Affairs                   NA  SANI-VAC SERVICE INC                
#>  8 2019-06-17     Department of Natural Resources                               NA  STEIGERWALDT LAND SERVICES INC      
#>  9 2020-10-01     <NA>                                                          NA  LISA MYLES                          
#> 10 2020-08-01     Department of Military and Veterans Affairs                   NA  Atlantic Diving Supply              
#> # … with 22 more rows
```
…
