…
This process brought us to 96% valid.

It also increased the proportion of `NA` values by 0%. These new `NA`
values were either a single (possibly repeating) character, or contained
in the `na_city` vector.

    #> # A tibble: 84 × 4
    #>    zip_norm state_norm city       city_norm
    #>    <chr>    <chr>      <chr>      <chr>    
    #>  1 <NA>     IN         N/A        <NA>     
    #>  2 <NA>     <NA>       1111       <NA>     
    #>  3 <NA>     IN         UNKNOWN    <NA>     
    #>  4 <NA>     IL         unknown    <NA>     
    #>  5 <NA>     IN         xx         <NA>     
    #>  6 <NA>     IN         None given <NA>     
    #>  7 <NA>     <NA>       ??         <NA>     
    #>  8 <NA>     <NA>       N/A        <NA>     
    #>  9 <NA>     OK         x          <NA>     
    #> 10 46000    IN         unknown    <NA>     
    #> # … with 74 more rows
…
      key_collision_merge() %>% 
      n_gram_merge(numgram = 1)
  ) %>% 
  filter(city_refine != city_swap) %>% 
  inner_join(
    y = zipcodes,
    by = c(
      "city_refine" = "city",
      "state_norm" = "state",
      "zip_norm" = "zip"
    )
  )
```

    #> # A tibble: 24 × 5
    #>    state_norm zip_norm city_swap        city_refine         n
    #>    <chr>      <chr>    <chr>            <chr>           <int>
    #>  1 IN         47150    NEW ALBANY LANE  NEW ALBANY         64
    #>  2 IN         46184    NEW WHITELAND    WHITELAND          33
    #>  3 IN         46590    WINNIOA LAKE     WINONA LAKE         4
    #>  4 IN         47978    RENESSLEAR       RENSSELAER          4
    #>  5 CA         94107    FRANCISCO        SAN FRANCISCO       3
    #>  6 IA         50265    WEST DEMONIS     WEST DES MOINES     3
    #>  7 IN         46410    MERRERVILLE      MERRILLVILLE        2
    #>  8 OH         45999    CINNATTI         CINCINNATI          2
    #>  9 SC         29419    NORTH CHARLESTON CHARLESTON          2
    #> 10 CA         94102    SAN FRANCISCO CA SAN FRANCISCO       1
    #> # … with 14 more rows
…
This brings us to 99% valid values.

We can make very few manual changes to capture the last few big invalid
values. Local city abbreviations (e.g., INDPLS) often need to be changed
by hand.

``` r
ind %>%
  filter(city_refine %out% valid_city) %>% 
  count(state_norm, city_refine, sort = TRUE) %>% 
  drop_na(city_refine)
#> # A tibble: 572 × 3
#>    state_norm city_refine          n
#>    <chr>      <chr>            <int>
#>  1 IL         COUNTRYSIDE        491
#>  2 IN         SPEEDWAY           452
#>  3 MA         WEST SOMERVILLE    272
#>  4 IN         INDY               163
#>  5 MA         FITCHBONS          108
#>  6 IL         OAKBROOK TERRACE    95
#>  7 TX         DFW AIRPORT         76
#>  8 SC         DANIEL ISLAND       72
#>  9 IN         OGDEN DUNES         70
#> 10 KS         OVERLAND PARK       69
#> # … with 562 more rows
```
…
