…
``` r
hhspr <- mutate(hhspr, year = year(today()))
```

## Geography

All of the `state` values are valid abbreviations.

``` r
percent(prop_in(hhspr$state, valid_state), 0.01)
#> [1] "100.00%"
add_prop(count(hhspr, state, sort = TRUE))
#> # A tibble: 55 x 3
#>    state     n      p
#>    <chr> <int>  <dbl>
#>  1 CA    19665 0.110 
#>  2 TX    14104 0.0787
#>  3 NY    13776 0.0768
#>  4 FL    12433 0.0693
#>  5 NJ     7734 0.0431
#>  6 PA     7292 0.0407
#>  7 IL     7098 0.0396
#>  8 MI     6465 0.0361
#>  9 OH     5853 0.0326
#> 10 GA     4885 0.0272
#> # … with 45 more rows
```
…
``` r
many_city <- c(valid_city, extra_city)
percent(prop_in(hhspr$city, many_city), 0.01)
#> [1] "98.13%"
```

The only different between the `city` column and our list of known
cities is the abbreviations.

``` r
hhspr %>% 
  filter(city %out% many_city) %>% 
  count(city, state, sort = TRUE) %>% 
  add_prop(n = n)
#> # A tibble: 1,247 x 4
#>    city             state     n      p
#>    <chr>            <chr> <int>  <dbl>
#>  1 ST PETERSBURG    FL      156 0.0465
#>  2 FARMINGTON HILLS MI      129 0.0385
#>  3 ST LOUIS         MO       99 0.0295
#>  4 PORT ST LUCIE    FL       80 0.0238
#>  5 ST GEORGE        UT       63 0.0188
#>  6 SHELBY TOWNSHIP  MI       61 0.0182
#>  7 ST AUGUSTINE     FL       60 0.0179
#>  8 FT LAUDERDALE    FL       58 0.0173
#>  9 MANALAPAN        NJ       56 0.0167
#> 10 LUTHERVILLE      MD       45 0.0134
#> # … with 1,237 more rows
```
…
