…
    city,
    state_clean,
    zip_clean,
    city_norm,
    city_match,
    match_dist,
    city_swap
  ) %>% 
  filter(!is.na(city_swap)) %>% 
  filter(city_swap != city_norm) %>% 
  distinct() %>% 
  sample_frac()
```

    #> # A tibble: 1,921 x 7
    #>    city            state_clean zip_clean city_norm       city_match      match_dist city_swap      
    #>    <chr>           <chr>       <chr>     <chr>           <chr>                <dbl> <chr>          
    #>  1 HAGZMAN         NY          12086     HAGZMAN         HAGAMAN                  1 HAGAMAN        
    #>  2 CLARK LAKE      MI          49234     CLARK LAKE      CLARKLAKE                1 CLARKLAKE      
    #>  3 STEAMBOAT SPRI… CO          80487     STEAMBOAT SPRI… STEAMBOAT SPRI…          1 STEAMBOAT SPRI…
    #>  4 DEVER           CO          80223     DEVER           DENVER                   1 DENVER         
    #>  5 MANITAL SPRINGS CO          80829     MANITAL SPRINGS MANITOU SPRINGS          2 MANITOU SPRINGS
    #>  6 SLIDA           CO          81201     SLIDA           SALIDA                   1 SALIDA         
    #>  7 ESTES PARL      CO          80517     ESTES PARL      ESTES PARK               1 ESTES PARK     
    #>  8 PUBLO           CO          81001     PUBLO           PUEBLO                   1 PUEBLO         
    #>  9 CANYON CITY     CO          81215     CANYON CITY     CANON CITY               1 CANON CITY     
    #> 10 WESTCLUIFFE     CO          81252     WESTCLUIFFE     WESTCLIFFE               1 WESTCLIFFE     
    #> # … with 1,911 more rows

There are still many valid cities not captured by our list.

``` r
co %>% 
  count(state_clean, city_swap, sort = TRUE) %>% 
  filter(city_swap %out% valid_city) %>% 
  drop_na()
```

    #> # A tibble: 784 x 3
    #>    state_clean city_swap           n
    #>    <chr>       <chr>           <int>
    #>  1 CO          HIGHLANDS RANCH  3786
    #>  2 CO          PUEBLO WEST      1080
    #>  3 CO          CASTLE PINES      241
    #>  4 MA          WEST SOMERVILLE   179
    #>  5 MN          SHOREVIEW         149
    #>  6 CO          THRONTON          140
    #>  7 PA          CHESTERBROOK      135
    #>  8 CO          WESTMINISTER      132
    #>  9 CO          THORTON            99
    #> 10 CO          BLACK FOREST       79
    #> # … with 774 more rows
…
``` r
co_refine %>% 
  count(
    state_clean,
    city_swap,
    city_refine,
    sort = TRUE
  ) %>% 
  mutate(made_valid = city_refine %in% valid_city)
```

    #> # A tibble: 77 x 5
    #>    state_clean city_swap   city_refine     n made_valid
    #>    <chr>       <chr>       <chr>       <int> <lgl>     
    #>  1 CO          WHEATRIDGE  WHEAT RIDGE    67 TRUE      
    #>  2 CO          LONETREE    LONE TREE      47 TRUE      
    #>  3 CO          NORTHGLEN   NORTHGLENN     26 TRUE      
    #>  4 CO          CENTENIAL   CENTENNIAL     23 TRUE      
    #>  5 CO          CENNTENNIAL CENTENNIAL     15 TRUE      
    #>  6 CO          CENNTENIAL  CENTENNIAL     12 TRUE      
    #>  7 CO          WEST PUEBLO PUEBLO WEST    10 FALSE     
    #>  8 CO          G J         GJ              8 FALSE     
    #>  9 CO          LAKEWOD     LAKEWOOD        8 TRUE      
    #> 10 CO          NEED        DEN             8 FALSE     
    #> # … with 67 more rows
…
