…
The file does not use quotation marks to distinguish character strings,
causing R to erroneously shift columsn when one is unexpectedly present.

``` r
problems(de) %>% 
  select(col, expected, actual) %>%
  filter(!is.na(col)) %>% 
  distinct()
```

    #> # A tibble: 23 x 3
    #>    col              expected           actual                      
    #>    <chr>            <chr>              <chr>                       
    #>  1 Expenditure Date date like %m/%d/%Y Suite 210                   
    #>  2 Amount($)        a double           THE SIMPLER CAMPAIGN  LLC   
    #>  3 Expenditure Date date like %m/%d/%Y Newport Industrial Park     
    #>  4 Expenditure Date date like %m/%d/%Y Suite 189                   
    #>  5 Expenditure Date date like %m/%d/%Y 675 Ponce De Leon Avenue  NE
    #>  6 Expenditure Date date like %m/%d/%Y Suite 5000                  
    #>  7 Expenditure Date date like %m/%d/%Y The Mill                    
    #>  8 Expenditure Date date like %m/%d/%Y 4th Floor                   
    #>  9 Expenditure Date date like %m/%d/%Y 140 58th Street             
    #> 10 Expenditure Date date like %m/%d/%Y Suite 5B                    
    #> # … with 13 more rows
…
``` r
sample_frac(de) %>% 
  select(payee_address_line_1, payee_address_line_2, address_norm)
```

    #> # A tibble: 117,524 x 3
    #>    payee_address_line_1                    payee_address_line… address_norm                        
    #>    <chr>                                   <chr>               <chr>                               
    #>  1 LEWES                                   <NA>                LEWES                               
    #>  2 2535 ORTHODOX STREET                    <NA>                2535 ORTHODOX STREET                
    #>  3 105 CARSON DRIVE                        <NA>                105 CARSON DRIVE                    
    #>  4 14455 NORTH HAYDEN RD SUITE 219         <NA>                14455 NORTH HAYDEN ROAD SUITE 219   
    #>  5 <NA>                                    <NA>                <NA>                                
    #>  6 3 GUYENNE RD WILMINGTON                 <NA>                3 GUYENNE ROAD WILMINGTON           
    #>  7 EAST LEBANON ROAD                       <NA>                EAST LEBANON ROAD                   
    #>  8 1 HACKER WAY                            <NA>                1 HACKER WAY                        
    #>  9 <NA>                                    <NA>                <NA>                                
    #> 10 BAND BOOSTERS  C/O LISA GRIER  103 SIE… <NA>                BAND BOOSTERS CO LISA GRIER 103 SIE…
    #> # … with 117,514 more rows
…
