…
9.4% of records are missing some value.

``` r
mean(coc$na_flag)
#> [1] 0.09352774
```

All of these records are missing the contributor `last` name.

``` r
coc %>% 
  filter(na_flag) %>% 
  select(date, contributor, amount, committee)
#> # A tibble: 58,571 × 4
#>    date       contributor amount committee                                 
#>    <date>     <chr>       <chr>  <chr>                                     
#>  1 2020-01-26 <NA>        75     COMMITTEE TO ELECT TISHA MAURO            
#>  2 2020-02-06 <NA>        58     RE-ELECT REAMS FOR SHERIFF                
#>  3 2020-02-09 <NA>        400    COMMITTEE TO ELECT TISHA MAURO            
#>  4 2020-02-24 <NA>        -50    ROURKE FOR DA                             
#>  5 2020-03-14 <NA>        196    MORGAN COUNTY DEMOCRATIC CENTRAL COMMITTEE
#>  6 2020-04-13 <NA>        1      ADAMS 12 CAN FOR KIDS                     
#>  7 2020-04-19 <NA>        200    VICTORIA 2020                             
#>  8 2020-04-19 <NA>        -1000  VICTORIA 2020                             
#>  9 2020-04-22 <NA>        -19.99 CITIZENS FOR LUCK                         
#> 10 2020-04-25 <NA>        -2000  VICTORIA 2020                             
#> # … with 58,561 more rows
```
…
``` r
percent(mean(coc$dupe_flag), 0.01)
#> [1] "8.60%"
```

``` r
coc %>% 
  filter(dupe_flag) %>% 
  arrange(date) %>% 
  select(date, last, amount, committee) %>% 
  arrange(desc(date))
#> # A tibble: 53,829 × 4
#>    date       last   amount committee                                        
#>    <date>     <chr>  <chr>  <chr>                                            
#>  1 2022-10-25 WADE   50     SULLIVAN FOR COLORADO                            
#>  2 2022-10-25 WADE   50     SULLIVAN FOR COLORADO                            
#>  3 2022-10-22 OLIGER 100    SHELLI SHAW FOR HOUSE DISTRICT 59                
#>  4 2022-10-22 OLIGER 100    SHELLI SHAW FOR HOUSE DISTRICT 59                
#>  5 2022-10-13 <NA>   5      DENVER DEMOCRATIC CENTRAL COMMITTEE              
#>  6 2022-10-13 <NA>   5      DENVER DEMOCRATIC CENTRAL COMMITTEE              
#>  7 2022-10-12 <NA>   10.53  CENTENNIAL STATE PROSPERITY SMALL DONOR COMMITTEE
#>  8 2022-10-12 <NA>   10.53  CENTENNIAL STATE PROSPERITY SMALL DONOR COMMITTEE
#>  9 2022-10-12 <NA>   5.36   CENTENNIAL STATE PROSPERITY SMALL DONOR COMMITTEE
#> 10 2022-10-12 <NA>   5.36   CENTENNIAL STATE PROSPERITY SMALL DONOR COMMITTEE
#> # … with 53,819 more rows
```
…
``` r
coc %>% 
  filter(state_norm %out% valid_state) %>% 
  count(state, state_norm, sort = TRUE)
#> # A tibble: 57 × 3
#>    state state_norm     n
#>    <chr> <chr>      <int>
#>  1 <NA>  <NA>       59561
#>  2 RE    RE            98
#>  3 UN    UN            16
#>  4 TE    TE            15
#>  5 D.    <NA>          13
#>  6 GE    GE            11
#>  7 IO    IO            11
#>  8 NO    NO             8
#>  9 SE    SE             7
#> 10 KA    KA             6
#> # … with 47 more rows
```
…
      key_collision_merge() %>% 
      n_gram_merge(numgram = 1)
  ) %>% 
  filter(city_refine != city_swap) %>% 
  inner_join(
    y = zipcodes,
    by = c(
      "city_refine" = "city",
      "state_norm" = "state",
      "zip_norm" = "zip"
    )
  )
```

    #> # A tibble: 49 × 5
    #>    state_norm zip_norm city_swap               city_refine           n
    #>    <chr>      <chr>    <chr>                   <chr>             <int>
    #>  1 CO         80816    FLORRISANT              FLORISSANT           14
    #>  2 CO         81413    CEDERADGE               CEDAREDGE             3
    #>  3 OH         45209    CINCINATTI              CINCINNATI            3
    #>  4 CO         80113    ENGLEWOODEWOOD          ENGLEWOOD             2
    #>  5 CO         80487    STRINGSTEAMBOAT SPRINGS STEAMBOAT SPRINGS     2
    #>  6 CO         81601    GLENWOODSPRINGSS        GLENWOOD SPRINGS      2
    #>  7 NY         11733    SETAUKET                EAST SETAUKET         2
    #>  8 NY         11733    SETAUKETEAST            EAST SETAUKET         2
    #>  9 CA         90802    LONG BEACH CA           LONG BEACH            1
    #> 10 CA         91423    SHERMAN OKES            SHERMAN OAKS          1
    #> # … with 39 more rows
…
``` r
coc <- coc %>% 
  left_join(good_refine, by = names(.)) %>% 
  mutate(city_refine = coalesce(city_refine, city_swap))
```

#### Progress

``` r
many_city <- c(valid_city, extra_city, "PUEBLO WEST", "CASTLE PINES")
coc$city_refine <- na_if(coc$city_refine, "UNKNOWNCITY")
coc %>% 
  filter(city_refine %out% many_city) %>% 
  count(city_refine, state_norm, sort = TRUE)
#> # A tibble: 759 × 3
#>    city_refine      state_norm     n
#>    <chr>            <chr>      <int>
#>  1 <NA>             <NA>       59503
#>  2 <NA>             CO          1325
#>  3 REDACTED BY SOS  CO           335
#>  4 <NA>             RE            96
#>  5 MILWAUKIE        OR            95
#>  6 WORK AT HOME     NY            84
#>  7 FOXFIELD         CO            83
#>  8 GREENWOODVILLAGE CO            74
#>  9 ROXBOROUGH       CO            73
#> 10 WESTMINISTER     CO            70
#> # … with 749 more rows
```
…
