…
``` r
vt %>% 
  select(starts_with("address")) %>% 
  distinct() %>% 
  sample_frac()
```

    #> # A tibble: 8,180 x 2
    #>    address_sep                         address_norm                                 
    #>    <chr>                               <chr>                                        
    #>  1 0000 ROUTE 4                        0000 ROUTE 4                                 
    #>  2 133 HEINEBERG DRIVE                 133 HEINEBERG DRIVE                          
    #>  3 601 MASSACHUSETTS AVE NW WASHINGTON 601 MASSACHUSETTS AVENUE NORTHWEST WASHINGTON
    #>  4 42 SEVERANCE GRN                    42 SEVERANCE GREEN                           
    #>  5 P.O. BOX 30                         PO BOX 30                                    
    #>  6 10 CHURCH STREET                    10 CHURCH STREET                             
    #>  7 1 SCALE AVE                         1 SCALE AVENUE                               
    #>  8 1920LAFAYETTEST                     1920LAFAYETTEST                              
    #>  9 101 LAKE ST                         101 LAKE STREET                              
    #> 10 172 N.MAIN STREET                   172 NMAIN STREET                             
    #> # … with 8,170 more rows
…
``` r
many_city <- unique(c(valid_city, extra_city, vt_city))
```

``` r
vt %>% 
  filter(city_refine %out% many_city) %>% 
  count(state_norm, zip_norm, city_refine, city_match, sort = TRUE) %>% 
  drop_na(city_refine)
```

    #> # A tibble: 56 x 5
    #>    state_norm zip_norm city_refine      city_match       n
    #>    <chr>      <chr>    <chr>            <chr>        <int>
    #>  1 NJ         07726    MANALAPAN        ENGLISHTOWN     52
    #>  2 VT         05682    NORTH MIDDLESEX  WORCESTER       28
    #>  3 VT         05303    WEST BRATTLEBORO BRATTLEBORO     20
    #>  4 VT         05763    NORTH CHITTENDEN PITTSFORD       18
    #>  5 VT         05602    BELIN            MONTPELIER      16
    #>  6 VT         05928    VENLO LW         DERBY CENTER     6
    #>  7 CA         94025    HACKERS WAY      MENLO PARK       5
    #>  8 CA         94016    SAN FRANSISCO    DALY CITY        4
    #>  9 CA         94025    MELNO            MENLO PARK       4
    #> 10 TX         78645    LAGO VISTA       LEANDER          4
    #> # … with 46 more rows
…
