…
After reading the entire file, we can filter out any records not
directly related to contracts using the `contract_name` and
`vendor_name` values. After this filter, most rows are removed and we
are left only with valid contracts, most of which have a `vendor_name`.

``` r
nrow(utc)
#> [1] 29160793
utc <- filter(utc, !is.na(contract_name))
count(utc, vendor_name, sort = TRUE)
#> # A tibble: 8,115 x 2
#>    vendor_name                        n
#>    <chr>                          <int>
#>  1 NICHOLAS  &  COMPANY           55952
#>  2 W W GRAINGER INC               44336
#>  3 OFFICE DEPOT BSD INC           38577
#>  4 WCEC ENGINEERS INC             34909
#>  5 <NA>                           32168
#>  6 Superior Service Transport Inc 29528
#>  7 SKAGGS COMPANIES INC           21925
#>  8 ENTERPRISE RENT A CAR          20166
#>  9 VERIZON WIRELESS               20118
#> 10 G & K SERVICES INC             18345
#> # … with 8,105 more rows
…
This local file can be read, checked, and added as a new variable if
needed.

``` r
dupes <- as.logical(as.integer(read_lines(dupe_file)))
percent(mean(dupes), 0.1)
#> [1] "13.8%"
utc <- mutate(utc, dupe_flag = dupes)
utc %>% 
  filter(dupe_flag) %>% 
  select(id, date, agency, amount, vendor_name) %>% 
  arrange(date)
#> # A tibble: 189,189 x 5
#>    id       date       agency                            amount vendor_name                        
#>    <chr>    <date>     <chr>                              <dbl> <chr>                              
#>  1 2242711… 2013-07-01 DOH Executive Director             6873. R & R INDUSTRIAL PARK LC           
#>  2 2242716… 2013-07-01 DOH Executive Director             6873. R & R INDUSTRIAL PARK LC           
#>  3 2242716… 2013-07-01 DOH Executive Director             6873. R & R INDUSTRIAL PARK LC           
#>  4 2242711… 2013-07-01 DOH Executive Director             6873. R & R INDUSTRIAL PARK LC           
#>  5 2242716… 2013-07-01 DOH Executive Director             6873. R & R INDUSTRIAL PARK LC           
#>  6 2242776… 2013-07-02 DNR DWR Cooperative Environment…   2000. BUREAU OF LAND MANAGEMENT ATTN STA…
#>  7 2242713… 2013-07-08 DOH Medicaid Mandatory Services    1800  CADURX INC                         
#>  8 2242839… 2013-07-09 DPS Driver License Division        2609. WORTHINGTON LEAVITT INVESTMENT LLC 
#>  9 2242895… 2013-07-10 DAS Risk Management              126723. MORETON & COMPANY                  
#> 10 2242895… 2013-07-10 DAS Risk Management               37500  MORETON & COMPANY                  
#> # … with 189,179 more rows
…
``` r
percent(mean(utc$amount < 0), 0.1)
#> [1] "0.9%"
```

Most of the negative values are from purchasing cards. Negative values
sometimes represent corrections or deletions. We will leave them as-is.

``` r
utc %>% 
  filter(amount < 0) %>%
  count(description, sort = TRUE) %>% 
  add_prop()
#> # A tibble: 157 x 3
#>    description                                                   n      p
#>    <chr>                                                     <int>  <dbl>
#>  1 Motor Vehicles-Operating Supplies, Maintenance & Repairs   2050 0.167 
#>  2 Other Equipment-Operating Supplies, Maintenance & Repairs  1132 0.0921
#>  3 Buildings & Grounds-Operating Supplies, Maint & Repairs     948 0.0771
#>  4 Rental of Equipment-Except Data Processing & Photocopy      782 0.0636
#>  5 Food                                                        692 0.0563
#>  6 Office Supplies                                             685 0.0557
#>  7 Internal Service Fund-Unchanged Merchandise for Resale      618 0.0503
#>  8 Laundry, Linen & Dry Cleaning Services                      419 0.0341
#>  9 Clothing & Uniforms                                         407 0.0331
#> 10 Wireless Communication Service                              406 0.0330
#> # … with 147 more rows
```
…
