…
nc %>% 
  filter(city_swap %out% geo$city) %>% 
  count(
    city_swap, 
    city_match, 
    state_norm, 
    sort = TRUE
  ) %>% 
  drop_na() %>% 
  arrange(desc(n)) %>% 
  mutate(cumulative_prop = cumsum(n)/sum(n)) %>% 
  print(n = 20)
```

    #> # A tibble: 394 x 5
    #>    city_swap          city_match      state_norm     n cumulative_prop
    #>    <chr>              <chr>           <chr>      <int>           <dbl>
    #>  1 ATLANTAANTA        ATLANTA         GA          4684           0.485
    #>  2 ARCHDALE           HIGH POINT      NC           573           0.544
    #>  3 SYMMES TOWNSHIP    CINCINNATI      OH           456           0.591
    #>  4 SYMMES TWP         CINCINNATI      OH           324           0.625
    #>  5 MINT HILL          CHARLOTTE       NC           314           0.657
    #>  6 THE WOODLANDS      SPRING          TX           253           0.683
    #>  7 MILWAUKIE          PORTLAND        OR           240           0.708
    #>  8 ELON               ELON COLLEGE    NC           197           0.728
    #>  9 ATLANTAANTIC BEACH ATLANTIC BEACH  NC           180           0.747
    #> 10 WEST SOMERVILLE    SOMERVILLE      MA           166           0.764
    #> 11 MOUNTAIN BROOK     BIRMINGHAM      AL           118           0.776
    #> 12 WEDDINGTON         MATTHEWS        NC            97           0.786
    #> 13 CAPE CARTERET      SWANSBORO       NC            91           0.796
    #> 14 WHISPERING PINES   CARTHAGE        NC            64           0.803
    #> 15 OVERLAND PARK      SHAWNEE MISSION KS            63           0.809
    #> 16 PINE KNOLL SHORES  ATLANTIC BEACH  NC            60           0.815
    #> 17 CORAL GABLES       MIAMI           FL            58           0.821
    #> 18 DAVIE              FORT LAUDERDALE FL            58           0.827
    #> 19 SOUTHERN SHORES    KITTY HAWK      NC            49           0.832
    #> 20 RALRIGHPAXTON      RALEIGH         NC            48           0.837
    #> # … with 374 more rows
…
