…
``` r
addr_norm <- kyc %>% 
  distinct(vend_address1) %>% 
  mutate(
    address_norm = normal_address(
      address = vend_address1,
      abbs = usps_street,
      na_rep = TRUE
    )
  )
```

``` r
addr_norm
#> # A tibble: 6,721 × 2
#>    vend_address1                   address_norm                   
#>    <chr>                           <chr>                          
#>  1 2360 CHAUVIN DR                 2360 CHAUVIN DR                
#>  2 1351 NEWTOWN PIKE               1351 NEWTOWN PIKE              
#>  3 EUGENE T MAHONEY STATE PARK     EUGENE T MAHONEY STATE PARK    
#>  4 10101 LINN STATION RD SUITE 600 10101 LINN STATION RD SUITE 600
#>  5 PO BOX 568                      PO BOX 568                     
#>  6 1015 Danville Road              1015 DANVILLE RD               
#>  7 134 COLLEGE ST                  134 COLLEGE ST                 
#>  8 3332 NEWBURG RD                 3332 NEWBURG RD                
#>  9 PO BOX 4157                     PO BOX 4157                    
#> 10 9226 MAIN STREET                9226 MAIN ST                   
#> # … with 6,711 more rows
```
…
