…
``` r
pa %>% group_by(EXPDESC) %>% summarize(total = sum(EXPAMT)) %>% arrange(desc(total))
```

    #> # A tibble: 79,862 x 2
    #>    EXPDESC                                       total
    #>    <chr>                                         <dbl>
    #>  1 <NA>                                     266672765.
    #>  2 CONTRIBUTION                             185395743.
    #>  3 NON PA DISBURSEMENTS                      95018717.
    #>  4 DONATION                                  26623333.
    #>  5 MEDIA BUY                                 26199723.
    #>  6 NON-PENNSYLVANIA EXPENDITURES             21187323.
    #>  7 POLITICAL CONTRIBUTION                    15977415.
    #>  8 BALANCE OF DISBURSEMENTS FROM FEC REPORT  15574849.
    #>  9 AD BUY                                    15494933.
    #> 10 CAMPAIGN CONTRIBUTION                     14995155.
    #> # … with 79,852 more rows
…
pa_refined %>% 
  count(city_swap, city_refine) %>% 
  arrange(desc(n))
```

    #> # A tibble: 95 x 3
    #>    city_swap        city_refine        n
    #>    <chr>            <chr>          <int>
    #>  1 N HUNTINGDON     HUNTINGDON        32
    #>  2 SINKING SPRINGS  SINKING SPRING    23
    #>  3 SOUTHERN EASTERN SOUTHEASTERN      18
    #>  4 MC MURRAY        MCMURRAY          15
    #>  5 ONLIINE          ONLINE            14
    #>  6 E GREENVILLE     GREENVILLE        13
    #>  7 MC BG            MCCBG             13
    #>  8 WB               W B               12
    #>  9 PLEASANT MOUNT   MOUNT PLEASANT    11
    #> 10 CLIFFORD         FORD CLIFF         8
    #> # … with 85 more rows
…
