…
We can flag these records with `campfin::flag_na()`.

``` r
key_vars <- c("date", "department", "amount", "awardee")
hic <- hic %>% flag_na(all_of(key_vars))
sum(hic$na_flag)
#> [1] 7772
```

``` r
hic %>% 
  filter(na_flag) %>% 
  select(all_of(key_vars)) %>% 
  sample_frac(1)
#> # A tibble: 7,772 x 4
#>    date                department              amount awardee                                      
#>    <dttm>              <chr>                    <dbl> <chr>                                        
#>  1 NA                  Human Services          135069 Rainbow Rehabilitation Services, Inc.        
#>  2 NA                  Health                       0 <NA>                                         
#>  3 NA                  <NA>                         0 <NA>                                         
#>  4 NA                  Health                       0 <NA>                                         
#>  5 NA                  Health                     114 Liu, Jeffrey E., MD                          
#>  6 NA                  Human Services          125000 Boys and Girls Club of Hawaii                
#>  7 NA                  NONE                         0 <NA>                                         
#>  8 NA                  Labor & Industrial Rel… 232960 Catholic Charities Hawaii - Community and Im…
#>  9 NA                  NONE                         0 <NA>                                         
#> 10 NA                  Human Services           60000 Pikunas, Kristina A.                         
#> # … with 7,762 more rows
```
…
A significant number of records are entirely duplicated across all
columns, including the supposedly unique contract `id` variable. We can
flag these rows as well.

``` r
hic <- flag_dupes(hic, everything())
percent(mean(hic$dupe_flag), 0.01)
#> [1] "6.26%"
```

``` r
hic %>% 
  filter(dupe_flag) %>% 
  select(all_of(key_vars))
#> # A tibble: 3,917 x 4
#>    date                department                    amount awardee                      
#>    <dttm>              <chr>                          <dbl> <chr>                        
#>  1 2020-03-20 00:00:00 Agriculture                   35000  University of Hawaii         
#>  2 2020-03-20 00:00:00 Agriculture                   35000  University of Hawaii         
#>  3 2020-03-20 00:00:00 Agriculture                   35000  University of Hawaii         
#>  4 2020-02-25 00:00:00 Accounting & General Services 37848  AKINAKA & ASSOCIATES, LTD.   
#>  5 2020-02-25 00:00:00 Accounting & General Services 37848  AKINAKA & ASSOCIATES, LTD.   
#>  6 2019-09-27 00:00:00 Agriculture                   57000  JAXIE CORPORATION            
#>  7 2019-09-27 00:00:00 Agriculture                   57000  JAXIE CORPORATION            
#>  8 2019-09-19 00:00:00 Health                        10128. LIFE TECHNOLOGIES CORPORATION
#>  9 2019-09-19 00:00:00 Health                        10128. LIFE TECHNOLOGIES CORPORATION
#> 10 2019-08-12 00:00:00 Health                        13000  Lily Wan Hing Wong           
#> # … with 3,907 more rows
```
…
A fair number of records have an `amount` value equal or less than zero.
This is sometimes used to indicate a correction, but there is no way to
tell.

``` r
percent(mean(hic$amount <= 0), 0.01)
#> [1] "8.06%"
```

``` r
hic %>% 
  select(all_of(key_vars)) %>% 
  filter(amount <= 0)
#> # A tibble: 5,048 x 4
#>    date                department     amount awardee                                               
#>    <dttm>              <chr>           <dbl> <chr>                                                 
#>  1 2020-07-01 00:00:00 Health              0 Habilitation Center, LLC dba Millcreek of Arkansas    
#>  2 2020-07-01 00:00:00 Health              0 RTC Resource Acq. Corporation                         
#>  3 2020-07-01 00:00:00 Health              0 Mingus Mountain Estate Residential Center Inc.        
#>  4 2020-05-08 00:00:00 Budget & Fina…      0 Humana Insurance Company                              
#>  5 2020-04-30 00:00:00 Transportation      0 JNR Environmental LLC                                 
#>  6 2020-04-30 00:00:00 Transportation      0 H.T.M. Contractors, Inc.                              
#>  7 2020-04-30 00:00:00 Transportation      0 H.T.M. Contractors, Inc.                              
#>  8 2020-04-30 00:00:00 Education           0 CDW GOVERNMENT LLC                                    
#>  9 2020-04-28 00:00:00 Education           0 Ahead Of The Class Educational Services, Inc., AMERIC…
#> 10 2020-04-28 00:00:00 Budget & Fina…      0 CAREMARKPCS HEALTH, L.L.C.                            
#> # … with 5,038 more rows
```
…
