…
### Unzip

There are 72 CSV files inside the ZIP archive. We can list the content
and extract only those pertaining to contributions.

``` r
(zip_contents <- 
  unzip(zip_path, list = TRUE) %>% 
  as_tibble() %>% 
  clean_names() %>% 
  mutate(
    length = as_fs_bytes(length),
    date = as_date(date)
  ))
#> # A tibble: 72 x 3
#>    name                 length date      
#>    <chr>           <fs::bytes> <date>    
#>  1 ReadMe.txt          130.01K 2020-02-27
#>  2 assets.csv          355.83K 2020-02-27
#>  3 cand.csv             36.41M 2020-02-27
#>  4 cont_ss.csv          16.22M 2020-02-27
#>  5 cont_t.csv            3.63M 2020-02-27
#>  6 contribs_01.csv       98.2M 2020-02-27
#>  7 contribs_02.csv      106.3M 2020-02-27
#>  8 contribs_03.csv     113.69M 2020-02-27
#>  9 contribs_04.csv     107.36M 2020-02-27
#> 10 contribs_05.csv      98.22M 2020-02-27
#> # … with 62 more rows
…
``` r
txc %>% 
  filter(state != state_norm) %>% 
  count(state, state_norm, sort = TRUE)
#> # A tibble: 78 x 3
#>    state state_norm     n
#>    <chr> <chr>      <int>
#>  1 Tx    TX         11984
#>  2 tx    TX           367
#>  3 Te    TE           102
#>  4 Fl    FL            94
#>  5 Ok    OK            61
#>  6 ca    CA            35
#>  7 tX    TX            33
#>  8 Ca    CA            30
#>  9 ny    NY            26
#> 10 va    VA            24
#> # … with 68 more rows
```
…
      key_collision_merge() %>% 
      n_gram_merge(numgram = 1)
  ) %>% 
  filter(city_refine != city_swap) %>% 
  inner_join(
    y = zipcodes,
    by = c(
      "city_refine" = "city",
      "state_norm" = "state",
      "zip_norm" = "zip"
    )
  )
```

    #> # A tibble: 323 x 5
    #>    state_norm zip_norm city_swap           city_refine              n
    #>    <chr>      <chr>    <chr>               <chr>                <int>
    #>  1 SC         29406    NORTH CHARLESTON    CHARLESTON             180
    #>  2 SC         29419    NORTH CHARLESTON    CHARLESTON              92
    #>  3 GA         31405    SAVAHHAN            SAVANNAH                64
    #>  4 TX         78259    SAN ANONTIO         SAN ANTONIO             47
    #>  5 CA         94583    SAN ROMAN           SAN RAMON               28
    #>  6 TX         77720    BEAMOUNT            BEAUMONT                28
    #>  7 TX         78850    DHANNIS             D HANIS                 26
    #>  8 TX         76180    NORTH RICHARD HILLS NORTH RICHLAND HILLS    25
    #>  9 TX         79938    EL PASO CO          EL PASO                 24
    #> 10 TX         76844    GOLDWAITHE          GOLDTHWAITE             23
    #> # … with 313 more rows
…
