…
``` r
urls <- 
  expand_grid(
    year = 2008:2019,
    quarter = 1:4,
    branch = c("Executive", "Legislative")
  ) %>% 
  mutate(
    url = glue("https://floridalobbyist.gov/reports/{year}_Quarter{quarter}_{branch}.txt")
  )
```

    #> # A tibble: 96 x 4
    #>     year quarter branch      url                                                              
    #>    <int>   <int> <chr>       <glue>                                                           
    #>  1  2008       1 Executive   https://floridalobbyist.gov/reports/2008_Quarter1_Executive.txt  
    #>  2  2008       1 Legislative https://floridalobbyist.gov/reports/2008_Quarter1_Legislative.txt
    #>  3  2008       2 Executive   https://floridalobbyist.gov/reports/2008_Quarter2_Executive.txt  
    #>  4  2008       2 Legislative https://floridalobbyist.gov/reports/2008_Quarter2_Legislative.txt
    #>  5  2008       3 Executive   https://floridalobbyist.gov/reports/2008_Quarter3_Executive.txt  
    #>  6  2008       3 Legislative https://floridalobbyist.gov/reports/2008_Quarter3_Legislative.txt
    #>  7  2008       4 Executive   https://floridalobbyist.gov/reports/2008_Quarter4_Executive.txt  
    #>  8  2008       4 Legislative https://floridalobbyist.gov/reports/2008_Quarter4_Legislative.txt
    #>  9  2009       1 Executive   https://floridalobbyist.gov/reports/2009_Quarter1_Executive.txt  
    #> 10  2009       1 Legislative https://floridalobbyist.gov/reports/2009_Quarter1_Legislative.txt
    #> # … with 86 more rows
…
We can download each TXT file to the `/fl/data/raw` directory.

``` r
raw_dir <- dir_create(here("fl", "lobbying", "comp", "data", "raw"))
```

``` r
if (!all_files_new(raw_dir, glob = "*.txt$")) {
  for (url in urls) {
    download.file(url, destfile = str_c(raw_dir, basename(url), sep = "/"))
  }
}
```

    #> # A tibble: 96 x 4
    #>    path                                                     type         size birth_time         
    #>    <chr>                                                    <fct> <fs::bytes> <dttm>             
    #>  1 /fl/lobbying/comp/data/raw/2008_Quarter1_Executive.txt   file         653K 2020-01-16 14:43:40
    #>  2 /fl/lobbying/comp/data/raw/2008_Quarter1_Legislative.txt file         789K 2020-01-16 14:43:41
    #>  3 /fl/lobbying/comp/data/raw/2008_Quarter2_Executive.txt   file         667K 2020-01-16 14:43:42
    #>  4 /fl/lobbying/comp/data/raw/2008_Quarter2_Legislative.txt file         801K 2020-01-16 14:43:43
    #>  5 /fl/lobbying/comp/data/raw/2008_Quarter3_Executive.txt   file         694K 2020-01-16 14:43:44
    #>  6 /fl/lobbying/comp/data/raw/2008_Quarter3_Legislative.txt file         815K 2020-01-16 14:43:45
    #>  7 /fl/lobbying/comp/data/raw/2008_Quarter4_Executive.txt   file         713K 2020-01-16 14:43:46
    #>  8 /fl/lobbying/comp/data/raw/2008_Quarter4_Legislative.txt file         830K 2020-01-16 14:43:47
    #>  9 /fl/lobbying/comp/data/raw/2009_Quarter1_Executive.txt   file         684K 2020-01-16 14:43:48
    #> 10 /fl/lobbying/comp/data/raw/2009_Quarter1_Legislative.txt file         813K 2020-01-16 14:43:50
    #> # … with 86 more rows
…
``` r
fllc %>% 
  select(starts_with("firm_address")) %>% 
  distinct() %>% 
  sample_frac()
#> # A tibble: 2,718 x 3
#>    firm_address_line_1     firm_address_line_2        firm_address_norm                            
#>    <chr>                   <chr>                      <chr>                                        
#>  1 Bank of America Bldg    315 S Calhoun St Ste 848   BANK OF AMERICA BUILDING 315 SOUTH CALHOUN S…
#>  2 1139 Tuscany Blvd       <NA>                       1139 TUSCANY BOULEVARD                       
#>  3 300 S Duval St Ste 410  Suite 410                  300 SOUTH DUVAL STREET SUITE 410 SUITE 410   
#>  4 PO Box 273932           <NA>                       PO BOX 273932                                
#>  5 8769 Minnow Creek Dr    <NA>                       8769 MINNOW CREEK DRIVE                      
#>  6 1579 Monroe Dr          Ste F-603                  1579 MONROE DRIVE SUITE F 603                
#>  7 Mitchell A. Bierman     2525 Ponce de Leon Blvd S… MITCHELL A BIERMAN 2525 PONCE DE LEON BOULEV…
#>  8 4394 NE 23rd Terrace    <NA>                       4394 NORTHEAST 23RD TERRACE                  
#>  9 5301 N Habana Ave       Suite 3                    5301 NORTH HABANA AVENUE SUITE 3             
#> 10 2861 Executive Dr Ste … <NA>                       2861 EXECUTIVE DRIVE SUITE 100               
#> # … with 2,708 more rows
```
…
``` r
count(fllc, firm_state, firm_state_norm, sort = TRUE)
#> # A tibble: 70 x 3
#>    firm_state           firm_state_norm      n
#>    <chr>                <chr>            <int>
#>  1 <NA>                 <NA>            417781
#>  2 FLORIDA              FL               21054
#>  3 FL                   FL               14554
#>  4 Florida              FL                 423
#>  5 DC                   DC                 180
#>  6 DISTRICT OF COLUMBIA DC                 169
#>  7 GEORGIA              GA                 154
#>  8 VA                   VA                  92
#>  9 VIRGINIA             VA                  71
#> 10 GA                   GA                  54
#> # … with 60 more rows
```
…
``` r
fllc %>% 
  select(starts_with("firm_phone")) %>% 
  distinct() %>% 
  sample_frac()
#> # A tibble: 2,025 x 2
#>    firm_phone         firm_phone_norm    
#>    <chr>              <chr>              
#>  1 (305) 216-7794     (305) 216-7794     
#>  2 (850)222-5155      (850) 222-5155     
#>  3 (850)727-3465      (850) 727-3465     
#>  4 (954) 540-7252     (954) 540-7252     
#>  5 (305)968-1222      (305) 968-1222     
#>  6 (305) 342-6111     (305) 342-6111     
#>  7 (850)681-6788 x101 (850) 681-6788 x101
#>  8 (850) 294-7963     (850) 294-7963     
#>  9 (772) 418-6068     (772) 418-6068     
#> 10 (850) 590-2186     (850) 590-2186     
#> # … with 2,015 more rows
```
…
