…
``` r
ak %>% 
  filter(zip_clean %out% zipcode$zip) %>% 
  filter(!is.na(zip_clean)) %>% 
  select(
    recipient_city,
    recipient_state,
    recipient_zip,
    zip_clean
  ) %>% 
  distinct()
```

    #> # A tibble: 31 x 4
    #>    recipient_city recipient_state recipient_zip zip_clean
    #>    <chr>          <chr>           <chr>         <chr>    
    #>  1 SAN ANTONIO    TEXAS           48256         48256    
    #>  2 SEATTLE        WASHINGTON      98618         98618    
    #>  3 SEATTLE        WASHINGTON      88108         88108    
    #>  4 ANCHORAGE      ALASKA          9953          09953    
    #>  5 ANCHORAGE      ALASKA          9951          09951    
    #>  6 ANCHORAGE      ALASKA          9918          09918    
    #>  7 ANCHORAGE      ALASKA          99051         99051    
    #>  8 JUNEAU         ALASKA          99601         99601    
    #>  9 JUNEAU         ALASKA          9983          09983    
    #> 10 CHICAGO        ILLINOIS        4000          04000    
    #> # … with 21 more rows
…
