…
No rows are missing the names, date, or amount needed to identify a
transaction.

A lot of records have an “exempt” city value.

``` r
ndc %>% 
  count(city, state, sort = TRUE) %>% 
  add_prop()
#> # A tibble: 11,442 x 4
#>    city        state      n      p
#>    <chr>       <chr>  <int>  <dbl>
#>  1 Exempt      <NA>  730101 0.257 
#>  2 NEW YORK    NY    341043 0.120 
#>  3 BISMARCK    ND    278282 0.0979
#>  4 FARGO       ND    207895 0.0731
#>  5 GRAND FORKS ND    102649 0.0361
#>  6 <NA>        <NA>   97608 0.0343
#>  7 MINOT       ND     69812 0.0246
#>  8 CHICAGO     IL     60886 0.0214
#>  9 MINNEAPOLIS MN     40961 0.0144
#> 10 DICKINSON   ND     33803 0.0119
#> # … with 11,432 more rows
```
…
## Wrangle

To improve the searchability of the database, we will perform some
consistent, confident string normalization. For geographic variables
like city names and ZIP codes, the corresponding `campfin::normal_*()`
functions are tailor made to facilitate this process.

### Address

Street addresses are already abbreviated and normalized how we would.

``` r
ndc %>% 
  count(address_1, address_2, sort = TRUE)
#> # A tibble: 25,536 x 3
#>    address_1             address_2                    n
#>    <chr>                 <chr>                    <int>
#>  1 <NA>                  <NA>                   1497881
#>  2 270 PARK AVE          <NA>                    102337
#>  3 4201 NORMANDY ST      <NA>                     37703
#>  4 608 E BOULEVARD AVE   <NA>                     21755
#>  5 CAPITOL TOWER 4TH FLR 600 E BOULEVARD AVENUE   17537
#>  6 3100 Railroad Ave     <NA>                     16004
#>  7 PO BOX 25505          <NA>                     12911
#>  8 PO BOX 5010           <NA>                     11179
#>  9 PO BOX 9477           <NA>                     10179
#> 10 PO BOX 709            <NA>                      8833
#> # … with 25,526 more rows
```
…
Almost all `state` values are valid 2-digit abbreviations and most of
the remaining are Canadian provinces or some foreign country we want to
keep.

``` r
percent(prop_in(ndc$state, valid_state), 0.01)
#> [1] "99.86%"
```

``` r
ndc %>% 
  count(state, sort = T) %>% 
  filter(state %out% valid_state)
#> # A tibble: 94 x 2
#>    state      n
#>    <chr>  <int>
#>  1 <NA>  830260
#>  2 ON       905
#>  3 AB       345
#>  4 MB       332
#>  5 BC       270
#>  6 SK       196
#>  7 QC       123
#>  8 UN        99
#>  9 GBR       38
#> 10 VIC       30
#> # … with 84 more rows
```
…
