…
We can flag any record missing a key variable needed to identify a
transaction.

``` r
key_vars <- c("receipt_date", "contributor_name", "amount", "filer_name")
wac <- flag_na(wac, all_of(key_vars))
sum(wac$na_flag)
#> [1] 2018
```

``` r
wac %>% 
  filter(na_flag) %>% 
  select(all_of(key_vars))
#> # A tibble: 2,018 × 4
#>    receipt_date contributor_name    amount filer_name                                                 
#>    <date>       <chr>                <dbl> <chr>                                                      
#>  1 NA           SMALL CONTRIBUTIONS   25   18TH LEG DIST DEMO CENT COMM NON EXEMPT                    
#>  2 NA           SMALL CONTRIBUTIONS   40.2 WASHINGTON EDUCATION ASSOCIATION POLITICAL ACTION COMMITTEE
#>  3 NA           SMALL CONTRIBUTIONS   78.7 ALICIA J RULE (Alicia Rule)                                
#>  4 NA           SMALL CONTRIBUTIONS   31.3 Matthew T. Macklin (Matthew Macklin)                       
#>  5 NA           SMALL CONTRIBUTIONS   24.3 Sandra Kaiser                                              
#>  6 NA           SMALL CONTRIBUTIONS   65   Sue W. Forde (Sue Forde)                                   
#>  7 NA           SMALL CONTRIBUTIONS  230.  48TH DISTRICT DEMOCRATIC ORGANIZATION                      
#>  8 NA           SMALL CONTRIBUTIONS   70   Steven L. Saunders (Steven L Saunders)                     
#>  9 NA           SMALL CONTRIBUTIONS  135   Brian L Pruiett (Brian Pruiett)                            
#> 10 NA           SMALL CONTRIBUTIONS  149   Brian James King (Brian King)                              
#> # ℹ 2,008 more rows
```
…
0.1% of rows are duplicates.

``` r
wac %>% 
  filter(dupe_flag) %>% 
  count(receipt_date, contributor_name, amount, filer_name, sort = TRUE)
#> # A tibble: 6,952 × 5
#>    receipt_date contributor_name           amount filer_name                                                 n
#>    <date>       <chr>                       <dbl> <chr>                                                  <int>
#>  1 2017-11-21   KALISPEL TRIBE OF INDIANS 1000    Mark Schoesler (MARK SCHOESLER)                            2
#>  2 2019-12-16   SCOTT PETER                 15    CITIZENS FOR EVERETT PUBLIC SCHOOLS                        2
#>  3 2020-04-30   ACLU OF WASHINGTON        1000    Commit to Change WA (sponsored by ACLU of Washington)      2
#>  4 2020-06-19   SARGENT EUGENE               6.25 BRIAN SMILEY                                               2
#>  5 2020-07-28   ELI LILLY AND COMPANY      500    TAKKO DEAN A                                               2
#>  6 2020-09-20   VOSS EMILY                  75    Loren D. Culp (Loren Culp)                                 2
#>  7 2020-09-22   EVANS JULIE                100    REPUBLICAN STATE LEADERSHIP COMMITTEE - WASHINGTON PAC     2
#>  8 2020-09-22   FOXWINCHELL CLAUDIA         25    REPUBLICAN STATE LEADERSHIP COMMITTEE - WASHINGTON PAC     2
#>  9 2020-09-29   MURRAY EVAN                 15    REPUBLICAN STATE LEADERSHIP COMMITTEE - WASHINGTON PAC     2
#> 10 2020-10-23   HO ANTHONY                  15    Gael D Tarleton (Gael Tarleton)                            2
#> # ℹ 6,942 more rows
```
…
``` r
wac %>% 
  count(contributor_zip, zip_norm, sort = TRUE) %>% 
  filter(contributor_zip != zip_norm)
#> # A tibble: 427 × 3
#>    contributor_zip zip_norm     n
#>    <chr>           <chr>    <int>
#>  1 V6J 1           61          83
#>  2 -9-81           981         55
#>  3 V6Z 2           62          19
#>  4 100.0           1000        18
#>  5 98---           98          11
#>  6 9834-           9834        11
#>  7 +9116           9116        10
#>  8 WA989           989          9
#>  9 500.0           5000         8
#> 10 98,16           9816         8
#> # ℹ 417 more rows
```
…
``` r
wac %>% 
  count(contributor_state, state_norm, sort = TRUE) %>% 
  filter(contributor_state != state_norm)
#> # A tibble: 40 × 3
#>    contributor_state state_norm     n
#>    <chr>             <chr>      <int>
#>  1 Washington        WA           159
#>  2 wa                WA           117
#>  3 Wa                WA           115
#>  4 or                OR            31
#>  5 WASHINGTON        WA            19
#>  6 ca                CA             8
#>  7 wA                WA             5
#>  8 Or                OR             4
#>  9 Ca                CA             3
#> 10 Tx                TX             3
#> # ℹ 30 more rows
```
…
      key_collision_merge() %>% 
      n_gram_merge(numgram = 1)
  ) %>% 
  filter(city_refine != city_swap) %>% 
  inner_join(
    y = zipcodes,
    by = c(
      "city_refine" = "city",
      "state_norm" = "state",
      "zip_norm" = "zip"
    )
  )
```

    #> # A tibble: 298 × 5
    #>    state_norm zip_norm city_swap     city_refine       n
    #>    <chr>      <chr>    <chr>         <chr>         <int>
    #>  1 WA         98374    PUAYLLP       PUYALLUP         74
    #>  2 ID         83815    COUER DALENE  COEUR D ALENE    56
    #>  3 WA         98537    COSMPOLOLIS   COSMOPOLIS       35
    #>  4 WA         98284    SEDROWOOLLLEY SEDRO WOOLLEY    33
    #>  5 ID         83816    COUER DALENE  COEUR D ALENE    22
    #>  6 WA         98638    NASSEL        NASELLE          22
    #>  7 WA         98275    MULKITEO      MUKILTEO         18
    #>  8 WA         98065    SNOAUQLMIE    SNOQUALMIE       16
    #>  9 NY         11733    SETAUKET      EAST SETAUKET    15
    #> 10 OH         45202    CINCINATTI    CINCINNATI       15
    #> # ℹ 288 more rows
…
