…
    extra = "merge"
  ) %>%
  mutate_at(
    .vars = vars(lob_state),
    .funs = str_remove,
    pattern = "(.*,\\s)(?=[A-Z])"
  ) %>%
  separate(
    col = lob_state,
    into = c("lob_state", "lob_zip"),
    sep = "\\s(?=\\d+)"
  )
```

    #> # A tibble: 9,949 × 12
    #>    lob_year lob_d…¹ lob_l…² lob_f…³ lob_p…⁴ lob_a…⁵ lob_a…⁶ lob_c…⁷ lob_s…⁸ lob_zip lob_p…⁹ lob_s…˟
    #>    <chr>    <chr>   <chr>   <chr>   <chr>   <chr>   <chr>   <chr>   <chr>   <chr>   <chr>   <chr>  
    #>  1 2022     2022-0… O'BRIEN BARBAR… 850-32… 3626 B… <NA>    TALLAH… FL      32311   NO      FINANC…
    #>  2 2019     2019-0… HOSP    EDWARD… 205-22… 450 RI… <NA>    BIRMIN… AL      35244   NO      EMPLOY…
    #>  3 2010     2010-0… BARGAN… JON D.  334-27… 8112 H… <NA>    MONTGO… AL      36117   NO      ZZZ HE…
    #>  4 2012     2012-0… HARPER  TAYLOR… 334-26… P.O. B… <NA>    GRAND … AL      36541   NO      ZZZ AL…
    #>  5 2018     2018-0… DAVIS   WILLIA… 334-83… P.O. B… <NA>    MONTGO… AL      36101   NO      UTILIT…
    #>  6 2012     2012-0… MARAMAN MELVIN… 334-30… 453 SO… <NA>    MONTGO… AL      36104   NO      UTILIT…
    #>  7 2021     2021-0… KIDD    EMERY   334-83… P.O. B… <NA>    MONTGO… AL      36103-… NO      ZZZEDU…
    #>  8 2008     <NA>    SHAW    SHIRLE… 334-24… STATE … 600 DE… MONTGO… AL      36130   NO      ZZZ BU…
    #>  9 2019     2019-0… GARNER  BRITNE… 205-44… P O BO… <NA>    BIRMIN… AL      35260   NO      OPTOME…
    #> 10 2010     2010-0… GEORGE  RANDAL… 334-24… P.O. B… <NA>    MONTGO… AL      36101   NO      ZZZTOU…
    #> # … with 9,939 more rows, and abbreviated variable names ¹​lob_date, ²​lob_last, ³​lob_first,
    #> #   ⁴​lob_phone, ⁵​lob_addr1, ⁶​lob_addr2, ⁷​lob_city, ⁸​lob_state, ⁹​lob_public, ˟​lob_subjects
…
  ) %>%
  separate(
    col = pri_state,
    into = c("pri_state", "pri_zip"),
    sep = "\\s(?=\\d+)",
    extra = "merge",
    fill = "right"
  ) %>%
  mutate_if(
    .predicate = is_character,
    .funs = str_trim
  )
```

    #> # A tibble: 19,237 × 10
    #>    pri_name                 pri_p…¹ pri_a…² pri_c…³ pri_s…⁴ pri_zip pri_s…⁵ pri_e…⁶ pri_s…⁷ pri_b…⁸
    #>    <chr>                    <chr>   <chr>   <chr>   <chr>   <chr>   <chr>   <chr>   <chr>   <chr>  
    #>  1 PSYCHIATRIC SOLUTIONS, … 615-31… 6640 C… FRANKL… TN      37067   2008-0… <NA>    CRAIG … <NA>   
    #>  2 COOSA-ALABAMA RIVER IMP… 334-55… 770 WA… MONTGO… AL      36104   2023-0… <NA>    BLAKE … CORPOR…
    #>  3 GREENDOT                 703-68… C/O MU… ALEXAN… VA      22314   2016-0… <NA>    JEFFER… CORPOR…
    #>  4 ALABAMA DENTAL ASSOCIAT… 334-26… 836 WA… MONTGO… AL      36104   2010-0… <NA>    ZACK S… CORPOR…
    #>  5 RELYF                    205-64… POST O… ORANGE… AL      36561   2021-0… <NA>    CHEY G… 6-10   
    #>  6 LORD ABBETT MUNICIPAL I… 201-82… 90 HUD… JERSEY… NJ      07302   2012-0… <NA>    JOHN K… CORPOR…
    #>  7 ALABAMA DISTRICT ATTORN… 334-24… 515 SO… MONTGO… AL      36104   2015-0… <NA>    RANDAL… OVER 25
    #>  8 GREAT-WEST FINANCIAL AN… 303-73… 8525 E… GREENW… CO      80111   2014-1… <NA>    BRENT … CORPOR…
    #>  9 THE LOUIS BERGER GROUP   973-40… 412 MT… MORRIS… NJ      07960   2013-0… <NA>    RAED E… CORPOR…
    #> 10 ALABAMA SPAY/NEUTER CLI… 205-31… 2721 C… IRONDA… AL      35210   2011-0… <NA>    MARK H… <NA>   
    #> # … with 19,227 more rows, and abbreviated variable names ¹​pri_phone, ²​pri_addr, ³​pri_city,
    #> #   ⁴​pri_state, ⁵​pri_start, ⁶​pri_end_date, ⁷​pri_sign, ⁸​pri_behalf
…
``` r
allr %>% 
  select(contains("lob_addr")) %>% 
  distinct() %>% 
  sample_frac()
#> # A tibble: 2,305 × 3
#>    lob_addr1                        lob_addr2               lob_addr_norm                          
#>    <chr>                            <chr>                   <chr>                                  
#>  1 P.O. BOX 940                     <NA>                    PO BOX 940                             
#>  2 ONE RAVINIA DRIVE                SUITE 1000              ONE RAVINIA DRIVE SUITE 1000           
#>  3 41 BROOKLAND CT                  <NA>                    41 BROOKLAND CT                        
#>  4 215 S. MONROE ST.                SUITE 303               215 S MONROE ST SUITE 303              
#>  5 361 8TH AVENUE EAST              <NA>                    361 8TH AVENUE E                       
#>  6 ALABAMA DEPT. OF HUMAN RESOURCES POST OFFFICE BOX 304000 ALABAMA DEPT OF HUMAN RESOURCES POST O…
#>  7 4252 CARMICHAEL ROAD             <NA>                    4252 CARMICHAEL RD                     
#>  8 3800 LLYDE LANE                  <NA>                    3800 LLYDE LN                          
#>  9 770 WASHINGTON AVE. STE. 530     <NA>                    770 WASHINGTON AVE STE 530             
#> 10 202 GOVERNMENT ST. SUITE 220     <NA>                    202 GOVERNMENT ST SUITE 220            
#> # … with 2,295 more rows
```
…
