…
## Wrangle

To improve the consistency and searchability of the database, we can
perform some simple and confident text normalization.

### Phone

``` r
mnlr <- mutate(
  .data = mnlr,
  lb_tel_norm = normal_phone(lb_tel)
)
```

    #> # A tibble: 1,509 x 2
    #>    lb_tel        lb_tel_norm   
    #>    <chr>         <chr>         
    #>  1 (612)242-7848 (612) 242-7848
    #>  2 (651)224-5445 (651) 224-5445
    #>  3 (202)830-2038 (202) 830-2038
    #>  4 (612)676-3393 (612) 676-3393
    #>  5 (651)215-4000 (651) 215-4000
    #>  6 (952)229-7779 (952) 229-7779
    #>  7 (952)405-2017 (952) 405-2017
    #>  8 (507)451-1136 (507) 451-1136
    #>  9 (612)335-1577 (612) 335-1577
    #> 10 (651)493-5780 (651) 493-5780
    #> # … with 1,499 more rows

### Address

``` r
mnlr <- mutate_at(
  .tbl = mnlr,
  .vars = vars(ends_with("street")),
  .funs = list(norm = normal_address),
  abbs = usps_street
)
```

    #> # A tibble: 3,354 x 4
    #>    lb_street            a_street                     lb_street_norm       a_street_norm            
    #>    <chr>                <chr>                        <chr>                <chr>                    
    #>  1 100 Empire Dr Ste 2… 100 Empire Dr Ste 202        100 EMPIRE DR STE 2… 100 EMPIRE DR STE 202    
    #>  2 750 Otto Ave #2549   17025 Hwy 12 NE              750 OTTO AVE 2549    17025 HWY 12 NE          
    #>  3 525 Park St Ste 210  901 Marquette Ave 7th Flr    525 PARK ST STE 210  901 MARQUETTE AVE 7TH FLR
    #>  4 4525 Douglas Ave     2355 Hwy 36 West Ste 400     4525 DOUGLAS AVE     2355 HWY 36 W STE 400    
    #>  5 90 S 7th St #2200 W… 4248 Park Glen Rd            90 S 7TH ST 2200 WFC 4248 PARK GLN RD         
    #>  6 701 City Center Dr   720 City Center Dr           701 CITY CTR DR      720 CITY CTR DR          
    #>  7 168 6th St E Unit 3… 4111 E 37th St N             168 6TH ST E UNIT 3… 4111 E 37TH ST N         
    #>  8 6965 Oakbrook St SE  10710 Midlothian Turnpike S… 6965 OAKBROOK ST SE  10710 MIDLOTHIAN TPKE ST…
    #>  9 17444 Park Ave SE    8170 33rd Ave S MS 21106R    17444 PARK AVE SE    8170 33RD AVE S MS 21106R
    #> 10 114 Mackubin St Ste… 2400 W 64th St               114 MACKUBIN ST STE… 2400 W 64TH ST           
    #> # … with 3,344 more rows

### ZIP

``` r
mnlr <- mutate_at(
  .tbl = mnlr,
  .vars = vars(ends_with("zip")),
  .funs = list(norm = normal_zip),
  na_rep = TRUE
)
```

    #> # A tibble: 2,634 x 4
    #>    lb_zip a_zip      lb_zip_norm a_zip_norm
    #>    <chr>  <chr>      <chr>       <chr>     
    #>  1 55402  55403      55402       55403     
    #>  2 55074  56007      55074       56007     
    #>  3 55710  55734      55710       55734     
    #>  4 55402  55487-0235 55402       55487     
    #>  5 55407  55407-2102 55407       55407     
    #>  6 55103  53593      55103       53593     
    #>  7 15317  15317      15317       15317     
    #>  8 55125  60053      55125       60053     
    #>  9 55125  55103      55125       55103     
    #> 10 55441  55415-1829 55441       55415     
    #> # … with 2,624 more rows
…
