…
0.3% of rows are duplicates.

``` r
ilc %>% 
  filter(dupe_flag) %>% 
  count(rcv_date, last_only_name, amount, cmte_name, sort = TRUE)
#> # A tibble: 19,065 × 5
#>    rcv_date            last_only_name           amount cmte_name                         n
#>    <dttm>              <chr>                     <dbl> <chr>                         <int>
#>  1 2002-03-08 00:00:00 437 North Rush            1916. Friends of Blagojevich            7
#>  2 2002-03-08 00:00:00 Grais                      300  Friends of Blagojevich            6
#>  3 2002-03-08 00:00:00 Landis Plastics Inc.      1250  Citizens for Patrick O'Malley     6
#>  4 2002-05-01 00:00:00 Discount Smoke Shop        250  Citizens for Jim Watson           6
#>  5 2002-03-08 00:00:00 Bilbrey & Hylla P.C.       250  Friends of Blagojevich            5
#>  6 2002-03-08 00:00:00 DYN-PAC Illinois          2500  Friends of Blagojevich            5
#>  7 2002-05-01 00:00:00 Kelso                      500  Friends of Blagojevich            5
#>  8 2002-03-08 00:00:00 Citizens for Steve Davis  2500  Friends of Blagojevich            4
#>  9 2002-03-08 00:00:00 Deterding                  250  Friends of Blagojevich            4
#> 10 2002-03-08 00:00:00 Fernandez                 1000  Friends for Gutierrez             4
#> # ℹ 19,055 more rows
```
…
``` r
st_norm %>% 
  filter(state != state_norm)
#> # A tibble: 37 × 2
#>    state state_norm
#>    <chr> <chr>     
#>  1 Mi    MI        
#>  2 Il    IL        
#>  3 Tx    TX        
#>  4 Ky    KY        
#>  5 Va    VA        
#>  6 il    IL        
#>  7 In    IN        
#>  8 Mn    MN        
#>  9 Wi    WI        
#> 10 wa    WA        
#> # ℹ 27 more rows
```
…
      key_collision_merge() %>% 
      n_gram_merge(numgram = 1)
  ) %>% 
  filter(city_refine != city_swap) %>% 
  inner_join(
    y = zipcodes,
    by = c(
      "city_refine" = "city",
      "state_norm" = "state",
      "zip_norm" = "zip"
    )
  )
```

    #> # A tibble: 257 × 5
    #>    state_norm zip_norm city_swap          city_refine           n
    #>    <chr>      <chr>    <chr>              <chr>             <int>
    #>  1 IL         60411    SO CHICAGO HEIGHTS CHICAGO HEIGHTS     553
    #>  2 IL         60429    EAST HAZEL CREST   HAZEL CREST         470
    #>  3 IL         60010    NO BARRINGTON      BARRINGTON           65
    #>  4 IA         51102    SOUIX CITY         SIOUX CITY           53
    #>  5 IL         60429    EAST HAZELCREST    HAZEL CREST          40
    #>  6 NC         27102    WINSTIONSALEM      WINSTON SALEM        30
    #>  7 MD         20817    BESTHEDA           BETHESDA             29
    #>  8 IL         60411    SOCHICAGO HEIGHTS  CHICAGO HEIGHTS      23
    #>  9 IL         60476    THORTHON           THORNTON             23
    #> 10 IL         60007    LAKE GROVE VILLAGE ELK GROVE VILLAGE    21
    #> # ℹ 247 more rows
…
