…
Here, we see the type of changes that are made.

    #> # A tibble: 10,451 x 3
    #>    vendor_address_1          vendor_address_2    address_norm                                      
    #>    <chr>                     <chr>               <chr>                                             
    #>  1 335 ATRIUM OFFICE BUILDI… 1295 BANDANA BLVD N 335 ATRIUM OFFICE BUILDING 1295 BANDANA BOULEVARD…
    #>  2 150 SOUTH FIFTH STREET    SUITE 3000          150 SOUTH FIFTH STREET SUITE 3000                 
    #>  3 910 BELLE AVENUE          SUITE 1180          910 BELLE AVENUE SUITE 1180                       
    #>  4 EDUCATION MINNESOTA       41 SHERBURNE AVE    EDUCATION MINNESOTA 41 SHERBURNE AVENUE           
    #>  5 1515 - 7TH ST             #424                1515 7TH STREET 424                               
    #>  6 2200 KRAFT DRIVE          SUITE 1175          2200 KRAFT DRIVE SUITE 1175                       
    #>  7 2002 LONDON RD            RM 110              2002 LONDON ROAD RM 110                           
    #>  8 CAMPAIGN FINANCE BD       658 CEDAR ST        CAMPAIGN FINANCE BD 658 CEDAR STREET              
    #>  9 3530 PLEASANT AVE         B1                  3530 PLEASANT AVENUE B1                           
    #> 10 1433 17TH STREET          SUITE 300           1433 17TH STREET SUITE 300                        
    #> # … with 10,441 more rows
…
There are still cities which are registered as invalid.

    #> # A tibble: 293 x 4
    #>    state_norm vendor_city      city_swap            n
    #>    <chr>      <chr>            <chr>            <int>
    #>  1 <NA>       <NA>             <NA>             63020
    #>  2 MN         MAPLE GROVE      MAPLE GROVE        847
    #>  3 MN         BROOKLYN PARK    BROOKLYN PARK      768
    #>  4 MN         SHOREVIEW        SHOREVIEW          639
    #>  5 MN         MENDOTA HEIGHTS  MENDOTA HEIGHTS    604
    #>  6 MN         WHITE BEAR LAKE  WHITE BEAR LAKE    459
    #>  7 MN         ST LOUIS PARK    SAINT LOUIS PARK   444
    #>  8 MN         SAINT LOUIS PARK SAINT LOUIS PARK   382
    #>  9 MN         NORTH ST. PAUL   NORTH SAINT PAUL   263
    #> 10 MN         ST. LOUIS PARK   SAINT LOUIS PARK   231
    #> # … with 283 more rows
…
