…
### Duplicates

There are no duplicate records.

``` r
sum(duplicated(hrsa))
#> [1] 0
```

### Geographical

``` r
count(hrsa, state, sort = TRUE)
#> # A tibble: 59 x 2
#>    state     n
#>    <chr> <int>
#>  1 CA      180
#>  2 TX       72
#>  3 NY       63
#>  4 OH       51
#>  5 FL       47
#>  6 IL       45
#>  7 PA       43
#>  8 MI       39
#>  9 NC       39
#> 10 MA       38
#> # … with 49 more rows
```
``` r
hrsa <- mutate(hrsa, across(city, normal_city, abbs = usps_city))
```

``` r
many_city <- c(valid_city, extra_city)
percent(prop_in(hrsa$city, many_city), 0.01)
#> [1] "98.20%"
```

``` r
hrsa %>% 
  filter(city %out% many_city) %>% 
  count(city, state, sort = TRUE)
#> # A tibble: 23 x 3
#>    city             state     n
#>    <chr>            <chr> <int>
#>  1 JEFFERSONVLLE    IN        2
#>  2 SN BERNRDNO      CA        2
#>  3 BAYOU LABATRE    AL        1
#>  4 CAMDEN ON GLY    WV        1
#>  5 CHRISTIANSBRG    VA        1
#>  6 COLLEGE STA      TX        1
#>  7 CORP CHRISTI     TX        1
#>  8 CPE GIRARDEAU    MO        1
#>  9 DORCHESTR CENTER MA        1
#> 10 EGG HBR TOWNSHIP NJ        1
#> # … with 13 more rows
```
…
