…
### Phone

We can convert all telephone numbers to a single format with
`campfin::normal_phone()`.

``` r
kylr <- mutate_at(
  .tbl  = kylr,
  .vars = vars(ends_with("phone")),
  .funs = list(norm = normal_phone)
)
```

    #> # A tibble: 463 x 2
    #>    lob_phone    lob_phone_norm
    #>    <chr>        <chr>         
    #>  1 859-420-8919 (859) 420-8919
    #>  2 502-657-6010 (502) 657-6010
    #>  3 502-301-2936 (502) 301-2936
    #>  4 502-607-8670 (502) 607-8670
    #>  5 502-855-8206 (502) 855-8206
    #>  6 859-301-2111 (859) 301-2111
    #>  7 502-227-7275 (502) 227-7275
    #>  8 415-689-6800 (415) 689-6800
    #>  9 270-282-4553 (270) 282-4553
    #> 10 502-895-8167 (502) 895-8167
    #> # … with 453 more rows
### Address

For street addresses, we can use `campfin::normal_address()` to force
string consistency and expand abbreviations.

``` r
kylr <- mutate_at(
  .tbl  = kylr,
  .vars = vars(ends_with("addr")),
  .funs = list(norm = normal_address),
  abbs  = usps_street
)
```

    #> # A tibble: 519 x 2
    #>    lob_addr                                          lob_addr_norm                                 
    #>    <chr>                                             <chr>                                         
    #>  1 127 W. MAIN ST. EQUUS BLDG. HCM GOVERNMENT RELAT… 127 W MAIN ST EQUUS BLDG HCM GOVERNMENT RELAT…
    #>  2 269 REGENCY CIRCLE STE. B                         269 REGENCY CIR STE B                         
    #>  3 111 DARBYSHIRE CIRCLE                             111 DARBYSHIRE CIR                            
    #>  4 8607 GARY WAY                                     8607 GARY WAY                                 
    #>  5 334 E. BROADWAY STE. 325                          334 E BROADWAY STE 325                        
    #>  6 104 E. SEVENTH STREET                             104 E SEVENTH ST                              
    #>  7 1285 ISLAND FORD ROAD                             1285 IS FRD RD                                
    #>  8 10710 MIDLOTHIAN TURNPIKE STE. 430                10710 MIDLOTHIAN TPKE STE 430                 
    #>  9 250 W. MAIN ST. STE. 2800                         250 W MAIN ST STE 2800                        
    #> 10 P. O. BOX 1070                                    PO BOX 1070                                   
    #> # … with 509 more rows
…
## State

The state variables are already entirely normalized to their 2-digit
USPS abbreviations.

``` r
count(kylr, lob_state, sort = TRUE)
#> # A tibble: 23 x 2
#>    lob_state     n
#>    <chr>     <int>
#>  1 KY         2516
#>  2 OH           15
#>  3 CA           14
#>  4 DC           14
#>  5 VA           11
#>  6 TN            8
#>  7 IL            6
#>  8 IN            6
#>  9 NY            6
#> 10 MI            4
#> # … with 13 more rows
…
