…
## Join

The primary table of interest here is `Contributions`, which lists the
528,200 contributions made to committees and reported to the state. This
table does not identify the receiving committee or contributing entity.
This information is found in the `Groups` and `Contributors` tables,
respectively. We need to add variables identifying all parties to each
contribution.

``` r
nv$Contributions
#> # A tibble: 528,200 × 8
#>    contribution_id report_id candidate_id group_id contribution_date contribution_amo… contribution_type  contributor_id
#>              <int>     <int>        <int>    <int> <date>                        <dbl> <chr>                       <int>
#>  1               2      6980           NA     1220 2006-06-28                    35000 Monetary Contribu…              3
#>  2               3      6983           NA     1332 2006-03-29                        2 Monetary Contribu…              8
#>  3               4      6983           NA     1332 2006-03-31                        1 Monetary Contribu…              8
#>  4               5      6983           NA     1332 2006-04-10                      200 Monetary Contribu…              8
#>  5               6      6983           NA     1332 2006-01-01                        0 Written Commitment              9
#>  6               7      6983           NA     1332 2006-01-01                        0 In Kind Contribut…              9
#>  7               8      6983           NA     1332 2006-01-01                        0 In Kind Written C…              9
#>  8               9      6987           NA     1364 2006-01-13                     1000 Monetary Contribu…             15
#>  9              10      6991         2360       NA 2006-02-07                      100 Monetary Contribu…             17
#> 10              11      6991         2360       NA 2006-02-08                      500 Monetary Contribu…             18
#> # … with 528,190 more rows
```
…
``` r
addr_norm
#> # A tibble: 131,323 × 3
#>    address_1            address_2 address_norm     
#>    <chr>                <chr>     <chr>            
#>  1 275 7th Ave.         <NA>      275 7TH AVE      
#>  2 1224 Western Ave     <NA>      1224 WESTERN AVE 
#>  3 7511 W Diablo Dr     <NA>      7511 W DIABLO DR 
#>  4 <NA>                 <NA>      <NA>             
#>  5 3215 Cinder Lane     <NA>      3215 CINDER LN   
#>  6 308 Laura Court      <NA>      308 LAURA CT     
#>  7 453 Second Tee Drive <NA>      453 SECOND TEE DR
#>  8 PO Box 3108          <NA>      PO BOX 3108      
#>  9 none                 <NA>      NONE             
#> 10 PO Box 8760          <NA>      PO BOX 8760      
#> # … with 131,313 more rows
```
…
``` r
all_contributors %>% 
  filter(state != state_norm) %>% 
  count(state, state_norm, sort = TRUE)
#> # A tibble: 65 × 3
#>    state state_norm     n
#>    <chr> <chr>      <int>
#>  1 Nv    NV          1034
#>  2 nv    NV          1032
#>  3 Ca    CA            59
#>  4 ca    CA            36
#>  5 Ne    NE            34
#>  6 Ut    UT            27
#>  7 Tx    TX            15
#>  8 Fl    FL            13
#>  9 nV    NV            12
#> 10 Co    CO            11
#> # … with 55 more rows
```
…
      key_collision_merge() %>% 
      n_gram_merge(numgram = 1)
  ) %>% 
  filter(city_refine != city_swap) %>% 
  inner_join(
    y = zipcodes,
    by = c(
      "city_refine" = "city",
      "state_norm" = "state",
      "zip_norm" = "zip"
    )
  )
```

    #> # A tibble: 23 × 5
    #>    state_norm zip_norm city_swap         city_refine          n
    #>    <chr>      <chr>    <chr>             <chr>            <int>
    #>  1 NY         11733    SETAUKET          EAST SETAUKET        4
    #>  2 DE         19720    NEWCASTEL         NEW CASTLE           2
    #>  3 SC         29406    NORTH CHARLESTON  CHARLESTON           2
    #>  4 CA         91730    RANCHO CUCUMANGA  RANCHO CUCAMONGA     1
    #>  5 CA         92036    JULIANJULIAN      JULIAN               1
    #>  6 CA         94114    SAN FRANCISON     SAN FRANCISCO        1
    #>  7 FL         33304    FORT LAUREDALE    FORT LAUDERDALE      1
    #>  8 IL         60070    PROSPECTOR HIGHTS PROSPECT HEIGHTS     1
    #>  9 IN         47591    VINCENNES IN      VINCENNES            1
    #> 10 NV         89020    ARMAGOSA VALLEY   AMARGOSA VALLEY      1
    #> # … with 13 more rows
…
``` r
key_vars <- c("last_name", "contribution_date", 
              "contribution_amount", "recipient_name")
```

``` r
nvc %>% 
  filter(dupe_flag) %>% 
  select(contribution_id, report_id, all_of(key_vars))
#> # A tibble: 14,527 × 6
#>    contribution_id report_id last_name                  contribution_date contribution_amount recipient_name            
#>              <int>     <int> <chr>                      <date>                          <dbl> <chr>                     
#>  1              18      6991 Hengst                     2006-02-15                        200 E Tiras                   
#>  2              19      6991 Hengst                     2006-02-15                        200 E Tiras                   
#>  3             103      7034 member dues                2006-07-15                         11 Mineral County Classroom …
#>  4             105      7034 member dues                2006-07-15                         11 Mineral County Classroom …
#>  5             106      7062 NONE                       2006-01-01                          0 Patricia Herzog           
#>  6             107      7062 NONE                       2006-01-01                          0 Patricia Herzog           
#>  7             504     13743 Harrah's Operating Company 2006-10-05                       5000 Susan Brager              
#>  8             505     13743 Harrah's Operating Company 2006-10-05                       5000 Susan Brager              
#>  9             536     13756 NONE                       2006-10-26                          0 Patricia Herzog           
#> 10             537     13756 NONE                       2006-10-26                          0 Patricia Herzog           
#> # … with 14,517 more rows
```
…
