…
``` r
idc <- idc %>% 
  mutate_at(.vars = vars(ends_with('address')),
            .funs = list(norm = ~ normal_address(address = .,
      abbs = usps_city,
      na_rep = TRUE)))
```

``` r
idc %>% 
  select(contains("address")) %>% 
  distinct() %>% 
  sample_frac()
#> # A tibble: 114,584 × 4
#>    from_address                    to_address                from_address_norm              to_ad…¹
#>    <chr>                           <chr>                     <chr>                          <chr>  
#>  1 1915 N 10TH ST                  PO BOX 454                1915 N 10TH ST                 PO BOX…
#>  2 2467 E LENOX CT                 4109 W SPRING HOUSE DR    2467 E LENOX CT                4109 W…
#>  3 1178 MARCUS DR                  P.O. BOX 50048            1178 MARCUS DR                 PO BOX…
#>  4 PO BOX 2295                     3672 N. TUMBLEWEED PL     PO BOX 2295                    3672 N…
#>  5 311 GREENWICH ST                P.O. BOX 485              311 GREENWICH ST               PO BOX…
#>  6 10464 SOUTH JORDAN GATEWAY #457 1415 WHITEWATER AVE #7308 10464 SOUTH JORDAN GATEWAY #4… 1415 W…
#>  7 PO BOX 2167                     419 W. UNION STREET       PO BOX 2167                    419 W …
#>  8 1234 UNKNOWN                    8116 N. STONEHAVEN DR.    1234 UNKNOWN                   8116 N…
#>  9 PO BOX 117                      P.O. BOX 50048            PO BOX 117                     PO BOX…
#> 10 8000 S.FEDERAL WAY PO BOX 6     346 N 4456 E              8000 SFEDERAL WAY PO BOX 6     346 N …
#> # … with 114,574 more rows, and abbreviated variable name ¹​to_address_norm
```
…
