…
We can also flag any record completely duplicated across every column.

``` r
msc <- flag_dupes(msc, everything())
sum(msc$dupe_flag)
#> [1] 1599
```

``` r
msc %>% 
  filter(dupe_flag) %>% 
  select(all_of(key_vars)) %>% 
  arrange(date)
#> # A tibble: 1,599 × 4
#>    date       contributor                amount recipient             
#>    <date>     <chr>                       <dbl> <chr>                 
#>  1 2009-06-22 Gouras & Associates           250 Friends of Phil Bryant
#>  2 2009-06-22 Gouras & Associates           250 Friends of Phil Bryant
#>  3 2009-07-16 MS Assoc of Realtors         1000 Friends of Phil Bryant
#>  4 2009-07-16 MS Assoc of Realtors         1000 Friends of Phil Bryant
#>  5 2009-07-17 Desoto Co Republican Party    525 Friends of Phil Bryant
#>  6 2009-07-17 Desoto Co Republican Party    525 Friends of Phil Bryant
#>  7 2009-07-17 Dr. Jason K. Coleman         1000 Friends of Phil Bryant
#>  8 2009-07-17 Dr. Jason K. Coleman         1000 Friends of Phil Bryant
#>  9 2009-07-31 Denbury Resources PAC        2000 Friends of Phil Bryant
#> 10 2009-07-31 Denbury Resources PAC        2000 Friends of Phil Bryant
#> # … with 1,589 more rows
```
…
