…
``` r
distinct_counts <- col_stats(calr, n_distinct, print = FALSE)
print(distinct_counts)
#> # A tibble: 52 x 4
#>    col        class      n          p
#>    <chr>      <chr>  <int>      <dbl>
#>  1 filing_id  <chr> 346254 0.921     
#>  2 amend_id   <dbl>     11 0.0000293 
#>  3 rec_type   <chr>      1 0.00000266
#>  4 form_type  <chr>      4 0.0000106 
#>  5 sender_id  <chr>  13811 0.0367    
#>  6 filer_id   <chr>  16414 0.0437    
#>  7 entity_cd  <chr>      8 0.0000213 
#>  8 filer_naml <chr>  22362 0.0595    
#>  9 filer_namf <chr>   4699 0.0125    
#> 10 filer_namt <chr>     30 0.0000798 
#> # … with 42 more rows
…
``` r
# `sender_id` = ID# of Lobbyist Entity that is SUBMITTING this report.
# `filer_id` = ID# of Lobbyist Entity that is SUBJECT of this report.
inner_join(
  x = calr,
  y = cal_emp_lob,
  by = c("filer_id" = "lobbyist_id")
)
#> # A tibble: 9,096 x 57
#>    filing_id amend_id rec_type form_type sender_id filer_id entity_cd filer_naml filer_namf
#>    <chr>        <dbl> <chr>    <chr>     <chr>     <chr>    <chr>     <chr>      <chr>     
#>  1 624398           0 CVR      F615      E00122    1222954  LBY       NIXON      DARRYL    
#>  2 624398           0 CVR      F615      E00122    1222954  LBY       NIXON      DARRYL    
#>  3 624398           0 CVR      F615      E00122    1222954  LBY       NIXON      DARRYL    
#>  4 624398           0 CVR      F615      E00122    1222954  LBY       NIXON      DARRYL    
#>  5 624445           0 CVR      F615      E00243    1222906  LBY       ROTHROCK   DOROTHY   
#>  6 624445           0 CVR      F615      E00243    1222906  LBY       ROTHROCK   DOROTHY   
#>  7 624445           0 CVR      F615      E00243    1222906  LBY       ROTHROCK   DOROTHY   
#>  8 624445           0 CVR      F615      E00243    1222906  LBY       ROTHROCK   DOROTHY   
#>  9 650665           0 CVR      F615      E00559    1223153  LBY       BROWN      AMY L.    
#> 10 650665           0 CVR      F615      E00559    1223153  LBY       BROWN      AMY L.    
#> # … with 9,086 more rows, and 48 more variables: filer_namt <chr>, filer_nams <chr>,
#> #   report_num <chr>, rpt_date <date>, from_date <date>, thru_date <date>, cum_beg_dt <date>,
#> #   firm_id <chr>, firm_name <chr>, firm_city <chr>, firm_st <chr>, firm_zip4 <chr>,
#> #   firm_phon <chr>, mail_city <chr>, mail_st <chr>, mail_zip4 <chr>, mail_phon <chr>,
#> #   sig_date <date>, sig_loc <chr>, sig_naml <chr>, sig_namf <chr>, sig_namt <chr>,
#> #   sig_nams <chr>, prn_naml <chr>, prn_namf <chr>, prn_namt <chr>, prn_nams <chr>,
#> #   sig_title <chr>, nopart1_cb <lgl>, nopart2_cb <lgl>, part1_1_cb <lgl>, part1_2_cb <lgl>,
#> #   ctrib_n_cb <lgl>, ctrib_y_cb <lgl>, lby_actvty <chr>, lobby_n_cb <chr>, lobby_y_cb <chr>,
#> #   major_naml <chr>, major_namf <chr>, major_namt <chr>, major_nams <chr>, rcpcmte_nm <chr>,
…
