…
``` r
iac <- left_join(iac, dupes)
iac <- mutate(iac, dupe_flag = !is.na(dupe_flag))
percent(mean(iac$dupe_flag), 0.1)
#> [1] "1.6%"
```

``` r
iac %>% 
  filter(dupe_flag) %>% 
  select(all_of(key_vars)) %>% 
  arrange(date, last)
#> # A tibble: 31,894 x 4
#>    date       last                amount committee                                     
#>    <date>     <chr>                <dbl> <chr>                                         
#>  1 2003-01-15 Iowa Health PAC        500 Iowa Democratic Party                         
#>  2 2003-01-15 Iowa Health PAC        500 Iowa Democratic Party                         
#>  3 2003-01-17 Pedersen                10 Black Hawk County Republican Central Committee
#>  4 2003-01-17 Pedersen                10 Black Hawk County Republican Central Committee
#>  5 2003-01-17 unidentified            20 Citizens for Excellence in Government         
#>  6 2003-01-17 unidentified            20 Citizens for Excellence in Government         
#>  7 2003-01-29 Smith                  100 Linn Phoenix Club                             
#>  8 2003-01-29 Smith                  100 Linn Phoenix Club                             
#>  9 2003-01-31 IDP Federal Account  10000 Iowa Democratic Party                         
#> 10 2003-01-31 IDP Federal Account  10000 Iowa Democratic Party                         
#> # … with 31,884 more rows
```
…
``` r
many_city <- c(valid_city, extra_city)
ia_city %>% 
  count(city_swap, state_norm, sort = TRUE) %>% 
  filter(!is.na(city_swap), city_swap %out% many_city)
#> # A tibble: 1,545 x 3
#>    city_swap        state_norm     n
#>    <chr>            <chr>      <int>
#>  1 NEW YORK CITY    NY            27
#>  2 NYC              NY            20
#>  3 WASHINGTON D C   DC            17
#>  4 LECLAIRE         IA            15
#>  5 JOHNSTNON        IA            12
#>  6 UNITEMIZED       IA            10
#>  7 FARMINGTON HILLS MI             9
#>  8 IA               IA             8
#>  9 LEMARS           IA             8
#> 10 DESMOINES        IA             7
#> # … with 1,535 more rows
```
…
