…
There are 48 individual CSV files contained within the ZIP archive. Many of these files are not
relevant to this project, but all will be unzipped into the `data/raw` directory.


```
#> # A tibble: 48 x 3
#>    Name                         Length Date               
#>    <chr>                         <dbl> <dttm>             
#>  1 affiliation.csv              441445 2019-06-25 01:23:00
#>  2 ballot_measure.csv             1220 2019-06-25 01:23:00
#>  3 business_cont.csv            742467 2019-06-25 01:23:00
#>  4 c1r.csv                     8293149 2019-06-25 01:15:00
#>  5 c3r.csv                       88981 2019-06-25 01:23:00
#>  6 c4r.csv                       91436 2019-06-25 01:15:00
#>  7 c5r.csv                        1311 2019-06-25 01:15:00
#>  8 c6r_basic_info.csv            39081 2019-06-25 01:24:00
#>  9 c6r_electioneering_comm.csv    6752 2019-06-25 01:24:00
#> 10 c6r_receipts.csv             119477 2019-06-25 01:24:00
#> # … with 38 more rows
```
…
print(transactions)
```

```
#> # A tibble: 1,541,860 x 6
#>    trans_index trans_date cont_id trans_amount rep_num x6   
#>    <chr>       <date>     <chr>          <dbl> <chr>   <chr>
#>  1 13894       2003-05-30 3228             5   1063    <NA> 
#>  2 13895       2003-05-30 3939            25   1063    <NA> 
#>  3 13898       2003-05-16 3235            57.0 1063    <NA> 
#>  4 13899       2003-05-30 3235            57.0 1063    <NA> 
#>  5 13900       2003-05-30 3675             7   1063    <NA> 
#>  6 13901       2003-05-16 3246            10   1063    <NA> 
#>  7 13902       2003-05-30 3246            10   1063    <NA> 
#>  8 13903       2003-05-30 3249             1   1063    <NA> 
#>  9 13904       2003-05-16 3251            25   1063    <NA> 
#> 10 13905       2003-05-30 3251            25   1063    <NA> 
#> # … with 1,541,850 more rows
```
…
print(contributors)
```

```
#> # A tibble: 402,235 x 8
#>    cont_id cont_type cont_street           cont_city  cont_state cont_zip   phone ext  
#>    <chr>   <chr>     <chr>                 <chr>      <chr>      <chr>      <chr> <chr>
#>  1 9892    1         651 Angus Rd          Wilson     OK         73463-9525 <NA>  <NA> 
#>  2 30273   1         3931 Rolling Hills Dr Ardmore    OK         73401      <NA>  <NA> 
#>  3 30274   1         196 High Chaparal Dr  Ardmore    OK         73401      <NA>  <NA> 
#>  4 30277   1         2209 Oakglen          Ardmore    OK         73401      <NA>  <NA> 
#>  5 30282   1         1614 Southern Hills   Ardmore    OK         73401      <NA>  <NA> 
#>  6 30283   1         PO Box 271            Mannsville OK         73447-0271 <NA>  <NA> 
#>  7 30285   1         504 Portico Ave       Ardmore    OK         73401      <NA>  <NA> 
#>  8 10112   1         RR 3 Box 177          Ardmore    OK         73401-9682 <NA>  <NA> 
#>  9 10113   1         828 Pershing Dr W     Ardmore    OK         73401-3411 <NA>  <NA> 
#> 10 10132   1         716 Campbell St       Ardmore    OK         73401-1508 <NA>  <NA> 
#> # … with 402,225 more rows
```
…
By joining each transaction with the filer of the respective report, we can identify the filer.


```r
ok <- left_join(
  x = transactions,
  y = reports %>% select(rep_num, ethics_id), 
  by = "rep_num"
)

print(ok)
```

```
#> # A tibble: 1,541,860 x 7
#>    trans_index trans_date cont_id trans_amount rep_num x6    ethics_id
#>    <chr>       <date>     <chr>          <dbl> <chr>   <chr> <chr>    
#>  1 13894       2003-05-30 3228             5   1063    <NA>  203041   
#>  2 13895       2003-05-30 3939            25   1063    <NA>  203041   
#>  3 13898       2003-05-16 3235            57.0 1063    <NA>  203041   
#>  4 13899       2003-05-30 3235            57.0 1063    <NA>  203041   
#>  5 13900       2003-05-30 3675             7   1063    <NA>  203041   
#>  6 13901       2003-05-16 3246            10   1063    <NA>  203041   
#>  7 13902       2003-05-30 3246            10   1063    <NA>  203041   
#>  8 13903       2003-05-30 3249             1   1063    <NA>  203041   
#>  9 13904       2003-05-16 3251            25   1063    <NA>  203041   
#> 10 13905       2003-05-30 3251            25   1063    <NA>  203041   
#> # … with 1,541,850 more rows
```
…
print(candidate_recs)
```

```
#> # A tibble: 2,949 x 8
#>    ethics_id rec_street        rec_city   rec_state rec_zip rec_cname          rec_party rec_office
#>    <chr>     <chr>             <chr>      <chr>     <chr>   <chr>              <chr>     <chr>     
#>  1 100000    TEST              TEST       OK        99999   TEST ACCOUNT       REPUBLIC… SENATE    
#>  2 100001    520 W 8TH ST      EDMOND     OK        73003   SNYDER FOR SENATE… REPUBLIC… SENATE    
#>  3 100002    1010 W QUEEN PL   TULSA      OK        74127   HORNER-RE-ELECTIO… DEMOCRAT  SENATE    
#>  4 100003    2809 N.E. BEL AI… LAWTON     OK        73507   HELTON FOR SENATE… DEMOCRAT  SENATE    
#>  5 100006    2010 W 136TH ST   GLENPOOL   OK        74033   FRIENDS OF L. LON… DEMOCRAT  SENATE    
#>  6 100007    615 TYRONE        WAUKOMIS   OK        73773   ROBERT MILACEK FO… REPUBLIC… SENATE    
#>  7 100008    1700 CHEROKEE PL  BARTLESVI… OK        74003   JIM DUNLAP CAMPAI… REPUBLIC… SENATE    
#>  8 100021    1416 W OKMULGEE   MUSKOGEE   OK        74401   ROBINSON FOR SENA… DEMOCRAT  SENATE    
#>  9 100058    3421 E. 63RD      TULSA      OK        74135   FORD FOR SENATE 2… REPUBLIC… SENATE    
#> 10 100083    3717 NW 125TH ST  OKLAHOMA … OK        73120   MIKE FAIR CAMPAIG… REPUBLIC… SENATE    
#> # … with 2,939 more rows
```
…
print(committee_recs)
```

```
#> # A tibble: 952 x 6
#>    ethics_id rec_cname                          rec_street           rec_city    rec_state rec_zip 
#>    <chr>     <chr>                              <chr>                <chr>       <chr>     <chr>   
#>  1 200003    LEFLORE COUNTY DEMOCRAT WOMEN      22638 BLUEBIRD LN    POTEAU      OK        74953   
#>  2 200009    PHILLIPS MCFALL POLITICAL ACTION … ONE LEADERSHIP SQ 1… OKLAHOMA C… OK        73102   
#>  3 200018    OKLAHOMA THOROUGHBRED ASSOCIATION… 2000 SE 15TH BLDG 4… EDMOND      OK        73013   
#>  4 200026    REPUBLICAN SENATE VICTORY PAC - R… 7308 N NORMAN RD     OKLAHOMA C… OK        73132   
#>  5 200028    SMALL LOAN COUNCIL OF OKLAHOMA PAC 3806 S VICTOR        TULSA       OK        74105   
#>  6 200031    OKLAHOMA CITY RETIRED FIREFIGHTER… 1427 SW 137TH TER    OKLAHOMA C… OK        73170   
#>  7 201011    PRO OK PAC                         PO BOX 85            BURBANK     OK        74633   
#>  8 201012    THE REPUBLICAN BUSINESS COUNCIL    120 N ROBINSON STE … OKLAHOMA C… OK        73102   
#>  9 201013    UICI PAC                           PO BOX 12267         OKLAHOMA C… OK        73157-2…
#> 10 201014    CENTER FOR LEGISLATIVE EXCELLENCE  PO BOX 35743         TULSA       OK        74153-0…
#> # … with 942 more rows
```
…
```
#>  [1] "trans_index"  "trans_date"   "cont_id"      "trans_amount" "rep_num"      "x6"          
#>  [7] "ethics_id"    "cont_vname"   "cont_type"    "cont_street"  "cont_city"    "cont_state"  
#> [13] "cont_zip"     "rec_street"   "rec_city"     "rec_state"    "rec_zip"      "rec_cname"   
#> [19] "rec_party"    "rec_office"
```

```r
sample_frac(ok)
```

```
#> # A tibble: 238,473 x 20
#>    trans_index trans_date cont_id trans_amount rep_num x6    ethics_id cont_vname cont_type
#>    <chr>       <date>     <chr>          <dbl> <chr>   <chr> <chr>     <chr>      <chr>    
#>  1 631712      2007-12-24 327759          40   48175   <NA>  108028    None       4        
#>  2 1642921     2012-10-01 621748         100   79430   <NA>  114003    KIRC Radio 4        
#>  3 598014      2007-12-04 338839         200   47433   <NA>  106034    Preserve … 4        
#>  4 209976      2006-07-10 100348         654   38816   <NA>  106339    None       4        
#>  5 1305677     2011-03-01 460093        1325   69213   <NA>  110038    IRS        4        
#>  6 298767      2006-09-18 83680          269.  40664   <NA>  106046    EMPLOYEE   4        
#>  7 266285      2006-08-17 103903        1434.  40847   <NA>  106298    Printing   4        
#>  8 975518      2009-10-29 435128         100   59217   <NA>  110043    BSA Troop… 4        
#>  9 252553      2006-05-29 99200           27.8 40281   <NA>  106162    NONE GIVEN 4        
#> 10 2014745     2014-03-20 695346          25   88179   <NA>  114449    Circle K   4        
#> # … with 238,463 more rows, and 11 more variables: cont_street <chr>, cont_city <chr>,
#> #   cont_state <chr>, cont_zip <chr>, rec_street <chr>, rec_city <chr>, rec_state <chr>,
#> #   rec_zip <chr>, rec_cname <chr>, rec_party <chr>, rec_office <chr>
```
…
```
#> # A tibble: 1 x 3
#>   cont_type      n percent
#>   <chr>      <dbl>   <dbl>
#> 1 4         238473       1
```

```r
print_tabyl(ok, cont_state)
```

```
#> # A tibble: 52 x 4
#>    cont_state      n percent valid_percent
#>    <chr>       <dbl>   <dbl>         <dbl>
#>  1 OK         213681 0.896         0.899  
#>  2 TX           5634 0.0236        0.0237 
#>  3 CA           3407 0.0143        0.0143 
#>  4 DC           1785 0.00749       0.00751
#>  5 GA           1394 0.00585       0.00587
#>  6 VA           1026 0.00430       0.00432
#>  7 FL           1010 0.00424       0.00425
#>  8 <NA>          844 0.00354      NA      
#>  9 MA            808 0.00339       0.00340
#> 10 OH            797 0.00334       0.00335
#> # … with 42 more rows
```

```r
print_tabyl(ok, rec_state)
```

```
#> # A tibble: 31 x 4
#>    rec_state      n  percent valid_percent
#>    <chr>      <dbl>    <dbl>         <dbl>
#>  1 OK        236219 0.991         0.993   
#>  2 <NA>         560 0.00235      NA       
#>  3 TX           503 0.00211       0.00211 
#>  4 DC           476 0.00200       0.00200 
#>  5 FL            83 0.000348      0.000349
#>  6 AL            75 0.000315      0.000315
#>  7 VA            71 0.000298      0.000298
#>  8 MI            65 0.000273      0.000273
#>  9 OH            62 0.000260      0.000261
#> 10 AR            48 0.000201      0.000202
#> # … with 21 more rows
```
…
```r
print_tabyl(ok, rec_office)
```

```
#> # A tibble: 25 x 4
#>    rec_office                      n percent valid_percent
#>    <chr>                       <dbl>   <dbl>         <dbl>
#>  1 HOUSE OF REPRESENTATIVES    92779  0.389         0.485 
#>  2 <NA>                        47136  0.198        NA     
#>  3 SENATE                      46333  0.194         0.242 
#>  4 GOVERNOR                    10945  0.0459        0.0572
#>  5 DISTRICT ATTORNEY            6178  0.0259        0.0323
#>  6 JUDGE - DISTRICT             6010  0.0252        0.0314
#>  7 LIEUTENANT GOVERNOR          4339  0.0182        0.0227
#>  8 JUDGE - ASSOCIATE            4240  0.0178        0.0222
#>  9 ATTORNEY GENERAL             3338  0.0140        0.0174
#> 10 SUPT. OF PUBLIC INSTRUCTION  3292  0.0138        0.0172
#> # … with 15 more rows
```
…
We can now compare our prepared values to our list of valid city values to explore the most
frequent suspicious values. Many, perhaps most, of these values actually _are_ valid and are simply
too uncommon or unofficial to be included in our valid city list.


```r
ok %>% 
  filter(cont_city_prep %out% valid_city) %>% 
  count(cont_city_prep) %>% 
  arrange(desc(n))
```

```
#> # A tibble: 751 x 2
#>    cont_city_prep     n
#>    <chr>          <int>
#>  1 <NA>           39473
#>  2 ""              8562
#>  3 WAGONER COUNTY   347
#>  4 OKLAHOMA CIY     233
#>  5 ONLINE           109
#>  6 UNDER             94
#>  7 OKLAOMA CITY      91
#>  8 OKAHOMA CITY      84
#>  9 OKLHAOMA CITY     84
#> 10 OVERLAND PARK     72
#> # … with 741 more rows
```
…
```r
ok_city_fix %>% 
  filter(fixed) %>%
  count(cont_state, cont_city_prep, cont_city_fix) %>% 
  arrange(desc(n))
```

```
#> # A tibble: 86 x 4
#>    cont_state cont_city_prep cont_city_fix     n
#>    <chr>      <chr>          <chr>         <int>
#>  1 OK         OKLAHOMA C ITY OKLAHOMA CITY    29
#>  2 OK         EDMON          EDMOND           28
#>  3 OK         MUSKOGE        MUSKOGEE         19
#>  4 OK         BROKEN ARROWN  BROKEN ARROW     16
#>  5 OK         TULSSA         TULSA            13
#>  6 OK         OWASO          OWASSO           11
#>  7 OK         MCCLOUD        MCLOUD            8
#>  8 OK         MIDWESTCITY    MIDWEST CITY      8
#>  9 OK         STILLWELL      STILWELL          8
#> 10 OK         SHAWNE         SHAWNEE           7
#> # … with 76 more rows
```
…
Some of these changes were successful, some were not. If the new record with cleaned city, state,
and ZIP match a record in the zipcodes database, we can be confident that the refine was 
successful.


```r
good_fix <- ok_city_fix %>% 
  inner_join(zipcode, by = c("city_fix" = "city", "state", "zip"))

print(good_fix)
```

```
#> # A tibble: 267 x 6
#>    trans_index city_orig      city_prep      city_fix      state zip  
#>    <chr>       <chr>          <chr>          <chr>         <chr> <chr>
#>  1 126086      Oklahoma Cityy OKLAHOMA CITYY OKLAHOMA CITY OK    73132
#>  2 170805      Hollistter     HOLLISTTER     HOLLISTER     OK    73551
#>  3 169676      Webber Falls   WEBBER FALLS   WEBBERS FALLS OK    74470
#>  4 189369      MIDWESTCITY    MIDWESTCITY    MIDWEST CITY  OK    73110
#>  5 189391      MIDWESTCITY    MIDWESTCITY    MIDWEST CITY  OK    73110
#>  6 189429      MIDWESTCITY    MIDWESTCITY    MIDWEST CITY  OK    73110
#>  7 189497      MIDWESTCITY    MIDWESTCITY    MIDWEST CITY  OK    73110
#>  8 181826      Oklahoma C Ity OKLAHOMA C ITY OKLAHOMA CITY OK    73112
#>  9 236999      MIDWESTCITY    MIDWESTCITY    MIDWEST CITY  OK    73110
#> 10 297341      MIDWESTCITY    MIDWESTCITY    MIDWEST CITY  OK    73110
#> # … with 257 more rows
```
…
```r
if (nrow(good_fix) + nrow(bad_fix) == nrow(ok_city_fix)) {
    ok_city_fix <- 
    bind_rows(bad_fix, good_fix) %>% 
    select(trans_index, city_fix)
}

print(ok_city_fix)
```

```
#> # A tibble: 294 x 2
#>    trans_index city_fix     
#>    <chr>       <chr>        
#>  1 525349      CLAREMORE    
#>  2 703206      OKLAHOMA CITY
#>  3 805292      DENVER       
#>  4 911978      WANETTE      
#>  5 951185      PHILADELPHIA 
#>  6 949230      NEWCASTLE    
#>  7 981258      DEL CITY     
#>  8 1051731     DEL CITY     
#>  9 1268353     OKLAHOMA CITY
#> 10 1303719     OKLAHOMA CITY
#> # … with 284 more rows
```
…
```r
ok %>% 
  sample_frac() %>% 
  select(
    cont_city, 
    cont_city_prep, 
    city_fix, 
    cont_city_clean
  )
```

```
#> # A tibble: 238,473 x 4
#>    cont_city cont_city_prep city_fix cont_city_clean
#>    <chr>     <chr>          <chr>    <chr>          
#>  1 Not Given <NA>           <NA>     <NA>           
#>  2 Enid      ENID           <NA>     ENID           
#>  3 Roland    ROLAND         <NA>     ROLAND         
#>  4 -         ""             <NA>     ""             
#>  5 Lawrence  LAWRENCE       <NA>     LAWRENCE       
#>  6 Atanta    ATANTA         <NA>     ATANTA         
#>  7 Tucscon   TUCSCON        <NA>     TUCSCON        
#>  8 Clinton   CLINTON        <NA>     CLINTON        
#>  9 Tulsa     TULSA          <NA>     TULSA          
#> 10 Shawnee   SHAWNEE        <NA>     SHAWNEE        
#> # … with 238,463 more rows
```
…
