…
    #> # A tibble: 2 x 6
    #>   stage       prop_in n_distinct prop_na n_out n_diff
    #>   <chr>         <dbl>      <dbl>   <dbl> <dbl>  <dbl>
    #> 1 state_sep     0.999        142 0.00384   926     87
    #> 2 state_clean   0.999        130 0.00391   838     75

``` r
fl %>% 
  filter(state_clean %out% valid_state) %>% 
  count(state_clean, sort = TRUE)
```

    #> # A tibble: 75 x 2
    #>    state_clean     n
    #>    <chr>       <int>
    #>  1 <NA>         3675
    #>  2 XC            335
    #>  3 F              86
    #>  4 ON             86
    #>  5 PETERSBURG     45
    #>  6 MM             33
    #>  7 CL             31
    #>  8 BC             29
    #>  9 NB             23
    #> 10 QC             21
    #> # … with 65 more rows
…
