…
Any record missing a variable needed to identify the transaction will be
flagged with `campfin::flag_na()`.

``` r
idc <- idc %>% flag_na(issue, agency, contract_amount, vendor)
sum(idc$na_flag)
#> [1] 64
```

``` r
idc %>% 
  filter(na_flag) %>% 
  select(contract_number, issue, agency, contract_amount, vendor)
#> # A tibble: 64 x 5
#>    contract_number issue      agency contract_amount vendor                            
#>    <chr>           <date>     <chr>            <dbl> <chr>                             
#>  1 BPO01697        2010-07-01 ITD                 NA IBM                               
#>  2 BPO15701118     2015-06-19 AGRI                 0 <NA>                              
#>  3 BPO162400454    2019-11-15 ITD              74090 <NA>                              
#>  4 BPO182400387    2020-04-07 ITD                 NA Freightliner of Idaho, LLC        
#>  5 CPO00044        NA         ISP                 NA Western Identification Network    
#>  6 CPO01199        2002-03-27 TAX                 NA Fast Enterprises, LLC             
#>  7 CPO01860        NA         IDOC                NA Corrections Corporation of America
#>  8 CPO01860        NA         IDOC                NA Corrections Corporation of America
#>  9 CPO01873        2009-06-06 IDOC                NA Correctional Medical Services     
#> 10 CPO01977        2007-07-31 ISP                 NA Thornton Oliver Keller CRE        
#> # … with 54 more rows
```
…
Ignoring the supposedly unique `contract_number`, there are a handful of
duplicated records.

``` r
idc <- flag_dupes(idc, -contract_number)
sum(idc$dupe_flag)
#> [1] 53
```

``` r
idc %>% 
  filter(dupe_flag) %>% 
  select(contract_number, issue, agency, contract_amount, vendor)
#> # A tibble: 53 x 5
#>    contract_number issue      agency contract_amount vendor                            
#>    <chr>           <date>     <chr>            <dbl> <chr>                             
#>  1 CPO01860        NA         IDOC               NA  Corrections Corporation of America
#>  2 CPO01860        NA         IDOC               NA  Corrections Corporation of America
#>  3 CPO02486        2018-07-13 ISBD             6000  Southworth Associates             
#>  4 CPO02486        2018-07-13 ISBD             6000  Southworth Associates             
#>  5 EXPO15200043    2014-07-30 ISP             21797. Smith Chevrolet                   
#>  6 EXPO15200044    2014-07-30 ISP             21797. Smith Chevrolet                   
#>  7 EXPO15200110    2014-08-14 DHW            128136. Corwin Ford                       
#>  8 EXPO15200113    2014-08-14 DHW            128136. Corwin Ford                       
#>  9 EXPO15700631    2015-02-23 AGRI            19485. Rob Green Auto Group              
#> 10 EXPO15700632    2015-02-23 AGRI            19485. Rob Green Auto Group              
#> # … with 43 more rows
```
…
