…
These records can be flagged with `campfin::flag_na()`.

``` r
dcc <- dcc %>% flag_na(date, vendor, amount, agency)
percent(mean(dcc$na_flag), 0.01)
#> [1] "0.46%"
```

``` r
dcc %>% 
  filter(na_flag) %>% 
  select(date, vendor, amount, agency, type)
#> # A tibble: 222 × 5
#>    date       vendor                                                            amount agency type 
#>    <date>     <chr>                                                              <dbl> <chr>  <chr>
#>  1 2022-10-25 BOCALJE SERVICES, INC.                                             5  e5 <NA>   cont…
#>  2 2023-01-04 A Digital Solutions Inc.                                           9.5e5 <NA>   cont…
#>  3 2019-01-03 Center for Innovation, Research, and Transformation in Education   5  e5 <NA>   cont…
#>  4 2022-12-19 Calvin Price Group                                                 9  e5 <NA>   cont…
#>  5 2022-12-15 Lincoln Square Group                                               9.5e5 <NA>   cont…
#>  6 2022-12-09 Deon Samad LLC                                                     9.5e5 <NA>   cont…
#>  7 2021-12-01 Chaise Management Group, LLC                                       9.5e5 <NA>   cont…
#>  8 2019-11-28 V TECH SOLUTIONS INC                                               1  e7 <NA>   cont…
#>  9 2017-11-16 The Robert Bobb Group LLC                                          7.5e5 <NA>   cont…
#> 10 2022-07-15 Engineering Project Management Construction Management Consultin…  9  e5 <NA>   cont…
#> # … with 212 more rows
```
…
Ignoring the `id` variable, there are a handful of completely duplicated
records. These can be flagged with `campfin::flag_dupes()`.

``` r
dcc <- flag_dupes(dcc, -id)
percent(mean(dcc$dupe_flag), 0.01)
#> [1] "2.81%"
```

``` r
dcc %>% 
  filter(dupe_flag) %>% 
  select(date, vendor, amount, agency, type) %>% 
  arrange(date)
#> # A tibble: 1,366 × 5
#>    date       vendor                        amount agency                                     type 
#>    <date>     <chr>                          <dbl> <chr>                                      <chr>
#>  1 2020-10-01 BRAILSFORD & DUNLAVEY, INC.    34000 General Services (DGS)                     purc…
#>  2 2020-10-01 BRAILSFORD & DUNLAVEY, INC.    34000 General Services (DGS)                     purc…
#>  3 2020-10-01 KBEC GROUP  INC.                   0 Department on Disability Services (DDS)    purc…
#>  4 2020-10-01 KBEC GROUP  INC.                   0 Department on Disability Services (DDS)    purc…
#>  5 2020-10-01 EDUCATIONAL NETWORKS  INC       3060 District of Columbia Public Schools (DCPS) purc…
#>  6 2020-10-01 SAVING OUR NEXT GENERATION    100000 Small and Local Business Development (DSL… purc…
#>  7 2020-10-01 SAVING OUR NEXT GENERATION    100000 Small and Local Business Development (DSL… purc…
#>  8 2020-10-01 SAVING OUR NEXT GENERATION    100000 Small and Local Business Development (DSL… purc…
#>  9 2020-10-01 EAST RIVER FAMILY STRENGTHENG 325000 Child and Family Services Agency (CFSA)    purc…
#> 10 2020-10-01 EAST RIVER FAMILY STRENGTHENG 325000 Child and Family Services Agency (CFSA)    purc…
#> # … with 1,356 more rows
```
…
``` r
add_prop(count(dcc, agency, sort = TRUE))
#> # A tibble: 114 × 3
#>    agency                                         n      p
#>    <chr>                                      <int>  <dbl>
#>  1 District of Columbia Public Schools (DCPS)  6849 0.141 
#>  2 General Services (DGS)                      3870 0.0797
#>  3 Commission on Arts and Humanities (CAH)     2992 0.0616
#>  4 Chief Technology Officer (OCTO)             2471 0.0509
#>  5 Behavioral Health (DBH)                     2236 0.0460
#>  6 Health (DOH)                                2184 0.0450
#>  7 Health Care Finance (DHCF)                  1606 0.0331
#>  8 Attorney General (OAG)                      1601 0.0330
#>  9 Department on Disability Services (DDS)     1525 0.0314
#> 10 Employment Services (DOES)                  1389 0.0286
#> # … with 104 more rows
…
