…
We can flag any record missing a key variable needed to identify a
transaction.

``` r
key_vars <- c("date", "candidatename", "amount", "payee")
dce <- flag_na(dce, all_of(key_vars))
sum(dce$na_flag)
#> [1] 15922
```

``` r
dce %>% 
  filter(na_flag) %>% 
  select(all_of(key_vars))
#> # A tibble: 15,922 × 4
#>    date                   candidatename amount payee                               
#>    <chr>                  <chr>          <dbl> <chr>                               
#>  1 2013/06/19 04:00:00+00 <NA>              25 Deluxe Checks                       
#>  2 2011/02/16 05:00:00+00 <NA>             500 Friends of Hans Riemer              
#>  3 2011/02/16 05:00:00+00 <NA>             250 Progressive Leaders for South County
#>  4 2010/03/23 04:00:00+00 <NA>             500 Re-Elect Tommy Wells                
#>  5 2010/03/23 04:00:00+00 <NA>             500 Michael A. Brown Community Fund     
#>  6 2010/03/31 04:00:00+00 <NA>             250 Catania 2010                        
#>  7 2013/07/01 04:00:00+00 <NA>             205 Carr Workplace                      
#>  8 2013/08/01 04:00:00+00 <NA>             205 Carr Workplace                      
#>  9 2015/07/06 04:00:00+00 <NA>              12 EagleBank                           
#> 10 2015/07/06 04:00:00+00 <NA>            1000 SP Associates III, LLC              
#> # ℹ 15,912 more rows
```
…
