…
``` r
raw_dir <- dir_create(here("il", "expends", "data", "raw"))
raw_info <- as_tibble(dir_info(raw_dir))
nrow(raw_info)
#> [1] 138
sum(raw_info$size)
#> 623M
raw_info %>% 
  select(path, size, modification_time) %>% 
  mutate(across(path, path.abbrev))
#> # A tibble: 138 x 3
#>    path                                                            size modification_time  
#>    <chr>                                                    <fs::bytes> <dttm>             
#>  1 ~/il/expends/data/raw/Expenditures-20000101-20000228.txt       3.38M 2020-06-25 12:55:13
#>  2 ~/il/expends/data/raw/Expenditures-20000301-20000531.txt       5.39M 2020-06-25 12:57:09
#>  3 ~/il/expends/data/raw/Expenditures-20000601-20000831.txt       5.67M 2020-06-25 12:59:00
#>  4 ~/il/expends/data/raw/Expenditures-20000801-20000930.txt       5.01M 2020-06-25 13:00:01
#>  5 ~/il/expends/data/raw/Expenditures-20001001-20001031.txt       4.09M 2020-06-25 13:01:15
#>  6 ~/il/expends/data/raw/Expenditures-20001101-20001231.txt       3.83M 2020-06-25 13:02:07
#>  7 ~/il/expends/data/raw/Expenditures-20010101-20010331.txt       5.31M 2020-06-25 13:05:54
#>  8 ~/il/expends/data/raw/Expenditures-20010401-20010630.txt       4.54M 2020-06-25 13:10:14
#>  9 ~/il/expends/data/raw/Expenditures-20010701-20010930.txt       5.05M 2020-06-25 13:11:18
#> 10 ~/il/expends/data/raw/Expenditures-20011001-20011231.txt       5.37M 2020-06-25 13:12:26
#> # … with 128 more rows
```
…
``` r
ile <- mutate(ile, dupe_flag = as.logical(read_lines(dupe_file)))
percent(mean(ile$dupe_flag), 0.1)
#> [1] "1.5%"
```

``` r
ile %>% 
  filter(dupe_flag) %>% 
  select(date, vendor, amount, committee)
#> # A tibble: 38,237 x 4
#>    date       vendor                      amount committee                            
#>    <date>     <chr>                        <dbl> <chr>                                
#>  1 2000-01-18 Moya, Mario                1721    Citizens For Lopez                   
#>  2 2000-01-18 Moya, Mario                1721    Citizens For Lopez                   
#>  3 2000-02-09 Theater District Self Park  255    Citizens for Jim Ryan                
#>  4 2000-02-09 Theater District Self Park  255    Citizens for Jim Ryan                
#>  5 2000-01-04 INVEST FINANCIAL CORP.        4.25 Betty Loren-Maltese Committeeman Fund
#>  6 2000-01-04 INVEST FINANCIAL CORP.        4.25 Betty Loren-Maltese Committeeman Fund
#>  7 2000-01-31 Quinn, Martin              1250.   Friends of Michael J Madigan         
#>  8 2000-01-31 Quinn, Martin              1250.   Friends of Michael J Madigan         
#>  9 2000-01-13 U.S. Postal Service          90.2  Friends of Tom Berns                 
#> 10 2000-01-13 U.S. Postal Service          90.2  Friends of Tom Berns                 
#> # … with 38,227 more rows
```
…
``` r
ile %>% 
  filter(state != state_norm) %>% 
  count(state, state_norm, sort = TRUE)
#> # A tibble: 36 x 3
#>    state state_norm     n
#>    <chr> <chr>      <int>
#>  1 Il    IL           188
#>  2 Ca    CA            50
#>  3 Tx    TX            32
#>  4 il    IL            28
#>  5 Co    CO            20
#>  6 Wi    WI            19
#>  7 Al    AL            16
#>  8 co    CO            13
#>  9 md    MD            12
#> 10 Ia    IA            11
#> # … with 26 more rows
```
…
      key_collision_merge() %>% 
      n_gram_merge(numgram = 1)
  ) %>% 
  filter(city_refine != city_swap) %>% 
  inner_join(
    y = zipcodes,
    by = c(
      "city_refine" = "city",
      "state_norm" = "state",
      "zip_norm" = "zip"
    )
  )
```

    #> # A tibble: 165 x 5
    #>    state_norm zip_norm city_swap          city_refine         n
    #>    <chr>      <chr>    <chr>              <chr>           <int>
    #>  1 IL         60411    SO CHICAGO HEIGHTS CHICAGO HEIGHTS   258
    #>  2 NE         68103    OHAMA              OMAHA             254
    #>  3 OH         45274    CINCINATTI         CINCINNATI        232
    #>  4 IL         60429    EAST HAZEL CREST   HAZEL CREST       138
    #>  5 SC         29406    NORTH CHARLESTON   CHARLESTON         58
    #>  6 OH         45274    CINNCINATI         CINCINNATI         43
    #>  7 IL         61821    CHAMAPGIN          CHAMPAIGN          34
    #>  8 OH         45263    CINCINATTI         CINCINNATI         27
    #>  9 OH         45999    CINCINATTI         CINCINNATI         25
    #> 10 MD         21403    ANNAPILOS          ANNAPOLIS          24
    #> # … with 155 more rows
…
