…
We can flag any record missing a key variable needed to identify a
transaction.

``` r
key_vars <- c("business_name", "owners", "issue_date")
akl <- flag_na(akl, all_of(key_vars))
sum(akl$na_flag)
#> [1] 1720
```

``` r
akl %>% 
  filter(na_flag) %>% 
  select(all_of(key_vars))
#> # A tibble: 1,720 × 3
#>    business_name                               owners                                      issue_date
#>    <chr>                                       <chr>                                       <date>    
#>  1 JUNEAU FOOT AND ANKLE CLINIC                FRANK MESDAG                                NA        
#>  2 BRADFORD'S APARTMENTS                       GARY BRADFORD                               NA        
#>  3 KENNETH P EGGERS                            KENNETH EGGERS                              NA        
#>  4 BRECHAN ENTERPRISES INC                     BRECHAN ENTERPRISES INC                     NA        
#>  5 BRICE INC                                   BRICE INC                                   NA        
#>  6 ONEILL PROPERTIES, INC                      O'NEILL PROPERTIES, INC.                    NA        
#>  7 DENTON CIVIL AND MINERAL                    STEPHEN DENTON                              NA        
#>  8 ALASKA SALMON BAKE                          INTRA SEA INC                               NA        
#>  9 BURNS & MCDONNELL ENGINEERING COMPANY, INC. BURNS & MCDONNELL ENGINEERING COMPANY, INC. NA        
#> 10 TIKCHIK NARROWS LODGE INC                   TIKCHIK NARROWS LODGE INC                   NA        
#> # … with 1,710 more rows
```
…
We can also flag any record completely duplicated across every column.

``` r
akl <- flag_dupes(akl, -license_number)
sum(akl$dupe_flag)
#> [1] 198
```

``` r
akl %>% 
  filter(dupe_flag) %>% 
  select(license_number, all_of(key_vars)) %>% 
  arrange(issue_date)
#> # A tibble: 198 × 4
#>    license_number business_name                                  owners                                       issue_date
#>    <chr>          <chr>                                          <chr>                                        <date>    
#>  1 595            ANCHORAGE SAND AND GRAVEL COMPANY, INC.        ANCHORAGE SAND AND GRAVEL COMPANY INC        1996-11-15
#>  2 31932          ANCHORAGE SAND AND GRAVEL COMPANY, INC.        ANCHORAGE SAND AND GRAVEL COMPANY INC        1996-11-15
#>  3 278512         SWISSPORT USA INC                              SWISSPORT USA INC                            2000-09-13
#>  4 278513         SWISSPORT USA INC                              SWISSPORT USA INC                            2000-09-13
#>  5 706685         NUSHAGAK ELECTRIC & TELEPHONE COOPERATIVE, INC NUSHAGAK ELECTRIC & TELEPHONE COOPERATIVE, … 2001-11-30
#>  6 706686         NUSHAGAK ELECTRIC & TELEPHONE COOPERATIVE, INC NUSHAGAK ELECTRIC & TELEPHONE COOPERATIVE, … 2001-11-30
#>  7 706687         NUSHAGAK ELECTRIC & TELEPHONE COOPERATIVE, INC NUSHAGAK ELECTRIC & TELEPHONE COOPERATIVE, … 2001-11-30
#>  8 288565         KINGFISHER CHARTERS AND LODGE, LLC             KINGFISHER CHARTERS & LODGE, LLC             2002-04-12
#>  9 288566         KINGFISHER CHARTERS AND LODGE, LLC             KINGFISHER CHARTERS & LODGE, LLC             2002-04-12
#> 10 721801         NORTH PACIFIC FUEL (CAPTAIN'S BAY)             PETRO STAR INC.                              2004-07-21
#> # … with 188 more rows
```
…
#### Progress

Our goal for normalization was to increase the proportion of city values
known to be valid and reduce the total distinct values by correcting
misspellings.

``` r
many_city <- c(valid_city, extra_city)
akl %>% 
  count(city_refine, sort = TRUE) %>% 
  filter(city_refine %out% many_city)
#> # A tibble: 454 × 2
#>    city_refine      n
#>    <chr>        <int>
#>  1 AK             500
#>  2 JBER           139
#>  3 FRITZ CREEK     62
#>  4 <NA>            60
#>  5 MCCARTHY        49
#>  6 CHICKALOON      34
#>  7 BIRD CREEK      26
#>  8 UTQIAGVIK       26
#>  9 HALIBUT COVE    24
#> 10 EDNA BAY        20
#> # … with 444 more rows
```
…
