…
``` r
raw_info <- dir_info(raw_dir)
as_tibble(raw_info) %>% 
  select(path, size, modification_time) %>% 
  mutate(across(path, path.abbrev))
#> # A tibble: 55 x 3
#>    path                                                     size modification_time  
#>    <chr>                                             <fs::bytes> <dttm>             
#>  1 ~/wy/contracts/data/raw/SearchResults-2016-01.csv        8.4M 2020-07-03 16:21:10
#>  2 ~/wy/contracts/data/raw/SearchResults-2016-02.csv       8.27M 2020-07-03 16:21:48
#>  3 ~/wy/contracts/data/raw/SearchResults-2016-03.csv       8.36M 2020-07-03 16:22:25
#>  4 ~/wy/contracts/data/raw/SearchResults-2016-04.csv       8.62M 2020-07-03 16:23:02
#>  5 ~/wy/contracts/data/raw/SearchResults-2016-05.csv       8.36M 2020-07-03 16:23:40
#>  6 ~/wy/contracts/data/raw/SearchResults-2016-06.csv       9.25M 2020-07-03 16:24:16
#>  7 ~/wy/contracts/data/raw/SearchResults-2016-07.csv       7.93M 2020-07-03 16:24:52
#>  8 ~/wy/contracts/data/raw/SearchResults-2016-08.csv       8.79M 2020-07-03 16:25:29
#>  9 ~/wy/contracts/data/raw/SearchResults-2016-09.csv       7.53M 2020-07-03 16:26:07
#> 10 ~/wy/contracts/data/raw/SearchResults-2016-10.csv       8.65M 2020-07-03 16:26:46
#> # … with 45 more rows
```
…
