…
The same can be done for records entirely duplicated more than once.

``` r
dec <- flag_dupes(dec, everything())
percent(mean(dec$dupe_flag), 0.001)
#> [1] "3.973%"
```

``` r
dec %>% 
  filter(dupe_flag) %>% 
  select(all_of(key_vars)) %>% 
  arrange(date)
#> # A tibble: 1,939 × 4
#>    date       contributor                               amount recipient                           
#>    <date>     <chr>                                      <dbl> <chr>                               
#>  1 2020-10-05 Leslie Schneider                              25 Krista Griffith For Delaware        
#>  2 2020-10-05 Leslie Schneider                              25 Krista Griffith For Delaware        
#>  3 2020-10-05 Mr. David Miller                              25 Friends of Patricia Drago for SCC   
#>  4 2020-10-05 Mr. David Miller                              25 Friends of Patricia Drago for SCC   
#>  5 2020-10-06 Ms. Cynthia D Souza                           20 Delaware Association of Realtors DE…
#>  6 2020-10-06 Mr. Michael Milligan                          35 Delaware Association of Realtors DE…
#>  7 2020-10-06 Mr. Michael Milligan                          35 Delaware Association of Realtors DE…
#>  8 2020-10-06 Ms. Cynthia D Souza                           20 Delaware Association of Realtors DE…
#>  9 2020-10-07 Total of Contributions not exceeding $100    100 Committee to Elect Debbie Harrington
#> 10 2020-10-07 Total of Contributions not exceeding $100    100 Committee to Elect Debbie Harrington
#> # … with 1,929 more rows
```
…
#### Progress

A lot of the remaining invalid cities are really parts of the address.

``` r
many_city <- c(valid_city, extra_city)
many_city <- c(many_city, usps_street$full, usps_street$abb, "DE")
dec %>% 
  filter(city_refine %out% many_city) %>% 
  count(city_refine, sort = TRUE)
#> # A tibble: 70 × 2
#>    city_refine             n
#>    <chr>               <int>
#>  1 <NA>                 3583
#>  2 LONG NECK             100
#>  3 DEWEY BEACH            63
#>  4 LOWER GWYNEDD          24
#>  5 HISTORIC NEW CASTLE    15
#>  6 HENLOPEN ACRES          4
#>  7 REHOBOTH BEACH DE       4
#>  8 TYSONS                  4
#>  9 WILMINGTON MANOR        4
#> 10 BLADES                  3
#> # … with 60 more rows
```
…
