…
We can flag any record missing a key variable needed to identify a
transaction.

``` r
key_vars <- c("date", "contributor", "amount", "contributed_to")
ndc <- flag_na(ndc, all_of(key_vars))
sum(ndc$na_flag)
#> [1] 46
```

``` r
ndc %>% 
  filter(na_flag) %>% 
  select(all_of(key_vars))
#> # A tibble: 46 × 4
#>    date       contributor amount contributed_to                    
#>    <date>     <chr>        <dbl> <chr>                             
#>  1 2019-10-01 <NA>           280 North Dakota Assoc of Realtors PAC
#>  2 2019-10-01 <NA>           224 North Dakota Assoc of Realtors PAC
#>  3 2019-12-01 <NA>          6479 North Dakota Assoc of Realtors PAC
#>  4 2019-09-17 <NA>           250 North Dakota Assoc of Realtors PAC
#>  5 2019-10-01 <NA>          2500 North Dakota Assoc of Realtors PAC
#>  6 2019-11-01 <NA>          1250 North Dakota Assoc of Realtors PAC
#>  7 2019-12-01 <NA>          3660 North Dakota Assoc of Realtors PAC
#>  8 2019-11-01 <NA>          3560 North Dakota Assoc of Realtors PAC
#>  9 2019-11-01 <NA>          1970 North Dakota Assoc of Realtors PAC
#> 10 2019-06-28 <NA>           450 North Dakota Assoc of Realtors PAC
#> # … with 36 more rows
```
…
## Wrangle

To improve the searchability of the database, we will perform some
consistent, confident string normalization. For geographic variables
like city names and ZIP codes, the corresponding `campfin::normal_*()`
functions are tailor made to facilitate this process.

A number of contributions seem to contain the `<br>` HTML tag embedded
in the `zip` column. This appears to be some bug in the back-end. We
need to find these rows and fix the data. These rows also mess up the
`state` value too.

    #> # A tibble: 42 × 4
    #>    street                                           city      state zip                                                 
    #>    <chr>                                            <chr>     <chr> <chr>                                               
    #>  1 114 W Main Ave, Suite C                          Bismarck  Su    te C <br />Bismarck, ND 58501                       
    #>  2 PO Box 897, Bismarck, ND 58502 PO Box 897        Bismarck  Bi    marck, ND 58502 PO Box 897 <br />Bismarck, ND 58502 
    #>  3 4610 Amber Valley Pkwy, Ste E                    Fargo     St    E <br />Fargo, ND 58104                             
    #>  4 PO Box 1147 Fargo, ND 58107 PO Box 1147          Fargo     ND    58107 PO Box 1147 <br />Fargo, ND 58107             
    #>  5 1661 Capitol Way Ste, 102                        Bismarck  10    <br />Bismarck, ND 58501                            
    #>  6 114 W Main Ave, Suite C                          Bismarck  Su    te C <br />Bismarck, ND 58501                       
    #>  7 PO Box 2277, Bismarck, ND 58501-7117 PO Box 2277 Bismarck  Bi    marck, ND 58501-7117 PO Box 2277 <br />Bismarck, ND…
    #>  8 5012 53 St S, Ste G                              Fargo     St    G <br />Fargo, ND 58104                             
    #>  9 269 16th Street West, Suite A                    Dickinson Su    te A <br />Dickinson, ND 58601                      
    #> 10 624 Main Ave, Suite 2B                           Fargo     Su    te 2B <br />Fargo, ND 58102                         
    #> # … with 32 more rows
…
``` r
addr_norm <- ndc %>% 
  distinct(street) %>% 
  mutate(
    street_norm = normal_address(
      address = street,
      abbs = usps_street,
      na_rep = TRUE
    )
  )
```

``` r
addr_norm
#> # A tibble: 8,898 × 2
#>    street                   street_norm             
#>    <chr>                    <chr>                   
#>  1 707 15th Ave E           707 15TH AVE E          
#>  2 4320 Borden Harbor Pl SE 4320 BORDEN HARBOR PL SE
#>  3 PO Box 927               PO BOX 927              
#>  4 P.O. Box 927             PO BOX 927              
#>  5 1215 8th St S            1215 8TH ST S           
#>  6 PO BOX Box 11            PO BOX BOX 11           
#>  7 4318 Trenton Drive       4318 TRENTON DR         
#>  8 1524 University Avenue   1524 UNIVERSITY AVE     
#>  9 101 13th Ave N           101 13TH AVE N          
#> 10 PO Box 303               PO BOX 303              
#> # … with 8,888 more rows
```
…
