…
``` r
pae %>% group_by(expdesc) %>% summarize(total = sum(expamt)) %>% arrange(desc(total))
```

    #> # A tibble: 147,548 × 2
    #>    expdesc                                                                           total
    #>    <chr>                                                                             <dbl>
    #>  1 <NA>                                                                         885585008.
    #>  2 POSTAGE                                                                      525768975.
    #>  3 Contribution                                                                 248892109.
    #>  4 Unitemized Expenditures                                                      210584211.
    #>  5 CONTRIBUTION                                                                 207431001.
    #>  6 Non PA Disbursements                                                         163777826.
    #>  7 DONATION                                                                     130424591.
    #>  8 See FEC report at https://www.fec.gov/data/committee/C00042366/? tab=filings 114236099.
    #>  9 NON-PENNSYLVANIA EXPENDITURES                                                109614808.
    #> 10 See FEC report at https://www.fec.gov/data/committee/C00042366/?tab=filings   57998962.
    #> # … with 147,538 more rows
…
``` r
norm_addr
```

    #> # A tibble: 193,306 × 3
    #>    exp_addr1     exp_addr2 exp_addr_norm
    #>    <chr>         <chr>     <chr>        
    #>  1 <NA>          <NA>      <NA>         
    #>  2 PO Box 412    <NA>      PO BOX 412   
    #>  3 PO Box 441146 <NA>      PO BOX 441146
    #>  4 366 Summer St <NA>      366 SUMMER ST
    #>  5 PO Box 792    <NA>      PO BOX 792   
    #>  6 1 Hacker Way  <NA>      1 HACKER WAY 
    #>  7 1 HACKER WAY  <NA>      1 HACKER WAY 
    #>  8 PO Box 624    <NA>      PO BOX 624   
    #>  9 P.O. Box 412  <NA>      PO BOX 412   
    #> 10 PO BOX 441146 <NA>      PO BOX 441146
    #> # … with 193,296 more rows
…
``` r
norm_addr
```

    #> # A tibble: 8,020 × 3
    #>    fil_addr1                        fil_addr2             fil_addr_norm                            
    #>    <chr>                            <chr>                 <chr>                                    
    #>  1 "PO Box 22635"                   <NA>                  PO BOX 22635                             
    #>  2 "112 STATE STREET"               <NA>                  112 STATE ST                             
    #>  3 "815 16th St. NW"                <NA>                  815 16TH ST NW                           
    #>  4 "146 DYERS STONE DRIVE"          <NA>                  146 DYERS STONE DR                       
    #>  5 "2791 SOUTHAMPTON ROAD         " <NA>                  2791 SOUTHAMPTON RD                      
    #>  6 "PO Box 476"                     <NA>                  PO BOX 476                               
    #>  7 "1719 Spring Garden Street"      <NA>                  1719 SPRING GARDEN ST                    
    #>  8 "229 State St"                   <NA>                  229 STATE ST                             
    #>  9 "500 N. THIRD STREET 4TH FLOOR"  P.O. BOX 11787        500 N THIRD STREET 4TH FLOOR PO BOX 11787
    #> 10 "C/O TREAS: Joseph Ashdale"      2980 SOUTHAMPTON ROAD C/O TREAS JOSEPH ASHDALE 2980 SOUTHAMPTO…
    #> # … with 8,010 more rows
…
      key_collision_merge() %>% 
      n_gram_merge(numgram = 1)
  ) %>% 
  filter(exp_city_refine != exp_city_swap) %>% 
  inner_join(
    y = zipcodes,
    by = c(
      "exp_city_refine" = "city",
      "exp_state" = "state",
      "exp_zip_norm" = "zip"
    )
  )
```

    #> # A tibble: 142 × 5
    #>    exp_state exp_zip_norm exp_city_swap exp_city_refine     n
    #>    <chr>     <chr>        <chr>         <chr>           <int>
    #>  1 CA        94103        SAN FRANSICO  SAN FRANCISCO       2
    #>  2 CA        94110        SAN FRANSICO  SAN FRANCISCO       2
    #>  3 DE        19886        WILLIMINGTON  WILMINGTON          2
    #>  4 OH        45249        CINCINATTI    CINCINNATI          2
    #>  5 OH        45274        CINCINATTI    CINCINNATI          2
    #>  6 PA        15136        MC KEES ROCK  MCKEES ROCKS        2
    #>  7 PA        17110        HARRISBURGURG HARRISBURG          2
    #>  8 PA        19444        LAYFETTE HILL LAFAYETTE HILL      2
    #>  9 CA        94025        MELENO PARK   MENLO PARK          1
    #> 10 CA        94043        MOUTAINVEIW   MOUNTAIN VIEW       1
    #> # … with 132 more rows
…
