…
``` r
delr %>% 
  select(starts_with("lob_address")) %>% 
  distinct() %>% 
  sample_frac()
#> # A tibble: 574 × 2
#>    lob_address                          lob_address_norm                    
#>    <chr>                                <chr>                               
#>  1 1704 N. Park Drive 317               1704 N PARK DRIVE 317               
#>  2 1502 Delaware Avenue apartment 4     1502 DELAWARE AVENUE APARTMENT 4    
#>  3 1 North Trail                        1 NORTH TRL                         
#>  4 601 New Jersey Ave. Suite 850        601 NEW JERSEY AVE SUITE 850        
#>  5 901 N. Glebe Road #1000              901 N GLEBE ROAD #1000              
#>  6 601 New Jersey Avenue NW Suite 900   601 NEW JERSEY AVENUE NW SUITE 900  
#>  7 409 7th St NW Suite 350              409 7TH ST NW SUITE 350             
#>  8 100 West Commons Boulevard Suite 415 100 WEST COMMONS BOULEVARD SUITE 415
#>  9 One Main Street Unit 700             ONE MAIN STREET UNIT 700            
#> 10 c/o 2350 Kerner Blvd. Suite 250      C/O 2350 KERNER BLVD SUITE 250      
#> # … with 564 more rows
```
…
``` r
select(delr, contains("state")) %>% 
  distinct() %>% 
  sample_frac()
#> # A tibble: 134 × 4
#>    emp_state lob_state emp_state_norm lob_state_norm
#>    <chr>     <chr>     <chr>          <chr>         
#>  1 OR        NC        OR             NC            
#>  2 FL        FL        FL             FL            
#>  3 UT        DE        UT             DE            
#>  4 MA        FL        MA             FL            
#>  5 MD        MD        MD             MD            
#>  6 MO        DE        MO             DE            
#>  7 NV        DE        NV             DE            
#>  8 DC        VT        DC             VT            
#>  9 DC        GA        DC             GA            
#> 10 VA        MD        VA             MD            
#> # … with 124 more rows
```
…
