…
``` r
raw_info <- dir_info(raw_dir)
sum(raw_info$size)
#> 103M
raw_info %>% 
  select(path, size, modification_time) %>% 
  mutate(across(path, basename))
#> # A tibble: 125 x 3
#>    path                       size modification_time  
#>    <chr>               <fs::bytes> <dttm>             
#>  1 ky-con_2011-Apr.csv        620K 2021-05-10 11:19:29
#>  2 ky-con_2011-Aug.csv        873K 2021-05-10 11:20:46
#>  3 ky-con_2011-Dec.csv        361K 2021-05-10 11:22:10
#>  4 ky-con_2011-Feb.csv        197K 2021-05-10 11:18:54
#>  5 ky-con_2011-Jan.csv        136K 2021-05-10 11:18:40
#>  6 ky-con_2011-Jul.csv        655K 2021-05-10 11:20:26
#>  7 ky-con_2011-Jun.csv        860K 2021-05-10 11:20:08
#>  8 ky-con_2011-Mar.csv        592K 2021-05-10 11:19:10
#>  9 ky-con_2011-May.csv        564K 2021-05-10 11:19:49
#> 10 ky-con_2011-Nov.csv        431K 2021-05-10 11:21:46
#> # … with 115 more rows
```
…
`percent(mean(kyc$dupe_flag))` of all records are duplicates.

``` r
kyc %>% 
  filter(dupe_flag) %>% 
  select(
    contributor_last_name, recipient_last_name, 
    amount, election_date, address1
  ) %>% 
  arrange(contributor_last_name)
#> # A tibble: 104,113 x 5
#>    contributor_last_name recipient_last_name amount election_date address1                     
#>    <chr>                 <chr>                <dbl> <date>        <chr>                        
#>  1 AARON                 <NA>                   100 NA            1501 HELMRIDGE CT.           
#>  2 AARON                 <NA>                   100 NA            1501 HELMRIDGE CT.           
#>  3 Abaray                <NA>                    40 NA            9418 Norton Commons Blvd #200
#>  4 Abaray                <NA>                    40 NA            9418 Norton Commons Blvd #200
#>  5 Abaray                <NA>                    40 NA            9418 Norton Commons Blvd #200
#>  6 Abaray                <NA>                    40 NA            9418 Norton Commons Blvd #200
#>  7 Abaray                <NA>                    40 NA            9418 Norton Commons Blvd #200
#>  8 Abaray                <NA>                    40 NA            9418 Norton Commons Blvd #200
#>  9 Abaray                <NA>                    40 NA            9418 Norton Commons Blvd #200
#> 10 Abaray                <NA>                    40 NA            9418 Norton Commons Blvd #200
#> # … with 104,103 more rows
```
…
      key_collision_merge() %>% 
      n_gram_merge(numgram = 1)
  ) %>% 
  filter(city_refine != city_swap) %>% 
  inner_join(
    y = zipcodes,
    by = c(
      "city_refine" = "city",
      "state_norm" = "state",
      "zip_norm" = "zip"
    )
  )
```

    #> # A tibble: 130 x 5
    #>    state_norm zip_norm city_swap      city_refine      n
    #>    <chr>      <chr>    <chr>          <chr>        <int>
    #>  1 KY         40601    FRANKFORTKFORT FRANKFORT       16
    #>  2 KY         40602    FRANKFORTKFORT FRANKFORT       11
    #>  3 KY         42003    PAUDUACH       PADUCAH         11
    #>  4 KY         41129    CATTLESBURG    CATLETTSBURG    10
    #>  5 KY         42301    OWENSOBOR      OWENSBORO       10
    #>  6 KY         40056    PEE WEE VALLEY PEWEE VALLEY     7
    #>  7 OH         45255    CINCINATTI     CINCINNATI       7
    #>  8 KY         40511    LEXINGTONTON   LEXINGTON        6
    #>  9 KY         40601    FRANKFORTRT    FRANKFORT        5
    #> 10 OH         45202    CINCINATTI     CINCINNATI       5
    #> # … with 120 more rows
…
## Export

Now the file can be saved on disk for upload to the Accountability
server.

``` r
clean_dir <- dir_create(here("ky", "contribs", "data", "clean"))
clean_path <- path(clean_dir, "ky_contribs_clean.csv")
write_csv(kyc, clean_path, na = "")
(clean_size <- file_size(clean_path))
#> 93.8M
non_ascii(clean_path)
#> # A tibble: 89 x 2
#>       row line                                                                                                          
#>     <int> <chr>                                                                                                         
#>  1 300830 ",,PEACH,LEN<c3><89>E,BESHEAR,ANDREW,SLATE,STATEWIDE,2019-05-21,PRIMARY,FALSE,,4686 VERSAILLES RD,,FRANKFORT,…
#>  2 316504 "\"BUILDING INDUSTRY ASSOCIATION OF GREATER LOUISVILLE, PAC\",,NA<c3><8f>VE,JENNIFER,,,,,,,FALSE,,7803 ROLLIN…
#>  3 316572 "\"BUILDING INDUSTRY ASSOCIATION OF GREATER LOUISVILLE, PAC\",,NA<c3><8f>VE,JENNIFER,,,,,,,FALSE,,7803 ROLLIN…
#>  4 341369 ",,PEACH,LEN<c3><89>E,BESHEAR,ANDREW,SLATE,STATEWIDE,2019-11-05,GENERAL,FALSE,,4686 VERSAILLES RD,,FRANKFORT,…
#>  5 360280 "\"BUILDING INDUSTRY ASSOCIATION OF GREATER LOUISVILLE, PAC\",,NA<c3><8f>VE,JENNIFER,,,,,,,FALSE,,7803 ROLLIN…
#>  6 360296 "\"BUILDING INDUSTRY ASSOCIATION OF GREATER LOUISVILLE, PAC\",,NA<c3><8f>VE,JENNIFER,,,,,,,FALSE,,7803 ROLLIN…
#>  7 365246 ",,HAAS,ERIC,Bevin,Matt,SLATE,STATEWIDE,2019-11-05,GENERAL,FALSE,,42 STARDUST PT,,FORT THOMAS,KY,410750000,50…
#>  8 368411 "\"KENTUCKY LAND TITLE ASSOCIATION, PAC\",,Mitchell,Jeremy,,,,,,,FALSE,,5670 Old Richmond Rd<c2><a0>,,Lexingt…
#>  9 369254 ",,Laughlin,Joshua,REILLY,SHAWN,LEGISLATIVE COUNCIL - EVEN,JEFFERSON-DIST 8,2020-05-19,PRIMARY,FALSE,,1622 Ro…
#> 10 369925 ",Kentucky Distiller<e2><80><99>s Association Bourbon Trail,,,Westrom,Susan,STATE REPRESENTATIVE,79TH DISTRIC…
#> # … with 79 more rows
```
…
