…
We will now similarly look at the frequency tables of the observations.

    df %>%
      count(PaymentOrder_Prefix) %>%
      arrange(desc(n))

    ## # A tibble: 178 x 2
    ##    PaymentOrder_Prefix     n
    ##    <chr>               <int>
    ##  1 DEP                  5343
    ##  2 DOH                  5301
    ##  3 SWC                  4469
    ##  4 DOT                  2386
    ##  5 GSD                  2085
    ##  6 DNR                  1951
    ##  7 FLT                  1063
    ##  8 DPS                  1027
    ##  9 HHR                   890
    ## 10 COR                   792
    ## # ... with 168 more rows

    df %>%
      count(PaymentOrder_SplitOrder) %>%
      arrange(desc(n))

    ## # A tibble: 172 x 2
    ##    PaymentOrder_SplitOrder     n
    ##    <chr>                   <int>
    ##  1 <NA>                    32797
    ##  2 A                        2547
    ##  3 B                        1303
    ##  4 C                         839
    ##  5 D                         526
    ##  6 E                         435
    ##  7 F                         321
    ##  8 G                         242
    ##  9 H                         201
    ## 10 I                         177
    ## # ... with 162 more rows

    df %>%
      count(DepartmentAbbreviation) %>%
      arrange(desc(n))

    ## # A tibble: 38 x 2
    ##    DepartmentAbbreviation     n
    ##    <chr>                  <int>
    ##  1 DOT                     8945
    ##  2 DOE                     5342
    ##  3 DHHR                    5271
    ##  4 DOA                     4690
    ##  5 MAPS                    4629
    ##  6 SWC                     4564
    ##  7 DOC                     2836
    ##  8 ELJ                     1641
    ##  9 DOR                     1594
    ## 10 E&A                      965
    ## # ... with 28 more rows
…
