…
``` r
key_vars <- c("date", "last", "amount", "filer")
akc <- flag_na(akc, all_of(key_vars))
sum(akc$na_flag)
#> [1] 52
```

All of these missing key values are the `last` name of the contributor.

``` r
akc %>% 
  filter(na_flag) %>% 
  select(all_of(key_vars)) %>% 
  sample_frac()
#> # A tibble: 52 x 4
#>    date       last   amount filer             
#>    <date>     <chr>   <dbl> <chr>             
#>  1 2012-02-08 <NA>  1500    Anchorage Tomorrow
#>  2 2019-11-08 <NA>     8.78 Local367PAC       
#>  3 2012-03-05 <NA>   500    Anchorage Tomorrow
#>  4 2012-03-01 <NA>  2500    Anchorage Tomorrow
#>  5 2019-09-10 <NA>     9.07 Local367PAC       
#>  6 2012-10-15 <NA>   100    Chris Tuck        
#>  7 2015-12-18 <NA>    25    MAT-SU DEMOCRATS  
#>  8 2012-02-15 <NA>   250    Anchorage Tomorrow
#>  9 2012-03-19 <NA>   500    Anchorage Tomorrow
#> 10 2012-02-08 <NA>  1000    Anchorage Tomorrow
#> # … with 42 more rows
```
…
``` r
d1 <- duplicated(akc[, -1], fromLast = TRUE)
d2 <- duplicated(akc[, -1], fromLast = FALSE)
akc <- mutate(akc, dupe_flag = (d1 | d2))
percent(mean(akc$dupe_flag), 0.1)
#> [1] "11.5%"
rm(d1, d2); flush_memory()
```

``` r
akc %>% 
  filter(dupe_flag) %>% 
  select(id, all_of(key_vars))
#> # A tibble: 162,812 x 5
#>    id    date       last                       amount filer                               
#>    <chr> <date>     <chr>                       <dbl> <chr>                               
#>  1 43    2011-09-23 Moore                       500   AK Sea Pilot PAC Fund               
#>  2 44    2011-09-23 Moore                       500   AK Sea Pilot PAC Fund               
#>  3 565   2011-11-10 Wisniewski                   20   Alaska Democratic Labor Caucus      
#>  4 566   2011-11-10 Wisniewski                   20   Alaska Democratic Labor Caucus      
#>  5 63    2012-06-01 Walker                       25   Senate Democratic Campaign Committee
#>  6 64    2012-06-01 Walker                       25   Senate Democratic Campaign Committee
#>  7 221   2012-01-12 Hume                        100   Friends of the Interior             
#>  8 299   2012-01-12 Hume                        100   Friends of the Interior             
#>  9 496   2011-01-31 First National Bank Alaska    0.3 ABC Alaska PAC                      
#> 10 497   2011-02-28 First National Bank Alaska    0.3 ABC Alaska PAC                      
#> # … with 162,802 more rows
```
…
There are only 9,006 values, which is an order of magnitude less than we
might expect from a distribution of values from a dataset of this size.

In fact, more than half of all `amount` values are $2, $5, $50, $100, or
$500 dollars even.

``` r
akc %>% 
  count(amount, sort = TRUE) %>% 
  add_prop(sum = TRUE)
#> # A tibble: 9,006 x 3
#>    amount      n     p
#>     <dbl>  <int> <dbl>
#>  1      5 263486 0.187
#>  2    100 152499 0.295
#>  3      2 149593 0.401
#>  4     50  82849 0.459
#>  5    500  70916 0.510
#>  6     10  68211 0.558
#>  7    250  46533 0.591
#>  8     25  40367 0.620
#>  9    200  32083 0.642
#> 10     20  29572 0.663
#> # … with 8,996 more rows
```
…
``` r
akc %>% 
  filter(state != state_norm) %>% 
  count(state, state_norm, sort = TRUE)
#> # A tibble: 71 x 3
#>    state                state_norm       n
#>    <chr>                <chr>        <int>
#>  1 Alaska               AK         1360861
#>  2 Washington           WA            9220
#>  3 California           CA            5731
#>  4 Texas                TX            3469
#>  5 Oregon               OR            3001
#>  6 Arizona              AZ            2206
#>  7 New York             NY            1995
#>  8 Florida              FL            1837
#>  9 Colorado             CO            1616
#> 10 District of Columbia DC            1313
#> # … with 61 more rows
```
…
      key_collision_merge() %>% 
      n_gram_merge(numgram = 1)
  ) %>% 
  filter(city_refine != city_swap) %>% 
  inner_join(
    y = zipcodes,
    by = c(
      "city_refine" = "city",
      "state_norm" = "state",
      "zip_norm" = "zip"
    )
  )
```

    #> # A tibble: 29 x 5
    #>    state_norm zip_norm city_swap         city_refine      n
    #>    <chr>      <chr>    <chr>             <chr>        <int>
    #>  1 AK         99929    WRANGLER          WRANGELL        22
    #>  2 AK         99577    EAGLE RIVER ER    EAGLE RIVER      8
    #>  3 AK         99676    TALKENNTNA        TALKEETNA        7
    #>  4 AK         99801    JUNUEA            JUNEAU           5
    #>  5 AK         99639    NILICHIK          NINILCHIK        4
    #>  6 NV         89060    PARUMPH           PAHRUMP          4
    #>  7 AK         99676    TALLLKETNA        TALKEETNA        3
    #>  8 AR         72701    FAYETTEVILLEVILLE FAYETTEVILLE     3
    #>  9 TX         76262    RONAOAKE          ROANOKE          3
    #> 10 TX         76262    RONOAKE           ROANOKE          3
    #> # … with 19 more rows
…
