…
``` r
d1 <- duplicated(akc[, -1], fromLast = TRUE)
d2 <- duplicated(akc[, -1], fromLast = FALSE)
akc <- mutate(akc, dupe_flag = (d1 | d2))
percent(mean(akc$dupe_flag), 0.1)
#> [1] "14.1%"
rm(d1, d2); flush_memory()
```

``` r
akc %>% 
  filter(dupe_flag) %>% 
  select(id, all_of(key_vars))
#> # A tibble: 3,881 x 5
#>    id    date       last                                              amount filer                 
#>    <chr> <date>     <chr>                                              <dbl> <chr>                 
#>  1 571   2020-10-02 Mulder                                              1000 Alaska Republican Par…
#>  2 572   2020-10-02 Mulder                                              1000 Alaska Republican Par…
#>  3 630   2020-10-17 Anchorage Police Department Employees Association   1000 James Allen Canitz, Sr
#>  4 645   2020-10-17 Anchorage Police Department Employees Association   1000 James Allen Canitz, Sr
#>  5 989   2020-10-02 Marathon Alaska PAC                                  250 Christopher Kurka     
#>  6 990   2020-10-01 McCabe                                               100 Christopher Kurka     
#>  7 1013  2020-10-01 McCabe                                               100 Christopher Kurka     
#>  8 1014  2020-10-02 Marathon Alaska PAC                                  250 Christopher Kurka     
#>  9 1041  2020-10-01 Albright                                              19 IAFF Local 1264 PAC   
#> 10 1042  2020-10-01 Albright                                              19 IAFF Local 1264 PAC   
#> # … with 3,871 more rows
```
…
There are only 2,254 values, which is an order of magnitude less than we
might expect from a distribution of values from a dataset of this size.

In fact, more than half of all `amount` values are $2, $5, $50, $100, or
$500 dollars even.

``` r
akc %>% 
  count(amount, sort = TRUE) %>% 
  add_prop(sum = TRUE)
#> # A tibble: 2,254 x 3
#>    amount     n     p
#>     <dbl> <int> <dbl>
#>  1      5  6272 0.227
#>  2      2  3730 0.362
#>  3    100  2176 0.441
#>  4     10  1359 0.491
#>  5     50  1208 0.534
#>  6     25   802 0.563
#>  7    500   788 0.592
#>  8    250   593 0.613
#>  9      1   407 0.628
#> 10    200   361 0.641
#> # … with 2,244 more rows
```
…
``` r
akc %>% 
  filter(state != state_norm) %>% 
  count(state, state_norm, sort = TRUE)
#> # A tibble: 47 x 3
#>    state                state_norm     n
#>    <chr>                <chr>      <int>
#>  1 Alaska               AK         26588
#>  2 Washington           WA           158
#>  3 California           CA           147
#>  4 New York             NY            82
#>  5 Texas                TX            52
#>  6 District of Columbia DC            50
#>  7 Florida              FL            49
#>  8 Arizona              AZ            48
#>  9 Colorado             CO            48
#> 10 Oregon               OR            33
#> # … with 37 more rows
```
…
