…
``` r
lac <- lac %>% flag_na(contributor_name, contributor_city,contributor_addr1)
sum(lac$na_flag)
#> [1] 8018
```

``` r
lac %>% 
  filter(na_flag) %>% 
  select(contributor_name, contributor_city,contributor_addr1)
#> # A tibble: 8,018 x 3
#>    contributor_name            contributor_city contributor_addr1
#>    <chr>                       <chr>            <chr>            
#>  1 CHEVRON PHILLIPS CHEM CO LP Houston          <NA>             
#>  2 BBI                         <NA>             <NA>             
#>  3 LARRY MORAN CONSTRUCTION    Gonzales         <NA>             
#>  4 EVE MCMULLIN                <NA>             <NA>             
#>  5 DE GAULLE PROPERTIES        METAIRIE         <NA>             
#>  6 PSI PAC                     <NA>             <NA>             
#>  7 JOHN F STUMPF, JR           <NA>             <NA>             
#>  8 HIGH HORIZONS INC           <NA>             <NA>             
#>  9 JULIE STAFFORD              <NA>             <NA>             
#> 10 RIC SMITH                   METAIRIE         <NA>             
#> # … with 8,008 more rows
```

### Duplicates

``` r
lac <- flag_dupes(lac,dplyr::everything())
sum(lac$dupe_flag)
#> [1] 211357
```

``` r
lac %>% 
  filter(dupe_flag)
#> # A tibble: 211,357 x 17
#>    filer_last_name filer_first_name report_code report_type report_number contributor_name
#>    <chr>           <chr>            <chr>       <chr>       <chr>         <chr>           
#>  1 Baker           Pam              F102        SUP         LA-34442      POWERS HIGHTOWE…
#>  2 Baker           Pam              F102        SUP         LA-34442      POWERS HIGHTOWE…
#>  3 Blossman        Jay              F102        SUP         LA-16746      SCOTT DOYLE     
#>  4 Blossman        Jay              F102        SUP         LA-16746      SCOTT DOYLE     
#>  5 Broussard       Aaron            F102        SUP         LA-16666      LMAD INC. DBA S…
#>  6 Broussard       Aaron            F102        SUP         LA-16666      LMAD INC. DBA S…
#>  7 Buras           Camille          F102        90P         LA-14992      TULANE AVE LAW …
#>  8 Buras           Camille          F102        90P         LA-14992      TULANE AVE LAW …
#>  9 Buras           Camille          F102        90P         LA-14992      MARTIN E. REAGA…
#> 10 Buras           Camille          F102        90P         LA-14992      MARTIN E. REAGA…
#> # … with 211,347 more rows, and 11 more variables: contributor_addr1 <chr>,
#> #   contributor_addr2 <chr>, contributor_city <chr>, contributor_state <chr>,
#> #   contributor_zip <chr>, contribution_type <chr>, contribution_description <chr>,
#> #   contribution_date <date>, contribution_amt <chr>, na_flag <lgl>, dupe_flag <lgl>
```
…
      key_collision_merge() %>% 
      n_gram_merge(numgram = 1)
  ) %>% 
  filter(contributor_city_refine != contributor_city_swap) %>% 
  inner_join(
    y = zipcodes,
    by = c(
      "contributor_city_refine" = "city",
      "contributor_state_norm" = "state",
      "contributor_zip_norm" = "zip"
    )
  )
```

    #> # A tibble: 161 x 5
    #>    contributor_state_norm contributor_zip_norm contributor_city_swap contributor_city_refine     n
    #>    <chr>                  <chr>                <chr>                 <chr>                   <int>
    #>  1 LA                     70508                LAFAYETTE LA          LAFAYETTE                  99
    #>  2 LA                     70611                LAKE CHARLES LA       LAKE CHARLES               81
    #>  3 LA                     70427                BOGALUSA LA           BOGALUSA                   77
    #>  4 LA                     70448                MANDEVILLE LA         MANDEVILLE                 56
    #>  5 LA                     70506                LAFAYETTE LA          LAFAYETTE                  17
    #>  6 LA                     70503                LAFAYETTE LA          LAFAYETTE                  15
    #>  7 LA                     70570                OPELOUSAS LA          OPELOUSAS                  15
    #>  8 LA                     70068                LAPALCE               LA PLACE                   10
    #>  9 LA                     71325                CHEYNEVILLE           CHENEYVILLE                 9
    #> 10 LA                     70001                METIAIRE              METAIRIE                    8
    #> # … with 151 more rows
…
