…
``` r
ia %>% 
  select(
    address_line_1,
    address_line_2,
    address_norm
  ) %>% 
  sample_frac()
```

    #> # A tibble: 411,410 x 3
    #>    address_line_1     address_line_2 address_norm       
    #>    <chr>              <chr>          <chr>              
    #>  1 20 East 5th Street <NA>           20 EAST 5TH STREET 
    #>  2 105 So. Birch      <NA>           105 SO BIRCH       
    #>  3 717 7th St.        <NA>           717 7TH STREET     
    #>  4 40 Kings Way 401A  <NA>           40 KINGS WAY 401A  
    #>  5 201 S Locust St    <NA>           201 S LOCUST STREET
    #>  6 P.O. Box 382110    <NA>           PO BOX 382110      
    #>  7 429 Clarke Drive   <NA>           429 CLARKE DRIVE   
    #>  8 P.O. Box 279       <NA>           PO BOX 279         
    #>  9 P.O. Box 45950     <NA>           PO BOX 45950       
    #> 10 460 summit         <NA>           460 SUMMIT         
    #> # … with 411,400 more rows
…
``` r
ia %>% 
  filter(city_norm %out% geo$city) %>% 
  count(state_norm, city, city_norm, sort = TRUE)
```

    #> # A tibble: 1,129 x 4
    #>    state_norm city            city_norm           n
    #>    <chr>      <chr>           <chr>           <int>
    #>  1 IA         LeMars          LEMARS            678
    #>  2 <NA>       <NA>            <NA>              644
    #>  3 IA         NA              <NA>              616
    #>  4 IA         n/a             <NA>              444
    #>  5 IA         Hiawtha         HIAWTHA           392
    #>  6 <NA>       NA              <NA>              300
    #>  7 MA         West Somerville WEST SOMERVILLE   258
    #>  8 MA         Sommerville     SOMMERVILLE       242
    #>  9 <NA>       ---             <NA>              228
    #> 10 <NA>       --              <NA>              217
    #> # … with 1,119 more rows
…
