…
There are a number of records that could potentially be duplicates of
one another. Much of them have an `amount` value of zero, so they might
not be true duplicates. We can flag them nonetheless.

``` r
hhs <- flag_dupes(hhs, -key)
sum(hhs$dupe_flag)
#> [1] 3369
```

``` r
hhs %>% 
  filter(dupe_flag) %>% 
  select(date, agency, amount, recipient)
#> # A tibble: 3,369 x 4
#>    date       agency                                       amount recipient                        
#>    <date>     <chr>                                         <dbl> <chr>                            
#>  1 2008-09-30 DEPARTMENT OF HEALTH AND HUMAN SERVICES (HH…      0 ADVERTISING IDEAS, INC           
#>  2 2008-09-30 DEPARTMENT OF HEALTH AND HUMAN SERVICES (HH…      0 UNIFIRST CORPORATION             
#>  3 2008-09-30 DEPARTMENT OF HEALTH AND HUMAN SERVICES (HH…      0 ADVERTISING IDEAS, INC           
#>  4 2008-09-30 DEPARTMENT OF HEALTH AND HUMAN SERVICES (HH…      0 EN POINTE TECHNOLOGIES INCORPORA…
#>  5 2008-09-30 DEPARTMENT OF HEALTH AND HUMAN SERVICES (HH…      0 MATHESON TRI-GAS, INC            
#>  6 2008-09-30 DEPARTMENT OF HEALTH AND HUMAN SERVICES (HH…      0 INX INC                          
#>  7 2008-09-30 DEPARTMENT OF HEALTH AND HUMAN SERVICES (HH…      0 EN POINTE TECHNOLOGIES INCORPORA…
#>  8 2008-09-30 DEPARTMENT OF HEALTH AND HUMAN SERVICES (HH…      0 INX INC                          
#>  9 2008-09-30 DEPARTMENT OF HEALTH AND HUMAN SERVICES (HH…      0 MATHESON TRI-GAS, INC            
#> 10 2008-09-30 DEPARTMENT OF HEALTH AND HUMAN SERVICES (HH…      0 UNIFIRST CORPORATION             
#> # … with 3,359 more rows
```
…
