…
``` r
tn <- mutate(tn, year = year(date_fix))
```

``` r
count(tn, year)
#> # A tibble: 39 x 2
#>     year     n
#>    <dbl> <int>
#>  1    20     3
#>  2    69     1
#>  3  1008     1
#>  4  1012     1
#>  5  2000     4
#>  6  2001    11
#>  7  2003     1
#>  8  2004     5
#>  9  2005     3
#> 10  2006     7
#> # … with 29 more rows
```
…
    into = c(glue("addr_split{1:5}"), "city_sep", "state_sep", "zip_sep"),
    sep = ",\\s",
    remove = FALSE,
    fill = "left"
  ) %>%
  unite(
    starts_with("addr_split"),
    col = "address_sep",
    sep = " ",
    na.rm = TRUE
  ) %>% 
  mutate_at(vars(ends_with("sep")), str_trim)
```

    #> # A tibble: 23,983 x 5
    #>    vendor_address                              address_sep            city_sep  state_sep zip_sep  
    #>    <chr>                                       <chr>                  <chr>     <chr>     <chr>    
    #>  1 HQ, MENLO PARK , CA, 94025                  HQ                     MENLO PA… CA        94025    
    #>  2 103 SUBURBAN RD, KNOXVILLE , TN, 37923      103 SUBURBAN RD        KNOXVILLE TN        37923    
    #>  3 109332 MURDOCK ROAD, KNOXVILLE , TN, 37932  109332 MURDOCK ROAD    KNOXVILLE TN        37932    
    #>  4 ONE TERMINAL DRIVE, NASHVILLE , TN, 37214   ONE TERMINAL DRIVE     NASHVILLE TN        37214    
    #>  5 1901 LINDELL AVE, NASHVILLE , TN, 37203-55… 1901 LINDELL AVE       NASHVILLE TN        37203-55…
    #>  6 12103 BUTTERNUT CIRCLE, KNOXVILLE , TN, 37… 12103 BUTTERNUT CIRCLE KNOXVILLE TN        37934    
    #>  7 607 MARLBORO, EAST RIDGE , TN, 37412        607 MARLBORO           EAST RID… TN        37412    
    #>  8 227 W DEPOT AVE, KNOXVILLE , TN, 37917      227 W DEPOT AVE        KNOXVILLE TN        37917    
    #>  9 214 MASSACHUSETTS AVE NE , WASHINGTON , DC… 214 MASSACHUSETTS AVE… WASHINGT… DC        20002    
    #> 10 10 CAMPBELL RD., MADISON , TN, 37115        10 CAMPBELL RD.        MADISON   TN        37115    
    #> # … with 23,973 more rows
…
``` r
tn %>% 
  select(starts_with("address")) %>%
  distinct() %>% 
  sample_frac()
#> # A tibble: 22,302 x 2
#>    address_sep               address_norm                        
#>    <chr>                     <chr>                               
#>  1 172 HORN SPRINGS ROAD     172 HORN SPRINGS ROAD               
#>  2 156 W MAIN ST             156 WEST MAIN STREET                
#>  3 90 WHITE BRIDGE ROAD      90 WHITE BRIDGE ROAD                
#>  4 6708 AMANDA WAY           6708 AMANDA WAY                     
#>  5 426 C STREET NE REAR BLDG 426 C STREET NORTHEAST REAR BUILDING
#>  6 250 5TH AVE SOUTH         250 5TH AVENUE SOUTH                
#>  7 COUNTRY CLUB RD           COUNTRY CLUB ROAD                   
#>  8 1306 W. G STREET          1306 WEST G STREET                  
#>  9 2263 YOUNG AVE #211       2263 YOUNG AVENUE 211               
#> 10 305 EAST SPRING ST.       305 EAST SPRING STREET              
#> # … with 22,292 more rows
```
…
``` r
tn %>% 
  select(starts_with("zip")) %>% 
  filter(zip_sep != zip_norm) %>% 
  distinct() %>% 
  sample_frac()
#> # A tibble: 538 x 2
#>    zip_sep    zip_norm
#>    <chr>      <chr>   
#>  1 37132-0001 37132   
#>  2 02144-3132 02144   
#>  3 84115-4111 84115   
#>  4 37215-2622 37215   
#>  5 45271-2144 45271   
#>  6 37371-1642 37371   
#>  7 37027-4228 37027   
#>  8 37203-5038 37203   
#>  9 37206-2752 37206   
#> 10 75265-0575 75265   
#> # … with 528 more rows
```
…
## State

``` r
tn %>% 
  drop_na(state_sep) %>% 
  filter(state_sep %out% valid_state) %>% 
  count(state_sep, sort = TRUE)
#> # A tibble: 52 x 2
#>    state_sep      n
#>    <chr>      <int>
#>  1 NASHVILLE     17
#>  2 IR            13
#>  3 MEMPHIS        6
#>  4 KNOXVILLE      5
#>  5 BC             3
#>  6 CD             3
#>  7 ON             3
#>  8 OP             3
#>  9 SMYRNA         3
#> 10 WASHINGTON     3
#> # … with 42 more rows
```
…
