…
      key_collision_merge() %>% 
      n_gram_merge(numgram = 1)
  ) %>% 
  filter(city_refine != city_swap) %>% 
  inner_join(
    y = zipcodes,
    by = c(
      "city_refine" = "city",
      "state_norm" = "state",
      "zip_norm" = "zip"
    )
  )
```

    #> # A tibble: 502 x 5
    #>    state_norm zip_norm city_swap       city_refine        n
    #>    <chr>      <chr>    <chr>           <chr>          <int>
    #>  1 MI         48177    SAMIARA         SAMARIA          107
    #>  2 OH         45239    CINCINATTI      CINCINNATI       101
    #>  3 OH         44094    WILLOUGHBY HI   WILLOUGHBY        98
    #>  4 OH         45245    CINCINATTI      CINCINNATI        61
    #>  5 OH         44094    WILLOUGHBY HILL WILLOUGHBY        48
    #>  6 NY         11733    SETAUKET        EAST SETAUKET     42
    #>  7 OH         44721    NO CANTON       CANTON            33
    #>  8 OH         43334    MERANGO         MARENGO           23
    #>  9 OH         45247    CINCINATTI      CINCINNATI        21
    #> 10 OH         44413    PALESTINE       EAST PALESTINE    20
    #> # … with 492 more rows
…
