…
We can flag any record missing a key variable needed to identify a
transaction.

``` r
key_vars <- c("board_action_date", "last_name", "discipline")
azl <- flag_na(azl, all_of(key_vars))
sum(azl$na_flag)
#> [1] 34
```

``` r
azl %>% 
  filter(na_flag) %>% 
  select(all_of(key_vars))
#> # A tibble: 34 × 3
#>    board_action_date last_name  discipline    
#>    <date>            <chr>      <chr>         
#>  1 NA                Skinner    ENGINEER/CIVIL
#>  2 NA                Yorgason   ALARM AGENT   
#>  3 NA                Viramontes ALARM AGENT   
#>  4 NA                Saul       ALARM AGENT   
#>  5 NA                Barajas    ALARM AGENT   
#>  6 NA                Edmison    ALARM AGENT   
#>  7 NA                Ives       ALARM AGENT   
#>  8 NA                Kochheiser ALARM AGENT   
#>  9 NA                Ruh        ALARM AGENT   
#> 10 NA                Sorcinelli ALARM AGENT   
#> # … with 24 more rows
```
…
We can also flag any record completely duplicated across every column.

``` r
azl <- flag_dupes(azl, -license_number)
sum(azl$dupe_flag)
#> [1] 245
```

``` r
azl %>% 
  filter(dupe_flag) %>% 
  select(all_of(key_vars)) %>% 
  arrange(board_action_date)
#> # A tibble: 245 × 3
#>    board_action_date last_name  discipline         
#>    <date>            <chr>      <chr>              
#>  1 1955-10-10        GRUNDSTEDT ENGINEER/MINING    
#>  2 1955-10-10        GRUNDSTEDT ENGINEER/MINING    
#>  3 1959-10-10        SARVIS     ENGINEER/CIVIL     
#>  4 1959-10-10        SARVIS     ENGINEER/CIVIL     
#>  5 1963-10-10        GERVASIO   ENGINEER/STRUCTURAL
#>  6 1963-10-10        GERVASIO   ENGINEER/CIVIL     
#>  7 1963-10-10        GERVASIO   ENGINEER/STRUCTURAL
#>  8 1963-10-10        GERVASIO   ENGINEER/CIVIL     
#>  9 1964-03-13        CORLEY     ENGINEER/CIVIL     
#> 10 1964-03-13        CORLEY     ENGINEER/CIVIL     
#> # … with 235 more rows
```
…
``` r
addr_norm
#> # A tibble: 56,458 × 3
#>    address_line_1                      address_line_2 address_norm                     
#>    <chr>                               <chr>          <chr>                            
#>  1 <NA>                                <NA>           <NA>                             
#>  2 1381 S. Saddleback Drive            <NA>           1381 S SADDLEBACK DR             
#>  3 4734 B  LA VILLA MARINA, UNIT B4734 <NA>           4734 B LA VILLA MARINA UNIT B4734
#>  4 4854 MAIN ST                        <NA>           4854 MAIN ST                     
#>  5 4734 LA VILLA MARINA UNIT B         <NA>           4734 LA VILLA MARINA UNIT B      
#>  6 1801 N. Hampton Rd                  Suite 440      1801 N HAMPTON RD STE 440        
#>  7 5066 SUE LOOKOUT                    <NA>           5066 SUE LOOKOUT                 
#>  8 5700 N PLACITA DEL TRUENO           <NA>           5700 N PLACITA DEL TRUENO        
#>  9 303 Thunderbird Ln                  <NA>           303 THUNDERBIRD LN               
#> 10 1301 LOUSE RD                       <NA>           1301 LOUSE RD                    
#> # … with 56,448 more rows
```
…
``` r
azl %>% 
  filter(state != state_norm) %>% 
  count(state, state_norm, sort = TRUE)
#> # A tibble: 55 × 3
#>    state      state_norm     n
#>    <chr>      <chr>      <int>
#>  1 Arizona    AZ         25417
#>  2 California CA         10020
#>  3 Texas      TX          3589
#>  4 Colorado   CO          3068
#>  5 Utah       UT          2783
#>  6 Washington WA          1459
#>  7 Illinois   IL          1388
#>  8 Nevada     NV          1372
#>  9 Florida    FL          1300
#> 10 Missouri   MO          1212
#> # … with 45 more rows
```
…
      key_collision_merge() %>% 
      n_gram_merge(numgram = 1)
  ) %>% 
  filter(city_refine != city_swap) %>% 
  inner_join(
    y = zipcodes,
    by = c(
      "city_refine" = "city",
      "state_norm" = "state",
      "zip_norm" = "zip"
    )
  )
```

    #> # A tibble: 23 × 5
    #>    state_norm zip_norm city_swap         city_refine          n
    #>    <chr>      <chr>    <chr>             <chr>            <int>
    #>  1 SC         29406    NORTH CHARLESTON  CHARLESTON           2
    #>  2 AZ         85138    MARICOPA #        MARICOPA             1
    #>  3 CA         90042    LOS ANGELSA       LOS ANGELES          1
    #>  4 CA         90045    LOS ANGELES #     LOS ANGELES          1
    #>  5 CA         90266    MAHANTTAN BEACH   MANHATTAN BEACH      1
    #>  6 CA         91730    RANCHO CUMCAMOUGA RANCHO CUCAMONGA     1
    #>  7 CA         91745    HACIENDA HGTHS    HACIENDA HEIGHTS     1
    #>  8 CA         92648    HUNGTINTON BEACH  HUNTINGTON BEACH     1
    #>  9 CA         92805    ANAHEMIN          ANAHEIM              1
    #> 10 CA         94577    SAN LEONARDO      SAN LEANDRO          1
    #> # … with 13 more rows
…
