…
```r
wa %>% tabyl(contributor_state) %>% arrange(desc(n))
```

```
## # A tibble: 127 x 4
##    contributor_state       n percent valid_percent
##    <chr>               <dbl>   <dbl>         <dbl>
##  1 WA                3824238 0.905         0.943  
##  2 <NA>               170263 0.0403       NA      
##  3 CA                  39634 0.00938       0.00978
##  4 OR                  32139 0.00761       0.00793
##  5 ID                  14399 0.00341       0.00355
##  6 NY                  12186 0.00288       0.00301
##  7 TX                  11794 0.00279       0.00291
##  8 DC                   8595 0.00203       0.00212
##  9 FL                   7859 0.00186       0.00194
## 10 VA                   7405 0.00175       0.00183
## # … with 117 more rows
```
…
```r
wa %>% 
  filter(receipt_date > today() + years(1)) %>%
  arrange(desc(receipt_date)) %>% 
  select(
    id, 
    receipt_date, 
    election_year, 
    contributor_name, 
    amount, filer_name
  )
```

```
## # A tibble: 34 x 6
##    id        receipt_date election_year contributor_name       amount filer_name                   
##    <chr>     <date>       <chr>         <chr>                   <dbl> <chr>                        
##  1 4409700.… 2041-06-06   2014          MUNRO RALPH D              50 BURRAGE JEANETTE R           
##  2 4409701.… 2041-06-06   2014          KLEINER WALTER H          100 BURRAGE JEANETTE R           
##  3 4409702.… 2041-06-06   2014          HUGHES LARRY R            100 BURRAGE JEANETTE R           
##  4 3685495.… 2031-07-29   2012          KENNICOTT ELAINE E        100 WONG YOSHIE                  
##  5 5180900.… 2031-07-22   2016          SEIU HEALTHCARE            50 HANSEN DREW D                
##  6 5180901.… 2031-07-22   2016          MUCLESHOOT INDIAN TRI…    250 HANSEN DREW D                
##  7 5901063.… 2031-05-27   2018          TURNER BRUCE              500 FELICI RICKY (RICK) J        
##  8 3662698.… 2030-07-29   2012          ROBBINS BONNIE            250 WONG YOSHIE                  
##  9 39015.co… 2029-12-28   2016          CORRECTION TO CONTRIB…      0 AMERICAN INSTITUTE OF ARCHIT…
## 10 6241247.… 2029-02-23   2019          CAIRNS JOANNA              50 DAVIS KHALIA                 
## # … with 24 more rows
```
…
There are 325 records with 
58 invalid abbreviations.


```r
wa %>% 
  filter(!(contributor_state %in% valid_abbs)) %>% 
  group_by(contributor_state) %>% 
  count() %>%
  arrange(desc(n))
```

```
## # A tibble: 58 x 2
##    contributor_state      n
##    <chr>              <int>
##  1 <NA>              170263
##  2 ZZ                    55
##  3 RE                    41
##  4 ,                     35
##  5 OT                    32
##  6 OL                    30
##  7 98                    19
##  8 UK                    11
##  9 TE                     8
## 10 SE                     6
## # … with 48 more rows
```
…
```r
wa %>% 
  filter(state_clean == "OT") %>% 
  select(
    contributor_name,
    contributor_address,
    contributor_city,
    contributor_state,
    contributor_zip,
    filer_name
  )
```

```
## # A tibble: 32 x 6
##    contributor_name  contributor_add… contributor_city contributor_sta… contributor_zip filer_name 
##    <chr>             <chr>            <chr>            <chr>            <chr>           <chr>      
##  1 HOLLING ANDREAS   MAXIMILIANSTR 1… MNNSTER          OT               48147           ORGANIC CO…
##  2 NAISMITH AUDREY   5 COOLAROO PLACE CHURCHILL        OT               3842            ORGANIC CO…
##  3 NEAL JODIE        2260 KALANG RD   BELLINGEN NSW    OT               2454            ORGANIC CO…
##  4 SWIFT MARILYN     PO BOX 7592      SAIPAN           OT               96950           ORGANIC CO…
##  5 BUYS KAREN        351 KEES RD      YARRAM           OT               03971           ORGANIC CO…
##  6 PIGGOTT ROGER     26 ROACH RD      BADDAGINNIE      OT               03670           ORGANIC CO…
##  7 SUTHERLAND DIANE  44 RUE E VAN DR… BRUSSELS         OT               01050           ORGANIC CO…
##  8 MARIT-WILLMANN A… REITA            MEISINGSET       OT               06628           ORGANIC CO…
##  9 ZUCCHI KARL       MIDDENKAMP 45    OSNABRUECK       OT               49082           ORGANIC CO…
## 10 BOYDELL RUTH      132 MARSHALL ST  AUSTRALIA        OT               02289           ORGANIC CO…
## # … with 22 more rows
```
…
```r
n_distinct(wa$contributor_city)
```

```
## [1] 13171
```

```r
wa %>% tabyl(state_clean) %>% arrange(desc(n))
```

```
## # A tibble: 70 x 4
##    state_clean       n percent valid_percent
##    <chr>         <dbl>   <dbl>         <dbl>
##  1 WA          3824411 0.905         0.943  
##  2 <NA>         170404 0.0403       NA      
##  3 CA            39634 0.00938       0.00978
##  4 OR            32139 0.00761       0.00793
##  5 ID            14399 0.00341       0.00355
##  6 NY            12186 0.00288       0.00301
##  7 TX            11794 0.00279       0.00291
##  8 DC             8596 0.00203       0.00212
##  9 FL             7859 0.00186       0.00194
## 10 VA             7405 0.00175       0.00183
## # … with 60 more rows
```
…
