…
### Duplicates

``` r
hic <- flag_dupes(hic, everything())
```

There are 213 rows that are complete duplicated of another. They are
flagged.

``` r
hic %>% 
  filter(dupe_flag) %>% 
  select(date, reg_name, cont_name, amount) %>% 
  arrange(date)
#> # A tibble: 213 x 4
#>    date       reg_name                   cont_name          amount
#>    <date>     <chr>                      <chr>               <dbl>
#>  1 2008-02-21 Democratic Party of Hawaii Dowling, Everett     1000
#>  2 2008-02-21 Democratic Party of Hawaii Dowling, Everett     1000
#>  3 2008-02-21 Democratic Party of Hawaii Engesser, Thea J.     100
#>  4 2008-02-21 Democratic Party of Hawaii Engesser, Thea J.     100
#>  5 2008-03-25 Democratic Party of Hawaii Hawaii Link           100
#>  6 2008-03-25 Democratic Party of Hawaii Hawaii Link           100
#>  7 2008-03-26 Democratic Party of Hawaii Morey, Lee F.         100
#>  8 2008-03-26 Democratic Party of Hawaii Morey, Lee F.         100
#>  9 2008-03-30 Democratic Party of Hawaii Kong Kee, FLorence    100
#> 10 2008-03-30 Democratic Party of Hawaii Thorp, David H.       100
#> # … with 203 more rows
```
…
``` r
hic %>% 
  select(starts_with("address")) %>% 
  distinct() %>% 
  sample_frac()
#> # A tibble: 74,931 x 3
#>    address_1                       address_2 address_norm                
#>    <chr>                           <chr>     <chr>                       
#>  1 250 N Waiehu Beach Road         <NA>      250 N WAIEHU BCH RD         
#>  2 310 Hale Kai Street             <NA>      310 HALE KAI ST             
#>  3 1314 S King St., Ste 321        <NA>      1314 S KING ST STE 321      
#>  4 1367 Kapiolani Blvd. Suite 1005 <NA>      1367 KAPIOLANI BLVD STE 1005
#>  5 1094 Mokuhano St                <NA>      1094 MOKUHANO ST            
#>  6 3432 B1 Kalihi St.              <NA>      3432 B 1 KALIHI ST          
#>  7 336 Hollybrook Road             <NA>      336 HOLLYBROOK RD           
#>  8 900 Fort Street Mall, No. 1115  <NA>      900 FT ST MALL NO 1115      
#>  9 1319 Punahou Street, Suite 1140 <NA>      1319 PUNAHOU ST STE 1140    
#> 10 1253 S. Beretania St., #3307    <NA>      1253 S BERETANIA ST 3307    
#> # … with 74,921 more rows
```
…
### State

``` r
prop_in(hic$state, valid_state)
#> [1] 1
count_vec(hic$state)
#> # A tibble: 57 x 2
#>    value      n
#>    <chr>  <int>
#>  1 HI    237361
#>  2 CA      5266
#>  3 DC      1465
#>  4 MO      1373
#>  5 WA       939
#>  6 VA       936
#>  7 TX       855
#>  8 FL       775
#>  9 IL       592
#> 10 NY       589
#> # … with 47 more rows
```
…
