…
``` r
nh_lob_reg <- nh_lob_reg %>% flag_na(EMPLOYERNAME, FIRMADDR)
sum(nh_lob_reg$na_flag)
#> [1] 12
```

### Duplicates

``` r
flag_dupes(nh_lob_reg, dplyr::everything())
#> # A tibble: 1,100 x 11
#>    NAME   EMPLOYERNAME  ADDRESS  FIRMNAME CSZ   FIRMADDR DATE       PHONE FIRMCSZ na_flag dupe_flag
#>    <chr>  <chr>         <chr>    <chr>    <chr> <chr>    <date>     <chr> <chr>   <lgl>   <lgl>    
#>  1 GARY … THE ASSOCIAT… 48 GRAN… THE ASS… BOW,… 48 GRAN… 2018-12-31 E-ga… BOW,  … FALSE   FALSE    
#>  2 WILL … SOCIETY FOR … 54 PORT… SOCIETY… CONC… 54 PORT… 2018-12-13 E-wa… CONCOR… FALSE   FALSE    
#>  3 STEVE… NEW HAMPSHIR… 125 AIR… NEW HAM… CONC… 125 AIR… 2018-12-20 E-sa… CONCOR… FALSE   FALSE    
#>  4 SARAH… COMMUNITY BR… 70 PEMB… COMMUNI… CONC… 70 PEMB… 2019-01-07 E-sa… CONCOR… FALSE   FALSE    
#>  5 WALTE… CONSUMER TEC… 1919 SO… CONSUME… ARLI… 1919 SO… 2019-02-11 E-wa… ARLING… FALSE   FALSE    
#>  6 DANIE… SIGMA CONSUL… 1 ESSEY… EXELON … BOW,… 300 EXE… 2019-04-24 E-da… KENNET… FALSE   FALSE    
#>  7 ARNOL… AMERICAN FRI… 4 PARK … AMERICA… CONC… 4 PARK … 2018-12-05 E-aa… CONCOR… FALSE   FALSE    
#>  8 ANDRE… PFIZER INC    28 LIBE… PFIZER … SAUS… 28 LIBE… 2018-12-19 E-pf… SAUSAL… FALSE   FALSE    
#>  9 WILLI… RATH YOUNG A… PO BOX … FIDELIT… CONC… 82 DEVO… 2019-01-04 E-wf… BOSTON… FALSE   FALSE    
#> 10 STEPH… NEW ENGLAND … 7 TECHN… NEW ENG… CHEL… 7 TECHN… 2019-03-15 E-sa… CHELMS… FALSE   FALSE    
#> # … with 1,090 more rows
…
