…
There are however a large number of duplicate records. We can flag every
record that has duplicate values across every column.

``` r
nhc <- flag_dupes(nhc, everything())
percent(mean(nhc$dupe_flag), 0.01)
#> [1] "26.96%"
```

``` r
nhc %>% 
  filter(dupe_flag) %>% 
  select(all_of(key_vars)) %>% 
  arrange(transaction_date, contributor_name)
#> # A tibble: 45,768 × 4
#>    transaction_date contributor_name amount receiving_registrant              
#>    <date>           <chr>             <dbl> <chr>                             
#>  1 2015-01-12       Dion                 20 REALTOR Political Action Committee
#>  2 2015-01-12       Dion                 20 REALTOR Political Action Committee
#>  3 2015-01-15       Bean                 20 REALTOR Political Action Committee
#>  4 2015-01-15       Bean                 20 REALTOR Political Action Committee
#>  5 2015-01-15       Cox                  25 REALTOR Political Action Committee
#>  6 2015-01-15       Cox                  25 REALTOR Political Action Committee
#>  7 2015-01-15       Elliott              25 REALTOR Political Action Committee
#>  8 2015-01-15       Elliott              25 REALTOR Political Action Committee
#>  9 2015-01-15       Loynd                25 REALTOR Political Action Committee
#> 10 2015-01-15       Loynd                25 REALTOR Political Action Committee
#> # … with 45,758 more rows
```

If we count the contributor and recipient names, we see most of these
duplicates are unitemized contributions handled through a PAC or service
like ActBlue.

``` r
nhc %>% 
  filter(dupe_flag) %>% 
  count(contributor_name, receiving_registrant, sort = TRUE) %>% 
  mutate(p = n/sum(n))
#> # A tibble: 1,430 × 4
#>    contributor_name receiving_registrant                              n      p
#>    <chr>            <chr>                                         <int>  <dbl>
#>  1 Unitemized       DLCC New Hampshire                            11676 0.255 
#>  2 Unitemized       End Citizens United Non-Federal New Hampshire  4692 0.103 
#>  3 UnItemized       EversourcePAC-NH                               4413 0.0964
#>  4 Unitemized       Volinsky for NH                                4133 0.0903
#>  5 UnItemized       DLCC New Hampshire                             3615 0.0790
#>  6 UnItemized       REALTOR Political Action Committee             3391 0.0741
#>  7 UnItemized       Volinsky for NH                                1328 0.0290
#>  8 UnItemized       ActBlue New Hampshire                          1226 0.0268
#>  9 UnItemized       Opportunity & Renewal PAC Blue Wave            1151 0.0251
#> 10 UnItemized       Volinsky for Executive Council                 1135 0.0248
#> # … with 1,420 more rows
```
…
First, we notice that the vast majority of the existing `town_city` and
`town_state` variables are missing.

``` r
prop_na(nhc$town_city)
#> [1] 0.9973847
prop_na(nhc$town_state)
#> [1] 0.9973847
nhc %>% 
  select(contributor_address, town_city, town_state) %>% 
  filter(!is.na(town_city) & !is.na(town_state))
#> # A tibble: 444 × 3
#>    contributor_address                               town_city  town_state
#>    <chr>                                             <chr>      <chr>     
#>  1 UnItemized                                        Windham    NH        
#>  2 14 JO ELLEN DR, Merrimack, NH 03054               Merrimack  NH        
#>  3 14 JO ELLEN DR, Merrimack, NH 03054               Merrimack  NH        
#>  4 263 Rockland Street, Apt 24, Portsmouth, TN 38041 Portsmouth NH        
#>  5 25 Garmon Street, Manchester, NH 03104            Manchester NH        
#>  6 59 Abbott Ave., Bath, NH 03740                    Bath       NH        
#>  7 UnItemized                                        Conway     NH        
#>  8 156 Park Place, Milton, NH 03851                  Milton     NH        
#>  9 91 Goboro Rd, Epsom, NH 03234-4102                Epsom      NH        
#> 10 243 Mountain Dr, Gilford, NH 03249                Gilford    NH        
#> # … with 434 more rows
```
…
