…
> ### Errata
> 
> The raw data provided by the state contains errors in how some values
> are escaped, quoted and delimited. The result is a small number of
> records in the latest download were lost when we prepared files for
> download. However, only 638 records out of 7,219,803 total rows were
> lost (you can download them
> [here](https://s3-us-west-2.amazonaws.com/django-calaccess/2020-08-26_09-50-41/expn_cd.errors.csv)).

    #> # A tibble: 638 x 3
    #>    headers fields value                                                                            
    #>      <dbl>  <dbl> <chr>                                                                            
    #>  1      53     54 1080694,0,4,EXPN,F461P5,E13,COM,CRA Issues PAC (CA Restaurant Assn.),,,,Sacramen…
    #>  2      53     54 1192517,0,4,EXPN,F461P5,EXP39,COM, ,Affordable Housing Alliance PAC,,,,San Franc…
    #>  3      53     54 1491774,1,11,EXPN,E,EXP591,COM,,CALIFORNIA PUBLIC SAFETY VOTER GUIDE, A PROJECT …
    #>  4      53     54 1491774,1,12,EXPN,E,EXP593,COM,,SAN DIEGO COUNTY REPUBLICAN LEADERSHIP VOTER GUI…
    #>  5      53     54 1464920,0,635,EXPN,G,EDT336,OTH,Extended Stay America Hotel,,,,Woodland Hills,CA…
    #>  6      53     54 1464920,0,639,EXPN,G,EDT350,OTH,Millenium Biltmore Hotel,,,,Los Angeles,CA,90071…
    #>  7      53     54 1464920,0,530,EXPN,E,EXP4938,OTH,American Express,,,,Weston,FL,33331-3626,10/20/…
    #>  8      53     54 1464920,0,667,EXPN,G,EDT330,OTH,United Airlines,,,,Chicago,IL,60601,8/4/2009 12:…
    #>  9      53     54 1464920,0,668,EXPN,G,EDT342,OTH,United Airlines,,,,Chicago,IL,60601,8/4/2009 12:…
    #> 10      53     54 1464920,0,654,EXPN,G,EDT323,OTH,Southwest Airlines,,,,Dallas,TX,75235,8/4/2009 1…
    #> # … with 628 more rows
…
``` r
mean(cae$na_flag)
#> [1] 0.009030572
```

``` r
cae %>% 
  filter(na_flag) %>% 
  select(date, payee_naml, amount, filer_naml) %>% 
  sample_frac()
#> # A tibble: 65,178 x 4
#>    date       payee_naml                             amount filer_naml                             
#>    <date>     <chr>                                   <dbl> <chr>                                  
#>  1 2007-04-05 Parra for Assembly 2006                    NA Democratic State Central Committee of …
#>  2 2004-02-19 Californians for Budget Accountability     NA California State Council of Service Em…
#>  3 2007-09-17 Elect Henry Jones to CalPERS               NA American Federation of State, County a…
#>  4 NA         WOMEN DEMOCRATS OF SACRAMENTO COUNTY       45 <NA>                                   
#>  5 2002-10-07 Vince Hall for Assembly c/o Padilla &…     NA Democratic State Central Committee of …
#>  6 2005-11-02 No on 76, educators, firefighters, sc…     NA Alliance for a Better California, educ…
#>  7 2006-03-02 No on 76-Educators,Firefghtrs,School …     NA Democratic State Central Committee of …
#>  8 2002-11-04 Californians for Gray Davis c/o Smith…     NA Democratic State Central Committee of …
#>  9 NA         SUNDAY GOVER FOR ASSEMBLY 2018 FPPC #…    100 <NA>                                   
#> 10 NA         JACQUI IRWIN FOR ASSEMBLY 2018            500 <NA>                                   
#> # … with 65,168 more rows
```
…
``` r
cae %>% 
  filter(payee_st != payee_st_norm) %>% 
  count(payee_st, payee_st_norm, sort = TRUE)
#> # A tibble: 107 x 3
#>    payee_st payee_st_norm     n
#>    <chr>    <chr>         <int>
#>  1 Ca       CA            25038
#>  2 ca       CA             3647
#>  3 Az       AZ              610
#>  4 Tx       TX              267
#>  5 Il       IL              126
#>  6 Co       CO              104
#>  7 Ga       GA               96
#>  8 Ma       MA               89
#>  9 Wa       WA               83
#> 10 Ut       UT               76
#> # … with 97 more rows
```
…
      key_collision_merge() %>% 
      n_gram_merge(numgram = 1)
  ) %>% 
  filter(payee_city_refine != payee_city_swap) %>% 
  inner_join(
    y = zipcodes,
    by = c(
      "payee_city_refine" = "city",
      "payee_st_norm" = "state",
      "payee_zip4_norm" = "zip"
    )
  )
```

    #> # A tibble: 206 x 5
    #>    payee_st_norm payee_zip4_norm payee_city_swap        payee_city_refine          n
    #>    <chr>         <chr>           <chr>                  <chr>                  <int>
    #>  1 DE            19801           WILIMGTON              WILMINGTON                64
    #>  2 CA            94107           SAN FRANSICO           SAN FRANCISCO             63
    #>  3 CA            91376           AUGORA HILLS           AGOURA HILLS              58
    #>  4 CA            92688           RANCHO SAINT MARGARITA RANCHO SANTA MARGARITA    50
    #>  5 CA            94111           SAN FRONACISCO         SAN FRANCISCO             43
    #>  6 OH            45226           CINCINATTI             CINCINNATI                43
    #>  7 CA            95814           SACRAMAMENTO           SACRAMENTO                42
    #>  8 OH            45274           CINCINATTI             CINCINNATI                32
    #>  9 MD            20814           EAST BETHESDA          BETHESDA                  23
    #> 10 CA            91011           CANADA FLINTRIDGE      LA CANADA FLINTRIDGE      20
    #> # … with 196 more rows
…
