…
We can flag any record missing a key variable needed to identify a
transaction.

``` r
key_vars <- c("date", "committee_name", "amount", "vendor_name")
mne <- flag_na(mne, all_of(key_vars))
sum(mne$na_flag)
#> [1] 39
```

``` r
mne %>% 
  filter(na_flag) %>% 
  select(all_of(key_vars))
#> # A tibble: 39 × 4
#>    date       committee_name                 amount vendor_name
#>    <date>     <chr>                           <dbl> <chr>      
#>  1 2018-08-06 Lac Qui Parle County DFL         99   <NA>       
#>  2 2017-12-29 DFL Senate Caucus                29.2 <NA>       
#>  3 2017-11-15 DFL Senate Caucus                44.5 <NA>       
#>  4 2017-12-11 DFL Senate Caucus                47.0 <NA>       
#>  5 2017-12-05 DFL Senate Caucus                38.5 <NA>       
#>  6 2017-07-19 DFL Senate Caucus                35.0 <NA>       
#>  7 2017-10-23 DFL Senate Caucus                39.1 <NA>       
#>  8 2017-11-22 DFL Senate Caucus                44.6 <NA>       
#>  9 2020-09-11 MN DFL State Central Committee 1441.  <NA>       
#> 10 2019-11-22 MN DFL State Central Committee 1438   <NA>       
#> # … with 29 more rows
```
…
We can also flag any record completely duplicated across every column.

``` r
mne <- flag_dupes(mne, everything())
sum(mne$dupe_flag)
#> [1] 10698
```

``` r
mne %>% 
  filter(dupe_flag) %>% 
  select(all_of(key_vars)) %>% 
  arrange(date, amount, vendor_name)
#> # A tibble: 10,698 × 4
#>    date       committee_name                amount vendor_name    
#>    <date>     <chr>                          <dbl> <chr>          
#>  1 2015-01-01 Dill, David K House Committee   2.77 Dill, David K  
#>  2 2015-01-01 Dill, David K House Committee   2.77 Dill, David K  
#>  3 2015-01-01 Dill, David K House Committee   2.77 Dill, David K  
#>  4 2015-01-01 Dill, David K House Committee   4.11 Dill, David K  
#>  5 2015-01-01 Dill, David K House Committee   4.11 Dill, David K  
#>  6 2015-01-01 Dill, David K House Committee   5.96 Dill, David K  
#>  7 2015-01-01 Dill, David K House Committee   5.96 Dill, David K  
#>  8 2015-01-01 Dill, David K House Committee   6.39 Dill, David K  
#>  9 2015-01-01 Dill, David K House Committee   6.39 Dill, David K  
#> 10 2015-01-01 IFAPAC Minn                   285.   NAIFA Minnesota
#> # … with 10,688 more rows
```
…
``` r
addr_norm
#> # A tibble: 23,763 × 3
#>    vendor_address_1        vendor_address_2 address_norm          
#>    <chr>                   <chr>            <chr>                 
#>  1 2594 301st Ave          <NA>             2594 301ST AVE        
#>  2 5910 Lexington Ave N    <NA>             5910 LEXINGTON AVE N  
#>  3 1760 Jefferson Ave      <NA>             1760 JEFFERSON AVE    
#>  4 700 Hennepin Ave        <NA>             700 HENNEPIN AVE      
#>  5 76 Clarence Ave SE      <NA>             76 CLARENCE AVE SE    
#>  6 <NA>                    <NA>             <NA>                  
#>  7 2428 Clinton Ave S #E-2 <NA>             2428 CLINTON AVE S #E2
#>  8 13684 Crompton Ave      <NA>             13684 CROMPTON AVE    
#>  9 20033 330th St          <NA>             20033 330TH ST        
#> 10 20033 330th Street      <NA>             20033 330TH ST        
#> # … with 23,753 more rows
```
…
