…
``` r
ncs <- mutate(ncs, job_pos = coalesce(job_title, pos_title))
ncs <- ncs %>% flag_na(date, name, salary, area, job_pos)
mean(ncs$na_flag)
#> [1] 0.2963478
```

``` r
ncs %>% 
  filter(na_flag) %>% 
  select(date, name, salary, area, job_pos)
#> # A tibble: 64,151 x 5
#>    date       name                       salary area           job_pos      
#>    <date>     <chr>                       <dbl> <chr>          <chr>        
#>  1 2004-04-01 Latesha Jones Middleton  27780    Administration <NA>         
#>  2 NA         Christina H Cuthrell         8.25 Administration Summer Intern
#>  3 2010-10-13 Katrine Fowler Middleton 37444    Administration <NA>         
#>  4 2007-01-01 Kephas Nyakwara Matoke      NA    Administration <NA>         
#>  5 NA         William Foye                11.4  Administration Mail Clerk II
#>  6 1973-12-17 Peggie H Anderson           15.0  Administration <NA>         
#>  7 1998-05-01 Kay H Burnette           27375    Administration <NA>         
#>  8 2007-08-06 Michael Allan Shirley       NA    Administration <NA>         
#>  9 NA         Mary Johnson                11.6  Administration <NA>         
#> 10 NA         Courtney Graham              8.5  Administration <NA>         
#> # … with 64,141 more rows
```
…
