…
Duplicate values can be flagged.

``` r
mse <- flag_dupes(mse, everything())
sum(mse$dupe_flag)
#> [1] 390
```

There are 390

``` r
mse %>% 
  filter(dupe_flag) %>% 
  select(date, filer, amount, payee)
#> # A tibble: 390 x 4
#>    date       filer                      amount payee            
#>    <date>     <chr>                       <dbl> <chr>            
#>  1 2019-09-16 Friends of Abe Hudson, Jr.    50  Abe Hudson       
#>  2 2019-09-16 Friends of Abe Hudson, Jr.    50  Abe Hudson       
#>  3 2019-10-03 Philip Gunn Campaign          70  AMERICAN AIRLINES
#>  4 2019-10-03 Philip Gunn Campaign          70  AMERICAN AIRLINES
#>  5 2018-10-12 Ottowa E. Carter, Jr.        508. Ashley Carter    
#>  6 2018-10-12 Ottowa E. Carter, Jr.        508. Ashley Carter    
#>  7 2019-05-17 Friends of Joel Bomgar       894. Avignon LLC      
#>  8 2019-05-17 Friends of Joel Bomgar       894. Avignon LLC      
#>  9 2019-10-04 Friends of Joel Bomgar       894. Avignon LLC      
#> 10 2019-10-04 Friends of Joel Bomgar       894. Avignon LLC      
#> # … with 380 more rows
```
…
