…
``` r
scc <- flag_dupes(scc, -contribution_id)
sum(scc$dupe_flag)
#> [1] 7431
mean(scc$dupe_flag)
#> [1] 0.01002292
```

``` r
scc %>% 
  filter(dupe_flag) %>% 
  select(all_of(key_vars)) %>% 
  arrange(date)
#> # A tibble: 7,431 × 4
#>    date       contributor_name       amount candidate_name 
#>    <date>     <chr>                   <dbl> <chr>          
#>  1 2002-02-28 William McCauley        1000  Joshua Kimbrell
#>  2 2002-02-28 William McCauley        1000  Joshua Kimbrell
#>  3 2007-08-30 unitemized 100 or less   568. Mark Richardson
#>  4 2007-08-30 unitemized 100 or less   568. Mark Richardson
#>  5 2007-09-26 Grover Seaton           1000  Blair Jennings 
#>  6 2007-09-26 Grover Seaton           1000  Blair Jennings 
#>  7 2007-09-29 Doris Brockington        100  Frank Wideman  
#>  8 2007-09-29 Doris Brockington        100  Frank Wideman  
#>  9 2007-10-17 Archie Patterson          25  E Cromartie II 
#> 10 2007-10-17 Archie Patterson          25  E Cromartie II 
#> # … with 7,421 more rows
```
…
``` r
addr_norm <- scc %>% 
  distinct(address_sep) %>% 
  mutate(
    address_norm = normal_address(
      address = address_sep,
      abbs = usps_street,
      na_rep = TRUE
    )
  )
```

``` r
addr_norm
#> # A tibble: 325,723 × 2
#>    address_sep               address_norm             
#>    <chr>                     <chr>                    
#>  1 PO Box 619                PO BOX 619               
#>  2 518 Ralph Hood Road       518 RALPH HOOD RD        
#>  3 141 Clearview Circle      141 CLEARVIEW CIR        
#>  4 112 Chestnut Street       112 CHESTNUT ST          
#>  5 41 Lameau Dr              41 LAMEAU DR             
#>  6 5148 Maplewood dr         5148 MAPLEWOOD DR        
#>  7 925 Cleveland St Unit 277 925 CLEVELAND ST UNIT 277
#>  8 312 Picadilly Street      312 PICADILLY ST         
#>  9 45 Sacha Lane             45 SACHA LN              
#> 10 615 Morgan St             615 MORGAN ST            
#> # … with 325,713 more rows
```
…
``` r
scc %>% 
  filter(zip_sep != zip_norm | !is.na(zip_sep) & is.na(zip_norm)) %>% 
  count(zip_sep, zip_norm, sort = TRUE)
#> # A tibble: 49 × 3
#>    zip_sep   zip_norm     n
#>    <chr>     <chr>    <int>
#>  1 00000     <NA>       633
#>  2 11111     <NA>        35
#>  3 99999     <NA>        22
#>  4 294076256 29407        3
#>  5 294646302 29464        3
#>  6 295788082 29578        3
#>  7 296271502 29627        3
#>  8 296428235 29642        3
#>  9 299125    29912        3
#> 10 334376604 33437        3
#> # … with 39 more rows
```
…
``` r
scc %>% 
  filter(state_sep != state_norm | !is.na(state_sep) & is.na(state_norm)) %>% 
  count(state_sep, state_norm, sort = TRUE)
#> # A tibble: 47 × 3
#>    state_sep state_norm     n
#>    <chr>     <chr>      <int>
#>  1 sc        SC           353
#>  2 Sc        SC            41
#>  3 Ga        GA            21
#>  4 So        <NA>          15
#>  5 sC        SC             9
#>  6 Fl        FL             6
#>  7 nc        NC             6
#>  8 ga        GA             5
#>  9 NA        <NA>           5
#> 10 Co        CO             4
#> # … with 37 more rows
```
…
``` r
good_refine <- good_refine %>% 
  filter(str_detect(city_swap, "^(NORTH|SOUTH|EAST|WEST)", negate = TRUE))
```

    #> # A tibble: 115 × 5
    #>    state_norm zip_norm city_swap         city_refine           n
    #>    <chr>      <chr>    <chr>             <chr>             <int>
    #>  1 SC         29406    NO CHARLESTON     CHARLESTON            6
    #>  2 MD         20878    GAITEHURSBURG     GAITHERSBURG          4
    #>  3 SC         29205    COLUMBIACOLUMBIA  COLUMBIA              4
    #>  4 SC         29585    PAWSLEY ISLAND    PAWLEYS ISLAND        4
    #>  5 CA         92698    ALISA VIE JO      ALISO VIEJO           3
    #>  6 FL         32082    PONTE VERDE BEACH PONTE VEDRA BEACH     3
    #>  7 SC         29365    LYNAM             LYMAN                 3
    #>  8 SC         29512    BENNESTVILLE      BENNETTSVILLE         3
    #>  9 SC         29681    SIMPONSVILLE      SIMPSONVILLE          3
    #> 10 CA         94107    SAN FRANSICO      SAN FRANCISCO         2
    #> # … with 105 more rows
…
