…
9.8% of records are missing a key variable.

``` r
alc %>% 
  filter(na_flag) %>% 
  select(all_of(key_vars))
#> # A tibble: 74,389 × 4
#>    date       last_name amount recipient                                              
#>    <date>     <chr>      <dbl> <chr>                                                  
#>  1 2013-01-03 <NA>        84.9 TALLADEGA COUNTY REPUBLICAN PARTY                      
#>  2 2013-01-04 <NA>      1598   ALABAMA HOSPITAL ASSOCIATION POLITICAL ACTION COMMITTEE
#>  3 2013-01-04 <NA>        63.2 FIRST CITIZENS BANK                                    
#>  4 2013-01-07 <NA>        20   CULLMAN COUNTY REPUBLICAN WOMEN                        
#>  5 2013-01-07 <NA>        20   CULLMAN COUNTY REPUBLICAN WOMEN                        
#>  6 2013-01-07 <NA>        20   CULLMAN COUNTY REPUBLICAN WOMEN                        
#>  7 2013-01-07 <NA>        20   CULLMAN COUNTY REPUBLICAN WOMEN                        
#>  8 2013-01-07 <NA>        20   CULLMAN COUNTY REPUBLICAN WOMEN                        
#>  9 2013-01-08 <NA>        10   CULLMAN COUNTY REPUBLICAN WOMEN                        
#> 10 2013-01-08 <NA>        10   CULLMAN COUNTY REPUBLICAN WOMEN                        
#> # ℹ 74,379 more rows
```
…
``` r
alc$na_flag[str_which(alc$type, "Non-Itemized")] <- FALSE
sum(alc$na_flag)
#> [1] 21
```

This leaves us with very few records.

``` r
alc %>% 
  filter(na_flag) %>% 
  select(all_of(key_vars), type)
#> # A tibble: 21 × 5
#>    date       last_name amount recipient               type           
#>    <date>     <chr>      <dbl> <chr>                   <chr>          
#>  1 2013-08-14 <NA>       21000 WESTPAC                 Cash (Itemized)
#>  2 2018-10-05 <NA>         100 JAMES HOWARD SANDERFORD Cash (Itemized)
#>  3 2021-04-28 GRIMES         1 <NA>                    <NA>           
#>  4 2015-10-02 ADAIR       3000 <NA>                    <NA>           
#>  5 2015-10-02 ADAIR        500 <NA>                    <NA>           
#>  6 2017-02-21 GLOVER     10000 <NA>                    <NA>           
#>  7 2017-04-14 GLOVER      5000 <NA>                    <NA>           
#>  8 2017-11-08 JOHNS        100 <NA>                    <NA>           
#>  9 2017-11-15 JOHNS         90 <NA>                    <NA>           
#> 10 2017-11-30 JOHNS         90 <NA>                    <NA>           
#> # ℹ 11 more rows
```
…
We can also flag any record completely duplicated across every column.

``` r
alc <- flag_dupes(alc, -id)
sum(alc$dupe_flag)
#> [1] 51769
```

6.8% of records are duplicates.

``` r
alc %>% 
  filter(dupe_flag) %>% 
  select(id, all_of(key_vars))
#> # A tibble: 51,769 × 5
#>    id    date       last_name amount recipient                      
#>    <chr> <date>     <chr>      <dbl> <chr>                          
#>  1 51859 2013-01-07 <NA>          20 CULLMAN COUNTY REPUBLICAN WOMEN
#>  2 51860 2013-01-07 <NA>          20 CULLMAN COUNTY REPUBLICAN WOMEN
#>  3 51861 2013-01-07 <NA>          20 CULLMAN COUNTY REPUBLICAN WOMEN
#>  4 51862 2013-01-07 <NA>          20 CULLMAN COUNTY REPUBLICAN WOMEN
#>  5 51863 2013-01-07 <NA>          20 CULLMAN COUNTY REPUBLICAN WOMEN
#>  6 51815 2013-01-08 <NA>          10 CULLMAN COUNTY REPUBLICAN WOMEN
#>  7 51816 2013-01-08 <NA>          10 CULLMAN COUNTY REPUBLICAN WOMEN
#>  8 51817 2013-01-08 <NA>          30 CULLMAN COUNTY REPUBLICAN WOMEN
#>  9 51818 2013-01-08 <NA>          30 CULLMAN COUNTY REPUBLICAN WOMEN
#> 10 51849 2013-01-08 <NA>          30 CULLMAN COUNTY REPUBLICAN WOMEN
#> # ℹ 51,759 more rows
```
…
``` r
alc$dupe_flag[str_which(alc$type, "Non-Itemized")] <- FALSE
sum(alc$dupe_flag)
#> [1] 13736
```

This removes most, but not all, duplicate records.

``` r
alc %>% 
  filter(dupe_flag) %>% 
  select(id, all_of(key_vars), type)
#> # A tibble: 13,736 × 6
#>    id    date       last_name                            amount recipient                                   type        
#>    <chr> <date>     <chr>                                 <dbl> <chr>                                       <chr>       
#>  1 9001  2013-02-18 MCMILLAN TRUCKING, INC.                 100 ALABAMA TRUCKING ASSOCIATION                Cash (Itemi…
#>  2 9002  2013-02-18 MCMILLAN TRUCKING, INC.                 100 ALABAMA TRUCKING ASSOCIATION                Cash (Itemi…
#>  3 3837  2013-02-21 MCCALLUM, HOAGLUND, COOK & IRBY, LLP    100 TRUST REPRESENTING INVOLVED ALABAMA LAWYERS Cash (Itemi…
#>  4 3838  2013-02-21 MCCALLUM, HOAGLUND, COOK & IRBY, LLP    100 TRUST REPRESENTING INVOLVED ALABAMA LAWYERS Cash (Itemi…
#>  5 3843  2013-02-21 NORRIS INJURY LAWYERS, P.C.             100 TRUST REPRESENTING INVOLVED ALABAMA LAWYERS Cash (Itemi…
#>  6 3844  2013-02-21 NORRIS INJURY LAWYERS, P.C.             100 TRUST REPRESENTING INVOLVED ALABAMA LAWYERS Cash (Itemi…
#>  7 9011  2013-02-25 RANGEWAY CARRIERS, LLC                  100 ALABAMA TRUCKING ASSOCIATION                Cash (Itemi…
#>  8 9012  2013-02-25 RANGEWAY CARRIERS, LLC                  100 ALABAMA TRUCKING ASSOCIATION                Cash (Itemi…
#>  9 285   2013-04-25 KINNEY CAPITOL GROUP, LLC               500 ALABAMA 2014 PAC                            Cash (Itemi…
#> 10 286   2013-04-25 KINNEY CAPITOL GROUP, LLC               500 ALABAMA 2014 PAC                            Cash (Itemi…
#> # ℹ 13,726 more rows
```
…
``` r
addr_norm <- alc %>% 
  distinct(address1) %>% 
  mutate(
    address_norm = normal_address(
      address = address1,
      abbs = usps_street,
      na_rep = TRUE
    )
  )
```

``` r
addr_norm
#> # A tibble: 151,846 × 2
#>    address1                         address_norm                   
#>    <chr>                            <chr>                          
#>  1 100 WASHINGTON STREET, SUITE 200 100 WASHINGTON STREET SUITE 200
#>  2 7771 COUNTY ROAD 222             7771 COUNTY ROAD 222           
#>  3 20060 HIGHWAY 216                20060 HIGHWAY 216              
#>  4 P. O. BOX 121                    P O BOX 121                    
#>  5 P. O. BOX 78                     P O BOX 78                     
#>  6 8553 WEST HAMPTON CT.            8553 WEST HAMPTON CT           
#>  7 P. O. BOX 241212                 P O BOX 241212                 
#>  8 P. O. BOX 143                    P O BOX 143                    
#>  9 P. O. BOX 473                    P O BOX 473                    
#> 10 3835 SNOW ROAD                   3835 SNOW RD                   
#> # ℹ 151,836 more rows
```
…
      key_collision_merge() %>% 
      n_gram_merge(numgram = 1)
  ) %>% 
  filter(city_refine != city_swap) %>% 
  inner_join(
    y = zipcodes,
    by = c(
      "city_refine" = "city",
      "state_norm" = "state",
      "zip_norm" = "zip"
    )
  )
```

    #> # A tibble: 56 × 5
    #>    state_norm zip_norm city_swap     city_refine       n
    #>    <chr>      <chr>    <chr>         <chr>         <int>
    #>  1 AL         36752    LOWENDSBORO   LOWNDESBORO       8
    #>  2 AL         35754    LACEY SPRINGS LACEYS SPRING     7
    #>  3 AL         36102    MONTOGEMERY   MONTGOMERY        5
    #>  4 AL         35223    BIRMINGHMAN   BIRMINGHAM        3
    #>  5 MD         20816    BESTHEDA      BETHESDA          3
    #>  6 AL         35244    BIRMGINHAM    BIRMINGHAM        2
    #>  7 AL         36104    MONTOMGERY    MONTGOMERY        2
    #>  8 AL         36532    FAIRHOPE F    FAIRHOPE          2
    #>  9 AL         36853    DADEVEILL     DADEVILLE         2
    #> 10 DC         20003    WASHINGONT    WASHINGTON        2
    #> # ℹ 46 more rows
…
