…
``` r
ms_geo <- ms_ppp %>% 
  select(all_of(id_vars), type) %>% 
  group_by(address, city, state, zip) %>% 
  mutate(num_loans = n(), group = cur_group_id(), .before = 1) %>% 
  arrange(desc(num_loans)) %>% 
  filter(num_loans > 1)
```

Loans under the Paycheck Protection Program had a maximum value of $10
million, but we can see that some of business at some of these addresses
received more than that.

    #> # A tibble: 3,393 x 3
    #>    group num_loans mil_loan
    #>    <int>     <int>    <dbl>
    #>  1 29323         7    17.6 
    #>  2 11555        10    10.2 
    #>  3  6931         4    10.1 
    #>  4  1515         2     8.80
    #>  5 22496         2     8.57
    #>  6 34299         3     7.89
    #>  7 29042        30     5.98
    #>  8 41871         3     5.60
    #>  9 31759         2     5.45
    #> 10 34612         3     5.44
    #> # … with 3,383 more rows
…
