…
## Explore

### Duplicaes

We can see that there’s no duplicate rows in this dataset.

``` r
sclr %>% flag_dupes(dplyr::everything())
#> # A tibble: 1,237 x 15
#>    lob_lastname lob_firstname lob_address lob_city lob_state lob_zip lob_phone lob_principal
#>    <chr>        <chr>         <chr>       <chr>    <chr>     <chr>       <dbl> <chr>        
#>  1 Adams        Stevenson     605 Founta… Columbia SC        29209      8.04e9 Conservation…
#>  2 Adkins       Todd          11250 Wapl… Fairfax  VA        22030      7.03e9 National Rif…
#>  3 Allen        Fred          PO Box 120… Columbia SC        29211      8.03e9 AT & T Servi…
#>  4 Allen        Fred          PO Box 120… Columbia SC        29211      8.03e9 BMW Manufact…
#>  5 Allen        Fred          PO Box 120… Columbia SC        29211      8.03e9 Ducks Unlimi…
#>  6 Allen        Fred          PO Box 120… Columbia SC        29211      8.03e9 Outdoor Adve…
#>  7 Allen        Fred          PO Box 120… Columbia SC        29211      8.03e9 RAI Services…
#>  8 Allen        Fred          PO Box 120… Columbia SC        29211      8.03e9 Southern Win…
#>  9 Allen        Fred          PO Box 120… Columbia SC        29211      8.03e9 Wine & Spiri…
#> 10 Allman       Melissa       454 South … Rock Hi… SC        29730      8.03e9 BAYADA Home …
#> # … with 1,227 more rows, and 7 more variables: lob_middle <chr>, lob_suffix <chr>,
#> #   pri_address <chr>, pri_city <chr>, pri_state <chr>, pri_zip <chr>, pri_phone <dbl>
```
…
