…
`percent(mean(kye$dupe_flag))` of all records are duplicates.

``` r
kye %>% 
  filter(dupe_flag) %>% 
  select(
    from_candidate_last_name, recipient_last_name, 
    disbursement_amount, election_date, office_sought
  ) %>% 
  arrange(from_candidate_last_name, election_date, disbursement_amount)
#> # A tibble: 2,924 × 5
#>    from_candidate_last_name recipient_last_name disbursement_amount election_date       office_sought          
#>    <chr>                    <chr>                             <dbl> <dttm>              <chr>                  
#>  1 ADKINS                   <NA>                               200  2018-11-06 00:00:00 STATE REPRESENTATIVE   
#>  2 ADKINS                   <NA>                               200  2018-11-06 00:00:00 STATE REPRESENTATIVE   
#>  3 AKERS                    <NA>                              1099. 2014-05-20 00:00:00 CITY COUNCIL MEMBER (J)
#>  4 AKERS                    <NA>                              1099. 2014-05-20 00:00:00 CITY COUNCIL MEMBER (J)
#>  5 ARLINGHAUS               DIMMERMAN                         2250  2014-05-20 00:00:00 COUNTY JUDGE EXECUTIVE 
#>  6 ARLINGHAUS               DIMMERMAN                         2250  2014-05-20 00:00:00 COUNTY JUDGE EXECUTIVE 
#>  7 Abrams                   <NA>                              1000  2022-05-17 00:00:00 MAYOR (J2)             
#>  8 Abrams                   <NA>                              1000  2022-05-17 00:00:00 MAYOR (J2)             
#>  9 Adams                    <NA>                               200  2022-11-08 00:00:00 STATE SENATOR (EVEN)   
#> 10 Adams                    <NA>                               200  2022-11-08 00:00:00 STATE SENATOR (EVEN)   
#> # … with 2,914 more rows
```
…
``` r
kye <- kye %>% select(-na_flag)
```

Now the file can be saved on disk for upload to the Accountability
server.

``` r
clean_dir <- dir_create(here("state","ky", "expends", "data", "clean"))
clean_path <- path(clean_dir, "ky_expends_clean.csv")
write_csv(kye, clean_path, na = "")
(clean_size <- file_size(clean_path))
#> 32.4M
non_ascii(clean_path)
#> # A tibble: 240 × 2
#>      row line                                                                                                           
#>    <int> <chr>                                                                                                          
#>  1   367 ",,Via Media,Advertising Expense I.E. <e2><80><93> In Support of Andy Beshear (D),,MONETARY,30000,2023-10-11T0…
#>  2   368 ",,Media Pros Productions,Video Production Expense I.E. <e2><80><93> In Support of Andy Beshear (D),,MONETARY,…
#>  3   698 ",,Washington County Democratic Womens Club,Reimbursement to Washington County Democratic Womens Club for 1/4 …
#>  4   699 "Crowley,Margy,,Reimbursement to Margy Crowley for August 1/4 page ad for BESHEAR in Hale Realty Brochure,Reti…
#>  5   718 "Benz,Angela,,Reimbursement to Angela Benz for ink pens with <e2><80><9c>vote for BESHEAR<e2><80><9d> engraved…
#>  6   845 ",,Hale Realty,Full page Ad for BESHEAR in Oct issue of Hale Realty Brochure,,MONETARY,1000,2023-09-25T00:00:0…
#>  7  1233 ",,\"Black Gold Committee, Inc.\",Black Gold Festival Booth Fee,,MONETARY,125,2023-09-14T00:00:00Z,,,Perry Cou…
#>  8  2461 ",,Andy Beshear for Governor,Candidate Contribution,,MONETARY,750,2023-08-01T00:00:00Z,,,Perry County Democrat…
#>  9  2666 ",,Pam Stevenson,Contirubtion,,MONETARY,100,2023-07-24T00:00:00Z,,,\"Boone County Democratic Woman<e2><80><99>…
#> 10  2667 ",,Michael Bowman,contribution,,MONETARY,100,2023-07-24T00:00:00Z,,,\"Boone County Democratic Woman<e2><80><99…
#> # … with 230 more rows
```
…
