…
There are also a small handful of duplicate records, all also missing a
name.

``` r
wac <- flag_dupes(wac, everything())
sum(wac$dupe_flag)
#> [1] 54
```

``` r
wac %>% 
  filter(dupe_flag) %>% 
  select(customer_name, vendor_name, calendar_year)
#> # A tibble: 54 x 3
#>    customer_name vendor_name          calendar_year
#>    <chr>         <chr>                        <int>
#>  1 <NA>          US ARMOR CORPORATION          2015
#>  2 <NA>          US ARMOR CORPORATION          2015
#>  3 <NA>          PITNEY BOWES INC              2015
#>  4 <NA>          PITNEY BOWES INC              2015
#>  5 <NA>          PITNEY BOWES INC              2015
#>  6 <NA>          PITNEY BOWES INC              2015
#>  7 <NA>          PITNEY BOWES INC              2015
#>  8 <NA>          PITNEY BOWES INC              2015
#>  9 <NA>          PITNEY BOWES INC              2015
#> 10 <NA>          PITNEY BOWES INC              2015
#> # … with 44 more rows
```
…
