…
``` r
key_vars <- c("date", "l_name", "amount", "com_name")
mic <- flag_na(mic, all_of(key_vars))
mean(mic$na_flag)
#> [1] 0.0001191472
```

318 records are missing some key variable.

``` r
mic %>% 
  filter(na_flag) %>% 
  select(all_of(key_vars)) %>% 
  sample_frac()
#> # A tibble: 318 × 4
#>    date       l_name amount com_name                                      
#>    <date>     <chr>   <dbl> <chr>                                         
#>  1 2022-07-08 <NA>     5    FIFTH THIRD BANCORP POLITICAL ACTION COMMITTEE
#>  2 2022-07-08 <NA>     4.09 FIFTH THIRD BANCORP POLITICAL ACTION COMMITTEE
#>  3 2022-07-08 <NA>     1.92 FIFTH THIRD BANCORP POLITICAL ACTION COMMITTEE
#>  4 NA         DIRECT  NA    <NA>                                          
#>  5 2022-07-08 <NA>     4.8  FIFTH THIRD BANCORP POLITICAL ACTION COMMITTEE
#>  6 2022-07-08 <NA>     3.85 FIFTH THIRD BANCORP POLITICAL ACTION COMMITTEE
#>  7 2021-04-19 <NA>   448.   MICHIGAN PAVING AND MATERIALS CRH AMERICAS PAC
#>  8 NA         DIRECT  NA    <NA>                                          
#>  9 2022-09-15 <NA>   500    EMILY BAUMAN FOR MICHIGAN                     
#> 10 NA         DIRECT  NA    <NA>                                          
#> # … with 308 more rows
```
…
``` r
addr_norm <- mic %>% 
  distinct(address) %>% 
  mutate(
    address_norm = normal_address(
      address = address,
      abbs = usps_street,
      na_rep = TRUE
    )
  )
```

``` r
addr_norm
#> # A tibble: 691,495 × 2
#>    address                 address_norm           
#>    <chr>                   <chr>                  
#>  1 39106 CHESHIRE DR       39106 CHESHIRE DR      
#>  2 PO BOX 13244            PO BOX 13244           
#>  3 2590 KENT RIDGE CT      2590 KENT RIDGE CT     
#>  4 37953 TRALEE TRL        37953 TRALEE TRL       
#>  5 230 W TODD AVE          230 W TODD AVE         
#>  6 30315 PIPERS LN         30315 PIPERS LN        
#>  7 6312 HARLEQUIN LN       6312 HARLEQUIN LN      
#>  8 200 OCEANGATE SUITE 200 200 OCEANGATE SUITE 200
#>  9 1032 HOWARD ST          1032 HOWARD ST         
#> 10 752 KIMBALL ST.         752 KIMBALL ST         
#> # … with 691,485 more rows
```
…
      key_collision_merge() %>% 
      n_gram_merge(numgram = 1)
  ) %>% 
  filter(city_refine != city_swap) %>% 
  inner_join(
    y = zipcodes,
    by = c(
      "city_refine" = "city",
      "state_norm" = "state",
      "zip_norm" = "zip"
    )
  )
```

    #> # A tibble: 185 × 5
    #>    state_norm zip_norm city_swap          city_refine         n
    #>    <chr>      <chr>    <chr>              <chr>           <int>
    #>  1 MI         48322    WEST BLOOMFIELD TO WEST BLOOMFIELD   114
    #>  2 MI         48324    WEST BLOOMFIELD TO WEST BLOOMFIELD    38
    #>  3 MI         48021    EAST POINT         EASTPOINTE         26
    #>  4 MI         48094    WASHINGTON TOWNS   WASHINGTON         26
    #>  5 CA         92625    CORONA DALE MAR    CORONA DEL MAR     25
    #>  6 MI         48323    WEST BLOOMFIELD TO WEST BLOOMFIELD    25
    #>  7 MI         48230    GROOSSE POINTE P   GROSSE POINTE      24
    #>  8 WI         54151    NIARAGA            NIAGARA            20
    #>  9 MI         48094    WASHINGTON TOWNSHI WASHINGTON         18
    #> 10 MI         48836    FLOWERVILLE        FOWLERVILLE        16
    #> # … with 175 more rows
…
#### Progress

Our goal for normalization was to increase the proportion of city values
known to be valid and reduce the total distinct values by correcting
misspellings.

``` r
many_city <- c(valid_city, extra_city)
mic %>% 
  filter(city_refine %out% many_city) %>% 
  count(city_refine, sort = TRUE)
#> # A tibble: 2,057 × 2
#>    city_refine             n
#>    <chr>               <int>
#>  1 FARMINGTON HILLS    17855
#>  2 SHELBY TOWNSHIP     10449
#>  3 GROSSE POINTE WOODS  4354
#>  4 GROSSE POINTE PARK   3855
#>  5 <NA>                 3458
#>  6 GROSSE POINTE FARMS  3428
#>  7 VAN BUREN TOWNSHIP   2327
#>  8 MACOMB TOWNSHIP      1347
#>  9 BROWNSTOWN TOWNSHIP  1207
#> 10 BLOOMFIELD TOWNSHIP   955
#> # … with 2,047 more rows
```
…
